G04 #@! TF.FileFunction,Copper,L1,Top,Signal*
%FSLAX46Y46*%
G04 Gerber Fmt 4.6, Leading zero omitted, Abs format (unit mm)*
G04 Created by KiCad (PCBNEW 4.0.7-e2-6376~58~ubuntu16.04.1) date Mon Jul  2 17:05:53 2018*
%MOMM*%
%LPD*%
G01*
G04 APERTURE LIST*
%ADD10C,0.100000*%
%ADD11O,1.727200X1.727200*%
%ADD12C,1.727200*%
%ADD13C,1.520000*%
%ADD14C,1.524000*%
%ADD15R,3.724000X1.524000*%
%ADD16R,3.724000X1.727200*%
%ADD17R,1.727200X1.727200*%
%ADD18C,1.572720*%
%ADD19R,1.727200X3.724000*%
%ADD20R,1.520000X3.724000*%
%ADD21C,0.600000*%
%ADD22C,0.500000*%
%ADD23C,1.000000*%
%ADD24C,0.250000*%
G04 APERTURE END LIST*
D10*
D11*
X146724000Y-73444000D03*
X149264000Y-73444000D03*
X151804000Y-73444000D03*
X154344000Y-73444000D03*
X156884000Y-73444000D03*
X159424000Y-73444000D03*
X161964000Y-73444000D03*
X164504000Y-73444000D03*
X164504000Y-73444000D03*
X161964000Y-73444000D03*
X159424000Y-73444000D03*
X156884000Y-73444000D03*
X154344000Y-73444000D03*
X151804000Y-73444000D03*
X149264000Y-73444000D03*
X146724000Y-73444000D03*
X146724000Y-73444000D03*
X149264000Y-73444000D03*
X151804000Y-73444000D03*
X154344000Y-73444000D03*
X156884000Y-73444000D03*
X159424000Y-73444000D03*
X161964000Y-73444000D03*
X164504000Y-73444000D03*
X151804000Y-121704000D03*
X146724000Y-121704000D03*
X144184000Y-121704000D03*
X141644000Y-121704000D03*
X139104000Y-121704000D03*
X136564000Y-121704000D03*
X134024000Y-121704000D03*
X131484000Y-121704000D03*
X164504000Y-73444000D03*
X161964000Y-73444000D03*
X159424000Y-73444000D03*
X156884000Y-73444000D03*
X154344000Y-73444000D03*
X151804000Y-73444000D03*
X149264000Y-73444000D03*
X146724000Y-73444000D03*
X127420000Y-73444000D03*
X142660000Y-73444000D03*
X140120000Y-73444000D03*
X137580000Y-73444000D03*
X119800000Y-73444000D03*
X122340000Y-73444000D03*
X124880000Y-73444000D03*
X129960000Y-73444000D03*
X132500000Y-73444000D03*
X135040000Y-73444000D03*
X128944000Y-121704000D03*
X154344000Y-121704000D03*
X156884000Y-121704000D03*
X159424000Y-121704000D03*
X161964000Y-121704000D03*
X164504000Y-121704000D03*
D12*
X164504000Y-78524000D03*
X161964000Y-78524000D03*
X159424000Y-78524000D03*
X156884000Y-78524000D03*
X154344000Y-78524000D03*
X151804000Y-78524000D03*
X149264000Y-78524000D03*
X146724000Y-78524000D03*
X146724000Y-93764000D03*
X149264000Y-93764000D03*
X151804000Y-93764000D03*
X154344000Y-93764000D03*
X156884000Y-93764000D03*
X159424000Y-93764000D03*
X161964000Y-93764000D03*
X164504000Y-93764000D03*
X144184000Y-93764000D03*
X141644000Y-93764000D03*
X139104000Y-93764000D03*
X136564000Y-93764000D03*
X144184000Y-78524000D03*
X141644000Y-78524000D03*
X139104000Y-78524000D03*
X136564000Y-78524000D03*
X136564000Y-91224000D03*
X136564000Y-88684000D03*
X136564000Y-86144000D03*
X155614000Y-91224000D03*
X153074000Y-91224000D03*
X144184000Y-101384000D03*
X144184000Y-103924000D03*
X144184000Y-106464000D03*
X144184000Y-109004000D03*
X144184000Y-111544000D03*
X144184000Y-114084000D03*
X125134000Y-114084000D03*
X122594000Y-114084000D03*
X120054000Y-114084000D03*
X117514000Y-114084000D03*
X114974000Y-114084000D03*
X112434000Y-114084000D03*
D13*
X164504000Y-71158000D03*
X161964000Y-71158000D03*
X159424000Y-71158000D03*
X156884000Y-71158000D03*
X154344000Y-71158000D03*
X151804000Y-71158000D03*
X149264000Y-71158000D03*
X146724000Y-71158000D03*
X142660000Y-71158000D03*
X140120000Y-71158000D03*
X137580000Y-71158000D03*
X135040000Y-71158000D03*
X132500000Y-71158000D03*
X129960000Y-71158000D03*
X127420000Y-71158000D03*
X124880000Y-71158000D03*
X122340000Y-71158000D03*
X119800000Y-71158000D03*
X164504000Y-123990000D03*
X161964000Y-123990000D03*
X159424000Y-123990000D03*
X156884000Y-123990000D03*
X154344000Y-123990000D03*
X151804000Y-123990000D03*
X146724000Y-123990000D03*
X144184000Y-123990000D03*
X141644000Y-123990000D03*
X139104000Y-123990000D03*
X136564000Y-123990000D03*
X134024000Y-123990000D03*
X131484000Y-123990000D03*
X128944000Y-123990000D03*
D14*
X108624000Y-74714000D03*
X108624000Y-82334000D03*
X103544000Y-82334000D03*
X103544000Y-74714000D03*
D12*
X113704000Y-89954000D03*
X123864000Y-89954000D03*
X123864000Y-92367000D03*
X105195000Y-92494000D03*
X123864000Y-95923000D03*
D15*
X116244000Y-95923000D03*
X121324000Y-95923000D03*
X116244000Y-89954000D03*
X121324000Y-89954000D03*
X121324000Y-92367000D03*
X116244000Y-92367000D03*
D12*
X123864000Y-101384000D03*
X113704000Y-92367000D03*
X105195000Y-89954000D03*
X105195000Y-87414000D03*
X113704000Y-95923000D03*
X113704000Y-101384000D03*
D16*
X116244000Y-101384000D03*
X121324000Y-101384000D03*
D12*
X105195000Y-101384000D03*
X105195000Y-98844000D03*
X105195000Y-96304000D03*
X106084000Y-107226000D03*
X103544000Y-107226000D03*
X106084000Y-111036000D03*
X106084000Y-113576000D03*
X106084000Y-116116000D03*
X106084000Y-119926000D03*
D17*
X106084000Y-123736000D03*
X103544000Y-123736000D03*
D18*
X103544000Y-119926000D03*
D12*
X136564000Y-101384000D03*
X136564000Y-111544000D03*
D19*
X136564000Y-103924000D03*
D20*
X136564000Y-109004000D03*
D17*
X109132000Y-123736000D03*
X118784000Y-122974000D03*
X121324000Y-122974000D03*
X123864000Y-122974000D03*
D12*
X108624000Y-107226000D03*
X111164000Y-107226000D03*
D17*
X112624500Y-123736000D03*
D21*
X117475000Y-81153000D03*
X125920500Y-116014500D03*
X125920500Y-117348000D03*
X121285000Y-118427500D03*
X160782000Y-113982500D03*
X148971000Y-116903500D03*
X144589500Y-118427500D03*
X162814000Y-110744000D03*
X153416000Y-80772000D03*
X123571000Y-80772000D03*
X160782000Y-116586000D03*
X150114000Y-116586000D03*
X160274000Y-84010500D03*
X161988500Y-87693500D03*
X134112000Y-117094000D03*
X146304000Y-116078000D03*
X129032000Y-85090000D03*
X155956000Y-83566000D03*
X166878000Y-104394000D03*
X166878000Y-99568000D03*
D22*
X164504000Y-78524000D02*
X164504000Y-76161000D01*
X161964000Y-75794500D02*
X161964000Y-73444000D01*
X162242500Y-76073000D02*
X161964000Y-75794500D01*
X164416000Y-76073000D02*
X162242500Y-76073000D01*
X164504000Y-76161000D02*
X164416000Y-76073000D01*
X164504000Y-73444000D02*
X164504000Y-70964000D01*
X161964000Y-73444000D02*
X161964000Y-70964000D01*
X111164000Y-107226000D02*
X111164000Y-104623500D01*
X102832000Y-96304000D02*
X105195000Y-96304000D01*
X102362000Y-96774000D02*
X102832000Y-96304000D01*
X102362000Y-103378000D02*
X102362000Y-96774000D01*
X103124000Y-104140000D02*
X102362000Y-103378000D01*
X105996000Y-104140000D02*
X103124000Y-104140000D01*
X110680500Y-104140000D02*
X105996000Y-104140000D01*
X111164000Y-104623500D02*
X110680500Y-104140000D01*
D23*
X110363000Y-110299500D02*
X110363000Y-110109000D01*
X110363000Y-117983000D02*
X110363000Y-110299500D01*
X111164000Y-109308000D02*
X111164000Y-107226000D01*
X110363000Y-110109000D02*
X111164000Y-109308000D01*
X112624500Y-123736000D02*
X112624500Y-119888000D01*
X112624500Y-119888000D02*
X110426500Y-119888000D01*
X110426500Y-119888000D02*
X110363000Y-119824500D01*
X110363000Y-119824500D02*
X110363000Y-117983000D01*
X106084000Y-107226000D02*
X108624000Y-107226000D01*
D22*
X123888500Y-89929500D02*
X123888500Y-87566500D01*
X118046500Y-87566500D02*
X123888500Y-87566500D01*
X117475000Y-86995000D02*
X118046500Y-87566500D01*
X117475000Y-81153000D02*
X117475000Y-86995000D01*
X123888500Y-89929500D02*
X123864000Y-89954000D01*
D24*
X125920500Y-117348000D02*
X125920500Y-116014500D01*
X161544000Y-119218000D02*
X161699500Y-119218000D01*
X117514000Y-118276000D02*
X117514000Y-118876000D01*
X117514000Y-114084000D02*
X117514000Y-118276000D01*
X117856000Y-119218000D02*
X161544000Y-119218000D01*
X117514000Y-118876000D02*
X117856000Y-119218000D01*
X161964000Y-119482500D02*
X161964000Y-121704000D01*
X161699500Y-119218000D02*
X161964000Y-119482500D01*
X163830000Y-117856000D02*
X121412000Y-117856000D01*
X120054000Y-116498000D02*
X121412000Y-117856000D01*
X120054000Y-116498000D02*
X120054000Y-114084000D01*
X163830000Y-117856000D02*
X164147500Y-118173500D01*
D22*
X142303500Y-118454500D02*
X121312000Y-118454500D01*
X121312000Y-118454500D02*
X121285000Y-118427500D01*
X160782000Y-113982500D02*
X160147000Y-114617500D01*
X160147000Y-114617500D02*
X150368000Y-114617500D01*
X150368000Y-114617500D02*
X148971000Y-116014500D01*
X148971000Y-116014500D02*
X148971000Y-116903500D01*
X144562500Y-118454500D02*
X142330500Y-118454500D01*
X144589500Y-118427500D02*
X144562500Y-118454500D01*
X143002000Y-118454500D02*
X142303500Y-118454500D01*
X161163000Y-112141000D02*
X161417000Y-112141000D01*
X150858500Y-112222000D02*
X147828000Y-115252500D01*
X147828000Y-115252500D02*
X147828000Y-115887500D01*
X150957000Y-112141000D02*
X150876000Y-112222000D01*
X161163000Y-112141000D02*
X150957000Y-112141000D01*
X150876000Y-112222000D02*
X150858500Y-112222000D01*
X161417000Y-112141000D02*
X162814000Y-110744000D01*
X111696500Y-119888000D02*
X110426500Y-119888000D01*
X110363000Y-119824500D02*
X110363000Y-117983000D01*
X110426500Y-119888000D02*
X110363000Y-119824500D01*
X111672000Y-119888000D02*
X111696500Y-119888000D01*
X111696500Y-119888000D02*
X115498500Y-119888000D01*
X146558000Y-119880000D02*
X115506500Y-119880000D01*
X146558000Y-119880000D02*
X146558000Y-121538000D01*
X115498500Y-119888000D02*
X115506500Y-119880000D01*
X146558000Y-121538000D02*
X146724000Y-121704000D01*
X153074000Y-91224000D02*
X153074000Y-89242000D01*
X154178000Y-88138000D02*
X153074000Y-89242000D01*
X154178000Y-81534000D02*
X154178000Y-88138000D01*
X153416000Y-80772000D02*
X154178000Y-81534000D01*
X123571000Y-80772000D02*
X122340000Y-80772000D01*
X122340000Y-80772000D02*
X122491500Y-80772000D01*
X122491500Y-80772000D02*
X122340000Y-80772000D01*
X122340000Y-79477500D02*
X122340000Y-80772000D01*
X122340000Y-73444000D02*
X122340000Y-79477500D01*
X136526000Y-93726000D02*
X134366000Y-93726000D01*
X137580000Y-75018000D02*
X137580000Y-73444000D01*
X134366000Y-78232000D02*
X137580000Y-75018000D01*
X134366000Y-93726000D02*
X134366000Y-78232000D01*
X136526000Y-93726000D02*
X136564000Y-93764000D01*
X150114000Y-116586000D02*
X160782000Y-116586000D01*
X156884000Y-78524000D02*
X156884000Y-80557000D01*
X160274000Y-83947000D02*
X160274000Y-84010500D01*
X156884000Y-80557000D02*
X160274000Y-83947000D01*
X161964000Y-87718000D02*
X161964000Y-93764000D01*
X161988500Y-87693500D02*
X161964000Y-87718000D01*
D23*
X109132000Y-123736000D02*
X109132000Y-121070000D01*
X107988000Y-119926000D02*
X106084000Y-119926000D01*
X109132000Y-121070000D02*
X107988000Y-119926000D01*
D22*
X144184000Y-106464000D02*
X140551000Y-106464000D01*
X139090500Y-111544000D02*
X136564000Y-111544000D01*
X139573000Y-111061500D02*
X139090500Y-111544000D01*
X139573000Y-107442000D02*
X139573000Y-111061500D01*
X140551000Y-106464000D02*
X139573000Y-107442000D01*
X147828000Y-115570000D02*
X147828000Y-115887500D01*
X147828000Y-115887500D02*
X147828000Y-117094000D01*
X147828000Y-117094000D02*
X134112000Y-117094000D01*
X110363000Y-117983000D02*
X110363000Y-119253000D01*
D24*
X110363000Y-119253000D02*
X110490000Y-119380000D01*
D22*
X132715000Y-99568000D02*
X132715000Y-104013000D01*
X139192000Y-99568000D02*
X132715000Y-99568000D01*
X139954000Y-100330000D02*
X139192000Y-99568000D01*
X139954000Y-103886000D02*
X139954000Y-100330000D01*
X139992000Y-103924000D02*
X139954000Y-103886000D01*
X144184000Y-103924000D02*
X139992000Y-103924000D01*
X132715000Y-104013000D02*
X131826000Y-104902000D01*
X131826000Y-104902000D02*
X116244000Y-104902000D01*
X116244000Y-101384000D02*
X116244000Y-104013000D01*
X116244000Y-104013000D02*
X116244000Y-104902000D01*
X116244000Y-104902000D02*
X116244000Y-109816000D01*
X114974000Y-111086000D02*
X114974000Y-114084000D01*
X116244000Y-109816000D02*
X114974000Y-111086000D01*
X121324000Y-95923000D02*
X121324000Y-98386000D01*
X121324000Y-98386000D02*
X120866000Y-98844000D01*
X120866000Y-98844000D02*
X105195000Y-98844000D01*
D23*
X106084000Y-116116000D02*
X106084000Y-119926000D01*
X106084000Y-107226000D02*
X106084000Y-111036000D01*
D22*
X148082000Y-112522000D02*
X146304000Y-114300000D01*
X146304000Y-114300000D02*
X146304000Y-116078000D01*
X148082000Y-101384000D02*
X148082000Y-112522000D01*
X144184000Y-101384000D02*
X148082000Y-101384000D01*
X148082000Y-101346000D02*
X148082000Y-101092000D01*
X148082000Y-101384000D02*
X148082000Y-101346000D01*
X148082000Y-101092000D02*
X148082000Y-100584000D01*
X161798000Y-95758000D02*
X161964000Y-95592000D01*
X148336000Y-95758000D02*
X161798000Y-95758000D01*
X148082000Y-96012000D02*
X148336000Y-95758000D01*
X148082000Y-100584000D02*
X148082000Y-96012000D01*
X161964000Y-95592000D02*
X161964000Y-93764000D01*
X119800000Y-73444000D02*
X119800000Y-84494000D01*
X119800000Y-84494000D02*
X120396000Y-85090000D01*
X120396000Y-85090000D02*
X129032000Y-85090000D01*
X155956000Y-83566000D02*
X156972000Y-84582000D01*
X156972000Y-84582000D02*
X156972000Y-89866000D01*
X156972000Y-89866000D02*
X155614000Y-91224000D01*
X166878000Y-99568000D02*
X166878000Y-104394000D01*
X141644000Y-121704000D02*
X144184000Y-121704000D01*
D24*
X164504000Y-118530000D02*
X164504000Y-121704000D01*
X163830000Y-117856000D02*
X164147500Y-118173500D01*
X164147500Y-118173500D02*
X164504000Y-118530000D01*
X114974000Y-112102000D02*
X114974000Y-114084000D01*
D22*
X144184000Y-93764000D02*
X144184000Y-97624000D01*
X144184000Y-97624000D02*
X144018000Y-97790000D01*
X144018000Y-97790000D02*
X132842000Y-97790000D01*
X132842000Y-97790000D02*
X130810000Y-95758000D01*
X130810000Y-95758000D02*
X130810000Y-75946000D01*
X130810000Y-75946000D02*
X129960000Y-75096000D01*
X129960000Y-75096000D02*
X129960000Y-73444000D01*
X141644000Y-93764000D02*
X141644000Y-96608000D01*
X141644000Y-96608000D02*
X141478000Y-96774000D01*
X141478000Y-96774000D02*
X133604000Y-96774000D01*
X133604000Y-96774000D02*
X131826000Y-94996000D01*
X131826000Y-94996000D02*
X131826000Y-76454000D01*
X131826000Y-76454000D02*
X132500000Y-75780000D01*
X132500000Y-75780000D02*
X132500000Y-73444000D01*
X139104000Y-93764000D02*
X139104000Y-95338000D01*
X139104000Y-95338000D02*
X138938000Y-95504000D01*
X138938000Y-95504000D02*
X133858000Y-95504000D01*
X133858000Y-95504000D02*
X133350000Y-94996000D01*
X133350000Y-94996000D02*
X133350000Y-77216000D01*
X133350000Y-77216000D02*
X135040000Y-75526000D01*
X135040000Y-75526000D02*
X135040000Y-73444000D01*
X142660000Y-73444000D02*
X142660000Y-74968000D01*
X142660000Y-74968000D02*
X139104000Y-78524000D01*
X159424000Y-73444000D02*
X154344000Y-78524000D01*
X156884000Y-73444000D02*
X151804000Y-78524000D01*
X154344000Y-73444000D02*
X149264000Y-78524000D01*
D24*
X140120000Y-73444000D02*
X140120000Y-74510000D01*
D22*
X140120000Y-74510000D02*
X136564000Y-78066000D01*
D24*
X136564000Y-78066000D02*
X136564000Y-78524000D01*
D22*
X146724000Y-73444000D02*
X141644000Y-78524000D01*
X149264000Y-73444000D02*
X144184000Y-78524000D01*
X151804000Y-73444000D02*
X146724000Y-78524000D01*
X164504000Y-121704000D02*
X164504000Y-124164000D01*
X161964000Y-121704000D02*
X161964000Y-124164000D01*
X159424000Y-121704000D02*
X159424000Y-124164000D01*
X156884000Y-121704000D02*
X156884000Y-124164000D01*
X154344000Y-121704000D02*
X154344000Y-124164000D01*
X151804000Y-121704000D02*
X151804000Y-124164000D01*
X146724000Y-121704000D02*
X146724000Y-124164000D01*
X144184000Y-121704000D02*
X144184000Y-124164000D01*
X141644000Y-121704000D02*
X141644000Y-124164000D01*
X139104000Y-121704000D02*
X139104000Y-124164000D01*
X136564000Y-121704000D02*
X136564000Y-124164000D01*
X134024000Y-121704000D02*
X134024000Y-124164000D01*
X131484000Y-121704000D02*
X131484000Y-124164000D01*
X159424000Y-73444000D02*
X159424000Y-70964000D01*
X156884000Y-73444000D02*
X156884000Y-70964000D01*
X154344000Y-73444000D02*
X154344000Y-71054000D01*
X151804000Y-73444000D02*
X151804000Y-70964000D01*
X149264000Y-73444000D02*
X149264000Y-70964000D01*
X146724000Y-73444000D02*
X146724000Y-70964000D01*
X142660000Y-73444000D02*
X142660000Y-70964000D01*
X140120000Y-73444000D02*
X140120000Y-70964000D01*
X137580000Y-73444000D02*
X137580000Y-70964000D01*
X135040000Y-73444000D02*
X135040000Y-70964000D01*
X132500000Y-73444000D02*
X132500000Y-71054000D01*
X128944000Y-124164000D02*
X128944000Y-121704000D01*
X105195000Y-101384000D02*
X113704000Y-101384000D01*
X113704000Y-89954000D02*
X105195000Y-89954000D01*
X113704000Y-92367000D02*
X105322000Y-92367000D01*
D24*
X105322000Y-92367000D02*
X105195000Y-92494000D01*
D22*
X119800000Y-73444000D02*
X119800000Y-70964000D01*
X122340000Y-73444000D02*
X122340000Y-70964000D01*
X124880000Y-73444000D02*
X124880000Y-70964000D01*
X127420000Y-73444000D02*
X127420000Y-70964000D01*
X129960000Y-73444000D02*
X129960000Y-71158000D01*
M02*
