G04 #@! TF.FileFunction,Soldermask,Bot*
%FSLAX46Y46*%
G04 Gerber Fmt 4.6, Leading zero omitted, Abs format (unit mm)*
G04 Created by KiCad (PCBNEW 4.0.7-e2-6376~58~ubuntu16.04.1) date Mon Jul  2 17:05:53 2018*
%MOMM*%
%LPD*%
G01*
G04 APERTURE LIST*
%ADD10C,0.100000*%
%ADD11O,2.127200X2.127200*%
%ADD12C,3.600000*%
%ADD13C,2.127200*%
%ADD14C,1.920000*%
%ADD15C,1.924000*%
%ADD16R,2.127200X2.127200*%
%ADD17C,1.972720*%
G04 APERTURE END LIST*
D10*
D11*
X146724000Y-73444000D03*
X149264000Y-73444000D03*
X151804000Y-73444000D03*
X154344000Y-73444000D03*
X156884000Y-73444000D03*
X159424000Y-73444000D03*
X161964000Y-73444000D03*
X164504000Y-73444000D03*
X164504000Y-73444000D03*
X161964000Y-73444000D03*
X159424000Y-73444000D03*
X156884000Y-73444000D03*
X154344000Y-73444000D03*
X151804000Y-73444000D03*
X149264000Y-73444000D03*
X146724000Y-73444000D03*
X146724000Y-73444000D03*
X149264000Y-73444000D03*
X151804000Y-73444000D03*
X154344000Y-73444000D03*
X156884000Y-73444000D03*
X159424000Y-73444000D03*
X161964000Y-73444000D03*
X164504000Y-73444000D03*
X151804000Y-121704000D03*
X146724000Y-121704000D03*
X144184000Y-121704000D03*
X141644000Y-121704000D03*
X139104000Y-121704000D03*
X136564000Y-121704000D03*
X134024000Y-121704000D03*
X131484000Y-121704000D03*
X164504000Y-73444000D03*
X161964000Y-73444000D03*
X159424000Y-73444000D03*
X156884000Y-73444000D03*
X154344000Y-73444000D03*
X151804000Y-73444000D03*
X149264000Y-73444000D03*
X146724000Y-73444000D03*
X127420000Y-73444000D03*
X142660000Y-73444000D03*
X140120000Y-73444000D03*
X137580000Y-73444000D03*
D12*
X167425000Y-118021000D03*
X113704000Y-73444000D03*
D11*
X119800000Y-73444000D03*
X122340000Y-73444000D03*
X124880000Y-73444000D03*
X129960000Y-73444000D03*
X132500000Y-73444000D03*
X135040000Y-73444000D03*
X128944000Y-121704000D03*
X154344000Y-121704000D03*
X156884000Y-121704000D03*
X159424000Y-121704000D03*
X161964000Y-121704000D03*
X164504000Y-121704000D03*
D13*
X164504000Y-78524000D03*
X161964000Y-78524000D03*
X159424000Y-78524000D03*
X156884000Y-78524000D03*
X154344000Y-78524000D03*
X151804000Y-78524000D03*
X149264000Y-78524000D03*
X146724000Y-78524000D03*
X146724000Y-93764000D03*
X149264000Y-93764000D03*
X151804000Y-93764000D03*
X154344000Y-93764000D03*
X156884000Y-93764000D03*
X159424000Y-93764000D03*
X161964000Y-93764000D03*
X164504000Y-93764000D03*
X144184000Y-93764000D03*
X141644000Y-93764000D03*
X139104000Y-93764000D03*
X136564000Y-93764000D03*
X144184000Y-78524000D03*
X141644000Y-78524000D03*
X139104000Y-78524000D03*
X136564000Y-78524000D03*
X136564000Y-91224000D03*
X136564000Y-88684000D03*
X136564000Y-86144000D03*
X155614000Y-91224000D03*
X153074000Y-91224000D03*
X144184000Y-101384000D03*
X144184000Y-103924000D03*
X144184000Y-106464000D03*
X144184000Y-109004000D03*
X144184000Y-111544000D03*
X144184000Y-114084000D03*
X125134000Y-114084000D03*
X122594000Y-114084000D03*
X120054000Y-114084000D03*
X117514000Y-114084000D03*
X114974000Y-114084000D03*
X112434000Y-114084000D03*
D14*
X164504000Y-71158000D03*
X161964000Y-71158000D03*
X159424000Y-71158000D03*
X156884000Y-71158000D03*
X154344000Y-71158000D03*
X151804000Y-71158000D03*
X149264000Y-71158000D03*
X146724000Y-71158000D03*
X142660000Y-71158000D03*
X140120000Y-71158000D03*
X137580000Y-71158000D03*
X135040000Y-71158000D03*
X132500000Y-71158000D03*
X129960000Y-71158000D03*
X127420000Y-71158000D03*
X124880000Y-71158000D03*
X122340000Y-71158000D03*
X119800000Y-71158000D03*
X164504000Y-123990000D03*
X161964000Y-123990000D03*
X159424000Y-123990000D03*
X156884000Y-123990000D03*
X154344000Y-123990000D03*
X151804000Y-123990000D03*
X146724000Y-123990000D03*
X144184000Y-123990000D03*
X141644000Y-123990000D03*
X139104000Y-123990000D03*
X136564000Y-123990000D03*
X134024000Y-123990000D03*
X131484000Y-123990000D03*
X128944000Y-123990000D03*
D15*
X108624000Y-74714000D03*
X108624000Y-82334000D03*
X103544000Y-82334000D03*
X103544000Y-74714000D03*
D13*
X113704000Y-89954000D03*
X123864000Y-89954000D03*
X123864000Y-92367000D03*
X105195000Y-92494000D03*
X123864000Y-95923000D03*
X123864000Y-101384000D03*
X113704000Y-92367000D03*
X105195000Y-89954000D03*
X105195000Y-87414000D03*
X113704000Y-95923000D03*
X113704000Y-101384000D03*
X105195000Y-101384000D03*
X105195000Y-98844000D03*
X105195000Y-96304000D03*
X106084000Y-107226000D03*
X103544000Y-107226000D03*
X106084000Y-111036000D03*
X106084000Y-113576000D03*
X106084000Y-116116000D03*
X106084000Y-119926000D03*
D16*
X106084000Y-123736000D03*
X103544000Y-123736000D03*
D17*
X103544000Y-119926000D03*
D13*
X136564000Y-101384000D03*
X136564000Y-111544000D03*
D16*
X109132000Y-123736000D03*
X118784000Y-122974000D03*
X121324000Y-122974000D03*
X123864000Y-122974000D03*
D13*
X108624000Y-107226000D03*
X111164000Y-107226000D03*
D16*
X112624500Y-123736000D03*
M02*
