datetime;value
2018-02-21 15:44:00;206
2018-02-21 15:44:00;206
2018-02-21 15:44:00;205
2018-02-21 15:44:00;206
2018-02-21 15:44:01;206
2018-02-21 15:44:01;206
2018-02-21 15:44:01;205
2018-02-21 15:44:02;206
2018-02-21 15:44:02;205
2018-02-21 15:44:02;205
2018-02-21 15:44:02;204
2018-02-21 15:44:03;205
2018-02-21 15:44:03;205
2018-02-21 15:44:03;205
2018-02-21 15:44:04;205
2018-02-21 15:44:04;206
2018-02-21 15:44:04;206
2018-02-21 15:44:04;206
2018-02-21 15:44:05;206
2018-02-21 15:44:05;206
2018-02-21 15:44:05;207
2018-02-21 15:44:06;206
2018-02-21 15:44:06;207
2018-02-21 15:44:06;206
2018-02-21 15:44:06;206
2018-02-21 15:44:07;206
2018-02-21 15:44:07;206
2018-02-21 15:44:07;206
2018-02-21 15:44:08;206
2018-02-21 15:44:08;207
2018-02-21 15:44:08;206
2018-02-21 15:44:08;206
2018-02-21 15:44:09;206
2018-02-21 15:44:09;206
2018-02-21 15:44:09;207
2018-02-21 15:44:10;206
2018-02-21 15:44:10;206
2018-02-21 15:44:10;206
2018-02-21 15:44:10;206
2018-02-21 15:44:11;206
2018-02-21 15:44:11;207
2018-02-21 15:44:11;206
2018-02-21 15:44:12;206
2018-02-21 15:44:12;206
2018-02-21 15:44:12;206
2018-02-21 15:44:13;206
2018-02-21 15:44:13;206
2018-02-21 15:44:13;206
2018-02-21 15:44:13;206
2018-02-21 15:44:14;206
2018-02-21 15:44:14;206
2018-02-21 15:44:14;206
2018-02-21 15:44:15;206
2018-02-21 15:44:15;206
2018-02-21 15:44:15;206
2018-02-21 15:44:15;206
2018-02-21 15:44:16;206
2018-02-21 15:44:16;206
2018-02-21 15:44:16;206
2018-02-21 15:44:17;207
2018-02-21 15:44:17;206
2018-02-21 15:44:17;205
2018-02-21 15:44:17;206
2018-02-21 15:44:18;206
2018-02-21 15:44:18;206
2018-02-21 15:44:18;207
2018-02-21 15:44:19;206
2018-02-21 15:44:19;207
2018-02-21 15:44:19;206
2018-02-21 15:44:20;207
2018-02-21 15:44:20;205
2018-02-21 15:44:20;206
2018-02-21 15:44:20;206
2018-02-21 15:44:21;206
2018-02-21 15:44:21;206
2018-02-21 15:44:21;206
2018-02-21 15:44:22;207
2018-02-21 15:44:22;207
2018-02-21 15:44:22;206
2018-02-21 15:44:22;207
2018-02-21 15:44:23;206
2018-02-21 15:44:23;206
2018-02-21 15:44:23;206
2018-02-21 15:44:24;206
2018-02-21 15:44:24;206
2018-02-21 15:44:24;206
2018-02-21 15:44:24;206
2018-02-21 15:44:25;205
2018-02-21 15:44:25;206
2018-02-21 15:44:25;206
2018-02-21 15:44:26;206
2018-02-21 15:44:26;206
2018-02-21 15:44:26;207
2018-02-21 15:44:26;206
2018-02-21 15:44:27;207
2018-02-21 15:44:27;206
2018-02-21 15:44:27;206
2018-02-21 15:44:28;206
2018-02-21 15:44:28;207
2018-02-21 15:44:28;206
2018-02-21 15:44:28;206
2018-02-21 15:44:29;207
2018-02-21 15:44:29;206
2018-02-21 15:44:29;207
2018-02-21 15:44:30;206
2018-02-21 15:44:30;206
2018-02-21 15:44:30;205
2018-02-21 15:44:30;206
2018-02-21 15:44:31;205
2018-02-21 15:44:31;206
2018-02-21 15:44:31;206
2018-02-21 15:44:32;206
2018-02-21 15:44:32;206
2018-02-21 15:44:32;206
2018-02-21 15:44:33;206
2018-02-21 15:44:33;206
2018-02-21 15:44:33;206
2018-02-21 15:44:33;206
2018-02-21 15:44:34;206
2018-02-21 15:44:34;206
2018-02-21 15:44:34;206
2018-02-21 15:44:35;206
2018-02-21 15:44:35;206
2018-02-21 15:44:35;205
2018-02-21 15:44:35;206
2018-02-21 15:44:36;206
2018-02-21 15:44:36;205
2018-02-21 15:44:36;206
2018-02-21 15:44:37;206
2018-02-21 15:44:37;206
2018-02-21 15:44:37;206
2018-02-21 15:44:37;205
2018-02-21 15:44:38;206
2018-02-21 15:44:38;205
2018-02-21 15:44:38;207
2018-02-21 15:44:39;206
2018-02-21 15:44:39;206
2018-02-21 15:44:39;206
2018-02-21 15:44:39;206
2018-02-21 15:44:40;206
2018-02-21 15:44:40;206
2018-02-21 15:44:40;206
2018-02-21 15:44:41;206
2018-02-21 15:44:41;205
2018-02-21 15:44:41;206
2018-02-21 15:44:42;206
2018-02-21 15:44:42;206
2018-02-21 15:44:42;207
2018-02-21 15:44:42;206
2018-02-21 15:44:43;206
2018-02-21 15:44:43;206
2018-02-21 15:44:43;206
2018-02-21 15:44:44;206
2018-02-21 15:44:44;207
2018-02-21 15:44:44;206
2018-02-21 15:44:44;207
2018-02-21 15:44:45;206
2018-02-21 15:44:45;206
2018-02-21 15:44:45;206
2018-02-21 15:44:46;206
2018-02-21 15:44:46;206
2018-02-21 15:44:46;206
2018-02-21 15:44:46;206
2018-02-21 15:44:47;206
2018-02-21 15:44:47;206
2018-02-21 15:44:47;207
2018-02-21 15:44:48;206
2018-02-21 15:44:48;207
2018-02-21 15:44:48;206
2018-02-21 15:44:49;206
2018-02-21 15:44:49;206
2018-02-21 15:44:49;207
2018-02-21 15:44:49;207
2018-02-21 15:44:50;206
2018-02-21 15:44:50;206
2018-02-21 15:44:50;207
2018-02-21 15:44:51;206
2018-02-21 15:44:51;206
2018-02-21 15:44:51;207
2018-02-21 15:44:51;206
2018-02-21 15:44:52;206
2018-02-21 15:44:52;206
2018-02-21 15:44:52;207
2018-02-21 15:44:53;206
2018-02-21 15:44:53;206
2018-02-21 15:44:53;206
2018-02-21 15:44:53;204
2018-02-21 15:44:54;205
2018-02-21 15:44:54;205
2018-02-21 15:44:54;205
2018-02-21 15:44:55;205
2018-02-21 15:44:55;205
2018-02-21 15:44:55;205
2018-02-21 15:44:55;206
2018-02-21 15:44:56;206
2018-02-21 15:44:56;206
2018-02-21 15:44:56;207
2018-02-21 15:44:57;206
2018-02-21 15:44:57;207
2018-02-21 15:44:57;205
2018-02-21 15:44:57;206
2018-02-21 15:44:58;207
2018-02-21 15:44:58;206
2018-02-21 15:44:58;207
2018-02-21 15:44:59;207
2018-02-21 15:44:59;206
2018-02-21 15:44:59;206
2018-02-21 15:44:59;207
2018-02-21 15:45:00;206
2018-02-21 15:45:00;207
2018-02-21 15:45:00;206
2018-02-21 15:45:01;206
2018-02-21 15:45:01;206
2018-02-21 15:45:01;205
2018-02-21 15:45:02;206
2018-02-21 15:45:02;207
2018-02-21 15:45:02;206
2018-02-21 15:45:02;206
2018-02-21 15:45:03;205
2018-02-21 15:45:03;205
2018-02-21 15:45:03;205
2018-02-21 15:45:04;205
2018-02-21 15:45:04;206
2018-02-21 15:45:04;206
2018-02-21 15:45:04;205
2018-02-21 15:45:05;205
2018-02-21 15:45:05;206
2018-02-21 15:45:05;205
2018-02-21 15:45:06;206
2018-02-21 15:45:06;206
2018-02-21 15:45:06;206
2018-02-21 15:45:06;206
2018-02-21 15:45:07;205
2018-02-21 15:45:07;206
2018-02-21 15:45:07;206
2018-02-21 15:45:08;205
2018-02-21 15:45:08;205
2018-02-21 15:45:08;206
2018-02-21 15:45:08;205
2018-02-21 15:45:09;206
2018-02-21 15:45:09;206
2018-02-21 15:45:09;205
2018-02-21 15:45:10;207
2018-02-21 15:45:10;207
2018-02-21 15:45:10;207
2018-02-21 15:45:11;207
2018-02-21 15:45:11;207
2018-02-21 15:45:11;207
2018-02-21 15:45:11;206
2018-02-21 15:45:12;206
2018-02-21 15:45:12;206
2018-02-21 15:45:12;206
2018-02-21 15:45:13;207
2018-02-21 15:45:13;206
2018-02-21 15:45:13;206
2018-02-21 15:45:13;206
2018-02-21 15:45:14;205
2018-02-21 15:45:14;206
2018-02-21 15:45:14;205
2018-02-21 15:45:15;206
2018-02-21 15:45:15;206
2018-02-21 15:45:15;206
2018-02-21 15:45:15;205
2018-02-21 15:45:16;205
2018-02-21 15:45:16;206
2018-02-21 15:45:16;206
2018-02-21 15:45:17;206
2018-02-21 15:45:17;206
2018-02-21 15:45:17;206
2018-02-21 15:45:17;205
2018-02-21 15:45:18;206
2018-02-21 15:45:18;206
2018-02-21 15:45:18;206
2018-02-21 15:45:19;206
2018-02-21 15:45:19;206
2018-02-21 15:45:19;205
2018-02-21 15:45:20;206
2018-02-21 15:45:20;205
2018-02-21 15:45:20;205
2018-02-21 15:45:20;206
2018-02-21 15:45:21;206
2018-02-21 15:45:21;206
2018-02-21 15:45:21;206
2018-02-21 15:45:22;205
2018-02-21 15:45:22;206
2018-02-21 15:45:22;206
2018-02-21 15:45:22;206
2018-02-21 15:45:23;205
2018-02-21 15:45:23;205
2018-02-21 15:45:23;206
2018-02-21 15:45:24;206
2018-02-21 15:45:24;205
2018-02-21 15:45:24;206
2018-02-21 15:45:24;205
2018-02-21 15:45:25;207
2018-02-21 15:45:25;207
2018-02-21 15:45:25;206
2018-02-21 15:45:26;207
2018-02-21 15:45:26;207
2018-02-21 15:45:26;207
2018-02-21 15:45:26;207
2018-02-21 15:45:27;207
2018-02-21 15:45:27;206
2018-02-21 15:45:27;207
2018-02-21 15:45:28;205
2018-02-21 15:45:28;206
2018-02-21 15:45:28;206
2018-02-21 15:45:28;206
2018-02-21 15:45:29;206
2018-02-21 15:45:29;206
2018-02-21 15:45:29;205
2018-02-21 15:45:30;205
2018-02-21 15:45:30;206
2018-02-21 15:45:30;206
2018-02-21 15:45:30;206
2018-02-21 15:45:31;206
2018-02-21 15:45:31;206
2018-02-21 15:45:31;206
2018-02-21 15:45:32;205
2018-02-21 15:45:32;206
2018-02-21 15:45:32;206
2018-02-21 15:45:33;206
2018-02-21 15:45:33;206
2018-02-21 15:45:33;205
2018-02-21 15:45:33;205
2018-02-21 15:45:34;206
2018-02-21 15:45:34;207
2018-02-21 15:45:34;206
2018-02-21 15:45:35;206
2018-02-21 15:45:35;206
2018-02-21 15:45:35;206
2018-02-21 15:45:35;206
2018-02-21 15:45:36;207
2018-02-21 15:45:36;206
2018-02-21 15:45:36;205
2018-02-21 15:45:37;206
2018-02-21 15:45:37;206
2018-02-21 15:45:37;207
2018-02-21 15:45:38;208
2018-02-21 15:45:38;207
2018-02-21 15:45:38;208
2018-02-21 15:45:38;208
2018-02-21 15:45:39;207
2018-02-21 15:45:39;207
2018-02-21 15:45:39;206
2018-02-21 15:45:40;207
2018-02-21 15:45:40;207
2018-02-21 15:45:40;207
2018-02-21 15:45:40;207
2018-02-21 15:45:41;206
2018-02-21 15:45:41;206
2018-02-21 15:45:41;206
2018-02-21 15:45:42;206
2018-02-21 15:45:42;206
2018-02-21 15:45:42;206
2018-02-21 15:45:42;206
2018-02-21 15:45:43;205
2018-02-21 15:45:43;206
2018-02-21 15:45:43;206
2018-02-21 15:45:44;208
2018-02-21 15:45:44;207
2018-02-21 15:45:44;207
2018-02-21 15:45:44;207
2018-02-21 15:45:45;207
2018-02-21 15:45:45;206
2018-02-21 15:45:45;207
2018-02-21 15:45:46;207
2018-02-21 15:45:46;207
2018-02-21 15:45:46;207
2018-02-21 15:45:47;207
2018-02-21 15:45:47;208
2018-02-21 15:45:47;208
2018-02-21 15:45:47;207
2018-02-21 15:45:48;207
2018-02-21 15:45:48;207
2018-02-21 15:45:48;207
2018-02-21 15:45:49;207
2018-02-21 15:45:49;207
2018-02-21 15:45:49;207
2018-02-21 15:45:49;207
2018-02-21 15:45:50;206
2018-02-21 15:45:50;206
2018-02-21 15:45:50;206
2018-02-21 15:45:51;206
2018-02-21 15:45:51;206
2018-02-21 15:45:51;206
2018-02-21 15:45:51;206
2018-02-21 15:45:52;206
2018-02-21 15:45:52;206
2018-02-21 15:45:52;206
2018-02-21 15:45:53;206
2018-02-21 15:45:53;208
2018-02-21 15:45:53;208
2018-02-21 15:45:53;207
2018-02-21 15:45:54;207
2018-02-21 15:45:54;207
2018-02-21 15:45:54;207
2018-02-21 15:45:55;207
2018-02-21 15:45:55;207
2018-02-21 15:45:55;207
2018-02-21 15:45:55;206
2018-02-21 15:45:56;207
2018-02-21 15:45:56;207
2018-02-21 15:45:56;206
2018-02-21 15:45:57;206
2018-02-21 15:45:57;206
2018-02-21 15:45:57;206
2018-02-21 15:45:57;206
2018-02-21 15:45:58;206
2018-02-21 15:45:58;206
2018-02-21 15:45:58;206
2018-02-21 15:45:59;206
2018-02-21 15:45:59;206
2018-02-21 15:45:59;205
2018-02-21 15:46:00;206
2018-02-21 15:46:00;206
2018-02-21 15:46:00;205
2018-02-21 15:46:00;206
2018-02-21 15:46:01;206
2018-02-21 15:46:01;206
2018-02-21 15:46:01;206
2018-02-21 15:46:02;207
2018-02-21 15:46:02;206
2018-02-21 15:46:02;206
2018-02-21 15:46:02;206
2018-02-21 15:46:03;206
2018-02-21 15:46:03;206
2018-02-21 15:46:03;206
2018-02-21 15:46:04;206
2018-02-21 15:46:04;207
2018-02-21 15:46:04;207
2018-02-21 15:46:04;206
2018-02-21 15:46:05;207
2018-02-21 15:46:05;207
2018-02-21 15:46:05;207
2018-02-21 15:46:06;207
2018-02-21 15:46:06;208
2018-02-21 15:46:06;207
2018-02-21 15:46:07;207
2018-02-21 15:46:07;207
2018-02-21 15:46:07;207
2018-02-21 15:46:07;207
2018-02-21 15:46:08;207
2018-02-21 15:46:08;208
2018-02-21 15:46:08;207
2018-02-21 15:46:09;208
2018-02-21 15:46:09;208
2018-02-21 15:46:09;208
2018-02-21 15:46:09;207
2018-02-21 15:46:10;206
2018-02-21 15:46:10;207
2018-02-21 15:46:10;207
2018-02-21 15:46:11;207
2018-02-21 15:46:11;208
2018-02-21 15:46:11;207
2018-02-21 15:46:11;207
2018-02-21 15:46:12;208
2018-02-21 15:46:12;207
2018-02-21 15:46:12;207
2018-02-21 15:46:13;206
2018-02-21 15:46:13;207
2018-02-21 15:46:13;208
2018-02-21 15:46:13;207
2018-02-21 15:46:14;207
2018-02-21 15:46:14;207
2018-02-21 15:46:14;207
2018-02-21 15:46:15;208
2018-02-21 15:46:15;207
2018-02-21 15:46:15;207
2018-02-21 15:46:16;207
2018-02-21 15:46:16;207
2018-02-21 15:46:16;208
2018-02-21 15:46:16;208
2018-02-21 15:46:17;207
2018-02-21 15:46:17;208
2018-02-21 15:46:17;207
2018-02-21 15:46:18;206
2018-02-21 15:46:18;206
2018-02-21 15:46:18;206
2018-02-21 15:46:18;206
2018-02-21 15:46:19;207
2018-02-21 15:46:19;207
2018-02-21 15:46:19;206
2018-02-21 15:46:20;206
2018-02-21 15:46:20;206
2018-02-21 15:46:20;206
2018-02-21 15:46:20;207
2018-02-21 15:46:21;208
2018-02-21 15:46:21;207
2018-02-21 15:46:21;208
2018-02-21 15:46:22;207
2018-02-21 15:46:22;208
2018-02-21 15:46:22;207
2018-02-21 15:46:22;208
2018-02-21 15:46:23;207
2018-02-21 15:46:23;207
2018-02-21 15:46:23;207
2018-02-21 15:46:24;208
2018-02-21 15:46:24;207
2018-02-21 15:46:24;208
2018-02-21 15:46:24;208
2018-02-21 15:46:25;207
2018-02-21 15:46:25;207
2018-02-21 15:46:25;209
2018-02-21 15:46:26;207
2018-02-21 15:46:26;208
2018-02-21 15:46:26;207
2018-02-21 15:46:26;207
2018-02-21 15:46:27;207
2018-02-21 15:46:27;207
2018-02-21 15:46:27;207
2018-02-21 15:46:28;206
2018-02-21 15:46:28;207
2018-02-21 15:46:28;207
2018-02-21 15:46:29;207
2018-02-21 15:46:29;207
2018-02-21 15:46:29;206
2018-02-21 15:46:29;206
2018-02-21 15:46:30;206
2018-02-21 15:46:30;206
2018-02-21 15:46:30;207
2018-02-21 15:46:31;207
2018-02-21 15:46:31;207
2018-02-21 15:46:31;206
2018-02-21 15:46:31;206
2018-02-21 15:46:32;207
2018-02-21 15:46:32;206
2018-02-21 15:46:32;207
2018-02-21 15:46:33;206
2018-02-21 15:46:33;206
2018-02-21 15:46:33;205
2018-02-21 15:46:34;205
2018-02-21 15:46:34;205
2018-02-21 15:46:34;205
2018-02-21 15:46:34;206
2018-02-21 15:46:35;206
2018-02-21 15:46:35;205
2018-02-21 15:46:35;205
2018-02-21 15:46:36;204
2018-02-21 15:46:36;206
2018-02-21 15:46:36;205
2018-02-21 15:46:36;205
2018-02-21 15:46:37;206
2018-02-21 15:46:37;205
2018-02-21 15:46:37;205
2018-02-21 15:46:38;205
2018-02-21 15:46:38;205
2018-02-21 15:46:38;205
2018-02-21 15:46:38;205
2018-02-21 15:46:39;205
2018-02-21 15:46:39;205
2018-02-21 15:46:39;205
2018-02-21 15:46:40;206
2018-02-21 15:46:40;206
2018-02-21 15:46:40;206
2018-02-21 15:46:40;206
2018-02-21 15:46:41;206
2018-02-21 15:46:41;206
2018-02-21 15:46:41;205
2018-02-21 15:46:42;205
2018-02-21 15:46:42;206
2018-02-21 15:46:42;206
2018-02-21 15:46:42;205
2018-02-21 15:46:43;206
2018-02-21 15:46:43;205
2018-02-21 15:46:43;205
2018-02-21 15:46:44;206
2018-02-21 15:46:44;205
2018-02-21 15:46:44;205
2018-02-21 15:46:44;206
2018-02-21 15:46:45;206
2018-02-21 15:46:45;205
2018-02-21 15:46:45;205
2018-02-21 15:46:46;205
2018-02-21 15:46:46;206
2018-02-21 15:46:46;206
2018-02-21 15:46:47;205
2018-02-21 15:46:47;205
2018-02-21 15:46:47;206
2018-02-21 15:46:47;205
2018-02-21 15:46:48;205
2018-02-21 15:46:48;205
2018-02-21 15:46:48;206
2018-02-21 15:46:49;205
2018-02-21 15:46:49;205
2018-02-21 15:46:49;204
2018-02-21 15:46:49;205
2018-02-21 15:46:50;204
2018-02-21 15:46:50;204
2018-02-21 15:46:50;204
2018-02-21 15:46:51;204
2018-02-21 15:46:51;204
2018-02-21 15:46:51;205
2018-02-21 15:46:51;205
2018-02-21 15:46:52;204
2018-02-21 15:46:52;205
2018-02-21 15:46:52;205
2018-02-21 15:46:53;205
2018-02-21 15:46:53;204
2018-02-21 15:46:53;204
2018-02-21 15:46:53;204
2018-02-21 15:46:54;205
2018-02-21 15:46:54;204
2018-02-21 15:46:54;204
2018-02-21 15:46:55;205
2018-02-21 15:46:55;204
2018-02-21 15:46:55;204
2018-02-21 15:46:55;205
2018-02-21 15:46:56;204
2018-02-21 15:46:56;204
2018-02-21 15:46:56;205
2018-02-21 15:46:57;205
2018-02-21 15:46:57;205
2018-02-21 15:46:57;205
2018-02-21 15:46:58;204
2018-02-21 15:46:58;204
2018-02-21 15:46:58;204
2018-02-21 15:46:58;204
2018-02-21 15:46:59;203
2018-02-21 15:46:59;204
2018-02-21 15:46:59;205
2018-02-21 15:47:00;205
2018-02-21 15:47:00;205
2018-02-21 15:47:00;205
2018-02-21 15:47:00;204
2018-02-21 15:47:01;204
2018-02-21 15:47:01;205
2018-02-21 15:47:01;204
2018-02-21 15:47:02;204
2018-02-21 15:47:02;204
2018-02-21 15:47:02;204
2018-02-21 15:47:03;204
2018-02-21 15:47:03;204
2018-02-21 15:47:03;205
2018-02-21 15:47:03;205
2018-02-21 15:47:04;204
2018-02-21 15:47:04;205
2018-02-21 15:47:04;205
2018-02-21 15:47:05;205
2018-02-21 15:47:05;204
2018-02-21 15:47:05;205
2018-02-21 15:47:05;204
2018-02-21 15:47:06;204
2018-02-21 15:47:06;204
2018-02-21 15:47:06;205
2018-02-21 15:47:07;204
2018-02-21 15:47:07;205
2018-02-21 15:47:07;204
2018-02-21 15:47:07;204
2018-02-21 15:47:08;204
2018-02-21 15:47:08;205
2018-02-21 15:47:08;205
2018-02-21 15:47:09;205
2018-02-21 15:47:09;205
2018-02-21 15:47:09;205
2018-02-21 15:47:09;206
2018-02-21 15:47:10;206
2018-02-21 15:47:10;206
2018-02-21 15:47:10;206
2018-02-21 15:47:11;205
2018-02-21 15:47:11;205
2018-02-21 15:47:11;206
2018-02-21 15:47:11;205
2018-02-21 15:47:12;205
2018-02-21 15:47:12;206
2018-02-21 15:47:12;206
2018-02-21 15:47:13;206
2018-02-21 15:47:13;206
2018-02-21 15:47:13;206
2018-02-21 15:47:13;205
2018-02-21 15:47:14;206
2018-02-21 15:47:14;206
2018-02-21 15:47:14;205
2018-02-21 15:47:15;206
2018-02-21 15:47:15;205
2018-02-21 15:47:15;205
2018-02-21 15:47:15;204
2018-02-21 15:47:16;206
2018-02-21 15:47:16;206
2018-02-21 15:47:16;206
2018-02-21 15:47:17;205
2018-02-21 15:47:17;206
2018-02-21 15:47:17;205
2018-02-21 15:47:18;206
2018-02-21 15:47:18;207
2018-02-21 15:47:18;207
2018-02-21 15:47:18;207
2018-02-21 15:47:19;207
2018-02-21 15:47:19;207
2018-02-21 15:47:19;206
2018-02-21 15:47:20;207
2018-02-21 15:47:20;206
2018-02-21 15:47:20;207
2018-02-21 15:47:20;206
2018-02-21 15:47:21;207
2018-02-21 15:47:21;206
2018-02-21 15:47:21;207
2018-02-21 15:47:22;207
2018-02-21 15:47:22;206
2018-02-21 15:47:22;206
2018-02-21 15:47:22;205
2018-02-21 15:47:23;207
2018-02-21 15:47:23;206
2018-02-21 15:47:23;207
2018-02-21 15:47:24;206
2018-02-21 15:47:24;206
2018-02-21 15:47:24;206
2018-02-21 15:47:24;206
2018-02-21 15:47:25;206
2018-02-21 15:47:25;207
2018-02-21 15:47:25;206
2018-02-21 15:47:26;207
2018-02-21 15:47:26;206
2018-02-21 15:47:26;207
2018-02-21 15:47:27;205
2018-02-21 15:47:27;206
2018-02-21 15:47:27;207
2018-02-21 15:47:27;207
2018-02-21 15:47:28;206
2018-02-21 15:47:28;207
2018-02-21 15:47:28;206
2018-02-21 15:47:29;206
2018-02-21 15:47:29;206
2018-02-21 15:47:29;207
2018-02-21 15:47:29;207
2018-02-21 15:47:30;205
2018-02-21 15:47:30;207
2018-02-21 15:47:30;207
2018-02-21 15:47:31;207
2018-02-21 15:47:31;206
2018-02-21 15:47:31;207
2018-02-21 15:47:31;206
2018-02-21 15:47:32;207
2018-02-21 15:47:32;206
2018-02-21 15:47:32;207
2018-02-21 15:47:33;206
2018-02-21 15:47:33;206
2018-02-21 15:47:33;206
2018-02-21 15:47:34;205
2018-02-21 15:47:34;205
2018-02-21 15:47:34;206
2018-02-21 15:47:34;206
2018-02-21 15:47:35;206
2018-02-21 15:47:35;206
2018-02-21 15:47:35;205
2018-02-21 15:47:36;205
2018-02-21 15:47:36;205
2018-02-21 15:47:36;206
2018-02-21 15:47:36;205
2018-02-21 15:47:37;205
2018-02-21 15:47:37;206
2018-02-21 15:47:37;205
2018-02-21 15:47:38;205
2018-02-21 15:47:38;205
2018-02-21 15:47:38;205
2018-02-21 15:47:38;206
2018-02-21 15:47:39;205
2018-02-21 15:47:39;206
2018-02-21 15:47:39;206
2018-02-21 15:47:40;205
2018-02-21 15:47:40;206
2018-02-21 15:47:40;206
2018-02-21 15:47:40;205
2018-02-21 15:47:41;204
2018-02-21 15:47:41;205
2018-02-21 15:47:41;206
2018-02-21 15:47:42;206
2018-02-21 15:47:42;206
2018-02-21 15:47:42;205
2018-02-21 15:47:42;207
2018-02-21 15:47:43;205
2018-02-21 15:47:43;205
2018-02-21 15:47:43;205
2018-02-21 15:47:44;206
2018-02-21 15:47:44;206
2018-02-21 15:47:44;206
2018-02-21 15:47:45;206
2018-02-21 15:47:45;204
2018-02-21 15:47:45;206
2018-02-21 15:47:45;206
2018-02-21 15:47:46;205
2018-02-21 15:47:46;205
2018-02-21 15:47:46;205
2018-02-21 15:47:47;206
2018-02-21 15:47:47;206
2018-02-21 15:47:47;205
2018-02-21 15:47:47;205
2018-02-21 15:47:48;205
2018-02-21 15:47:48;206
2018-02-21 15:47:48;206
2018-02-21 15:47:49;206
2018-02-21 15:47:49;206
2018-02-21 15:47:49;206
2018-02-21 15:47:49;206
2018-02-21 15:47:50;206
2018-02-21 15:47:50;206
2018-02-21 15:47:50;206
2018-02-21 15:47:51;205
2018-02-21 15:47:51;206
2018-02-21 15:47:51;206
2018-02-21 15:47:51;206
2018-02-21 15:47:52;206
2018-02-21 15:47:52;205
2018-02-21 15:47:52;206
2018-02-21 15:47:53;206
2018-02-21 15:47:53;206
2018-02-21 15:47:53;206
2018-02-21 15:47:54;205
2018-02-21 15:47:54;206
2018-02-21 15:47:54;206
2018-02-21 15:47:54;206
2018-02-21 15:47:55;206
2018-02-21 15:47:55;206
2018-02-21 15:47:55;206
2018-02-21 15:47:56;206
2018-02-21 15:47:56;205
2018-02-21 15:47:56;206
2018-02-21 15:47:57;207
2018-02-21 15:47:57;205
2018-02-21 15:47:57;205
2018-02-21 15:47:57;206
2018-02-21 15:47:58;206
2018-02-21 15:47:58;206
2018-02-21 15:47:58;205
2018-02-21 15:47:59;206
2018-02-21 15:47:59;205
2018-02-21 15:47:59;205
2018-02-21 15:47:59;206
2018-02-21 15:48:00;206
2018-02-21 15:48:00;205
2018-02-21 15:48:00;206
2018-02-21 15:48:01;206
2018-02-21 15:48:01;207
2018-02-21 15:48:01;206
2018-02-21 15:48:01;206
2018-02-21 15:48:02;206
2018-02-21 15:48:02;206
2018-02-21 15:48:02;206
2018-02-21 15:48:03;206
2018-02-21 15:48:03;206
2018-02-21 15:48:03;206
2018-02-21 15:48:03;205
2018-02-21 15:48:04;206
2018-02-21 15:48:04;205
2018-02-21 15:48:04;206
2018-02-21 15:48:05;206
2018-02-21 15:48:05;205
2018-02-21 15:48:05;206
2018-02-21 15:48:05;206
2018-02-21 15:48:06;206
2018-02-21 15:48:06;206
2018-02-21 15:48:06;206
2018-02-21 15:48:07;206
2018-02-21 15:48:07;206
2018-02-21 15:48:07;205
2018-02-21 15:48:07;206
2018-02-21 15:48:08;206
2018-02-21 15:48:08;207
2018-02-21 15:48:08;205
2018-02-21 15:48:09;206
2018-02-21 15:48:09;205
2018-02-21 15:48:09;206
2018-02-21 15:48:10;205
2018-02-21 15:48:10;206
2018-02-21 15:48:10;205
2018-02-21 15:48:10;206
2018-02-21 15:48:11;205
2018-02-21 15:48:11;205
2018-02-21 15:48:11;205
2018-02-21 15:48:12;205
2018-02-21 15:48:12;205
2018-02-21 15:48:12;205
2018-02-21 15:48:12;205
2018-02-21 15:48:13;205
2018-02-21 15:48:13;205
2018-02-21 15:48:13;205
2018-02-21 15:48:14;205
2018-02-21 15:48:14;205
2018-02-21 15:48:14;205
2018-02-21 15:48:14;205
2018-02-21 15:48:15;205
2018-02-21 15:48:15;205
2018-02-21 15:48:15;205
2018-02-21 15:48:16;205
2018-02-21 15:48:16;204
2018-02-21 15:48:16;205
2018-02-21 15:48:16;205
2018-02-21 15:48:17;205
2018-02-21 15:48:17;205
2018-02-21 15:48:17;205
2018-02-21 15:48:18;205
2018-02-21 15:48:18;206
2018-02-21 15:48:18;205
2018-02-21 15:48:18;205
2018-02-21 15:48:19;205
2018-02-21 15:48:19;205
2018-02-21 15:48:19;205
2018-02-21 15:48:20;205
2018-02-21 15:48:20;204
2018-02-21 15:48:20;204
2018-02-21 15:48:20;205
2018-02-21 15:48:21;205
2018-02-21 15:48:21;204
2018-02-21 15:48:21;205
2018-02-21 15:48:22;204
2018-02-21 15:48:22;205
2018-02-21 15:48:22;204
2018-02-21 15:48:22;205
2018-02-21 15:48:23;205
2018-02-21 15:48:23;204
2018-02-21 15:48:23;205
2018-02-21 15:48:24;205
2018-02-21 15:48:24;205
2018-02-21 15:48:24;205
2018-02-21 15:48:24;205
2018-02-21 15:48:25;205
2018-02-21 15:48:25;205
2018-02-21 15:48:25;205
2018-02-21 15:48:26;204
2018-02-21 15:48:26;204
2018-02-21 15:48:26;204
2018-02-21 15:48:27;205
2018-02-21 15:48:27;205
2018-02-21 15:48:27;206
2018-02-21 15:48:27;205
2018-02-21 15:48:28;205
2018-02-21 15:48:28;205
2018-02-21 15:48:28;205
2018-02-21 15:48:29;205
2018-02-21 15:48:29;204
2018-02-21 15:48:29;204
2018-02-21 15:48:29;205
2018-02-21 15:48:30;204
2018-02-21 15:48:30;205
2018-02-21 15:48:30;206
2018-02-21 15:48:31;205
2018-02-21 15:48:31;204
2018-02-21 15:48:31;205
2018-02-21 15:48:31;204
2018-02-21 15:48:32;205
2018-02-21 15:48:32;204
2018-02-21 15:48:32;205
2018-02-21 15:48:33;205
2018-02-21 15:48:33;206
2018-02-21 15:48:33;205
2018-02-21 15:48:33;205
2018-02-21 15:48:34;204
2018-02-21 15:48:34;205
2018-02-21 15:48:34;205
2018-02-21 15:48:35;205
2018-02-21 15:48:35;205
2018-02-21 15:48:35;205
2018-02-21 15:48:35;205
2018-02-21 15:48:36;205
2018-02-21 15:48:36;204
2018-02-21 15:48:36;205
2018-02-21 15:48:37;205
2018-02-21 15:48:37;205
2018-02-21 15:48:37;204
2018-02-21 15:48:37;204
2018-02-21 15:48:38;205
2018-02-21 15:48:38;205
2018-02-21 15:48:38;205
2018-02-21 15:48:39;204
2018-02-21 15:48:39;204
2018-02-21 15:48:39;205
2018-02-21 15:48:39;206
2018-02-21 15:48:40;204
2018-02-21 15:48:40;204
2018-02-21 15:48:40;205
2018-02-21 15:48:41;205
2018-02-21 15:48:41;205
2018-02-21 15:48:41;205
2018-02-21 15:48:42;205
2018-02-21 15:48:42;205
2018-02-21 15:48:42;205
2018-02-21 15:48:42;205
2018-02-21 15:48:43;205
2018-02-21 15:48:43;206
2018-02-21 15:48:43;206
2018-02-21 15:48:44;206
2018-02-21 15:48:44;206
2018-02-21 15:48:44;206
2018-02-21 15:48:44;206
2018-02-21 15:48:45;206
2018-02-21 15:48:45;206
2018-02-21 15:48:45;206
2018-02-21 15:48:46;206
2018-02-21 15:48:46;206
2018-02-21 15:48:46;206
2018-02-21 15:48:46;205
2018-02-21 15:48:47;206
2018-02-21 15:48:47;206
2018-02-21 15:48:47;205
2018-02-21 15:48:48;206
2018-02-21 15:48:48;205
2018-02-21 15:48:48;206
2018-02-21 15:48:48;206
2018-02-21 15:48:49;205
2018-02-21 15:48:49;205
2018-02-21 15:48:49;206
2018-02-21 15:48:50;206
2018-02-21 15:48:50;205
2018-02-21 15:48:50;204
2018-02-21 15:48:50;205
2018-02-21 15:48:51;205
2018-02-21 15:48:51;206
2018-02-21 15:48:51;205
2018-02-21 15:48:52;206
2018-02-21 15:48:52;206
2018-02-21 15:48:52;205
2018-02-21 15:48:52;207
2018-02-21 15:48:53;205
2018-02-21 15:48:53;205
2018-02-21 15:48:53;206
2018-02-21 15:48:54;206
2018-02-21 15:48:54;206
2018-02-21 15:48:54;205
2018-02-21 15:48:54;206
2018-02-21 15:48:55;206
2018-02-21 15:48:55;206
2018-02-21 15:48:55;206
2018-02-21 15:48:56;206
2018-02-21 15:48:56;206
2018-02-21 15:48:56;206
2018-02-21 15:48:56;206
2018-02-21 15:48:57;206
2018-02-21 15:48:57;206
2018-02-21 15:48:57;206
2018-02-21 15:48:58;205
2018-02-21 15:48:58;206
2018-02-21 15:48:58;206
2018-02-21 15:48:58;206
2018-02-21 15:48:59;207
2018-02-21 15:48:59;206
2018-02-21 15:48:59;207
2018-02-21 15:49:00;207
2018-02-21 15:49:00;206
2018-02-21 15:49:00;207
2018-02-21 15:49:01;208
2018-02-21 15:49:01;206
2018-02-21 15:49:01;206
2018-02-21 15:49:01;207
2018-02-21 15:49:02;208
2018-02-21 15:49:02;207
2018-02-21 15:49:02;207
2018-02-21 15:49:03;208
2018-02-21 15:49:03;207
2018-02-21 15:49:03;206
2018-02-21 15:49:03;207
2018-02-21 15:49:04;207
2018-02-21 15:49:04;206
2018-02-21 15:49:04;206
2018-02-21 15:49:05;207
2018-02-21 15:49:05;207
2018-02-21 15:49:05;208
2018-02-21 15:49:05;207
2018-02-21 15:49:06;207
2018-02-21 15:49:06;206
2018-02-21 15:49:06;207
2018-02-21 15:49:07;207
2018-02-21 15:49:07;207
2018-02-21 15:49:07;207
2018-02-21 15:49:07;207
2018-02-21 15:49:08;207
2018-02-21 15:49:08;206
2018-02-21 15:49:08;205
2018-02-21 15:49:09;206
2018-02-21 15:49:09;206
2018-02-21 15:49:09;206
2018-02-21 15:49:09;205
2018-02-21 15:49:10;206
2018-02-21 15:49:10;206
2018-02-21 15:49:10;207
2018-02-21 15:49:11;205
2018-02-21 15:49:11;206
2018-02-21 15:49:11;205
2018-02-21 15:49:12;206
2018-02-21 15:49:12;206
2018-02-21 15:49:12;206
2018-02-21 15:49:12;206
2018-02-21 15:49:13;206
2018-02-21 15:49:13;206
2018-02-21 15:49:13;206
2018-02-21 15:49:14;206
2018-02-21 15:49:14;206
2018-02-21 15:49:14;206
2018-02-21 15:49:14;206
2018-02-21 15:49:15;206
2018-02-21 15:49:15;206
2018-02-21 15:49:15;205
2018-02-21 15:49:16;206
2018-02-21 15:49:16;206
2018-02-21 15:49:16;206
2018-02-21 15:49:16;206
2018-02-21 15:49:17;207
2018-02-21 15:49:17;206
2018-02-21 15:49:17;206
2018-02-21 15:49:18;205
2018-02-21 15:49:18;206
2018-02-21 15:49:18;205
2018-02-21 15:49:18;206
2018-02-21 15:49:19;206
2018-02-21 15:49:19;206
2018-02-21 15:49:19;206
2018-02-21 15:49:20;206
2018-02-21 15:49:20;206
2018-02-21 15:49:20;206
2018-02-21 15:49:20;205
2018-02-21 15:49:21;206
2018-02-21 15:49:21;205
2018-02-21 15:49:21;205
2018-02-21 15:49:22;206
2018-02-21 15:49:22;206
2018-02-21 15:49:22;206
2018-02-21 15:49:22;205
2018-02-21 15:49:23;206
2018-02-21 15:49:23;206
2018-02-21 15:49:23;206
2018-02-21 15:49:24;205
2018-02-21 15:49:24;206
2018-02-21 15:49:24;206
2018-02-21 15:49:25;206
2018-02-21 15:49:25;206
2018-02-21 15:49:25;205
2018-02-21 15:49:25;206
2018-02-21 15:49:26;206
2018-02-21 15:49:26;206
2018-02-21 15:49:26;206
2018-02-21 15:49:27;206
2018-02-21 15:49:27;205
2018-02-21 15:49:27;206
2018-02-21 15:49:27;206
2018-02-21 15:49:28;205
2018-02-21 15:49:28;206
2018-02-21 15:49:28;206
2018-02-21 15:49:29;205
2018-02-21 15:49:29;206
2018-02-21 15:49:29;205
2018-02-21 15:49:29;206
2018-02-21 15:49:30;207
2018-02-21 15:49:30;206
2018-02-21 15:49:30;206
2018-02-21 15:49:31;206
2018-02-21 15:49:31;207
2018-02-21 15:49:31;206
2018-02-21 15:49:31;206
2018-02-21 15:49:32;206
2018-02-21 15:49:32;205
2018-02-21 15:49:32;206
2018-02-21 15:49:33;206
2018-02-21 15:49:33;206
2018-02-21 15:49:33;206
2018-02-21 15:49:33;205
2018-02-21 15:49:34;206
2018-02-21 15:49:34;205
2018-02-21 15:49:34;206
2018-02-21 15:49:35;206
2018-02-21 15:49:35;206
2018-02-21 15:49:35;205
2018-02-21 15:49:35;206
2018-02-21 15:49:36;206
2018-02-21 15:49:36;207
2018-02-21 15:49:36;206
2018-02-21 15:49:37;206
2018-02-21 15:49:37;207
2018-02-21 15:49:37;206
2018-02-21 15:49:38;206
2018-02-21 15:49:38;206
2018-02-21 15:49:38;206
2018-02-21 15:49:38;205
2018-02-21 15:49:39;206
2018-02-21 15:49:39;205
2018-02-21 15:49:39;205
2018-02-21 15:49:40;206
2018-02-21 15:49:40;206
2018-02-21 15:49:40;206
2018-02-21 15:49:40;206
2018-02-21 15:49:41;207
2018-02-21 15:49:41;205
2018-02-21 15:49:41;206
2018-02-21 15:49:42;206
2018-02-21 15:49:42;206
2018-02-21 15:49:42;206
2018-02-21 15:49:42;206
2018-02-21 15:49:43;206
2018-02-21 15:49:43;205
2018-02-21 15:49:43;206
2018-02-21 15:49:44;205
2018-02-21 15:49:44;206
2018-02-21 15:49:44;206
2018-02-21 15:49:44;205
2018-02-21 15:49:45;206
2018-02-21 15:49:45;205
2018-02-21 15:49:45;206
2018-02-21 15:49:46;205
2018-02-21 15:49:46;206
2018-02-21 15:49:46;206
2018-02-21 15:49:46;206
2018-02-21 15:49:47;206
2018-02-21 15:49:47;206
2018-02-21 15:49:47;205
2018-02-21 15:49:48;206
2018-02-21 15:49:48;206
2018-02-21 15:49:48;206
2018-02-21 15:49:48;206
2018-02-21 15:49:49;206
2018-02-21 15:49:49;205
2018-02-21 15:49:49;205
2018-02-21 15:49:50;206
2018-02-21 15:49:50;206
2018-02-21 15:49:50;206
2018-02-21 15:49:50;206
2018-02-21 15:49:51;206
2018-02-21 15:49:51;205
2018-02-21 15:49:51;206
2018-02-21 15:49:52;206
2018-02-21 15:49:52;206
2018-02-21 15:49:52;206
2018-02-21 15:49:52;206
2018-02-21 15:49:53;205
2018-02-21 15:49:53;205
2018-02-21 15:49:53;205
2018-02-21 15:49:54;205
2018-02-21 15:49:54;205
2018-02-21 15:49:54;206
2018-02-21 15:49:55;206
2018-02-21 15:49:55;205
2018-02-21 15:49:55;205
2018-02-21 15:49:55;206
2018-02-21 15:49:56;205
2018-02-21 15:49:56;205
2018-02-21 15:49:56;205
2018-02-21 15:49:57;205
2018-02-21 15:49:57;205
2018-02-21 15:49:57;206
2018-02-21 15:49:57;205
2018-02-21 15:49:58;205
2018-02-21 15:49:58;205
2018-02-21 15:49:58;205
2018-02-21 15:49:59;205
2018-02-21 15:49:59;205
2018-02-21 15:49:59;205
2018-02-21 15:49:59;205
2018-02-21 15:50:00;205
2018-02-21 15:50:00;205
2018-02-21 15:50:00;205
2018-02-21 15:50:01;205
2018-02-21 15:50:01;205
2018-02-21 15:50:01;205
2018-02-21 15:50:01;205
2018-02-21 15:50:02;205
2018-02-21 15:50:02;207
2018-02-21 15:50:02;205
2018-02-21 15:50:03;206
2018-02-21 15:50:03;207
2018-02-21 15:50:03;206
2018-02-21 15:50:03;206
2018-02-21 15:50:04;206
2018-02-21 15:50:04;207
2018-02-21 15:50:04;206
2018-02-21 15:50:05;207
2018-02-21 15:50:05;207
2018-02-21 15:50:05;206
2018-02-21 15:50:05;206
2018-02-21 15:50:06;206
2018-02-21 15:50:06;206
