# N.º;Fecha Tiempo; GMT-03:00;Pres abs; mbar (LGR S/N: 20632203; SEN S/N: 20632203; LBL: p);Temp; °C (LGR S/N: 20632203; SEN S/N: 20632203; LBL: t);
# Acoplador separado (LGR S/N: 20632203);Acoplador adjunto (LGR S/N: 20632203);Host conectado (LGR S/N: 20632203);Parado (LGR S/N: 20632203);Final de archivo (LGR S/N: 20632203)
datetime; mbar; temp
2019-12-09 14:52;1005.9;28.357
2019-12-09 14:57;1145.8;31.472
2019-12-09 15:02;1581.5;25.222
2019-12-09 15:07;1552.3;24.545
2019-12-09 15:12;1525.8;24.255
2019-12-09 15:17;1501.2;24.158
2019-12-09 15:22;1478.2;24.062
2019-12-09 15:27;1456.7;23.966
2019-12-09 15:32;1436.6;23.966
2019-12-09 15:37;1417.7;23.869
2019-12-09 15:42;1400.3;23.869
2019-12-09 15:47;1384;23.869
2019-12-09 15:52;1368.2;23.773
2019-12-09 15:57;1354;23.773
2019-12-09 16:02;1340.2;23.773
2019-12-09 16:07;1326.9;23.773
2019-12-09 16:12;1314.7;23.773
2019-12-09 16:17;1302.7;23.773
2019-12-09 16:22;1291.7;23.869
2019-12-09 16:27;1281.3;23.869
2019-12-09 16:32;1270.9;23.869
2019-12-09 16:37;1261.5;23.966
2019-12-09 16:42;1252.3;23.869
2019-12-09 16:47;1243.8;23.869
2019-12-09 16:52;1235.3;23.869
2019-12-09 16:57;1227.8;23.869
2019-12-09 17:02;1220.2;23.773
2019-12-09 17:07;1213.2;23.773
2019-12-09 17:12;1206.3;23.677
2019-12-09 17:17;1200;23.677
2019-12-09 17:22;1193.4;23.581
2019-12-09 17:27;1187.7;23.581
2019-12-09 17:32;1181.7;23.484
2019-12-09 17:37;1176.6;23.484
2019-12-09 17:42;1170.9;23.388
2019-12-09 17:47;1166.2;23.388
2019-12-09 17:52;1161.2;23.292
2019-12-09 17:57;1156.7;23.292
2019-12-09 18:02;1152.3;23.196
2019-12-09 18:07;1148.2;23.196
2019-12-09 18:12;1144.1;23.1
2019-12-09 18:17;1140.6;23.1
2019-12-09 18:22;1136.5;23.1
2019-12-09 18:27;1133;23.004
2019-12-09 18:32;1129.9;23.004
2019-12-09 18:37;1126.7;22.908
2019-12-09 18:42;1123.6;22.908
2019-12-09 18:47;1120.1;22.908
2019-12-09 18:52;1117.6;22.812
2019-12-09 18:57;1114.7;22.812
2019-12-09 19:02;1111.9;22.812
2019-12-09 19:07;1109.7;22.717
2019-12-09 19:12;1107.1;22.717
2019-12-09 19:17;1104.6;22.717
2019-12-09 19:22;1102.7;22.621
2019-12-09 19:27;1100.5;22.621
2019-12-09 19:32;1098.6;22.621
2019-12-09 19:37;1096.4;22.621
2019-12-09 19:42;1094.5;22.525
2019-12-09 19:47;1092.9;22.525
2019-12-09 19:52;1091;22.525
2019-12-09 19:57;1089.4;22.429
2019-12-09 20:02;1087.8;22.429
2019-12-09 20:07;1086;22.429
2019-12-09 20:12;1084.4;22.429
2019-12-09 20:17;1083.4;22.333
2019-12-09 20:22;1081.8;22.333
2019-12-09 20:27;1080.3;22.333
2019-12-09 20:32;1079;22.333
2019-12-09 20:37;1077.7;22.333
2019-12-09 20:42;1076.5;22.238
2019-12-09 20:47;1075.2;22.238
2019-12-09 20:52;1074.3;22.238
2019-12-09 20:57;1073;22.238
2019-12-09 21:02;1072.1;22.238
2019-12-09 21:07;1071.1;22.142
2019-12-09 21:12;1070.1;22.142
2019-12-09 21:17;1069.5;22.142
2019-12-09 21:22;1068.6;22.142
2019-12-09 21:27;1067.3;22.142
2019-12-09 21:32;1066.7;22.142
2019-12-09 21:37;1065.7;22.046
2019-12-09 21:42;1065.1;22.046
2019-12-09 21:47;1064.4;22.046
2019-12-09 21:52;1063.5;22.046
2019-12-09 21:57;1062.9;22.046
2019-12-09 22:02;1062.2;22.046
2019-12-09 22:07;1061.6;22.046
2019-12-09 22:12;1061;22.046
2019-12-09 22:17;1060.3;21.951
2019-12-09 22:22;1060.3;21.951
2019-12-09 22:27;1059.4;21.951
2019-12-09 22:32;1058.8;21.951
2019-12-09 22:37;1058.1;21.951
2019-12-09 22:42;1057.8;21.951
2019-12-09 22:47;1057.2;21.951
2019-12-09 22:52;1056.5;21.951
2019-12-09 22:57;1056.2;21.855
2019-12-09 23:02;1055.6;21.855
2019-12-09 23:07;1055;21.855
2019-12-09 23:12;1055;21.855
2019-12-09 23:17;1054.6;21.855
2019-12-09 23:22;1054;21.855
2019-12-09 23:27;1053.4;21.855
2019-12-09 23:32;1053.4;21.855
2019-12-09 23:37;1053.1;21.855
2019-12-09 23:42;1052.7;21.855
2019-12-09 23:47;1052.1;21.855
2019-12-09 23:52;1052.1;21.76
2019-12-09 23:57;1051.2;21.76
2019-12-10 00:02;1051.2;21.76
2019-12-10 00:07;1050.5;21.76
2019-12-10 00:12;1050.2;21.76
2019-12-10 00:17;1049.9;21.76
2019-12-10 00:22;1049.6;21.76
2019-12-10 00:27;1049.3;21.76
2019-12-10 00:32;1048.6;21.76
2019-12-10 00:37;1048.6;21.76
2019-12-10 00:42;1048.6;21.76
2019-12-10 00:47;1048;21.76
2019-12-10 00:52;1047.7;21.76
2019-12-10 00:57;1047.3;21.664
2019-12-10 01:02;1047.3;21.664
2019-12-10 01:07;1047;21.664
2019-12-10 01:12;1046.7;21.664
2019-12-10 01:17;1046.4;21.664
2019-12-10 01:22;1046.1;21.664
2019-12-10 01:27;1046.1;21.664
2019-12-10 01:32;1045.8;21.664
2019-12-10 01:37;1045.2;21.664
2019-12-10 01:42;1044.8;21.664
2019-12-10 01:47;1044.8;21.664
2019-12-10 01:52;1044.5;21.664
2019-12-10 01:57;1044.2;21.664
2019-12-10 02:02;1043.9;21.664
2019-12-10 02:07;1043.9;21.664
2019-12-10 02:12;1043.9;21.664
2019-12-10 02:17;1043.6;21.664
2019-12-10 02:22;1043.3;21.664
2019-12-10 02:27;1043.2;21.569
2019-12-10 02:32;1042.9;21.569
2019-12-10 02:37;1042.6;21.569
2019-12-10 02:42;1042.6;21.569
2019-12-10 02:47;1042.3;21.569
2019-12-10 02:52;1042.3;21.569
2019-12-10 02:57;1042.3;21.569
2019-12-10 03:02;1042;21.569
2019-12-10 03:07;1042;21.569
2019-12-10 03:12;1042;21.569
2019-12-10 03:17;1042;21.569
2019-12-10 03:22;1041.3;21.569
2019-12-10 03:27;1041.3;21.569
2019-12-10 03:32;1041.3;21.569
2019-12-10 03:37;1041;21.569
2019-12-10 03:42;1041;21.569
2019-12-10 03:47;1041;21.569
2019-12-10 03:52;1040.7;21.569
2019-12-10 03:57;1040.7;21.569
2019-12-10 04:02;1040.7;21.569
2019-12-10 04:07;1040.1;21.569
2019-12-10 04:12;1039.8;21.569
2019-12-10 04:17;1040.1;21.569
2019-12-10 04:22;1040.1;21.569
2019-12-10 04:27;1039.8;21.569
2019-12-10 04:32;1039.8;21.569
2019-12-10 04:37;1039.8;21.569
2019-12-10 04:42;1039.8;21.569
2019-12-10 04:47;1039.4;21.569
2019-12-10 04:52;1039.4;21.473
2019-12-10 04:57;1039.7;21.473
2019-12-10 05:02;1039.4;21.473
2019-12-10 05:07;1039.4;21.473
2019-12-10 05:12;1039.4;21.473
2019-12-10 05:17;1039.4;21.473
2019-12-10 05:22;1039.4;21.473
2019-12-10 05:27;1039.4;21.473
2019-12-10 05:32;1039.1;21.473
2019-12-10 05:37;1039.4;21.473
2019-12-10 05:42;1039.4;21.473
2019-12-10 05:47;1039.1;21.473
2019-12-10 05:52;1039.1;21.473
2019-12-10 05:57;1039.4;21.473
2019-12-10 06:02;1039.4;21.473
2019-12-10 06:07;1039.1;21.473
2019-12-10 06:12;1039.1;21.473
2019-12-10 06:17;1039.4;21.473
2019-12-10 06:22;1039.1;21.473
2019-12-10 06:27;1039.1;21.473
2019-12-10 06:32;1039.1;21.473
2019-12-10 06:37;1039.1;21.473
2019-12-10 06:42;1038.8;21.473
2019-12-10 06:47;1039.1;21.473
2019-12-10 06:52;1039.1;21.473
2019-12-10 06:57;1039.1;21.473
2019-12-10 07:02;1039.4;21.473
2019-12-10 07:07;1039.1;21.473
2019-12-10 07:12;1038.8;21.473
2019-12-10 07:17;1039.1;21.473
2019-12-10 07:22;1039.1;21.473
2019-12-10 07:27;1039.1;21.473
2019-12-10 07:32;1039.1;21.473
2019-12-10 07:37;1039.1;21.473
2019-12-10 07:42;1039.1;21.473
2019-12-10 07:47;1039.1;21.473
2019-12-10 07:52;1039.1;21.473
2019-12-10 07:57;1039.1;21.473
2019-12-10 08:02;1039.1;21.473
2019-12-10 08:07;1039.1;21.473
2019-12-10 08:12;1038.8;21.473
2019-12-10 08:17;1039.1;21.473
2019-12-10 08:22;1039.4;21.473
2019-12-10 08:27;1039.4;21.473
2019-12-10 08:32;1039.4;21.473
2019-12-10 08:37;1039.1;21.473
2019-12-10 08:42;1039.1;21.473
2019-12-10 08:47;1039.1;21.473
2019-12-10 08:52;1039.4;21.378
2019-12-10 08:57;1039.4;21.378
2019-12-10 09:02;1039.4;21.378
2019-12-10 09:07;1039.4;21.378
2019-12-10 09:12;1039.1;21.378
2019-12-10 09:17;1039.4;21.378
2019-12-10 09:22;1039.1;21.378
2019-12-10 09:27;1039.1;21.378
2019-12-10 09:32;1039.1;21.378
2019-12-10 09:37;1039.1;21.378
2019-12-10 09:42;1039.1;21.378
2019-12-10 09:47;1039.1;21.378
2019-12-10 09:52;1039.1;21.378
2019-12-10 09:57;1038.8;21.378
2019-12-10 10:02;1038.5;21.378
2019-12-10 10:07;1038.8;21.378
2019-12-10 10:12;1038.8;21.378
2019-12-10 10:17;1038.8;21.378
2019-12-10 10:22;1038.8;21.378
2019-12-10 10:27;1039.1;21.378
2019-12-10 10:32;1038.8;21.378
2019-12-10 10:37;1038.5;21.378
2019-12-10 10:42;1038.5;21.378
2019-12-10 10:47;1038.2;21.378
2019-12-10 10:52;1038.5;21.378
2019-12-10 10:57;1038.5;21.378
2019-12-10 11:02;1038.2;21.378
2019-12-10 11:07;1038.2;21.378
2019-12-10 11:12;1038.2;21.378
2019-12-10 11:17;1038.2;21.378
2019-12-10 11:22;1037.8;21.378
2019-12-10 11:27;1038.2;21.378
2019-12-10 11:32;1038.2;21.378
2019-12-10 11:37;1037.8;21.378
2019-12-10 11:42;1037.8;21.378
2019-12-10 11:47;1037.8;21.378
2019-12-10 11:52;1037.8;21.378
2019-12-10 11:57;1038.2;21.378
2019-12-10 12:02;1037.2;21.378
2019-12-10 12:07;1037.8;21.378
2019-12-10 12:12;1037.5;21.378
2019-12-10 12:17;1037.8;21.378
2019-12-10 12:22;1037.5;21.378
2019-12-10 12:27;1037.5;21.378
2019-12-10 12:32;1037.2;21.378
2019-12-10 12:37;1037.2;21.378
2019-12-10 12:42;1037.2;21.378
2019-12-10 12:47;1037.2;21.378
2019-12-10 12:52;1037.2;21.378
2019-12-10 12:57;1036.9;21.378
2019-12-10 13:02;1036.9;21.378
2019-12-10 13:07;1036.6;21.378
2019-12-10 13:12;1036.6;21.378
2019-12-10 13:17;1036.6;21.378
2019-12-10 13:22;1036.6;21.378
2019-12-10 13:27;1036.3;21.378
2019-12-10 13:32;1036.3;21.378
2019-12-10 13:37;1036.3;21.378