datetime;mca
2019-12-09 15:02;5.44100777331996
2019-12-09 15:07;5.15443179538616
2019-12-09 15:12;4.89491449348044
2019-12-09 15:17;4.65212437311936
2019-12-09 15:22;4.42581544633902
2019-12-09 15:27;4.21598771313942
2019-12-09 15:32;4.01895135406218
2019-12-09 15:37;3.83298445336008
2019-12-09 15:42;3.66226880641926
2019-12-09 15:47;3.50311459378134
2019-12-09 15:52;3.34691223671013
2019-12-09 15:57;3.20842101303912
2019-12-09 16:02;3.07214368104313
2019-12-09 16:07;2.94250802407222
2019-12-09 16:12;2.82295787362086
2019-12-09 16:17;2.70611359077232
2019-12-09 16:22;2.59664894684052
2019-12-09 16:27;2.49480992978937
2019-12-09 16:32;2.39370887662989
2019-12-09 16:37;2.3017093781344
2019-12-09 16:42;2.21192377131394
2019-12-09 16:47;2.12927181544634
2019-12-09 16:52;2.04637387161484
2019-12-09 16:57;1.9738074222668
2019-12-09 17:02;1.9000110330993
2019-12-09 17:07;1.83113440320963
2019-12-09 17:12;1.76570160481444
2019-12-09 17:17;1.70371263791374
2019-12-09 17:22;1.63975576730191
2019-12-09 17:27;1.58563841524574
2019-12-09 17:32;1.5246334002006
2019-12-09 17:37;1.47518981945837
2019-12-09 17:42;1.42033450351053
2019-12-09 17:47;1.3740887662989
2019-12-09 17:52;1.3266130892678
2019-12-09 17:57;1.2823352557673
2019-12-09 18:02;1.23830341023069
2019-12-09 18:07;1.19919132397192
2019-12-09 18:12;1.1583573219659
2019-12-09 18:17;1.12490295887663
2019-12-09 18:22;1.08456093279839
2019-12-09 18:27;1.04840070210632
2019-12-09 18:32;1.01912813440321
2019-12-09 18:37;0.987641675025075
2019-12-09 18:42;0.957631143430289
2019-12-09 18:47;0.922700852557672
2019-12-09 18:52;0.898594032096287
2019-12-09 18:57;0.870551404212639
2019-12-09 19:02;0.842508776328987
2019-12-09 19:07;0.820369859578736
2019-12-09 19:12;0.796017051153459
2019-12-09 19:17;0.771910230692074
2019-12-09 19:22;0.751493229689067
2019-12-09 19:27;0.730338264794382
2019-12-09 19:32;0.713365095285858
2019-12-09 19:37;0.690488214643934
2019-12-09 19:42;0.671793129388165
2019-12-09 19:47;0.653836008024073
2019-12-09 19:52;0.635140922768304
2019-12-09 19:57;0.61816775325978
2019-12-09 20:02;0.60365446339017
2019-12-09 20:07;0.585943329989969
2019-12-09 20:12;0.568478184553662
2019-12-09 20:17;0.560360581745236
2019-12-09 20:22;0.543387412236709
2019-12-09 20:27;0.528136158475426
2019-12-09 20:32;0.515836760280842
2019-12-09 20:37;0.502553410230693
2019-12-09 20:42;0.48902407221665
2019-12-09 20:47;0.476724674022067
2019-12-09 20:52;0.466639167502507
2019-12-09 20:57;0.452863841524575
2019-12-09 21:02;0.443270310932798
2019-12-09 21:07;0.434660732196589
2019-12-09 21:12;0.424329237713139
2019-12-09 21:17;0.416703610832497
2019-12-09 21:22;0.406618104312937
2019-12-09 21:27;0.394318706118355
2019-12-09 21:32;0.387431043129388
2019-12-09 21:37;0.378083500501504
2019-12-09 21:42;0.369965897693078
2019-12-09 21:47;0.363078234704113
2019-12-09 21:52;0.353484704112337
2019-12-09 21:57;0.347580992978937
2019-12-09 22:02;0.34069332998997
2019-12-09 22:07;0.333067703109327
2019-12-09 22:12;0.326672016048145
2019-12-09 22:17;0.319784353059178
2019-12-09 22:22;0.32027632898696
2019-12-09 22:27;0.310190822467403
2019-12-09 22:32;0.304287111334002
2019-12-09 22:37;0.296907472417251
2019-12-09 22:42;0.29518555667001
2019-12-09 22:47;0.288543881644935
2019-12-09 22:52;0.281656218655968
2019-12-09 22:57;0.27747442326981
2019-12-09 23:02;0.272308676028084
2019-12-09 23:07;0.266404964894684
2019-12-09 23:12;0.266404964894684
2019-12-09 23:17;0.2629611334002
2019-12-09 23:22;0.256073470411235
2019-12-09 23:27;0.24943179538616
2019-12-09 23:32;0.248939819458377
2019-12-09 23:37;0.246479939819458
2019-12-09 23:42;0.242544132397192
2019-12-09 23:47;0.235410481444333
2019-12-09 23:52;0.234426529588764
2019-12-09 23:57;0.226554914744234
2019-12-10 00:02;0.227292878635909
2019-12-10 00:07;0.220897191574725
2019-12-10 00:12;0.216223420260784
2019-12-10 00:17;0.215485456369108
2019-12-10 00:22;0.212041624874623
2019-12-10 00:27;0.209089769307924
2019-12-10 00:32;0.201710130391174
2019-12-10 00:37;0.201710130391174
2019-12-10 00:42;0.202694082246739
2019-12-10 00:47;0.19679037111334
2019-12-10 00:52;0.193346539618857
2019-12-10 00:57;0.190640672016048
2019-12-10 01:02;0.18941073219659
2019-12-10 01:07;0.18645887662989
2019-12-10 01:12;0.184736960882649
2019-12-10 01:17;0.181047141424274
2019-12-10 01:22;0.177603309929789
2019-12-10 01:27;0.177603309929789
2019-12-10 01:32;0.174651454363089
2019-12-10 01:37;0.170469658976931
2019-12-10 01:42;0.167271815446339
2019-12-10 01:47;0.167763791374122
2019-12-10 01:52;0.165303911735205
2019-12-10 01:57;0.162352056168506
2019-12-10 02:02;0.159400200601806
2019-12-10 02:07;0.159400200601806
2019-12-10 02:12;0.159400200601806
2019-12-10 02:17;0.157186308926779
2019-12-10 02:22;0.155218405215646
2019-12-10 02:27;0.15423445336008
2019-12-10 02:32;0.152512537612839
2019-12-10 02:37;0.147838766298895
2019-12-10 02:42;0.148330742226678
2019-12-10 02:47;0.144394934804413
2019-12-10 02:52;0.144394934804413
2019-12-10 02:57;0.145378886659979
2019-12-10 03:02;0.140705115346038
2019-12-10 03:07;0.141443079237713
2019-12-10 03:12;0.141443079237713
2019-12-10 03:17;0.141443079237713
2019-12-10 03:22;0.134555416248746
2019-12-10 03:27;0.133325476429287
2019-12-10 03:32;0.133325476429287
2019-12-10 03:37;0.132587512537612
2019-12-10 03:42;0.130865596790371
2019-12-10 03:47;0.130373620862588
2019-12-10 03:52;0.127913741223671
2019-12-10 03:57;0.127421765295888
2019-12-10 04:02;0.127913741223671
2019-12-10 04:07;0.122747993981945
2019-12-10 04:12;0.11905817452357
2019-12-10 04:17;0.122747993981945
2019-12-10 04:22;0.123239969909728
2019-12-10 04:27;0.120288114343028
2019-12-10 04:32;0.120288114343028
2019-12-10 04:37;0.11905817452357
2019-12-10 04:42;0.120288114343028
2019-12-10 04:47;0.116352306920763
2019-12-10 04:52;0.115122367101304
2019-12-10 04:57;0.118812186559679
2019-12-10 05:02;0.114630391173521
2019-12-10 05:07;0.114630391173521
2019-12-10 05:12;0.114630391173521
2019-12-10 05:17;0.115122367101304
2019-12-10 05:22;0.114138415245739
2019-12-10 05:27;0.112170511534605
2019-12-10 05:32;0.110448595787361
2019-12-10 05:37;0.112170511534605
2019-12-10 05:42;0.11290847542628
2019-12-10 05:47;0.10872668004012
2019-12-10 05:52;0.108234704112337
2019-12-10 05:57;0.109956619859581
2019-12-10 06:02;0.108726680040122
2019-12-10 06:07;0.106512788365093
2019-12-10 06:12;0.107004764292879
2019-12-10 06:17;0.110448595787363
2019-12-10 06:22;0.106512788365093
2019-12-10 06:27;0.106512788365093
2019-12-10 06:32;0.10577482447342
2019-12-10 06:37;0.103560932798394
2019-12-10 06:42;0.101839017051153
2019-12-10 06:47;0.104790872617852
2019-12-10 06:52;0.103560932798394
2019-12-10 06:57;0.104052908726177
2019-12-10 07:02;0.107004764292879
2019-12-10 07:07;0.103560932798394
2019-12-10 07:12;0.100117101303911
2019-12-10 07:17;0.101839017051153
2019-12-10 07:22;0.10134704112337
2019-12-10 07:27;0.100117101303911
2019-12-10 07:32;0.099379137412236
2019-12-10 07:37;0.098887161484453
2019-12-10 07:42;0.098887161484453
2019-12-10 07:47;0.09839518555667
2019-12-10 07:52;0.096673269809427
2019-12-10 07:57;0.097657221664995
2019-12-10 08:02;0.097165245737212
2019-12-10 08:07;0.096673269809427
2019-12-10 08:12;0.092983450351054
2019-12-10 08:17;0.095443329989968
2019-12-10 08:22;0.09839518555667
2019-12-10 08:27;0.096673269809429
2019-12-10 08:32;0.096181293881646
2019-12-10 08:37;0.093721414242727
2019-12-10 08:42;0.091507522567703
2019-12-10 08:47;0.092491474423269
2019-12-10 08:52;0.094951354062188
2019-12-10 08:57;0.094951354062188
2019-12-10 09:02;0.092491474423271
2019-12-10 09:07;0.093229438314946
2019-12-10 09:12;0.090277582748244
2019-12-10 09:17;0.092491474423271
2019-12-10 09:22;0.090769558676027
2019-12-10 09:27;0.090769558676027
2019-12-10 09:32;0.090277582748244
2019-12-10 09:37;0.091999498495486
2019-12-10 09:42;0.091999498495486
2019-12-10 09:47;0.091507522567703
2019-12-10 09:52;0.092491474423269
2019-12-10 09:57;0.089539618856569
2019-12-10 10:02;0.086095787362086
2019-12-10 10:07;0.089047642928786
2019-12-10 10:12;0.088555667001003
2019-12-10 10:17;0.089539618856569
2019-12-10 10:22;0.089539618856569
2019-12-10 10:27;0.093229438314944
2019-12-10 10:32;0.090277582748244
2019-12-10 10:37;0.088309679037111
2019-12-10 10:42;0.089539618856569
2019-12-10 10:47;0.086587763289869
2019-12-10 10:52;0.089047642928786
2019-12-10 10:57;0.089047642928786
2019-12-10 11:02;0.087079739217654
2019-12-10 11:07;0.088309679037113
2019-12-10 11:12;0.088309679037113
2019-12-10 11:17;0.088309679037113
2019-12-10 11:22;0.08388189568706
2019-12-10 11:27;0.087817703109328
2019-12-10 11:32;0.088309679037113
2019-12-10 11:37;0.085111835506518
2019-12-10 11:42;0.085603811434303
2019-12-10 11:47;0.086095787362086
2019-12-10 11:52;0.086833751253762
2019-12-10 11:57;0.091261534603812
2019-12-10 12:02;0.080930040120363
2019-12-10 12:07;0.087817703109328
2019-12-10 12:12;0.086587763289869
2019-12-10 12:17;0.088555667001003
2019-12-10 12:22;0.087817703109328
2019-12-10 12:27;0.087325727181545
2019-12-10 12:32;0.084373871614845
2019-12-10 12:37;0.086095787362086
2019-12-10 12:42;0.086095787362086
2019-12-10 12:47;0.087325727181545
2019-12-10 12:52;0.087817703109328
2019-12-10 12:57;0.084373871614845
2019-12-10 13:02;0.086095787362086
2019-12-10 13:07;0.08363590772317
2019-12-10 13:12;0.084865847542628
2019-12-10 13:17;0.084127883650953
2019-12-10 13:22;0.086095787362086
2019-12-10 13:27;0.08363590772317
2019-12-10 13:32;0.085357823470411
