2018-08-29 00:00:08; 398.00; 2.32; 15.88
2018-08-29 00:00:21; 397.00; 2.33; 15.88
2018-08-29 00:00:33; 398.00; 2.32; 15.88
2018-08-29 00:00:45; 398.00; 2.33; 15.94
2018-08-29 00:00:58; 398.00; 2.32; 15.94
2018-08-29 00:15:10; 397.00; 2.33; 15.94
2018-08-29 00:15:22; 397.00; 2.33; 15.94
2018-08-29 00:15:35; 397.00; 2.33; 15.94
2018-08-29 00:15:47; 397.00; 2.33; 15.94
2018-08-29 00:15:59; 397.00; 2.33; 15.94
2018-08-29 00:30:01; 398.00; 2.32; 15.56
2018-08-29 00:30:14; 398.00; 2.32; 15.56
2018-08-29 00:30:26; 398.00; 2.32; 15.56
2018-08-29 00:30:39; 398.00; 2.32; 15.56
2018-08-29 00:30:51; 398.00; 2.32; 15.56
2018-08-29 00:45:05; 399.00; 2.31; 15.25
2018-08-29 00:45:18; 398.00; 2.32; 15.25
2018-08-29 00:45:30; 398.00; 2.32; 15.25
2018-08-29 00:45:42; 399.00; 2.31; 15.25
2018-08-29 00:45:55; 399.00; 2.31; 15.25
2018-08-29 01:00:09; 399.00; 2.31; 15.06
2018-08-29 01:00:22; 399.00; 2.31; 15.06
2018-08-29 01:00:34; 398.00; 2.32; 15.06
2018-08-29 01:00:46; 398.00; 2.32; 15.06
2018-08-29 01:00:59; 398.00; 2.32; 15.06
2018-08-29 01:15:02; 399.00; 2.31; 15.00
2018-08-29 01:15:14; 399.00; 2.31; 15.00
2018-08-29 01:15:27; 399.00; 2.31; 15.00
2018-08-29 01:15:39; 399.00; 2.31; 14.94
2018-08-29 01:15:51; 399.00; 2.31; 14.94
2018-08-29 01:30:06; 399.00; 2.31; 14.81
2018-08-29 01:30:18; 399.00; 2.31; 14.81
2018-08-29 01:30:30; 399.00; 2.31; 14.88
2018-08-29 01:30:43; 399.00; 2.31; 14.81
2018-08-29 01:30:55; 399.00; 2.31; 14.81
2018-08-29 01:45:10; 399.00; 2.31; 14.88
2018-08-29 01:45:22; 399.00; 2.31; 14.88
2018-08-29 01:45:34; 399.00; 2.31; 14.88
2018-08-29 01:45:47; 399.00; 2.31; 14.88
2018-08-29 01:45:59; 399.00; 2.31; 14.81
2018-08-29 02:00:02; 399.00; 2.31; 14.75
2018-08-29 02:00:15; 399.00; 2.31; 14.75
2018-08-29 02:00:27; 399.00; 2.31; 14.75
2018-08-29 02:00:39; 399.00; 2.31; 14.75
2018-08-29 02:00:52; 399.00; 2.31; 14.75
2018-08-29 02:15:06; 399.00; 2.31; 14.69
2018-08-29 02:15:18; 399.00; 2.31; 14.69
2018-08-29 02:15:31; 399.00; 2.31; 14.69
2018-08-29 02:15:43; 399.00; 2.31; 14.69
2018-08-29 02:15:55; 399.00; 2.31; 14.69
2018-08-29 02:30:10; 399.00; 2.31; 14.50
2018-08-29 02:30:22; 399.00; 2.31; 14.50
2018-08-29 02:30:34; 399.00; 2.31; 14.50
2018-08-29 02:30:47; 399.00; 2.31; 14.50
2018-08-29 02:30:59; 399.00; 2.31; 14.50
2018-08-29 02:45:02; 399.00; 2.31; 14.44
2018-08-29 02:45:15; 399.00; 2.31; 14.44
2018-08-29 02:45:27; 399.00; 2.31; 14.44
2018-08-29 02:45:39; 399.00; 2.31; 14.44
2018-08-29 02:45:52; 399.00; 2.31; 14.44
2018-08-29 03:00:06; 399.00; 2.31; 14.19
2018-08-29 03:00:19; 399.00; 2.31; 14.19
2018-08-29 03:00:31; 399.00; 2.31; 14.19
2018-08-29 03:00:44; 399.00; 2.31; 14.19
2018-08-29 03:00:56; 399.00; 2.31; 14.19
2018-08-29 03:15:11; 399.00; 2.31; 14.13
2018-08-29 03:15:23; 399.00; 2.31; 14.13
2018-08-29 03:15:36; 399.00; 2.31; 14.13
2018-08-29 03:15:48; 399.00; 2.31; 14.13
2018-08-29 03:30:03; 399.00; 2.31; 14.25
2018-08-29 03:30:15; 399.00; 2.31; 14.25
2018-08-29 03:30:28; 398.00; 2.31; 14.31
2018-08-29 03:30:40; 398.00; 2.32; 14.31
2018-08-29 03:30:52; 399.00; 2.31; 14.31
2018-08-29 03:45:07; 399.00; 2.31; 14.75
2018-08-29 03:45:19; 399.00; 2.31; 14.75
2018-08-29 03:45:32; 399.00; 2.31; 14.75
2018-08-29 03:45:44; 399.00; 2.31; 14.75
2018-08-29 03:45:57; 399.00; 2.31; 14.75
2018-08-29 04:00:11; 399.00; 2.31; 14.63
2018-08-29 04:00:23; 399.00; 2.31; 14.63
2018-08-29 04:00:36; 399.00; 2.31; 14.63
2018-08-29 04:00:48; 399.00; 2.31; 14.63
2018-08-29 04:01:00; 399.00; 2.31; 14.63
2018-08-29 04:15:03; 399.00; 2.31; 14.44
2018-08-29 04:15:16; 399.00; 2.31; 14.44
2018-08-29 04:15:28; 399.00; 2.31; 14.44
2018-08-29 04:15:41; 399.00; 2.32; 14.38
2018-08-29 04:15:53; 399.00; 2.31; 14.44
2018-08-29 04:30:07; 399.00; 2.31; 14.63
2018-08-29 04:30:20; 399.00; 2.31; 14.63
2018-08-29 04:30:32; 399.00; 2.31; 14.63
2018-08-29 04:30:45; 399.00; 2.31; 14.63
2018-08-29 04:30:57; 399.00; 2.31; 14.63
2018-08-29 04:45:11; 399.00; 2.31; 14.50
2018-08-29 04:45:24; 399.00; 2.31; 14.50
2018-08-29 04:45:36; 399.00; 2.31; 14.50
2018-08-29 04:45:48; 399.00; 2.31; 14.50
2018-08-29 05:00:03; 399.00; 2.31; 14.13
2018-08-29 05:00:16; 399.00; 2.31; 14.06
2018-08-29 05:00:28; 399.00; 2.31; 14.13
2018-08-29 05:00:40; 400.00; 2.30; 14.06
2018-08-29 05:00:53; 400.00; 2.30; 14.06
2018-08-29 05:15:08; 399.00; 2.31; 13.81
2018-08-29 05:15:20; 399.00; 2.31; 13.81
2018-08-29 05:15:32; 399.00; 2.31; 13.81
2018-08-29 05:15:45; 399.00; 2.31; 13.81
2018-08-29 05:15:57; 399.00; 2.31; 13.81
2018-08-29 05:30:12; 399.00; 2.31; 13.69
2018-08-29 05:30:24; 399.00; 2.31; 13.69
2018-08-29 05:30:37; 399.00; 2.31; 13.69
2018-08-29 05:30:49; 399.00; 2.31; 13.69
2018-08-29 05:45:04; 399.00; 2.31; 13.75
2018-08-29 05:45:16; 399.00; 2.31; 13.75
2018-08-29 05:45:28; 400.00; 2.30; 13.75
2018-08-29 05:45:41; 400.00; 2.30; 13.75
2018-08-29 05:45:53; 399.00; 2.31; 13.81
2018-08-29 06:00:08; 399.00; 2.31; 14.00
2018-08-29 06:00:20; 400.00; 2.30; 14.00
2018-08-29 06:00:33; 399.00; 2.31; 14.00
2018-08-29 06:00:45; 399.00; 2.31; 14.00
2018-08-29 06:00:57; 399.00; 2.31; 14.00
2018-08-29 06:15:01; 399.00; 2.31; 14.19
2018-08-29 06:15:13; 399.00; 2.31; 14.19
2018-08-29 06:15:25; 400.00; 2.30; 14.19
2018-08-29 06:15:38; 400.00; 2.30; 14.19
2018-08-29 06:15:50; 400.00; 2.30; 14.19
2018-08-29 06:30:05; 400.00; 2.30; 14.06
2018-08-29 06:30:18; 400.00; 2.30; 14.06
2018-08-29 06:30:30; 400.00; 2.30; 14.00
2018-08-29 06:30:43; 400.00; 2.30; 14.00
2018-08-29 06:30:55; 400.00; 2.30; 14.00
2018-08-29 06:45:10; 400.00; 2.30; 13.81
2018-08-29 06:45:22; 400.00; 2.30; 13.81
2018-08-29 06:45:34; 399.00; 2.31; 13.81
2018-08-29 06:45:47; 400.00; 2.30; 13.81
2018-08-29 06:45:59; 400.00; 2.30; 13.81
2018-08-29 07:00:02; 399.00; 2.31; 14.00
2018-08-29 07:00:15; 399.00; 2.31; 14.00
2018-08-29 07:00:27; 399.00; 2.31; 14.00
2018-08-29 07:00:40; 399.00; 2.31; 14.00
2018-08-29 07:00:52; 399.00; 2.31; 14.00
2018-08-29 07:15:07; 400.00; 2.30; 14.19
2018-08-29 07:15:19; 400.00; 2.30; 14.19
2018-08-29 07:15:32; 400.00; 2.30; 14.19
2018-08-29 07:15:44; 400.00; 2.30; 14.19
2018-08-29 07:15:57; 400.00; 2.30; 14.19
2018-08-29 07:30:12; 399.00; 2.31; 14.06
2018-08-29 07:30:24; 399.00; 2.31; 14.06
2018-08-29 07:30:37; 400.00; 2.30; 14.06
2018-08-29 07:30:49; 399.00; 2.31; 14.06
2018-08-29 07:45:04; 399.00; 2.31; 14.50
2018-08-29 07:45:16; 399.00; 2.31; 14.50
2018-08-29 07:45:29; 399.00; 2.31; 14.50
2018-08-29 07:45:41; 399.00; 2.31; 14.50
2018-08-29 07:45:53; 399.00; 2.31; 14.50
2018-08-29 08:00:08; 399.00; 2.31; 14.56
2018-08-29 08:00:20; 400.00; 2.31; 14.50
2018-08-29 08:00:33; 399.00; 2.31; 14.56
2018-08-29 08:00:45; 399.00; 2.31; 14.56
2018-08-29 08:00:57; 399.00; 2.31; 14.56
2018-08-29 08:15:12; 399.00; 2.31; 14.69
2018-08-29 08:15:24; 399.00; 2.31; 14.69
2018-08-29 08:15:36; 399.00; 2.31; 14.69
2018-08-29 08:15:49; 399.00; 2.31; 14.69
2018-08-29 08:30:03; 398.00; 2.32; 15.13
2018-08-29 08:30:15; 398.00; 2.32; 15.13
2018-08-29 08:30:28; 398.00; 2.32; 15.19
2018-08-29 08:30:40; 398.00; 2.32; 15.19
2018-08-29 08:30:53; 398.00; 2.32; 15.19
2018-08-29 08:45:06; 398.00; 2.33; 16.38
2018-08-29 08:45:18; 397.00; 2.33; 16.38
2018-08-29 08:45:31; 397.00; 2.33; 16.38
2018-08-29 08:45:43; 398.00; 2.33; 16.38
2018-08-29 08:45:56; 398.00; 2.33; 16.44
2018-08-29 09:00:09; 397.00; 2.32; 16.94
2018-08-29 09:00:21; 397.00; 2.33; 16.94
2018-08-29 09:00:33; 397.00; 2.32; 16.94
2018-08-29 09:00:46; 397.00; 2.32; 16.94
2018-08-29 09:00:58; 397.00; 2.33; 16.94
2018-08-29 09:15:01; 397.00; 2.33; 17.75
2018-08-29 09:15:13; 398.00; 2.32; 17.75
2018-08-29 09:15:26; 397.00; 2.33; 17.75
2018-08-29 09:15:38; 397.00; 2.33; 17.81
2018-08-29 09:15:51; 397.00; 2.33; 17.81
2018-08-29 09:30:05; 397.00; 2.33; 19.06
2018-08-29 09:30:17; 397.00; 2.33; 19.13
2018-08-29 09:30:30; 397.00; 2.33; 19.13
2018-08-29 09:30:42; 397.00; 2.33; 19.19
2018-08-29 09:30:54; 397.00; 2.33; 19.25
2018-08-29 09:45:09; 398.00; 2.32; 19.44
2018-08-29 09:45:21; 397.00; 2.33; 19.38
2018-08-29 09:45:33; 397.00; 2.33; 19.38
2018-08-29 09:45:46; 397.00; 2.33; 19.31
2018-08-29 09:45:58; 397.00; 2.33; 19.31
2018-08-29 10:00:01; 397.00; 2.33; 20.00
2018-08-29 10:00:13; 397.00; 2.33; 20.00
2018-08-29 10:00:26; 397.00; 2.33; 20.06
2018-08-29 10:00:38; 397.00; 2.33; 20.06
2018-08-29 10:00:50; 397.00; 2.33; 20.06
2018-08-29 10:15:04; 397.00; 2.33; 22.06
2018-08-29 10:15:17; 397.00; 2.33; 22.00
2018-08-29 10:15:29; 397.00; 2.33; 22.00
2018-08-29 10:15:42; 397.00; 2.33; 22.00
2018-08-29 10:15:54; 397.00; 2.33; 22.00
2018-08-29 10:30:08; 396.00; 2.34; 22.56
2018-08-29 10:30:20; 396.00; 2.34; 22.63
2018-08-29 10:30:33; 396.00; 2.34; 22.69
2018-08-29 10:30:45; 396.00; 2.34; 22.75
2018-08-29 10:30:57; 396.00; 2.34; 22.88
2018-08-29 10:45:11; 398.00; 2.32; 24.50
2018-08-29 10:45:24; 398.00; 2.32; 24.44
2018-08-29 10:45:36; 398.00; 2.32; 24.38
2018-08-29 10:45:48; 397.00; 2.33; 24.31
2018-08-29 11:00:02; 398.00; 2.32; 22.06
2018-08-29 11:00:15; 397.00; 2.33; 22.06
2018-08-29 11:00:27; 397.00; 2.33; 22.06
2018-08-29 11:00:39; 398.00; 2.32; 22.13
2018-08-29 11:00:52; 397.00; 2.33; 22.19
2018-08-29 11:15:06; 396.00; 2.34; 25.75
2018-08-29 11:15:18; 396.00; 2.34; 25.81
2018-08-29 11:15:30; 396.00; 2.34; 25.81
2018-08-29 11:15:43; 396.00; 2.34; 25.88
2018-08-29 11:15:55; 397.00; 2.33; 25.94
2018-08-29 11:30:09; 395.00; 2.35; 26.56
2018-08-29 11:30:21; 395.00; 2.35; 26.56
2018-08-29 11:30:34; 395.00; 2.35; 26.63
2018-08-29 11:30:46; 395.00; 2.35; 26.69
2018-08-29 11:30:58; 395.00; 2.35; 26.75
2018-08-29 11:45:01; 396.00; 2.33; 27.38
2018-08-29 11:45:13; 397.00; 2.33; 27.38
2018-08-29 11:45:25; 397.00; 2.33; 27.38
2018-08-29 11:45:38; 397.00; 2.33; 27.38
2018-08-29 11:45:50; 397.00; 2.33; 27.38
2018-08-29 12:00:04; 395.00; 2.35; 28.06
2018-08-29 12:00:16; 395.00; 2.35; 28.06
2018-08-29 12:00:29; 395.00; 2.35; 28.06
2018-08-29 12:00:41; 395.00; 2.35; 28.00
2018-08-29 12:00:53; 395.00; 2.35; 28.00
2018-08-29 12:15:07; 395.00; 2.35; 27.75
2018-08-29 12:15:19; 395.00; 2.35; 27.69
2018-08-29 12:15:32; 395.00; 2.35; 27.69
2018-08-29 12:15:44; 395.00; 2.35; 27.75
2018-08-29 12:15:56; 395.00; 2.35; 27.69
2018-08-29 12:30:10; 395.00; 2.35; 28.06
2018-08-29 12:30:23; 394.00; 2.35; 28.06
2018-08-29 12:30:35; 395.00; 2.35; 28.13
2018-08-29 12:30:47; 395.00; 2.35; 28.19
2018-08-29 12:31:00; 395.00; 2.35; 28.19
2018-08-29 12:45:02; 394.00; 2.36; 28.56
2018-08-29 12:45:15; 394.00; 2.36; 28.56
2018-08-29 12:45:27; 394.00; 2.36; 28.56
2018-08-29 12:45:39; 394.00; 2.36; 28.63
2018-08-29 12:45:52; 394.00; 2.36; 28.63
2018-08-29 13:00:05; 394.00; 2.36; 29.25
2018-08-29 13:00:18; 394.00; 2.36; 29.25
2018-08-29 13:00:30; 394.00; 2.36; 29.25
2018-08-29 13:00:42; 394.00; 2.36; 29.25
2018-08-29 13:00:55; 394.00; 2.36; 29.19
2018-08-29 13:15:09; 394.00; 2.36; 29.19
2018-08-29 13:15:21; 394.00; 2.36; 29.13
2018-08-29 13:15:33; 394.00; 2.36; 29.13
2018-08-29 13:15:46; 394.00; 2.36; 29.19
2018-08-29 13:15:58; 394.00; 2.36; 29.13
2018-08-29 13:30:12; 394.00; 2.36; 29.13
2018-08-29 13:30:24; 394.00; 2.36; 29.13
2018-08-29 13:30:36; 395.00; 2.36; 29.06
2018-08-29 13:30:49; 394.00; 2.36; 29.13
2018-08-29 13:45:02; 395.00; 2.35; 24.44
2018-08-29 13:45:15; 395.00; 2.35; 24.38
2018-08-29 13:45:27; 395.00; 2.35; 24.31
2018-08-29 13:45:39; 395.00; 2.36; 24.25
2018-08-29 13:45:52; 395.00; 2.35; 24.25
2018-08-29 14:00:06; 397.00; 2.33; 20.63
2018-08-29 14:00:18; 397.00; 2.33; 20.63
2018-08-29 14:00:31; 397.00; 2.33; 20.63
2018-08-29 14:00:43; 397.00; 2.33; 20.56
2018-08-29 14:00:55; 397.00; 2.33; 20.56
2018-08-29 14:15:09; 395.00; 2.35; 19.56
2018-08-29 14:15:22; 395.00; 2.35; 19.50
2018-08-29 14:15:34; 395.00; 2.35; 19.50
2018-08-29 14:15:47; 395.00; 2.35; 19.50
2018-08-29 14:15:59; 396.00; 2.34; 19.50
2018-08-29 14:30:02; 397.00; 2.33; 17.75
2018-08-29 14:30:14; 397.00; 2.33; 17.75
2018-08-29 14:30:27; 397.00; 2.33; 17.81
2018-08-29 14:30:39; 396.00; 2.34; 17.81
2018-08-29 14:30:51; 397.00; 2.34; 17.81
2018-08-29 14:45:06; 395.00; 2.35; 18.81
2018-08-29 14:45:18; 395.00; 2.35; 18.81
2018-08-29 14:45:31; 396.00; 2.34; 18.81
2018-08-29 14:45:43; 395.00; 2.35; 18.81
2018-08-29 14:45:55; 395.00; 2.35; 18.81
2018-08-29 15:00:10; 395.00; 2.35; 19.38
2018-08-29 15:00:22; 395.00; 2.35; 19.44
2018-08-29 15:00:34; 395.00; 2.35; 19.44
2018-08-29 15:00:47; 395.00; 2.35; 19.50
2018-08-29 15:00:59; 395.00; 2.35; 19.50
2018-08-29 15:15:02; 395.00; 2.35; 20.94
2018-08-29 15:15:14; 395.00; 2.35; 21.00
2018-08-29 15:15:26; 395.00; 2.35; 21.00
2018-08-29 15:15:39; 395.00; 2.35; 21.00
2018-08-29 15:15:51; 395.00; 2.35; 21.00
2018-08-29 15:30:05; 394.00; 2.36; 20.94
2018-08-29 15:30:18; 394.00; 2.36; 20.94
2018-08-29 15:30:30; 394.00; 2.36; 20.94
2018-08-29 15:30:42; 395.00; 2.35; 21.00
2018-08-29 15:30:55; 395.00; 2.35; 21.00
2018-08-29 15:45:09; 394.00; 2.36; 24.31
2018-08-29 15:45:21; 394.00; 2.36; 24.25
2018-08-29 15:45:33; 394.00; 2.36; 24.25
2018-08-29 15:45:46; 394.00; 2.36; 24.25
2018-08-29 15:45:58; 394.00; 2.36; 24.25
2018-08-29 16:00:01; 394.00; 2.36; 26.00
2018-08-29 16:00:13; 394.00; 2.36; 26.00
2018-08-29 16:00:25; 393.00; 2.37; 26.00
2018-08-29 16:00:38; 394.00; 2.36; 26.00
2018-08-29 16:00:50; 394.00; 2.36; 26.00
2018-08-29 16:15:04; 394.00; 2.36; 25.00
2018-08-29 16:15:16; 394.00; 2.36; 25.00
2018-08-29 16:15:29; 394.00; 2.36; 25.00
2018-08-29 16:15:41; 393.00; 2.37; 24.94
2018-08-29 16:15:54; 393.00; 2.37; 25.00
2018-08-29 16:30:08; 393.00; 2.37; 26.56
2018-08-29 16:30:20; 393.00; 2.37; 26.56
2018-08-29 16:30:32; 393.00; 2.37; 26.50
2018-08-29 16:30:45; 393.00; 2.37; 26.44
2018-08-29 16:30:57; 393.00; 2.37; 26.50
2018-08-29 16:45:11; 393.00; 2.37; 26.19
2018-08-29 16:45:23; 393.00; 2.37; 26.19
2018-08-29 16:45:36; 393.00; 2.37; 26.25
2018-08-29 16:45:48; 393.00; 2.37; 26.25
2018-08-29 16:46:00; 394.00; 2.36; 26.25
2018-08-29 17:00:03; 393.00; 2.37; 28.06
2018-08-29 17:00:15; 393.00; 2.37; 28.13
2018-08-29 17:00:28; 393.00; 2.37; 28.06
2018-08-29 17:00:40; 393.00; 2.37; 28.00
2018-08-29 17:00:52; 393.00; 2.37; 27.94
2018-08-29 17:15:06; 392.00; 2.37; 28.81
2018-08-29 17:15:18; 393.00; 2.37; 28.81
2018-08-29 17:15:31; 393.00; 2.37; 28.81
2018-08-29 17:15:43; 393.00; 2.37; 28.81
2018-08-29 17:15:56; 393.00; 2.37; 28.94
2018-08-29 17:30:09; 393.00; 2.37; 30.19
2018-08-29 17:30:22; 393.00; 2.37; 30.06
2018-08-29 17:30:34; 393.00; 2.37; 30.00
2018-08-29 17:30:47; 393.00; 2.37; 29.94
2018-08-29 17:30:59; 393.00; 2.37; 30.00
2018-08-29 17:45:01; 392.00; 2.38; 30.94
2018-08-29 17:45:14; 392.00; 2.38; 30.94
2018-08-29 17:45:26; 393.00; 2.37; 30.94
2018-08-29 17:45:38; 393.00; 2.37; 30.94
2018-08-29 17:45:51; 393.00; 2.37; 31.00
2018-08-29 18:00:04; 393.00; 2.37; 31.06
2018-08-29 18:00:17; 393.00; 2.37; 31.06
2018-08-29 18:00:29; 393.00; 2.37; 31.00
2018-08-29 18:00:41; 393.00; 2.37; 30.94
2018-08-29 18:00:54; 393.00; 2.37; 31.00
2018-08-29 18:15:08; 393.00; 2.37; 27.56
2018-08-29 18:15:20; 393.00; 2.37; 27.50
2018-08-29 18:15:32; 393.00; 2.37; 27.50
2018-08-29 18:15:45; 393.00; 2.37; 27.50
2018-08-29 18:15:57; 393.00; 2.37; 27.44
2018-08-29 18:30:11; 394.00; 2.36; 25.63
2018-08-29 18:30:23; 394.00; 2.36; 25.56
2018-08-29 18:30:35; 393.00; 2.37; 25.50
2018-08-29 18:30:48; 393.00; 2.37; 25.50
2018-08-29 18:31:00; 393.00; 2.37; 25.44
2018-08-29 18:45:03; 394.00; 2.36; 24.38
2018-08-29 18:45:15; 395.00; 2.35; 24.38
2018-08-29 18:45:27; 396.00; 2.34; 24.38
2018-08-29 18:45:40; 396.00; 2.34; 24.38
2018-08-29 18:45:52; 396.00; 2.34; 24.38
2018-08-29 19:00:06; 394.00; 2.36; 23.56
2018-08-29 19:00:18; 394.00; 2.36; 23.56
2018-08-29 19:00:31; 394.00; 2.36; 23.56
2018-08-29 19:00:43; 394.00; 2.36; 23.56
2018-08-29 19:00:55; 394.00; 2.36; 23.56
2018-08-29 19:15:09; 394.00; 2.36; 23.25
2018-08-29 19:15:22; 394.00; 2.36; 23.25
2018-08-29 19:15:34; 394.00; 2.36; 23.25
2018-08-29 19:15:46; 394.00; 2.36; 23.25
2018-08-29 19:15:59; 394.00; 2.36; 23.19
2018-08-29 19:30:01; 394.00; 2.36; 22.69
2018-08-29 19:30:13; 394.00; 2.36; 22.69
2018-08-29 19:30:26; 394.00; 2.36; 22.69
2018-08-29 19:30:38; 394.00; 2.36; 22.69
2018-08-29 19:30:51; 394.00; 2.36; 22.69
2018-08-29 19:45:05; 394.00; 2.36; 22.38
2018-08-29 19:45:17; 394.00; 2.36; 22.38
2018-08-29 19:45:29; 394.00; 2.36; 22.38
2018-08-29 19:45:42; 394.00; 2.36; 22.38
2018-08-29 19:45:54; 394.00; 2.36; 22.38
2018-08-29 20:00:08; 394.00; 2.36; 22.31
2018-08-29 20:00:21; 394.00; 2.36; 22.31
2018-08-29 20:00:33; 394.00; 2.36; 22.31
2018-08-29 20:00:45; 394.00; 2.36; 22.31
2018-08-29 20:00:58; 394.00; 2.36; 22.31
2018-08-29 20:15:12; 395.00; 2.35; 20.94
2018-08-29 20:15:24; 395.00; 2.35; 21.00
2018-08-29 20:15:36; 395.00; 2.35; 20.94
2018-08-29 20:15:49; 395.00; 2.35; 20.94
2018-08-29 20:30:03; 396.00; 2.34; 20.44
2018-08-29 20:30:15; 396.00; 2.34; 20.44
2018-08-29 20:30:28; 396.00; 2.34; 20.44
2018-08-29 20:30:40; 396.00; 2.34; 20.44
2018-08-29 20:30:52; 396.00; 2.34; 20.38
2018-08-29 20:45:06; 396.00; 2.34; 19.31
2018-08-29 20:45:19; 396.00; 2.34; 19.31
2018-08-29 20:45:31; 396.00; 2.34; 19.31
2018-08-29 20:45:44; 396.00; 2.34; 19.25
2018-08-29 20:45:56; 396.00; 2.34; 19.25
2018-08-29 21:00:10; 396.00; 2.34; 19.06
2018-08-29 21:00:23; 396.00; 2.34; 19.06
2018-08-29 21:00:35; 395.00; 2.35; 19.06
2018-08-29 21:00:47; 395.00; 2.35; 19.13
2018-08-29 21:01:00; 395.00; 2.35; 19.19
2018-08-29 21:15:03; 396.00; 2.34; 19.63
2018-08-29 21:15:15; 396.00; 2.34; 19.63
2018-08-29 21:15:27; 396.00; 2.34; 19.63
2018-08-29 21:15:40; 396.00; 2.34; 19.63
2018-08-29 21:15:52; 396.00; 2.34; 19.63
2018-08-29 21:30:06; 396.00; 2.34; 19.06
2018-08-29 21:30:19; 396.00; 2.34; 19.06
2018-08-29 21:30:31; 396.00; 2.34; 19.06
2018-08-29 21:30:43; 396.00; 2.34; 19.06
2018-08-29 21:30:56; 396.00; 2.34; 19.06
2018-08-29 21:45:10; 397.00; 2.33; 18.50
2018-08-29 21:45:22; 397.00; 2.33; 18.44
2018-08-29 21:45:35; 397.00; 2.33; 18.44
2018-08-29 21:45:47; 397.00; 2.33; 18.44
2018-08-29 21:45:59; 397.00; 2.33; 18.44
2018-08-29 22:00:02; 397.00; 2.34; 18.31
2018-08-29 22:00:15; 397.00; 2.34; 18.31
2018-08-29 22:00:27; 397.00; 2.34; 18.31
2018-08-29 22:00:39; 397.00; 2.33; 18.31
2018-08-29 22:00:52; 397.00; 2.33; 18.31
2018-08-29 22:15:06; 398.00; 2.33; 18.63
2018-08-29 22:15:18; 397.00; 2.33; 18.56
2018-08-29 22:15:31; 396.00; 2.34; 18.56
2018-08-29 22:15:43; 397.00; 2.34; 18.56
2018-08-29 22:15:55; 397.00; 2.33; 18.56
2018-08-29 22:30:09; 397.00; 2.33; 18.19
2018-08-29 22:30:22; 397.00; 2.33; 18.19
2018-08-29 22:30:34; 397.00; 2.33; 18.19
2018-08-29 22:30:46; 397.00; 2.33; 18.19
2018-08-29 22:30:59; 397.00; 2.33; 18.19
2018-08-29 22:45:02; 398.00; 2.33; 18.06
2018-08-29 22:45:14; 397.00; 2.33; 18.13
2018-08-29 22:45:27; 397.00; 2.33; 18.13
2018-08-29 22:45:39; 397.00; 2.32; 18.06
2018-08-29 22:45:51; 397.00; 2.33; 18.06
2018-08-29 23:00:06; 397.00; 2.33; 17.81
2018-08-29 23:00:18; 397.00; 2.33; 17.81
2018-08-29 23:00:30; 397.00; 2.33; 17.81
2018-08-29 23:00:43; 397.00; 2.33; 17.81
2018-08-29 23:00:55; 397.00; 2.33; 17.75
2018-08-29 23:15:09; 396.00; 2.34; 17.94
2018-08-29 23:15:22; 396.00; 2.34; 17.94
2018-08-29 23:15:34; 396.00; 2.34; 18.00
2018-08-29 23:15:46; 396.00; 2.34; 18.00
2018-08-29 23:15:59; 396.00; 2.34; 18.00
2018-08-29 23:30:02; 396.00; 2.34; 18.38
2018-08-29 23:30:14; 396.00; 2.34; 18.31
2018-08-29 23:30:27; 396.00; 2.34; 18.38
2018-08-29 23:30:39; 396.00; 2.34; 18.38
2018-08-29 23:30:51; 396.00; 2.34; 18.38
2018-08-29 23:45:06; 396.00; 2.34; 18.31
2018-08-29 23:45:18; 396.00; 2.34; 18.31
2018-08-29 23:45:31; 396.00; 2.34; 18.31
2018-08-29 23:45:43; 396.00; 2.34; 18.31
2018-08-29 23:45:55; 396.00; 2.34; 18.31
