2018-10-31 00:00:10; 289.00; 3.41; 18.94
2018-10-31 00:00:22; 289.00; 3.41; 18.94
2018-10-31 00:00:35; 289.00; 3.41; 18.94
2018-10-31 00:00:47; 289.00; 3.41; 18.94
2018-10-31 00:01:00; 289.00; 3.41; 18.94
2018-10-31 00:15:03; 290.00; 3.40; 18.50
2018-10-31 00:15:15; 290.00; 3.40; 18.50
2018-10-31 00:15:28; 290.00; 3.40; 18.50
2018-10-31 00:15:40; 290.00; 3.40; 18.50
2018-10-31 00:15:53; 290.00; 3.40; 18.50
2018-10-31 00:30:07; 290.00; 3.40; 18.25
2018-10-31 00:30:19; 290.00; 3.40; 18.25
2018-10-31 00:30:32; 290.00; 3.40; 18.25
2018-10-31 00:30:44; 290.00; 3.40; 18.19
2018-10-31 00:30:57; 290.00; 3.40; 18.19
2018-10-31 00:45:11; 290.00; 3.41; 18.13
2018-10-31 00:45:23; 290.00; 3.41; 18.13
2018-10-31 00:45:36; 290.00; 3.41; 18.13
2018-10-31 00:45:48; 290.00; 3.40; 18.13
2018-10-31 01:00:03; 291.00; 3.40; 18.06
2018-10-31 01:00:15; 291.00; 3.40; 18.06
2018-10-31 01:00:28; 290.00; 3.40; 18.06
2018-10-31 01:00:40; 290.00; 3.40; 18.06
2018-10-31 01:00:52; 290.00; 3.40; 18.06
2018-10-31 01:15:07; 291.00; 3.40; 18.13
2018-10-31 01:15:19; 291.00; 3.39; 18.13
2018-10-31 01:15:32; 291.00; 3.40; 18.13
2018-10-31 01:15:44; 291.00; 3.40; 18.13
2018-10-31 01:15:57; 290.00; 3.40; 18.13
2018-10-31 01:30:11; 292.00; 3.39; 18.06
2018-10-31 01:30:24; 291.00; 3.39; 18.06
2018-10-31 01:30:36; 291.00; 3.40; 18.06
2018-10-31 01:30:49; 291.00; 3.40; 18.06
2018-10-31 01:45:03; 291.00; 3.39; 18.25
2018-10-31 01:45:16; 290.00; 3.40; 18.25
2018-10-31 01:45:28; 291.00; 3.39; 18.25
2018-10-31 01:45:41; 291.00; 3.39; 18.19
2018-10-31 01:45:53; 291.00; 3.39; 18.25
2018-10-31 02:00:08; 292.00; 3.37; 18.44
2018-10-31 02:00:21; 292.00; 3.39; 18.44
2018-10-31 02:00:33; 290.00; 3.40; 18.44
2018-10-31 02:00:46; 292.00; 3.38; 18.44
2018-10-31 02:00:58; 290.00; 3.40; 18.44
2018-10-31 02:15:01; 291.00; 3.39; 18.50
2018-10-31 02:15:14; 291.00; 3.39; 18.50
2018-10-31 02:15:26; 288.00; 3.42; 18.50
2018-10-31 02:15:39; 288.00; 3.42; 18.50
2018-10-31 02:15:51; 288.00; 3.41; 18.44
2018-10-31 02:30:06; 290.00; 3.40; 18.38
2018-10-31 02:30:18; 290.00; 3.40; 18.44
2018-10-31 02:30:31; 290.00; 3.40; 18.38
2018-10-31 02:30:43; 289.00; 3.41; 18.38
2018-10-31 02:30:56; 291.00; 3.39; 18.38
2018-10-31 02:45:10; 290.00; 3.40; 18.06
2018-10-31 02:45:23; 292.00; 3.38; 18.06
2018-10-31 02:45:35; 290.00; 3.40; 18.06
2018-10-31 02:45:48; 292.00; 3.39; 18.06
2018-10-31 02:46:00; 290.00; 3.40; 18.06
2018-10-31 03:00:04; 289.00; 3.41; 17.63
2018-10-31 03:00:16; 289.00; 3.41; 17.63
2018-10-31 03:00:29; 289.00; 3.40; 17.63
2018-10-31 03:00:41; 288.00; 3.41; 17.63
2018-10-31 03:00:53; 289.00; 3.41; 17.56
2018-10-31 03:15:08; 289.00; 3.41; 17.31
2018-10-31 03:15:21; 288.00; 3.42; 17.31
2018-10-31 03:15:33; 288.00; 3.42; 17.25
2018-10-31 03:15:46; 289.00; 3.41; 17.25
2018-10-31 03:15:58; 288.00; 3.42; 17.25
2018-10-31 03:30:01; 290.00; 3.40; 17.25
2018-10-31 03:30:14; 290.00; 3.40; 17.25
2018-10-31 03:30:26; 290.00; 3.40; 17.25
2018-10-31 03:30:39; 290.00; 3.40; 17.25
2018-10-31 03:30:51; 290.00; 3.39; 17.19
2018-10-31 03:45:05; 289.00; 3.41; 17.00
2018-10-31 03:45:18; 289.00; 3.41; 17.00
2018-10-31 03:45:30; 290.00; 3.41; 17.00
2018-10-31 03:45:43; 289.00; 3.41; 17.00
2018-10-31 03:45:55; 290.00; 3.40; 17.00
2018-10-31 04:00:10; 290.00; 3.40; 16.94
2018-10-31 04:00:22; 290.00; 3.40; 16.94
2018-10-31 04:00:35; 290.00; 3.40; 16.94
2018-10-31 04:00:47; 290.00; 3.40; 16.94
2018-10-31 04:01:00; 290.00; 3.40; 16.94
2018-10-31 04:15:03; 291.00; 3.39; 16.81
2018-10-31 04:15:15; 290.00; 3.40; 16.81
2018-10-31 04:15:28; 290.00; 3.40; 16.81
2018-10-31 04:15:40; 291.00; 3.40; 16.81
2018-10-31 04:15:53; 291.00; 3.39; 16.81
2018-10-31 04:30:07; 292.00; 3.39; 16.69
2018-10-31 04:30:20; 292.00; 3.39; 16.69
2018-10-31 04:30:32; 292.00; 3.39; 16.69
2018-10-31 04:30:45; 292.00; 3.39; 16.69
2018-10-31 04:30:57; 292.00; 3.38; 16.69
2018-10-31 04:45:10; 292.00; 3.39; 16.75
2018-10-31 04:45:22; 292.00; 3.39; 16.75
2018-10-31 04:45:35; 292.00; 3.39; 16.75
2018-10-31 04:45:47; 292.00; 3.39; 16.75
2018-10-31 04:46:00; 292.00; 3.39; 16.75
2018-10-31 05:00:01; 292.00; 3.38; 16.69
2018-10-31 05:00:14; 292.00; 3.38; 16.69
2018-10-31 05:00:26; 292.00; 3.39; 16.69
2018-10-31 05:00:39; 292.00; 3.39; 16.69
2018-10-31 05:00:51; 292.00; 3.39; 16.69
2018-10-31 05:15:04; 292.00; 3.39; 16.63
2018-10-31 05:15:16; 293.00; 3.38; 16.63
2018-10-31 05:15:29; 293.00; 3.38; 16.63
2018-10-31 05:15:41; 293.00; 3.38; 16.63
2018-10-31 05:15:54; 292.00; 3.38; 16.63
2018-10-31 05:30:07; 292.00; 3.38; 16.69
2018-10-31 05:30:19; 292.00; 3.38; 16.69
2018-10-31 05:30:32; 292.00; 3.38; 16.69
2018-10-31 05:30:44; 292.00; 3.39; 16.69
2018-10-31 05:30:56; 292.00; 3.38; 16.69
2018-10-31 05:45:09; 292.00; 3.39; 16.69
2018-10-31 05:45:22; 292.00; 3.39; 16.69
2018-10-31 05:45:34; 292.00; 3.38; 16.69
2018-10-31 05:45:47; 292.00; 3.39; 16.69
2018-10-31 05:45:59; 293.00; 3.38; 16.69
2018-10-31 06:00:01; 292.00; 3.39; 16.50
2018-10-31 06:00:13; 292.00; 3.39; 16.50
2018-10-31 06:00:26; 292.00; 3.39; 16.50
2018-10-31 06:00:38; 292.00; 3.39; 16.50
2018-10-31 06:00:51; 291.00; 3.39; 16.50
2018-10-31 06:15:04; 291.00; 3.39; 16.63
2018-10-31 06:15:16; 292.00; 3.39; 16.63
2018-10-31 06:15:28; 291.00; 3.39; 16.69
2018-10-31 06:15:41; 291.00; 3.40; 16.69
2018-10-31 06:15:53; 291.00; 3.40; 16.69
2018-10-31 06:30:06; 291.00; 3.40; 16.75
2018-10-31 06:30:19; 291.00; 3.39; 16.69
2018-10-31 06:30:31; 291.00; 3.39; 16.69
2018-10-31 06:30:43; 291.00; 3.40; 16.69
2018-10-31 06:30:56; 291.00; 3.40; 16.69
2018-10-31 06:45:09; 292.00; 3.39; 16.31
2018-10-31 06:45:21; 291.00; 3.39; 16.31
2018-10-31 06:45:34; 291.00; 3.39; 16.31
2018-10-31 06:45:46; 291.00; 3.40; 16.31
2018-10-31 06:45:59; 291.00; 3.39; 16.31
2018-10-31 07:00:11; 292.00; 3.39; 16.25
2018-10-31 07:00:24; 292.00; 3.39; 16.25
2018-10-31 07:00:36; 292.00; 3.39; 16.25
2018-10-31 07:00:49; 292.00; 3.39; 16.25
2018-10-31 07:15:03; 292.00; 3.38; 16.06
2018-10-31 07:15:15; 292.00; 3.38; 16.06
2018-10-31 07:15:28; 292.00; 3.38; 16.06
2018-10-31 07:15:40; 292.00; 3.38; 16.06
2018-10-31 07:15:53; 292.00; 3.38; 16.06
2018-10-31 07:30:07; 291.00; 3.39; 16.25
2018-10-31 07:30:20; 291.00; 3.39; 16.25
2018-10-31 07:30:32; 291.00; 3.39; 16.25
2018-10-31 07:30:45; 291.00; 3.39; 16.25
2018-10-31 07:30:57; 292.00; 3.39; 16.25
2018-10-31 07:45:11; 291.00; 3.39; 16.50
2018-10-31 07:45:23; 291.00; 3.40; 16.50
2018-10-31 07:45:35; 292.00; 3.39; 16.50
2018-10-31 07:45:48; 291.00; 3.39; 16.56
2018-10-31 07:46:00; 291.00; 3.40; 16.56
2018-10-31 08:00:03; 290.00; 3.40; 17.44
2018-10-31 08:00:15; 290.00; 3.40; 17.44
2018-10-31 08:00:28; 290.00; 3.40; 17.44
2018-10-31 08:00:40; 290.00; 3.40; 17.38
2018-10-31 08:00:53; 290.00; 3.40; 17.44
2018-10-31 08:15:07; 290.00; 3.40; 17.25
2018-10-31 08:15:19; 289.00; 3.40; 17.31
2018-10-31 08:15:32; 290.00; 3.40; 17.31
2018-10-31 08:15:44; 290.00; 3.40; 17.31
2018-10-31 08:15:57; 290.00; 3.40; 17.31
2018-10-31 08:30:11; 290.00; 3.40; 17.75
2018-10-31 08:30:24; 290.00; 3.39; 17.75
2018-10-31 08:30:36; 290.00; 3.39; 17.75
2018-10-31 08:30:49; 290.00; 3.40; 17.75
2018-10-31 08:45:04; 291.00; 3.39; 18.00
2018-10-31 08:45:16; 291.00; 3.39; 18.06
2018-10-31 08:45:28; 291.00; 3.39; 18.06
2018-10-31 08:45:41; 291.00; 3.39; 18.13
2018-10-31 08:45:53; 291.00; 3.39; 18.13
2018-10-31 09:00:08; 290.00; 3.40; 20.00
2018-10-31 09:00:20; 290.00; 3.40; 20.06
2018-10-31 09:00:33; 290.00; 3.40; 20.13
2018-10-31 09:00:45; 290.00; 3.40; 20.13
2018-10-31 09:00:58; 290.00; 3.40; 20.19
2018-10-31 09:15:12; 290.00; 3.40; 20.06
2018-10-31 09:15:24; 290.00; 3.40; 20.06
2018-10-31 09:15:37; 290.00; 3.40; 20.06
2018-10-31 09:15:49; 290.00; 3.40; 20.06
2018-10-31 09:30:03; 291.00; 3.40; 19.88
2018-10-31 09:30:16; 290.00; 3.40; 19.94
2018-10-31 09:30:28; 291.00; 3.40; 19.94
2018-10-31 09:30:41; 291.00; 3.40; 20.00
2018-10-31 09:30:53; 290.00; 3.40; 20.06
2018-10-31 09:45:08; 291.00; 3.39; 20.00
2018-10-31 09:45:20; 290.00; 3.40; 20.00
2018-10-31 09:45:33; 291.00; 3.39; 19.94
2018-10-31 09:45:45; 290.00; 3.39; 20.00
2018-10-31 09:45:58; 290.00; 3.40; 20.00
2018-10-31 10:00:01; 291.00; 3.39; 19.25
2018-10-31 10:00:13; 291.00; 3.40; 19.25
2018-10-31 10:00:26; 291.00; 3.39; 19.25
2018-10-31 10:00:38; 290.00; 3.40; 19.25
2018-10-31 10:00:50; 292.00; 3.39; 19.25
2018-10-31 10:15:05; 291.00; 3.39; 18.88
2018-10-31 10:15:17; 290.00; 3.40; 18.88
2018-10-31 10:15:30; 291.00; 3.39; 18.88
2018-10-31 10:15:42; 291.00; 3.39; 18.88
2018-10-31 10:15:55; 291.00; 3.39; 18.94
2018-10-31 10:30:09; 291.00; 3.39; 20.56
2018-10-31 10:30:22; 290.00; 3.40; 20.56
2018-10-31 10:30:34; 290.00; 3.40; 20.63
2018-10-31 10:30:47; 290.00; 3.40; 20.63
2018-10-31 10:30:59; 291.00; 3.40; 20.63
2018-10-31 10:45:02; 290.00; 3.40; 22.38
2018-10-31 10:45:15; 290.00; 3.40; 22.50
2018-10-31 10:45:27; 290.00; 3.40; 22.56
2018-10-31 10:45:40; 290.00; 3.40; 22.56
2018-10-31 10:45:52; 289.00; 3.41; 22.63
2018-10-31 11:00:06; 289.00; 3.41; 23.13
2018-10-31 11:00:19; 289.00; 3.41; 23.13
2018-10-31 11:00:31; 290.00; 3.40; 23.06
2018-10-31 11:00:44; 289.00; 3.41; 22.94
2018-10-31 11:00:56; 289.00; 3.41; 22.94
2018-10-31 11:15:11; 289.00; 3.41; 21.25
2018-10-31 11:15:23; 289.00; 3.41; 21.19
2018-10-31 11:15:36; 289.00; 3.41; 21.19
2018-10-31 11:15:48; 289.00; 3.41; 21.13
2018-10-31 11:16:01; 289.00; 3.41; 21.06
2018-10-31 11:30:04; 289.00; 3.41; 19.88
2018-10-31 11:30:16; 290.00; 3.40; 19.88
2018-10-31 11:30:28; 289.00; 3.41; 19.81
2018-10-31 11:30:41; 289.00; 3.41; 19.88
2018-10-31 11:30:53; 289.00; 3.41; 19.88
2018-10-31 11:45:08; 291.00; 3.40; 19.75
2018-10-31 11:45:20; 290.00; 3.40; 19.75
2018-10-31 11:45:33; 290.00; 3.41; 19.69
2018-10-31 11:45:45; 291.00; 3.40; 19.75
2018-10-31 11:45:58; 290.00; 3.40; 19.69
2018-10-31 12:00:01; 290.00; 3.40; 19.50
2018-10-31 12:00:13; 290.00; 3.40; 19.50
2018-10-31 12:00:26; 291.00; 3.39; 19.50
2018-10-31 12:00:38; 290.00; 3.40; 19.50
2018-10-31 12:00:51; 290.00; 3.40; 19.56
2018-10-31 12:15:05; 290.00; 3.40; 19.94
2018-10-31 12:15:18; 290.00; 3.40; 19.94
2018-10-31 12:15:30; 289.00; 3.41; 20.00
2018-10-31 12:15:43; 290.00; 3.40; 20.00
2018-10-31 12:15:55; 291.00; 3.40; 20.00
2018-10-31 12:30:09; 289.00; 3.41; 21.88
2018-10-31 12:30:22; 290.00; 3.40; 21.94
2018-10-31 12:30:34; 289.00; 3.41; 22.00
2018-10-31 12:30:47; 290.00; 3.40; 22.06
2018-10-31 12:30:59; 290.00; 3.40; 22.13
2018-10-31 12:45:03; 290.00; 3.41; 24.56
2018-10-31 12:45:15; 290.00; 3.40; 24.50
2018-10-31 12:45:27; 291.00; 3.39; 24.50
2018-10-31 12:45:40; 289.00; 3.41; 24.50
2018-10-31 12:45:52; 290.00; 3.40; 24.56
2018-10-31 13:00:07; 290.00; 3.40; 23.38
2018-10-31 13:00:19; 289.00; 3.41; 23.25
2018-10-31 13:00:32; 290.00; 3.40; 23.19
2018-10-31 13:00:44; 290.00; 3.40; 23.13
2018-10-31 13:00:56; 290.00; 3.40; 23.13
2018-10-31 13:15:11; 289.00; 3.41; 21.56
2018-10-31 13:15:23; 288.00; 3.42; 21.56
2018-10-31 13:15:36; 290.00; 3.40; 21.50
2018-10-31 13:15:48; 289.00; 3.41; 21.50
2018-10-31 13:30:03; 290.00; 3.41; 20.88
2018-10-31 13:30:15; 291.00; 3.40; 20.81
2018-10-31 13:30:28; 290.00; 3.40; 20.81
2018-10-31 13:30:40; 290.00; 3.40; 20.81
2018-10-31 13:30:53; 290.00; 3.40; 20.81
2018-10-31 13:45:07; 290.00; 3.40; 19.94
2018-10-31 13:45:20; 289.00; 3.41; 19.88
2018-10-31 13:45:32; 290.00; 3.40; 19.88
2018-10-31 13:45:44; 289.00; 3.41; 19.88
2018-10-31 13:45:57; 289.00; 3.41; 19.81
2018-10-31 14:00:11; 290.00; 3.40; 19.94
2018-10-31 14:00:24; 290.00; 3.40; 19.94
2018-10-31 14:00:36; 289.00; 3.40; 20.00
2018-10-31 14:00:49; 290.00; 3.40; 20.06
2018-10-31 14:15:03; 290.00; 3.40; 20.75
2018-10-31 14:15:16; 290.00; 3.40; 20.75
2018-10-31 14:15:28; 290.00; 3.40; 20.69
2018-10-31 14:15:41; 290.00; 3.40; 20.69
2018-10-31 14:15:53; 289.00; 3.41; 20.69
2018-10-31 14:30:08; 289.00; 3.41; 21.75
2018-10-31 14:30:20; 290.00; 3.40; 21.69
2018-10-31 14:30:33; 289.00; 3.41; 21.69
2018-10-31 14:30:45; 289.00; 3.40; 21.63
2018-10-31 14:30:58; 289.00; 3.40; 21.63
2018-10-31 14:45:01; 290.00; 3.41; 20.94
2018-10-31 14:45:13; 289.00; 3.41; 21.00
2018-10-31 14:45:26; 290.00; 3.41; 21.00
2018-10-31 14:45:38; 290.00; 3.41; 21.00
2018-10-31 14:45:51; 289.00; 3.40; 21.00
2018-10-31 15:00:05; 290.00; 3.40; 21.38
2018-10-31 15:00:18; 290.00; 3.41; 21.38
2018-10-31 15:00:30; 289.00; 3.41; 21.44
2018-10-31 15:00:43; 289.00; 3.41; 21.44
2018-10-31 15:00:55; 289.00; 3.41; 21.44
2018-10-31 15:15:09; 289.00; 3.41; 22.25
2018-10-31 15:15:22; 289.00; 3.41; 22.25
2018-10-31 15:15:34; 289.00; 3.41; 22.25
2018-10-31 15:15:47; 288.00; 3.42; 22.31
2018-10-31 15:15:59; 289.00; 3.41; 22.31
2018-10-31 15:30:02; 289.00; 3.41; 23.94
2018-10-31 15:30:14; 289.00; 3.41; 23.94
2018-10-31 15:30:27; 289.00; 3.41; 24.00
2018-10-31 15:30:39; 289.00; 3.41; 24.00
2018-10-31 15:30:52; 289.00; 3.41; 24.00
2018-10-31 15:45:06; 289.00; 3.41; 24.63
2018-10-31 15:45:18; 289.00; 3.41; 24.63
2018-10-31 15:45:31; 289.00; 3.41; 24.56
2018-10-31 15:45:43; 289.00; 3.41; 24.56
2018-10-31 15:45:56; 289.00; 3.41; 24.56
2018-10-31 16:00:10; 288.00; 3.42; 24.63
2018-10-31 16:00:22; 289.00; 3.41; 24.56
2018-10-31 16:00:34; 288.00; 3.42; 24.50
2018-10-31 16:00:47; 288.00; 3.42; 24.50
2018-10-31 16:00:59; 288.00; 3.42; 24.44
2018-10-31 16:15:02; 289.00; 3.41; 25.31
2018-10-31 16:15:15; 289.00; 3.41; 25.31
2018-10-31 16:15:27; 289.00; 3.41; 25.31
2018-10-31 16:15:40; 289.00; 3.42; 25.31
2018-10-31 16:15:52; 289.00; 3.41; 25.31
2018-10-31 16:30:06; 288.00; 3.42; 28.25
2018-10-31 16:30:19; 288.00; 3.42; 28.25
2018-10-31 16:30:31; 288.00; 3.42; 28.25
2018-10-31 16:30:43; 289.00; 3.41; 28.25
2018-10-31 16:30:56; 288.00; 3.41; 28.31
2018-10-31 16:45:10; 289.00; 3.41; 33.44
2018-10-31 16:45:22; 288.00; 3.42; 33.56
2018-10-31 16:45:35; 288.00; 3.42; 33.50
2018-10-31 16:45:47; 288.00; 3.42; 33.38
2018-10-31 16:46:00; 288.00; 3.42; 33.25
2018-10-31 17:00:02; 289.00; 3.41; 30.63
2018-10-31 17:00:15; 287.00; 3.43; 30.69
2018-10-31 17:00:27; 287.00; 3.43; 30.75
2018-10-31 17:00:39; 288.00; 3.42; 30.75
2018-10-31 17:00:52; 288.00; 3.42; 30.94
2018-10-31 17:15:06; 288.00; 3.42; 32.06
2018-10-31 17:15:18; 288.00; 3.42; 32.13
2018-10-31 17:15:31; 288.00; 3.42; 32.19
2018-10-31 17:15:43; 288.00; 3.42; 32.19
2018-10-31 17:15:55; 288.00; 3.42; 32.25
2018-10-31 17:30:09; 287.00; 3.43; 30.19
2018-10-31 17:30:21; 287.00; 3.43; 30.13
2018-10-31 17:30:34; 287.00; 3.43; 30.25
2018-10-31 17:30:46; 287.00; 3.43; 30.31
2018-10-31 17:30:59; 287.00; 3.43; 30.38
2018-10-31 17:45:01; 287.00; 3.43; 30.44
2018-10-31 17:45:13; 287.00; 3.43; 30.31
2018-10-31 17:45:26; 287.00; 3.43; 30.31
2018-10-31 17:45:38; 287.00; 3.43; 30.25
2018-10-31 17:45:51; 287.00; 3.43; 30.19
2018-10-31 18:00:04; 287.00; 3.43; 28.31
2018-10-31 18:00:17; 287.00; 3.43; 28.44
2018-10-31 18:00:29; 287.00; 3.43; 28.44
2018-10-31 18:00:41; 287.00; 3.43; 28.56
2018-10-31 18:00:54; 287.00; 3.43; 28.69
2018-10-31 18:15:08; 287.00; 3.43; 25.31
2018-10-31 18:15:20; 287.00; 3.43; 25.38
2018-10-31 18:15:33; 287.00; 3.43; 25.38
2018-10-31 18:15:45; 287.00; 3.43; 25.31
2018-10-31 18:15:57; 287.00; 3.43; 25.31
2018-10-31 18:30:11; 286.00; 3.44; 25.44
2018-10-31 18:30:24; 286.00; 3.43; 25.50
2018-10-31 18:30:36; 286.00; 3.44; 25.50
2018-10-31 18:30:49; 286.00; 3.45; 25.56
2018-10-31 18:45:03; 288.00; 3.42; 25.13
2018-10-31 18:45:15; 287.00; 3.43; 25.13
2018-10-31 18:45:28; 288.00; 3.42; 25.13
2018-10-31 18:45:40; 287.00; 3.43; 25.06
2018-10-31 18:45:52; 287.00; 3.43; 25.06
2018-10-31 19:00:07; 287.00; 3.43; 23.56
2018-10-31 19:00:19; 287.00; 3.42; 23.56
2018-10-31 19:00:32; 289.00; 3.41; 23.50
2018-10-31 19:00:44; 287.00; 3.43; 23.50
2018-10-31 19:00:57; 289.00; 3.41; 23.50
2018-10-31 19:15:11; 288.00; 3.42; 24.25
2018-10-31 19:15:23; 288.00; 3.42; 24.31
2018-10-31 19:15:35; 288.00; 3.42; 24.31
2018-10-31 19:15:48; 288.00; 3.42; 24.31
2018-10-31 19:16:00; 288.00; 3.43; 24.38
2018-10-31 19:30:03; 288.00; 3.43; 22.88
2018-10-31 19:30:16; 288.00; 3.41; 22.81
2018-10-31 19:30:28; 288.00; 3.42; 22.81
2018-10-31 19:30:41; 289.00; 3.42; 22.81
2018-10-31 19:30:53; 288.00; 3.42; 22.75
2018-10-31 19:45:07; 289.00; 3.42; 21.63
2018-10-31 19:45:20; 290.00; 3.41; 21.63
2018-10-31 19:45:32; 290.00; 3.41; 21.56
2018-10-31 19:45:45; 290.00; 3.41; 21.56
2018-10-31 19:45:57; 290.00; 3.41; 21.56
2018-10-31 20:00:12; 289.00; 3.41; 21.25
2018-10-31 20:00:24; 289.00; 3.41; 21.31
2018-10-31 20:00:37; 289.00; 3.41; 21.31
2018-10-31 20:00:49; 289.00; 3.41; 21.31
2018-10-31 20:15:03; 289.00; 3.41; 20.94
2018-10-31 20:15:16; 289.00; 3.41; 20.94
2018-10-31 20:15:28; 288.00; 3.42; 20.94
2018-10-31 20:15:41; 289.00; 3.41; 20.94
2018-10-31 20:15:53; 289.00; 3.41; 20.94
2018-10-31 20:30:07; 289.00; 3.41; 20.69
2018-10-31 20:30:20; 289.00; 3.41; 20.69
2018-10-31 20:30:32; 289.00; 3.41; 20.69
2018-10-31 20:30:45; 289.00; 3.41; 20.69
2018-10-31 20:30:57; 289.00; 3.41; 20.69
2018-10-31 20:45:12; 289.00; 3.41; 20.50
2018-10-31 20:45:24; 288.00; 3.42; 20.50
2018-10-31 20:45:37; 289.00; 3.41; 20.50
2018-10-31 20:45:49; 288.00; 3.42; 20.56
2018-10-31 21:00:04; 288.00; 3.42; 20.25
2018-10-31 21:00:16; 289.00; 3.41; 20.25
2018-10-31 21:00:29; 289.00; 3.41; 20.25
2018-10-31 21:00:41; 289.00; 3.41; 20.25
2018-10-31 21:00:53; 289.00; 3.41; 20.25
2018-10-31 21:15:08; 289.00; 3.41; 19.88
2018-10-31 21:15:20; 290.00; 3.40; 19.88
2018-10-31 21:15:33; 289.00; 3.41; 19.88
2018-10-31 21:15:45; 289.00; 3.41; 19.81
2018-10-31 21:15:58; 289.00; 3.41; 19.81
2018-10-31 21:30:01; 290.00; 3.40; 19.50
2018-10-31 21:30:14; 290.00; 3.40; 19.50
2018-10-31 21:30:26; 290.00; 3.40; 19.50
2018-10-31 21:30:38; 290.00; 3.40; 19.50
2018-10-31 21:30:51; 290.00; 3.40; 19.50
2018-10-31 21:45:05; 290.00; 3.40; 19.06
2018-10-31 21:45:18; 290.00; 3.40; 19.06
2018-10-31 21:45:30; 290.00; 3.40; 19.06
2018-10-31 21:45:43; 290.00; 3.40; 19.06
2018-10-31 21:45:55; 290.00; 3.40; 19.06
2018-10-31 22:00:10; 289.00; 3.41; 18.75
2018-10-31 22:00:22; 290.00; 3.40; 18.75
2018-10-31 22:00:35; 290.00; 3.40; 18.75
2018-10-31 22:00:47; 291.00; 3.40; 18.75
2018-10-31 22:01:00; 290.00; 3.39; 18.75
2018-10-31 22:15:03; 291.00; 3.40; 18.44
2018-10-31 22:15:15; 290.00; 3.40; 18.44
2018-10-31 22:15:28; 291.00; 3.40; 18.44
2018-10-31 22:15:40; 290.00; 3.40; 18.44
2018-10-31 22:15:53; 290.00; 3.40; 18.44
2018-10-31 22:30:07; 291.00; 3.40; 18.06
2018-10-31 22:30:20; 290.00; 3.40; 18.06
2018-10-31 22:30:32; 289.00; 3.40; 18.06
2018-10-31 22:30:45; 290.00; 3.40; 18.06
2018-10-31 22:30:57; 291.00; 3.39; 18.06
2018-10-31 22:45:01; 291.00; 3.39; 17.88
2018-10-31 22:45:13; 291.00; 3.39; 17.88
2018-10-31 22:45:26; 291.00; 3.39; 17.88
2018-10-31 22:45:38; 291.00; 3.39; 17.88
2018-10-31 22:45:51; 290.00; 3.40; 17.88
2018-10-31 23:00:05; 290.00; 3.40; 17.69
2018-10-31 23:00:18; 290.00; 3.40; 17.69
2018-10-31 23:00:30; 290.00; 3.40; 17.69
2018-10-31 23:00:43; 290.00; 3.40; 17.69
2018-10-31 23:00:55; 291.00; 3.39; 17.63
2018-10-31 23:15:10; 289.00; 3.41; 17.50
2018-10-31 23:15:22; 290.00; 3.40; 17.50
2018-10-31 23:15:35; 289.00; 3.41; 17.50
2018-10-31 23:15:47; 290.00; 3.40; 17.50
2018-10-31 23:16:00; 290.00; 3.40; 17.50
2018-10-31 23:30:03; 290.00; 3.40; 17.31
2018-10-31 23:30:15; 290.00; 3.40; 17.31
2018-10-31 23:30:28; 291.00; 3.39; 17.31
2018-10-31 23:30:40; 290.00; 3.40; 17.31
2018-10-31 23:30:52; 289.00; 3.41; 17.31
2018-10-31 23:45:07; 289.00; 3.41; 17.00
2018-10-31 23:45:19; 288.00; 3.42; 17.00
2018-10-31 23:45:32; 288.00; 3.41; 17.00
2018-10-31 23:45:44; 288.00; 3.42; 17.00
2018-10-31 23:45:57; 289.00; 3.41; 17.00
