2018-11-09 00:00:10; 269.00; 3.61; 23.69
2018-11-09 00:00:23; 269.00; 3.61; 23.69
2018-11-09 00:00:35; 269.00; 3.61; 23.75
2018-11-09 00:00:47; 269.00; 3.61; 23.69
2018-11-09 00:01:00; 269.00; 3.61; 23.69
2018-11-09 00:15:03; 270.00; 3.60; 23.63
2018-11-09 00:15:15; 269.00; 3.61; 23.69
2018-11-09 00:15:28; 269.00; 3.61; 23.69
2018-11-09 00:15:40; 269.00; 3.61; 23.69
2018-11-09 00:15:53; 270.00; 3.60; 23.69
2018-11-09 00:30:07; 273.00; 3.59; 23.56
2018-11-09 00:30:19; 272.00; 3.58; 23.56
2018-11-09 00:30:32; 270.00; 3.60; 23.56
2018-11-09 00:30:44; 270.00; 3.60; 23.56
2018-11-09 00:30:57; 270.00; 3.60; 23.56
2018-11-09 00:45:11; 270.00; 3.60; 23.38
2018-11-09 00:45:23; 270.00; 3.60; 23.31
2018-11-09 00:45:36; 271.00; 3.60; 23.38
2018-11-09 00:45:48; 270.00; 3.61; 23.31
2018-11-09 01:00:02; 270.00; 3.60; 23.25
2018-11-09 01:00:15; 270.00; 3.60; 23.25
2018-11-09 01:00:27; 269.00; 3.61; 23.25
2018-11-09 01:00:40; 269.00; 3.61; 23.25
2018-11-09 01:00:52; 269.00; 3.60; 23.25
2018-11-09 01:15:07; 270.00; 3.60; 23.13
2018-11-09 01:15:19; 270.00; 3.60; 23.13
2018-11-09 01:15:32; 270.00; 3.60; 23.13
2018-11-09 01:15:44; 270.00; 3.60; 23.13
2018-11-09 01:15:57; 270.00; 3.60; 23.13
2018-11-09 01:30:11; 269.00; 3.61; 23.06
2018-11-09 01:30:23; 269.00; 3.61; 23.06
2018-11-09 01:30:36; 269.00; 3.61; 23.06
2018-11-09 01:30:48; 269.00; 3.61; 23.06
2018-11-09 01:45:03; 270.00; 3.61; 22.94
2018-11-09 01:45:15; 269.00; 3.61; 22.94
2018-11-09 01:45:28; 269.00; 3.60; 22.94
2018-11-09 01:45:40; 270.00; 3.60; 22.94
2018-11-09 01:45:52; 270.00; 3.60; 22.94
2018-11-09 02:00:07; 270.00; 3.60; 22.75
2018-11-09 02:00:19; 269.00; 3.61; 22.75
2018-11-09 02:00:32; 270.00; 3.60; 22.81
2018-11-09 02:00:44; 270.00; 3.60; 22.81
2018-11-09 02:00:57; 270.00; 3.60; 22.81
2018-11-09 02:15:11; 270.00; 3.60; 22.81
2018-11-09 02:15:23; 269.00; 3.61; 22.81
2018-11-09 02:15:36; 270.00; 3.60; 22.81
2018-11-09 02:15:48; 270.00; 3.60; 22.81
2018-11-09 02:30:03; 270.00; 3.60; 22.81
2018-11-09 02:30:15; 270.00; 3.60; 22.81
2018-11-09 02:30:28; 270.00; 3.61; 22.81
2018-11-09 02:30:40; 270.00; 3.60; 22.88
2018-11-09 02:30:53; 269.00; 3.61; 22.81
2018-11-09 02:45:07; 270.00; 3.60; 22.81
2018-11-09 02:45:19; 270.00; 3.60; 22.81
2018-11-09 02:45:32; 270.00; 3.60; 22.81
2018-11-09 02:45:44; 269.00; 3.61; 22.81
2018-11-09 02:45:57; 269.00; 3.61; 22.81
2018-11-09 03:00:11; 270.00; 3.60; 22.69
2018-11-09 03:00:24; 270.00; 3.60; 22.69
2018-11-09 03:00:36; 270.00; 3.60; 22.69
2018-11-09 03:00:49; 270.00; 3.60; 22.63
2018-11-09 03:15:03; 271.00; 3.59; 22.63
2018-11-09 03:15:15; 271.00; 3.59; 22.63
2018-11-09 03:15:28; 271.00; 3.59; 22.69
2018-11-09 03:15:40; 271.00; 3.59; 22.69
2018-11-09 03:15:53; 271.00; 3.60; 22.69
2018-11-09 03:30:07; 269.00; 3.61; 22.69
2018-11-09 03:30:19; 270.00; 3.60; 22.69
2018-11-09 03:30:32; 270.00; 3.60; 22.69
2018-11-09 03:30:44; 270.00; 3.60; 22.69
2018-11-09 03:30:57; 269.00; 3.61; 22.69
2018-11-09 03:45:11; 269.00; 3.61; 22.56
2018-11-09 03:45:23; 270.00; 3.60; 22.56
2018-11-09 03:45:36; 270.00; 3.61; 22.56
2018-11-09 03:45:48; 269.00; 3.61; 22.56
2018-11-09 04:00:03; 269.00; 3.61; 22.50
2018-11-09 04:00:15; 269.00; 3.61; 22.50
2018-11-09 04:00:28; 269.00; 3.61; 22.50
2018-11-09 04:00:40; 269.00; 3.61; 22.50
2018-11-09 04:00:52; 269.00; 3.61; 22.50
2018-11-09 04:15:07; 270.00; 3.60; 22.56
2018-11-09 04:15:19; 270.00; 3.60; 22.50
2018-11-09 04:15:32; 269.00; 3.61; 22.56
2018-11-09 04:15:44; 269.00; 3.61; 22.50
2018-11-09 04:15:57; 269.00; 3.61; 22.50
2018-11-09 04:30:11; 269.00; 3.61; 22.56
2018-11-09 04:30:23; 269.00; 3.61; 22.56
2018-11-09 04:30:36; 269.00; 3.61; 22.56
2018-11-09 04:30:48; 269.00; 3.61; 22.56
2018-11-09 04:45:02; 269.00; 3.61; 22.94
2018-11-09 04:45:15; 268.00; 3.61; 22.94
2018-11-09 04:45:27; 269.00; 3.61; 22.94
2018-11-09 04:45:40; 269.00; 3.61; 23.00
2018-11-09 04:45:52; 269.00; 3.61; 23.00
2018-11-09 05:00:07; 269.00; 3.61; 23.31
2018-11-09 05:00:19; 269.00; 3.61; 23.31
2018-11-09 05:00:32; 269.00; 3.61; 23.38
2018-11-09 05:00:44; 270.00; 3.60; 23.31
2018-11-09 05:00:56; 268.00; 3.62; 23.38
2018-11-09 05:15:11; 269.00; 3.62; 23.13
2018-11-09 05:15:23; 269.00; 3.61; 23.13
2018-11-09 05:15:36; 270.00; 3.60; 23.13
2018-11-09 05:15:48; 269.00; 3.61; 23.13
2018-11-09 05:30:02; 270.00; 3.60; 23.13
2018-11-09 05:30:15; 268.00; 3.62; 23.13
2018-11-09 05:30:27; 269.00; 3.61; 23.13
2018-11-09 05:30:40; 269.00; 3.62; 23.13
2018-11-09 05:30:52; 269.00; 3.61; 23.13
2018-11-09 05:45:07; 268.00; 3.62; 23.19
2018-11-09 05:45:19; 268.00; 3.62; 23.19
2018-11-09 05:45:32; 269.00; 3.61; 23.19
2018-11-09 05:45:44; 269.00; 3.62; 23.19
2018-11-09 05:45:57; 269.00; 3.61; 23.19
2018-11-09 06:00:11; 269.00; 3.61; 23.25
2018-11-09 06:00:23; 268.00; 3.62; 23.25
2018-11-09 06:00:36; 268.00; 3.62; 23.25
2018-11-09 06:00:48; 268.00; 3.62; 23.25
2018-11-09 06:15:03; 268.00; 3.62; 23.00
2018-11-09 06:15:15; 269.00; 3.61; 23.00
2018-11-09 06:15:28; 268.00; 3.61; 23.00
2018-11-09 06:15:40; 269.00; 3.61; 23.00
2018-11-09 06:15:53; 268.00; 3.61; 22.94
2018-11-09 06:30:07; 270.00; 3.60; 22.88
2018-11-09 06:30:19; 270.00; 3.60; 22.88
2018-11-09 06:30:32; 268.00; 3.62; 22.88
2018-11-09 06:30:45; 269.00; 3.61; 22.88
2018-11-09 06:30:57; 268.00; 3.62; 22.88
2018-11-09 06:45:12; 267.00; 3.63; 22.81
2018-11-09 06:45:24; 267.00; 3.63; 22.81
2018-11-09 06:45:36; 269.00; 3.61; 22.81
2018-11-09 06:45:49; 268.00; 3.62; 22.81
2018-11-09 07:00:03; 268.00; 3.62; 22.75
2018-11-09 07:00:16; 269.00; 3.61; 22.75
2018-11-09 07:00:28; 269.00; 3.61; 22.75
2018-11-09 07:00:41; 269.00; 3.60; 22.75
2018-11-09 07:00:53; 266.00; 3.64; 22.75
2018-11-09 07:15:08; 268.00; 3.62; 22.94
2018-11-09 07:15:20; 269.00; 3.61; 22.94
2018-11-09 07:15:33; 269.00; 3.61; 22.94
2018-11-09 07:15:45; 267.00; 3.62; 22.94
2018-11-09 07:15:58; 266.00; 3.64; 22.94
2018-11-09 07:30:01; 269.00; 3.61; 23.06
2018-11-09 07:30:13; 268.00; 3.62; 23.06
2018-11-09 07:30:26; 269.00; 3.61; 23.06
2018-11-09 07:30:38; 269.00; 3.62; 23.06
2018-11-09 07:30:51; 269.00; 3.61; 23.13
2018-11-09 07:45:05; 268.00; 3.62; 23.44
2018-11-09 07:45:18; 267.00; 3.63; 23.44
2018-11-09 07:45:30; 270.00; 3.61; 23.44
2018-11-09 07:45:43; 269.00; 3.61; 23.44
2018-11-09 07:45:55; 269.00; 3.61; 23.44
2018-11-09 08:00:10; 268.00; 3.62; 24.56
2018-11-09 08:00:22; 269.00; 3.61; 24.56
2018-11-09 08:00:35; 270.00; 3.61; 24.56
2018-11-09 08:00:47; 269.00; 3.62; 24.63
2018-11-09 08:01:00; 268.00; 3.62; 24.63
2018-11-09 08:15:03; 267.00; 3.63; 26.31
2018-11-09 08:15:15; 267.00; 3.62; 26.31
2018-11-09 08:15:27; 270.00; 3.61; 26.31
2018-11-09 08:15:40; 269.00; 3.61; 26.38
2018-11-09 08:15:52; 267.00; 3.64; 26.44
2018-11-09 08:30:07; 267.00; 3.62; 27.63
2018-11-09 08:30:19; 268.00; 3.63; 27.56
2018-11-09 08:30:32; 268.00; 3.62; 27.56
2018-11-09 08:30:44; 269.00; 3.61; 27.56
2018-11-09 08:30:57; 266.00; 3.63; 27.63
2018-11-09 08:45:11; 268.00; 3.63; 28.81
2018-11-09 08:45:23; 267.00; 3.64; 28.88
2018-11-09 08:45:36; 266.00; 3.64; 28.94
2018-11-09 08:45:48; 268.00; 3.62; 28.94
2018-11-09 09:00:02; 268.00; 3.63; 29.56
2018-11-09 09:00:15; 270.00; 3.60; 29.56
2018-11-09 09:00:27; 269.00; 3.61; 29.50
2018-11-09 09:00:40; 268.00; 3.63; 29.50
2018-11-09 09:00:52; 267.00; 3.63; 29.56
2018-11-09 09:15:06; 267.00; 3.63; 30.81
2018-11-09 09:15:19; 267.00; 3.62; 30.88
2018-11-09 09:15:31; 267.00; 3.63; 30.94
2018-11-09 09:15:44; 267.00; 3.63; 30.94
2018-11-09 09:15:56; 267.00; 3.63; 31.00
2018-11-09 09:30:10; 267.00; 3.63; 32.25
2018-11-09 09:30:23; 267.00; 3.63; 32.25
2018-11-09 09:30:35; 266.00; 3.63; 32.31
2018-11-09 09:30:47; 267.00; 3.64; 32.31
2018-11-09 09:31:00; 266.00; 3.64; 32.31
2018-11-09 09:45:02; 266.00; 3.64; 33.13
2018-11-09 09:45:15; 266.00; 3.64; 33.19
2018-11-09 09:45:27; 266.00; 3.64; 33.19
2018-11-09 09:45:40; 267.00; 3.63; 33.19
2018-11-09 09:45:52; 267.00; 3.63; 33.25
2018-11-09 10:00:06; 265.00; 3.64; 33.69
2018-11-09 10:00:18; 268.00; 3.63; 33.69
2018-11-09 10:00:31; 268.00; 3.62; 33.75
2018-11-09 10:00:43; 266.00; 3.65; 33.63
2018-11-09 10:00:56; 266.00; 3.64; 33.50
2018-11-09 10:15:10; 265.00; 3.64; 33.13
2018-11-09 10:15:22; 267.00; 3.63; 33.13
2018-11-09 10:15:35; 266.00; 3.64; 33.19
2018-11-09 10:15:47; 267.00; 3.63; 33.25
2018-11-09 10:16:00; 266.00; 3.64; 33.38
2018-11-09 10:30:02; 264.00; 3.67; 33.63
2018-11-09 10:30:15; 265.00; 3.65; 33.56
2018-11-09 10:30:27; 267.00; 3.63; 33.56
2018-11-09 10:30:40; 265.00; 3.65; 33.63
2018-11-09 10:30:52; 264.00; 3.66; 33.69
2018-11-09 10:45:06; 264.00; 3.66; 34.63
2018-11-09 10:45:18; 264.00; 3.65; 34.56
2018-11-09 10:45:31; 264.00; 3.66; 34.56
2018-11-09 10:45:43; 265.00; 3.65; 34.56
2018-11-09 10:45:56; 264.00; 3.65; 34.63
2018-11-09 11:00:10; 264.00; 3.66; 35.25
2018-11-09 11:00:22; 265.00; 3.65; 35.19
2018-11-09 11:00:35; 266.00; 3.63; 35.31
2018-11-09 11:00:47; 266.00; 3.64; 35.31
2018-11-09 11:01:00; 265.00; 3.65; 35.25
2018-11-09 11:15:02; 266.00; 3.64; 35.31
2018-11-09 11:15:15; 264.00; 3.66; 35.25
2018-11-09 11:15:27; 265.00; 3.66; 35.38
2018-11-09 11:15:39; 265.00; 3.66; 35.44
2018-11-09 11:15:52; 264.00; 3.66; 35.56
2018-11-09 11:30:06; 265.00; 3.65; 35.50
2018-11-09 11:30:18; 263.00; 3.67; 35.44
2018-11-09 11:30:31; 264.00; 3.66; 35.44
2018-11-09 11:30:43; 266.00; 3.64; 35.38
2018-11-09 11:30:56; 264.00; 3.66; 35.38
2018-11-09 11:45:09; 265.00; 3.65; 36.06
2018-11-09 11:45:22; 265.00; 3.65; 36.13
2018-11-09 11:45:34; 264.00; 3.63; 36.13
2018-11-09 11:45:47; 264.00; 3.66; 36.06
2018-11-09 11:45:59; 264.00; 3.66; 36.06
2018-11-09 12:00:02; 263.00; 3.67; 36.13
2018-11-09 12:00:14; 265.00; 3.65; 36.19
2018-11-09 12:00:27; 265.00; 3.65; 36.13
2018-11-09 12:00:39; 263.00; 3.67; 36.06
2018-11-09 12:00:51; 265.00; 3.65; 36.06
2018-11-09 12:15:05; 266.00; 3.64; 37.13
2018-11-09 12:15:18; 263.00; 3.67; 37.13
2018-11-09 12:15:30; 264.00; 3.65; 37.25
2018-11-09 12:15:43; 263.00; 3.68; 37.13
2018-11-09 12:15:55; 264.00; 3.66; 37.13
2018-11-09 12:30:09; 264.00; 3.66; 36.56
2018-11-09 12:30:21; 263.00; 3.67; 36.56
2018-11-09 12:30:34; 266.00; 3.64; 36.56
2018-11-09 12:30:46; 263.00; 3.67; 36.56
2018-11-09 12:30:59; 264.00; 3.66; 36.56
2018-11-09 12:45:01; 264.00; 3.65; 37.75
2018-11-09 12:45:13; 264.00; 3.66; 37.88
2018-11-09 12:45:26; 263.00; 3.67; 37.94
2018-11-09 12:45:38; 263.00; 3.67; 38.00
2018-11-09 12:45:51; 263.00; 3.67; 38.06
2018-11-09 13:00:05; 265.00; 3.65; 36.00
2018-11-09 13:00:17; 264.00; 3.66; 36.00
2018-11-09 13:00:30; 265.00; 3.65; 36.00
2018-11-09 13:00:42; 264.00; 3.66; 36.06
2018-11-09 13:00:55; 263.00; 3.67; 36.06
2018-11-09 13:15:08; 263.00; 3.66; 36.50
2018-11-09 13:15:21; 265.00; 3.65; 36.50
2018-11-09 13:15:33; 264.00; 3.66; 36.50
2018-11-09 13:15:46; 264.00; 3.66; 36.44
2018-11-09 13:15:58; 264.00; 3.66; 36.44
2018-11-09 13:30:12; 263.00; 3.66; 38.25
2018-11-09 13:30:24; 264.00; 3.66; 38.31
2018-11-09 13:30:37; 262.00; 3.68; 38.38
2018-11-09 13:30:49; 265.00; 3.65; 38.31
2018-11-09 13:45:03; 265.00; 3.65; 36.56
2018-11-09 13:45:15; 263.00; 3.66; 36.63
2018-11-09 13:45:28; 264.00; 3.65; 36.50
2018-11-09 13:45:40; 263.00; 3.67; 36.50
2018-11-09 13:45:53; 264.00; 3.66; 36.44
2018-11-09 14:00:07; 264.00; 3.66; 38.94
2018-11-09 14:00:19; 263.00; 3.67; 38.94
2018-11-09 14:00:31; 263.00; 3.67; 39.00
2018-11-09 14:00:44; 262.00; 3.68; 38.94
2018-11-09 14:00:56; 263.00; 3.67; 38.94
2018-11-09 14:15:10; 262.00; 3.67; 38.69
2018-11-09 14:15:22; 264.00; 3.67; 38.56
2018-11-09 14:15:35; 264.00; 3.66; 38.56
2018-11-09 14:15:47; 264.00; 3.65; 38.50
2018-11-09 14:16:00; 265.00; 3.65; 38.44
2018-11-09 14:30:02; 264.00; 3.66; 38.38
2018-11-09 14:30:15; 264.00; 3.66; 38.44
2018-11-09 14:30:27; 263.00; 3.67; 38.25
2018-11-09 14:30:40; 263.00; 3.67; 38.25
2018-11-09 14:30:52; 263.00; 3.66; 38.25
2018-11-09 14:45:06; 264.00; 3.66; 38.50
2018-11-09 14:45:18; 263.00; 3.67; 38.44
2018-11-09 14:45:31; 264.00; 3.66; 38.31
2018-11-09 14:45:43; 265.00; 3.65; 38.31
2018-11-09 14:45:56; 264.00; 3.66; 38.38
2018-11-09 15:00:09; 261.00; 3.68; 36.69
2018-11-09 15:00:22; 264.00; 3.66; 36.69
2018-11-09 15:00:34; 264.00; 3.67; 36.75
2018-11-09 15:00:47; 265.00; 3.66; 36.69
2018-11-09 15:00:59; 263.00; 3.67; 36.69
2018-11-09 15:15:02; 263.00; 3.67; 38.25
2018-11-09 15:15:14; 263.00; 3.67; 38.19
2018-11-09 15:15:27; 263.00; 3.66; 38.25
2018-11-09 15:15:39; 262.00; 3.68; 38.31
2018-11-09 15:15:52; 264.00; 3.66; 38.31
2018-11-09 15:30:05; 264.00; 3.66; 38.13
2018-11-09 15:30:18; 263.00; 3.67; 38.19
2018-11-09 15:30:30; 264.00; 3.66; 38.19
2018-11-09 15:30:43; 263.00; 3.66; 38.25
2018-11-09 15:30:55; 264.00; 3.66; 38.25
2018-11-09 15:45:09; 265.00; 3.65; 39.63
2018-11-09 15:45:21; 263.00; 3.67; 39.63
2018-11-09 15:45:34; 262.00; 3.68; 39.56
2018-11-09 15:45:46; 263.00; 3.67; 39.63
2018-11-09 15:45:59; 264.00; 3.66; 39.56
2018-11-09 16:00:01; 264.00; 3.67; 40.75
2018-11-09 16:00:13; 261.00; 3.68; 40.75
2018-11-09 16:00:26; 264.00; 3.67; 40.75
2018-11-09 16:00:38; 263.00; 3.67; 40.88
2018-11-09 16:00:51; 264.00; 3.67; 40.88
2018-11-09 16:15:04; 262.00; 3.68; 41.88
2018-11-09 16:15:17; 263.00; 3.66; 41.88
2018-11-09 16:15:29; 262.00; 3.67; 41.81
2018-11-09 16:15:42; 263.00; 3.67; 41.81
2018-11-09 16:15:54; 262.00; 3.68; 41.88
2018-11-09 16:30:08; 265.00; 3.65; 42.56
2018-11-09 16:30:20; 263.00; 3.67; 42.63
2018-11-09 16:30:33; 262.00; 3.68; 42.75
2018-11-09 16:30:45; 264.00; 3.66; 42.69
2018-11-09 16:30:58; 264.00; 3.66; 42.69
2018-11-09 16:45:11; 263.00; 3.68; 42.63
2018-11-09 16:45:23; 263.00; 3.67; 42.44
2018-11-09 16:45:36; 263.00; 3.67; 42.31
2018-11-09 16:45:48; 262.00; 3.68; 42.44
2018-11-09 17:00:02; 263.00; 3.66; 42.56
2018-11-09 17:00:14; 263.00; 3.67; 42.50
2018-11-09 17:00:27; 264.00; 3.66; 42.50
2018-11-09 17:00:39; 263.00; 3.67; 42.50
2018-11-09 17:00:52; 263.00; 3.66; 42.56
2018-11-09 17:15:05; 262.00; 3.67; 40.63
2018-11-09 17:15:18; 262.00; 3.68; 40.63
2018-11-09 17:15:30; 263.00; 3.68; 40.69
2018-11-09 17:15:42; 262.00; 3.67; 40.81
2018-11-09 17:15:55; 263.00; 3.67; 40.75
2018-11-09 17:30:08; 263.00; 3.68; 42.06
2018-11-09 17:30:21; 263.00; 3.67; 42.00
2018-11-09 17:30:33; 263.00; 3.68; 42.13
2018-11-09 17:30:46; 263.00; 3.67; 42.13
2018-11-09 17:30:58; 263.00; 3.67; 42.13
2018-11-09 17:45:12; 262.00; 3.68; 41.31
2018-11-09 17:45:24; 263.00; 3.67; 41.38
2018-11-09 17:45:36; 263.00; 3.67; 41.44
2018-11-09 17:45:49; 262.00; 3.68; 41.25
2018-11-09 18:00:02; 264.00; 3.67; 40.44
2018-11-09 18:00:15; 262.00; 3.68; 40.44
2018-11-09 18:00:27; 262.00; 3.68; 40.50
2018-11-09 18:00:40; 263.00; 3.67; 40.31
2018-11-09 18:00:52; 263.00; 3.67; 40.19
2018-11-09 18:15:06; 262.00; 3.68; 39.81
2018-11-09 18:15:18; 264.00; 3.66; 39.75
2018-11-09 18:15:30; 263.00; 3.68; 39.69
2018-11-09 18:15:43; 264.00; 3.67; 39.56
2018-11-09 18:15:55; 264.00; 3.67; 39.44
2018-11-09 18:30:09; 264.00; 3.66; 36.31
2018-11-09 18:30:21; 264.00; 3.66; 36.31
2018-11-09 18:30:34; 264.00; 3.66; 36.25
2018-11-09 18:30:46; 262.00; 3.68; 36.19
2018-11-09 18:30:59; 265.00; 3.65; 36.19
2018-11-09 18:45:01; 262.00; 3.68; 35.38
2018-11-09 18:45:14; 264.00; 3.66; 35.38
2018-11-09 18:45:26; 265.00; 3.66; 35.38
2018-11-09 18:45:38; 263.00; 3.68; 35.38
2018-11-09 18:45:51; 266.00; 3.65; 35.44
2018-11-09 19:00:05; 264.00; 3.66; 34.44
2018-11-09 19:00:17; 261.00; 3.69; 34.44
2018-11-09 19:00:29; 265.00; 3.65; 34.44
2018-11-09 19:00:42; 263.00; 3.68; 34.38
2018-11-09 19:00:54; 262.00; 3.68; 34.31
2018-11-09 19:15:08; 262.00; 3.68; 35.44
2018-11-09 19:15:21; 263.00; 3.66; 35.50
2018-11-09 19:15:33; 264.00; 3.66; 35.50
2018-11-09 19:15:45; 263.00; 3.67; 35.44
2018-11-09 19:15:58; 262.00; 3.68; 35.44
2018-11-09 19:30:12; 265.00; 3.65; 32.38
2018-11-09 19:30:24; 264.00; 3.66; 32.31
2018-11-09 19:30:37; 264.00; 3.65; 32.25
2018-11-09 19:30:49; 263.00; 3.67; 32.25
2018-11-09 19:45:03; 265.00; 3.65; 31.00
2018-11-09 19:45:16; 264.00; 3.67; 30.94
2018-11-09 19:45:28; 262.00; 3.68; 30.94
2018-11-09 19:45:41; 262.00; 3.68; 30.94
2018-11-09 19:45:53; 264.00; 3.67; 30.94
2018-11-09 20:00:07; 262.00; 3.67; 30.25
2018-11-09 20:00:20; 261.00; 3.69; 30.25
2018-11-09 20:00:32; 261.00; 3.69; 30.25
2018-11-09 20:00:45; 264.00; 3.66; 30.25
2018-11-09 20:00:57; 262.00; 3.68; 30.19
2018-11-09 20:15:11; 263.00; 3.67; 29.56
2018-11-09 20:15:24; 265.00; 3.65; 29.56
2018-11-09 20:15:36; 263.00; 3.67; 29.56
2018-11-09 20:15:49; 263.00; 3.67; 29.56
2018-11-09 20:30:03; 263.00; 3.67; 29.00
2018-11-09 20:30:15; 264.00; 3.66; 29.00
2018-11-09 20:30:28; 267.00; 3.64; 29.00
2018-11-09 20:30:40; 266.00; 3.64; 29.00
2018-11-09 20:30:53; 264.00; 3.66; 28.94
2018-11-09 20:45:07; 263.00; 3.68; 28.69
2018-11-09 20:45:19; 265.00; 3.65; 28.69
2018-11-09 20:45:32; 265.00; 3.65; 28.69
2018-11-09 20:45:44; 265.00; 3.65; 28.69
2018-11-09 20:45:57; 264.00; 3.66; 28.69
2018-11-09 21:00:11; 264.00; 3.66; 28.56
2018-11-09 21:00:23; 265.00; 3.65; 28.56
2018-11-09 21:00:36; 265.00; 3.65; 28.56
2018-11-09 21:00:48; 265.00; 3.66; 28.56
2018-11-09 21:15:03; 264.00; 3.65; 28.38
2018-11-09 21:15:15; 265.00; 3.65; 28.38
2018-11-09 21:15:28; 266.00; 3.64; 28.31
2018-11-09 21:15:40; 263.00; 3.67; 28.31
2018-11-09 21:15:52; 262.00; 3.68; 28.31
2018-11-09 21:30:07; 264.00; 3.66; 28.06
2018-11-09 21:30:19; 262.00; 3.67; 28.13
2018-11-09 21:30:32; 265.00; 3.65; 28.13
2018-11-09 21:30:44; 264.00; 3.66; 28.06
2018-11-09 21:30:57; 264.00; 3.66; 28.06
2018-11-09 21:45:11; 265.00; 3.65; 27.81
2018-11-09 21:45:23; 265.00; 3.65; 27.81
2018-11-09 21:45:36; 263.00; 3.67; 27.81
2018-11-09 21:45:48; 261.00; 3.70; 27.81
2018-11-09 21:46:01; 265.00; 3.65; 27.81
2018-11-09 22:00:03; 264.00; 3.65; 27.44
2018-11-09 22:00:16; 265.00; 3.64; 27.44
2018-11-09 22:00:28; 263.00; 3.66; 27.44
2018-11-09 22:00:41; 264.00; 3.66; 27.44
2018-11-09 22:00:53; 264.00; 3.66; 27.44
2018-11-09 22:15:07; 264.00; 3.66; 27.44
2018-11-09 22:15:20; 263.00; 3.67; 27.44
2018-11-09 22:15:32; 264.00; 3.67; 27.44
2018-11-09 22:15:45; 265.00; 3.65; 27.44
2018-11-09 22:15:57; 265.00; 3.65; 27.44
2018-11-09 22:30:11; 262.00; 3.68; 27.56
2018-11-09 22:30:24; 264.00; 3.66; 27.56
2018-11-09 22:30:36; 264.00; 3.66; 27.63
2018-11-09 22:30:49; 264.00; 3.65; 27.56
2018-11-09 22:45:03; 265.00; 3.65; 27.69
2018-11-09 22:45:15; 264.00; 3.66; 27.69
2018-11-09 22:45:28; 262.00; 3.67; 27.69
2018-11-09 22:45:40; 263.00; 3.68; 27.63
2018-11-09 22:45:53; 263.00; 3.67; 27.69
2018-11-09 23:00:07; 264.00; 3.67; 27.56
2018-11-09 23:00:19; 262.00; 3.67; 27.56
2018-11-09 23:00:32; 264.00; 3.65; 27.56
2018-11-09 23:00:44; 264.00; 3.65; 27.56
2018-11-09 23:00:57; 263.00; 3.67; 27.56
2018-11-09 23:15:11; 265.00; 3.65; 27.44
2018-11-09 23:15:23; 262.00; 3.68; 27.50
2018-11-09 23:15:36; 265.00; 3.65; 27.50
2018-11-09 23:15:48; 265.00; 3.66; 27.44
2018-11-09 23:30:02; 262.00; 3.68; 27.25
2018-11-09 23:30:15; 263.00; 3.67; 27.25
2018-11-09 23:30:27; 264.00; 3.66; 27.25
2018-11-09 23:30:40; 264.00; 3.66; 27.25
2018-11-09 23:30:52; 265.00; 3.66; 27.25
2018-11-09 23:45:06; 264.00; 3.65; 26.94
2018-11-09 23:45:19; 264.00; 3.66; 26.94
2018-11-09 23:45:31; 265.00; 3.65; 26.94
2018-11-09 23:45:44; 263.00; 3.66; 26.94
2018-11-09 23:45:56; 264.00; 3.65; 26.94
