2018-11-01 00:00:11; 289.00; 3.41; 16.94
2018-11-01 00:00:24; 289.00; 3.41; 16.88
2018-11-01 00:00:36; 288.00; 3.42; 16.94
2018-11-01 00:00:49; 289.00; 3.41; 16.94
2018-11-01 00:15:04; 289.00; 3.41; 16.63
2018-11-01 00:15:16; 289.00; 3.41; 16.63
2018-11-01 00:15:28; 289.00; 3.41; 16.63
2018-11-01 00:15:41; 289.00; 3.41; 16.63
2018-11-01 00:15:53; 288.00; 3.41; 16.63
2018-11-01 00:30:08; 290.00; 3.40; 16.63
2018-11-01 00:30:20; 290.00; 3.40; 16.63
2018-11-01 00:30:33; 289.00; 3.41; 16.56
2018-11-01 00:30:45; 290.00; 3.40; 16.56
2018-11-01 00:30:58; 290.00; 3.40; 16.56
2018-11-01 00:45:12; 289.00; 3.41; 16.44
2018-11-01 00:45:24; 290.00; 3.40; 16.44
2018-11-01 00:45:37; 290.00; 3.40; 16.44
2018-11-01 00:45:49; 290.00; 3.40; 16.44
2018-11-01 01:00:03; 290.00; 3.40; 16.31
2018-11-01 01:00:15; 290.00; 3.41; 16.31
2018-11-01 01:00:28; 290.00; 3.41; 16.38
2018-11-01 01:00:40; 289.00; 3.41; 16.31
2018-11-01 01:00:53; 290.00; 3.41; 16.31
2018-11-01 01:15:06; 289.00; 3.42; 16.13
2018-11-01 01:15:18; 290.00; 3.41; 16.19
2018-11-01 01:15:31; 290.00; 3.41; 16.19
2018-11-01 01:15:43; 290.00; 3.41; 16.19
2018-11-01 01:15:56; 290.00; 3.40; 16.19
2018-11-01 01:30:09; 290.00; 3.41; 16.13
2018-11-01 01:30:21; 290.00; 3.41; 16.13
2018-11-01 01:30:34; 290.00; 3.41; 16.13
2018-11-01 01:30:46; 290.00; 3.41; 16.13
2018-11-01 01:30:59; 290.00; 3.41; 16.13
2018-11-01 01:45:12; 290.00; 3.41; 16.00
2018-11-01 01:45:24; 290.00; 3.41; 16.00
2018-11-01 01:45:37; 290.00; 3.40; 15.94
2018-11-01 01:45:49; 290.00; 3.40; 15.94
2018-11-01 02:00:02; 290.00; 3.41; 15.88
2018-11-01 02:00:15; 290.00; 3.41; 15.88
2018-11-01 02:00:27; 289.00; 3.42; 15.94
2018-11-01 02:00:40; 289.00; 3.42; 15.88
2018-11-01 02:00:52; 289.00; 3.42; 15.88
2018-11-01 02:15:06; 290.00; 3.41; 15.88
2018-11-01 02:15:18; 290.00; 3.41; 15.88
2018-11-01 02:15:30; 289.00; 3.41; 15.88
2018-11-01 02:15:43; 290.00; 3.41; 15.81
2018-11-01 02:15:55; 290.00; 3.41; 15.81
2018-11-01 02:30:09; 290.00; 3.40; 15.56
2018-11-01 02:30:22; 290.00; 3.40; 15.56
2018-11-01 02:30:34; 291.00; 3.39; 15.56
2018-11-01 02:30:47; 290.00; 3.40; 15.56
2018-11-01 02:30:59; 290.00; 3.40; 15.56
2018-11-01 02:45:02; 291.00; 3.39; 15.38
2018-11-01 02:45:15; 291.00; 3.39; 15.38
2018-11-01 02:45:27; 290.00; 3.40; 15.38
2018-11-01 02:45:40; 290.00; 3.40; 15.38
2018-11-01 02:45:52; 291.00; 3.39; 15.38
2018-11-01 03:00:07; 290.00; 3.41; 15.31
2018-11-01 03:00:19; 290.00; 3.40; 15.31
2018-11-01 03:00:32; 290.00; 3.40; 15.31
2018-11-01 03:00:44; 290.00; 3.40; 15.31
2018-11-01 03:00:57; 291.00; 3.40; 15.31
2018-11-01 03:15:11; 290.00; 3.40; 15.13
2018-11-01 03:15:24; 291.00; 3.39; 15.13
2018-11-01 03:15:36; 290.00; 3.40; 15.13
2018-11-01 03:15:49; 290.00; 3.40; 15.13
2018-11-01 03:30:03; 290.00; 3.40; 14.88
2018-11-01 03:30:16; 290.00; 3.40; 14.81
2018-11-01 03:30:28; 290.00; 3.40; 14.88
2018-11-01 03:30:41; 290.00; 3.40; 14.88
2018-11-01 03:30:53; 290.00; 3.40; 14.88
2018-11-01 03:45:08; 291.00; 3.40; 14.69
2018-11-01 03:45:20; 291.00; 3.40; 14.69
2018-11-01 03:45:33; 291.00; 3.40; 14.63
2018-11-01 03:45:45; 291.00; 3.40; 14.63
2018-11-01 03:45:58; 291.00; 3.40; 14.63
2018-11-01 04:00:01; 291.00; 3.39; 14.44
2018-11-01 04:00:14; 290.00; 3.40; 14.44
2018-11-01 04:00:26; 290.00; 3.40; 14.44
2018-11-01 04:00:39; 290.00; 3.40; 14.44
2018-11-01 04:00:51; 291.00; 3.40; 14.44
2018-11-01 04:15:06; 290.00; 3.40; 14.25
2018-11-01 04:15:19; 289.00; 3.41; 14.25
2018-11-01 04:15:31; 290.00; 3.40; 14.19
2018-11-01 04:15:44; 290.00; 3.40; 14.19
2018-11-01 04:15:56; 290.00; 3.40; 14.19
2018-11-01 04:30:11; 290.00; 3.40; 13.94
2018-11-01 04:30:23; 290.00; 3.40; 13.88
2018-11-01 04:30:36; 290.00; 3.40; 13.88
2018-11-01 04:30:48; 290.00; 3.40; 13.88
2018-11-01 04:45:03; 290.00; 3.40; 13.56
2018-11-01 04:45:15; 290.00; 3.40; 13.56
2018-11-01 04:45:28; 290.00; 3.40; 13.56
2018-11-01 04:45:40; 290.00; 3.40; 13.56
2018-11-01 04:45:53; 289.00; 3.40; 13.56
2018-11-01 05:00:08; 290.00; 3.40; 13.50
2018-11-01 05:00:20; 289.00; 3.41; 13.50
2018-11-01 05:00:33; 290.00; 3.40; 13.50
2018-11-01 05:00:45; 289.00; 3.41; 13.56
2018-11-01 05:00:58; 289.00; 3.40; 13.56
2018-11-01 05:15:01; 291.00; 3.40; 13.25
2018-11-01 05:15:13; 290.00; 3.40; 13.25
2018-11-01 05:15:26; 290.00; 3.40; 13.25
2018-11-01 05:15:38; 290.00; 3.39; 13.25
2018-11-01 05:15:51; 290.00; 3.40; 13.25
2018-11-01 05:30:06; 290.00; 3.40; 13.06
2018-11-01 05:30:18; 290.00; 3.40; 13.06
2018-11-01 05:30:31; 290.00; 3.40; 13.06
2018-11-01 05:30:43; 290.00; 3.40; 13.06
2018-11-01 05:30:56; 290.00; 3.40; 13.06
2018-11-01 05:45:11; 290.00; 3.40; 12.94
2018-11-01 05:45:23; 290.00; 3.40; 12.94
2018-11-01 05:45:36; 290.00; 3.40; 12.94
2018-11-01 05:45:48; 290.00; 3.40; 12.94
2018-11-01 05:46:00; 290.00; 3.40; 12.94
2018-11-01 06:00:04; 290.00; 3.40; 12.88
2018-11-01 06:00:16; 291.00; 3.39; 12.81
2018-11-01 06:00:29; 290.00; 3.40; 12.81
2018-11-01 06:00:41; 291.00; 3.40; 12.81
2018-11-01 06:00:54; 290.00; 3.40; 12.81
2018-11-01 06:15:09; 290.00; 3.40; 12.63
2018-11-01 06:15:21; 290.00; 3.40; 12.63
2018-11-01 06:15:34; 291.00; 3.39; 12.63
2018-11-01 06:15:46; 291.00; 3.39; 12.63
2018-11-01 06:15:59; 290.00; 3.40; 12.63
2018-11-01 06:30:03; 290.00; 3.40; 12.44
2018-11-01 06:30:15; 290.00; 3.40; 12.44
2018-11-01 06:30:27; 290.00; 3.40; 12.44
2018-11-01 06:30:40; 290.00; 3.40; 12.44
2018-11-01 06:30:52; 291.00; 3.39; 12.44
2018-11-01 06:45:07; 291.00; 3.39; 12.31
2018-11-01 06:45:20; 290.00; 3.40; 12.31
2018-11-01 06:45:32; 291.00; 3.39; 12.31
2018-11-01 06:45:45; 291.00; 3.39; 12.31
2018-11-01 06:45:57; 291.00; 3.39; 12.31
2018-11-01 07:00:01; 291.00; 3.39; 12.19
2018-11-01 07:00:13; 291.00; 3.39; 12.19
2018-11-01 07:00:26; 291.00; 3.39; 12.19
2018-11-01 07:00:38; 291.00; 3.39; 12.19
2018-11-01 07:00:51; 290.00; 3.40; 12.19
2018-11-01 07:15:06; 290.00; 3.40; 12.31
2018-11-01 07:15:19; 290.00; 3.40; 12.31
2018-11-01 07:15:31; 290.00; 3.40; 12.31
2018-11-01 07:15:43; 290.00; 3.40; 12.31
2018-11-01 07:15:56; 290.00; 3.40; 12.31
2018-11-01 07:30:11; 290.00; 3.40; 12.75
2018-11-01 07:30:23; 290.00; 3.40; 12.75
2018-11-01 07:30:36; 290.00; 3.40; 12.75
2018-11-01 07:30:48; 290.00; 3.40; 12.75
2018-11-01 07:45:03; 290.00; 3.40; 13.25
2018-11-01 07:45:16; 290.00; 3.40; 13.25
2018-11-01 07:45:28; 290.00; 3.40; 13.25
2018-11-01 07:45:41; 290.00; 3.40; 13.25
2018-11-01 07:45:53; 290.00; 3.40; 13.25
2018-11-01 08:00:08; 290.00; 3.40; 14.31
2018-11-01 08:00:20; 291.00; 3.39; 14.31
2018-11-01 08:00:33; 290.00; 3.40; 14.38
2018-11-01 08:00:45; 290.00; 3.40; 14.38
2018-11-01 08:00:58; 290.00; 3.40; 14.38
2018-11-01 08:15:01; 289.00; 3.41; 14.81
2018-11-01 08:15:14; 289.00; 3.41; 14.81
2018-11-01 08:15:26; 290.00; 3.40; 14.81
2018-11-01 08:15:39; 290.00; 3.40; 14.81
2018-11-01 08:15:51; 289.00; 3.41; 14.75
2018-11-01 08:30:06; 291.00; 3.39; 14.19
2018-11-01 08:30:18; 290.00; 3.39; 14.19
2018-11-01 08:30:31; 290.00; 3.40; 14.19
2018-11-01 08:30:43; 289.00; 3.41; 14.19
2018-11-01 08:30:56; 289.00; 3.42; 14.19
2018-11-01 08:45:11; 289.00; 3.41; 14.69
2018-11-01 08:45:23; 288.00; 3.42; 14.69
2018-11-01 08:45:36; 289.00; 3.41; 14.69
2018-11-01 08:45:48; 288.00; 3.41; 14.69
2018-11-01 09:00:03; 289.00; 3.41; 14.56
2018-11-01 09:00:16; 290.00; 3.40; 14.56
2018-11-01 09:00:28; 290.00; 3.40; 14.56
2018-11-01 09:00:40; 290.00; 3.40; 14.56
2018-11-01 09:00:53; 291.00; 3.39; 14.63
2018-11-01 09:15:08; 289.00; 3.41; 15.06
2018-11-01 09:15:20; 289.00; 3.41; 15.06
2018-11-01 09:15:33; 289.00; 3.41; 15.13
2018-11-01 09:15:45; 290.00; 3.40; 15.13
2018-11-01 09:15:58; 288.00; 3.42; 15.13
2018-11-01 09:30:01; 291.00; 3.40; 17.81
2018-11-01 09:30:14; 288.00; 3.42; 17.81
2018-11-01 09:30:26; 289.00; 3.41; 17.81
2018-11-01 09:30:39; 290.00; 3.41; 17.81
2018-11-01 09:30:51; 290.00; 3.40; 17.81
2018-11-01 09:45:06; 290.00; 3.40; 17.06
2018-11-01 09:45:18; 289.00; 3.41; 17.06
2018-11-01 09:45:31; 290.00; 3.41; 17.06
2018-11-01 09:45:43; 289.00; 3.41; 17.00
2018-11-01 09:45:56; 289.00; 3.41; 17.00
2018-11-01 10:00:11; 289.00; 3.41; 18.63
2018-11-01 10:00:23; 288.00; 3.42; 18.56
2018-11-01 10:00:36; 289.00; 3.41; 18.56
2018-11-01 10:00:48; 287.00; 3.42; 18.56
2018-11-01 10:01:00; 290.00; 3.41; 18.63
2018-11-01 10:15:04; 289.00; 3.41; 19.13
2018-11-01 10:15:16; 289.00; 3.41; 19.13
2018-11-01 10:15:29; 288.00; 3.42; 19.19
2018-11-01 10:15:41; 289.00; 3.42; 19.19
2018-11-01 10:15:54; 288.00; 3.41; 19.19
2018-11-01 10:30:08; 289.00; 3.41; 22.88
2018-11-01 10:30:21; 288.00; 3.42; 22.94
2018-11-01 10:30:33; 288.00; 3.42; 23.00
2018-11-01 10:30:45; 288.00; 3.42; 23.06
2018-11-01 10:30:58; 288.00; 3.42; 23.19
2018-11-01 10:45:01; 288.00; 3.42; 23.50
2018-11-01 10:45:13; 288.00; 3.42; 23.63
2018-11-01 10:45:26; 288.00; 3.42; 23.69
2018-11-01 10:45:38; 288.00; 3.42; 23.69
2018-11-01 10:45:51; 288.00; 3.42; 23.75
2018-11-01 11:00:05; 288.00; 3.42; 23.25
2018-11-01 11:00:17; 287.00; 3.43; 23.31
2018-11-01 11:00:30; 287.00; 3.43; 23.38
2018-11-01 11:00:42; 287.00; 3.43; 23.44
2018-11-01 11:00:55; 287.00; 3.43; 23.38
2018-11-01 11:15:09; 288.00; 3.42; 25.81
2018-11-01 11:15:21; 288.00; 3.42; 25.88
2018-11-01 11:15:34; 288.00; 3.42; 26.00
2018-11-01 11:15:46; 288.00; 3.42; 26.06
2018-11-01 11:15:59; 288.00; 3.42; 26.06
2018-11-01 11:30:01; 287.00; 3.43; 25.06
2018-11-01 11:30:14; 287.00; 3.43; 25.06
2018-11-01 11:30:26; 287.00; 3.43; 25.19
2018-11-01 11:30:39; 287.00; 3.43; 25.19
2018-11-01 11:30:51; 288.00; 3.43; 25.25
2018-11-01 11:45:05; 288.00; 3.43; 25.19
2018-11-01 11:45:18; 288.00; 3.43; 25.00
2018-11-01 11:45:30; 288.00; 3.43; 24.88
2018-11-01 11:45:42; 288.00; 3.43; 24.94
2018-11-01 11:45:55; 288.00; 3.43; 24.75
2018-11-01 12:00:09; 287.00; 3.43; 25.06
2018-11-01 12:00:21; 287.00; 3.43; 25.06
2018-11-01 12:00:34; 286.00; 3.44; 25.25
2018-11-01 12:00:46; 286.00; 3.44; 25.19
2018-11-01 12:00:59; 286.00; 3.44; 25.38
2018-11-01 12:15:01; 287.00; 3.43; 25.19
2018-11-01 12:15:14; 287.00; 3.43; 25.25
2018-11-01 12:15:26; 287.00; 3.43; 25.25
2018-11-01 12:15:39; 287.00; 3.43; 25.25
2018-11-01 12:15:51; 287.00; 3.43; 25.31
2018-11-01 12:30:05; 287.00; 3.43; 26.25
2018-11-01 12:30:18; 287.00; 3.43; 26.25
2018-11-01 12:30:30; 287.00; 3.43; 26.31
2018-11-01 12:30:43; 287.00; 3.43; 26.31
2018-11-01 12:30:55; 287.00; 3.44; 26.31
2018-11-01 12:45:09; 286.00; 3.44; 27.25
2018-11-01 12:45:21; 286.00; 3.44; 27.00
2018-11-01 12:45:34; 286.00; 3.44; 27.00
2018-11-01 12:45:46; 286.00; 3.44; 27.06
2018-11-01 12:45:59; 286.00; 3.44; 27.06
2018-11-01 13:00:01; 286.00; 3.44; 27.19
2018-11-01 13:00:14; 286.00; 3.44; 27.19
2018-11-01 13:00:26; 286.00; 3.44; 27.19
2018-11-01 13:00:39; 286.00; 3.44; 27.25
2018-11-01 13:00:51; 286.00; 3.44; 27.31
2018-11-01 13:15:05; 286.00; 3.44; 27.88
2018-11-01 13:15:18; 286.00; 3.44; 27.88
2018-11-01 13:15:30; 286.00; 3.44; 27.81
2018-11-01 13:15:43; 286.00; 3.44; 27.81
2018-11-01 13:15:55; 286.00; 3.44; 27.81
2018-11-01 13:30:09; 286.00; 3.44; 27.00
2018-11-01 13:30:21; 286.00; 3.44; 27.25
2018-11-01 13:30:34; 286.00; 3.44; 27.44
2018-11-01 13:30:46; 286.00; 3.44; 27.56
2018-11-01 13:30:59; 287.00; 3.43; 27.75
2018-11-01 13:45:01; 286.00; 3.44; 29.81
2018-11-01 13:45:14; 286.00; 3.44; 29.75
2018-11-01 13:45:26; 286.00; 3.44; 29.75
2018-11-01 13:45:39; 286.00; 3.44; 29.63
2018-11-01 13:45:51; 285.00; 3.45; 29.63
2018-11-01 14:00:05; 286.00; 3.44; 27.88
2018-11-01 14:00:17; 286.00; 3.44; 28.00
2018-11-01 14:00:30; 286.00; 3.44; 28.06
2018-11-01 14:00:42; 286.00; 3.44; 28.13
2018-11-01 14:00:55; 286.00; 3.44; 28.13
2018-11-01 14:15:09; 286.00; 3.44; 30.31
2018-11-01 14:15:21; 286.00; 3.44; 30.25
2018-11-01 14:15:34; 286.00; 3.44; 30.19
2018-11-01 14:15:46; 286.00; 3.44; 30.31
2018-11-01 14:15:58; 286.00; 3.44; 30.31
2018-11-01 14:30:01; 286.00; 3.44; 30.38
2018-11-01 14:30:14; 287.00; 3.44; 30.25
2018-11-01 14:30:26; 286.00; 3.44; 30.38
2018-11-01 14:30:38; 287.00; 3.44; 30.44
2018-11-01 14:30:51; 287.00; 3.44; 30.56
2018-11-01 14:45:05; 286.00; 3.44; 32.06
2018-11-01 14:45:17; 286.00; 3.44; 32.06
2018-11-01 14:45:30; 286.00; 3.44; 32.13
2018-11-01 14:45:42; 286.00; 3.44; 32.19
2018-11-01 14:45:55; 286.00; 3.44; 32.25
2018-11-01 15:00:08; 286.00; 3.44; 30.56
2018-11-01 15:00:21; 285.00; 3.45; 30.56
2018-11-01 15:00:33; 286.00; 3.44; 30.69
2018-11-01 15:00:46; 286.00; 3.44; 30.81
2018-11-01 15:00:58; 286.00; 3.44; 30.81
2018-11-01 15:15:12; 286.00; 3.44; 31.44
2018-11-01 15:15:24; 286.00; 3.44; 31.44
2018-11-01 15:15:37; 285.00; 3.45; 31.50
2018-11-01 15:15:49; 286.00; 3.44; 31.38
2018-11-01 15:30:03; 286.00; 3.44; 32.31
2018-11-01 15:30:15; 286.00; 3.44; 32.25
2018-11-01 15:30:28; 286.00; 3.44; 32.25
2018-11-01 15:30:40; 286.00; 3.44; 32.38
2018-11-01 15:30:53; 286.00; 3.44; 32.31
2018-11-01 15:45:06; 286.00; 3.44; 33.94
2018-11-01 15:45:19; 286.00; 3.44; 33.94
2018-11-01 15:45:31; 286.00; 3.44; 34.00
2018-11-01 15:45:44; 286.00; 3.44; 33.94
2018-11-01 15:45:56; 286.00; 3.44; 33.88
2018-11-01 16:00:10; 286.00; 3.44; 32.75
2018-11-01 16:00:22; 285.00; 3.45; 32.88
2018-11-01 16:00:35; 286.00; 3.44; 33.00
2018-11-01 16:00:47; 286.00; 3.44; 33.06
2018-11-01 16:01:00; 286.00; 3.44; 32.88
2018-11-01 16:15:02; 286.00; 3.44; 34.00
2018-11-01 16:15:14; 286.00; 3.44; 33.81
2018-11-01 16:15:27; 286.00; 3.44; 33.63
2018-11-01 16:15:39; 286.00; 3.44; 33.44
2018-11-01 16:15:52; 286.00; 3.44; 33.50
2018-11-01 16:30:05; 285.00; 3.45; 34.38
2018-11-01 16:30:18; 286.00; 3.44; 34.38
2018-11-01 16:30:30; 285.00; 3.45; 34.31
2018-11-01 16:30:43; 286.00; 3.44; 34.25
2018-11-01 16:30:55; 285.00; 3.45; 34.31
2018-11-01 16:45:09; 285.00; 3.45; 34.44
2018-11-01 16:45:21; 286.00; 3.44; 34.13
2018-11-01 16:45:34; 285.00; 3.45; 34.00
2018-11-01 16:45:46; 285.00; 3.45; 33.94
2018-11-01 16:45:59; 285.00; 3.44; 34.00
2018-11-01 17:00:01; 285.00; 3.45; 35.31
2018-11-01 17:00:14; 285.00; 3.44; 35.44
2018-11-01 17:00:26; 284.00; 3.45; 35.50
2018-11-01 17:00:39; 286.00; 3.44; 35.56
2018-11-01 17:00:51; 286.00; 3.45; 35.63
2018-11-01 17:15:05; 285.00; 3.45; 34.81
2018-11-01 17:15:17; 285.00; 3.45; 34.81
2018-11-01 17:15:30; 286.00; 3.44; 34.88
2018-11-01 17:15:42; 285.00; 3.45; 34.88
2018-11-01 17:15:55; 286.00; 3.44; 34.75
2018-11-01 17:30:09; 285.00; 3.45; 34.69
2018-11-01 17:30:21; 285.00; 3.45; 34.56
2018-11-01 17:30:33; 284.00; 3.46; 34.44
2018-11-01 17:30:46; 285.00; 3.45; 34.50
2018-11-01 17:30:58; 286.00; 3.44; 34.50
2018-11-01 17:45:01; 285.00; 3.45; 35.06
2018-11-01 17:45:13; 285.00; 3.45; 35.06
2018-11-01 17:45:26; 285.00; 3.45; 35.13
2018-11-01 17:45:38; 285.00; 3.44; 35.06
2018-11-01 17:45:51; 286.00; 3.44; 35.13
2018-11-01 18:00:04; 285.00; 3.45; 33.06
2018-11-01 18:00:17; 286.00; 3.44; 32.94
2018-11-01 18:00:29; 285.00; 3.45; 32.88
2018-11-01 18:00:42; 285.00; 3.45; 32.69
2018-11-01 18:00:54; 285.00; 3.45; 32.50
2018-11-01 18:15:08; 285.00; 3.45; 30.50
2018-11-01 18:15:20; 285.00; 3.45; 30.44
2018-11-01 18:15:33; 285.00; 3.45; 30.38
2018-11-01 18:15:45; 285.00; 3.45; 30.38
2018-11-01 18:15:58; 285.00; 3.45; 30.44
2018-11-01 18:30:11; 285.00; 3.45; 29.19
2018-11-01 18:30:24; 285.00; 3.45; 29.19
2018-11-01 18:30:36; 285.00; 3.45; 29.13
2018-11-01 18:30:49; 285.00; 3.45; 29.13
2018-11-01 18:45:03; 285.00; 3.45; 27.69
2018-11-01 18:45:15; 285.00; 3.45; 27.63
2018-11-01 18:45:27; 284.00; 3.45; 27.50
2018-11-01 18:45:40; 285.00; 3.45; 27.50
2018-11-01 18:45:52; 286.00; 3.44; 27.38
2018-11-01 19:00:06; 284.00; 3.46; 25.31
2018-11-01 19:00:19; 285.00; 3.45; 25.38
2018-11-01 19:00:31; 285.00; 3.45; 25.38
2018-11-01 19:00:44; 286.00; 3.44; 25.38
2018-11-01 19:00:56; 285.00; 3.45; 25.38
2018-11-01 19:15:10; 285.00; 3.45; 25.25
2018-11-01 19:15:23; 285.00; 3.45; 25.13
2018-11-01 19:15:35; 285.00; 3.45; 25.13
2018-11-01 19:15:47; 284.00; 3.46; 25.06
2018-11-01 19:16:00; 285.00; 3.45; 25.00
2018-11-01 19:30:03; 287.00; 3.44; 24.63
2018-11-01 19:30:15; 285.00; 3.45; 24.56
2018-11-01 19:30:28; 286.00; 3.44; 24.56
2018-11-01 19:30:40; 286.00; 3.44; 24.50
2018-11-01 19:30:52; 285.00; 3.44; 24.44
2018-11-01 19:45:07; 284.00; 3.45; 23.06
2018-11-01 19:45:19; 285.00; 3.45; 23.00
2018-11-01 19:45:32; 286.00; 3.44; 23.00
2018-11-01 19:45:44; 286.00; 3.45; 23.00
2018-11-01 19:45:57; 286.00; 3.44; 23.00
2018-11-01 20:00:11; 285.00; 3.45; 22.13
2018-11-01 20:00:24; 285.00; 3.45; 22.13
2018-11-01 20:00:36; 286.00; 3.44; 22.13
2018-11-01 20:00:48; 285.00; 3.44; 22.13
2018-11-01 20:15:03; 286.00; 3.44; 21.56
2018-11-01 20:15:15; 287.00; 3.43; 21.56
2018-11-01 20:15:28; 287.00; 3.43; 21.56
2018-11-01 20:15:40; 287.00; 3.43; 21.50
2018-11-01 20:15:53; 286.00; 3.43; 21.50
2018-11-01 20:30:07; 286.00; 3.44; 21.38
2018-11-01 20:30:20; 286.00; 3.44; 21.38
2018-11-01 20:30:32; 286.00; 3.43; 21.31
2018-11-01 20:30:45; 286.00; 3.44; 21.38
2018-11-01 20:30:57; 286.00; 3.44; 21.38
2018-11-01 20:45:12; 285.00; 3.45; 21.19
2018-11-01 20:45:24; 285.00; 3.45; 21.19
2018-11-01 20:45:37; 286.00; 3.44; 21.25
2018-11-01 20:45:49; 286.00; 3.44; 21.19
2018-11-01 21:00:07; 286.00; 3.44; 21.13
2018-11-01 21:00:19; 286.00; 3.44; 21.13
2018-11-01 21:00:32; 286.00; 3.44; 21.13
2018-11-01 21:00:44; 286.00; 3.44; 21.13
2018-11-01 21:00:57; 286.00; 3.44; 21.13
2018-11-01 21:15:11; 285.00; 3.45; 21.06
2018-11-01 21:15:24; 285.00; 3.45; 21.06
2018-11-01 21:15:36; 286.00; 3.44; 21.06
2018-11-01 21:15:49; 286.00; 3.44; 21.06
2018-11-01 21:30:03; 287.00; 3.44; 20.88
2018-11-01 21:30:16; 286.00; 3.44; 20.88
2018-11-01 21:30:28; 286.00; 3.44; 20.88
2018-11-01 21:30:41; 286.00; 3.44; 20.88
2018-11-01 21:30:53; 286.00; 3.44; 20.94
2018-11-01 21:45:08; 286.00; 3.43; 20.94
2018-11-01 21:45:20; 286.00; 3.44; 20.94
2018-11-01 21:45:32; 287.00; 3.43; 20.94
2018-11-01 21:45:45; 286.00; 3.44; 20.94
2018-11-01 21:45:57; 286.00; 3.44; 20.94
2018-11-01 22:00:12; 286.00; 3.44; 20.75
2018-11-01 22:00:24; 286.00; 3.44; 20.75
2018-11-01 22:00:37; 286.00; 3.44; 20.75
2018-11-01 22:00:49; 286.00; 3.44; 20.75
2018-11-01 22:15:04; 285.00; 3.45; 20.56
2018-11-01 22:15:16; 285.00; 3.45; 20.56
2018-11-01 22:15:29; 286.00; 3.44; 20.56
2018-11-01 22:15:41; 286.00; 3.44; 20.50
2018-11-01 22:15:54; 286.00; 3.44; 20.50
2018-11-01 22:30:08; 285.00; 3.45; 20.19
2018-11-01 22:30:20; 286.00; 3.44; 20.19
2018-11-01 22:30:33; 286.00; 3.44; 20.19
2018-11-01 22:30:45; 285.00; 3.45; 20.19
2018-11-01 22:30:58; 285.00; 3.45; 20.13
2018-11-01 22:45:01; 286.00; 3.44; 19.94
2018-11-01 22:45:13; 288.00; 3.43; 19.94
2018-11-01 22:45:26; 284.00; 3.45; 19.94
2018-11-01 22:45:38; 286.00; 3.44; 19.94
2018-11-01 22:45:51; 286.00; 3.44; 19.94
2018-11-01 23:00:05; 287.00; 3.43; 19.69
2018-11-01 23:00:18; 285.00; 3.45; 19.69
2018-11-01 23:00:30; 287.00; 3.43; 19.69
2018-11-01 23:00:43; 287.00; 3.43; 19.69
2018-11-01 23:00:55; 287.00; 3.43; 19.69
2018-11-01 23:15:10; 287.00; 3.43; 19.50
2018-11-01 23:15:22; 286.00; 3.44; 19.50
2018-11-01 23:15:35; 286.00; 3.43; 19.50
2018-11-01 23:15:47; 286.00; 3.43; 19.50
2018-11-01 23:15:59; 286.00; 3.44; 19.50
2018-11-01 23:30:03; 286.00; 3.44; 19.50
2018-11-01 23:30:15; 286.00; 3.44; 19.50
2018-11-01 23:30:28; 286.00; 3.44; 19.50
2018-11-01 23:30:40; 285.00; 3.45; 19.50
2018-11-01 23:30:53; 285.00; 3.45; 19.50
2018-11-01 23:45:07; 286.00; 3.44; 19.56
2018-11-01 23:45:20; 286.00; 3.44; 19.56
2018-11-01 23:45:32; 287.00; 3.44; 19.56
2018-11-01 23:45:45; 286.00; 3.44; 19.56
2018-11-01 23:45:57; 286.00; 3.44; 19.56
