2018-11-22 00:00:02; 170.00; 4.60; 26.06
2018-11-22 00:00:14; 170.00; 4.60; 26.06
2018-11-22 00:00:27; 170.00; 4.60; 26.06
2018-11-22 00:00:39; 169.00; 4.61; 26.06
2018-11-22 00:00:52; 170.00; 4.60; 26.06
2018-11-22 00:15:07; 170.00; 4.60; 25.94
2018-11-22 00:15:19; 170.00; 4.60; 25.94
2018-11-22 00:15:32; 171.00; 4.60; 25.94
2018-11-22 00:15:44; 170.00; 4.60; 25.94
2018-11-22 00:15:57; 170.00; 4.60; 25.94
2018-11-22 00:30:12; 170.00; 4.60; 25.75
2018-11-22 00:30:24; 171.00; 4.60; 25.81
2018-11-22 00:30:37; 169.00; 4.61; 25.75
2018-11-22 00:30:49; 168.00; 4.61; 25.81
2018-11-22 00:45:04; 170.00; 4.60; 25.69
2018-11-22 00:45:17; 170.00; 4.60; 25.69
2018-11-22 00:45:29; 170.00; 4.60; 25.69
2018-11-22 00:45:42; 170.00; 4.60; 25.69
2018-11-22 00:45:54; 171.00; 4.59; 25.69
2018-11-22 01:00:09; 170.00; 4.61; 25.63
2018-11-22 01:00:22; 168.00; 4.62; 25.63
2018-11-22 01:00:34; 170.00; 4.60; 25.63
2018-11-22 01:00:47; 169.00; 4.61; 25.63
2018-11-22 01:00:59; 169.00; 4.61; 25.63
2018-11-22 01:15:03; 169.00; 4.61; 25.63
2018-11-22 01:15:15; 169.00; 4.61; 25.63
2018-11-22 01:15:28; 169.00; 4.61; 25.63
2018-11-22 01:15:40; 170.00; 4.60; 25.63
2018-11-22 01:15:53; 169.00; 4.61; 25.63
2018-11-22 01:30:08; 170.00; 4.60; 25.56
2018-11-22 01:30:20; 170.00; 4.60; 25.56
2018-11-22 01:30:33; 169.00; 4.61; 25.56
2018-11-22 01:30:45; 170.00; 4.61; 25.63
2018-11-22 01:30:58; 170.00; 4.60; 25.56
2018-11-22 01:45:01; 169.00; 4.61; 25.50
2018-11-22 01:45:14; 169.00; 4.60; 25.50
2018-11-22 01:45:27; 171.00; 4.59; 25.50
2018-11-22 01:45:39; 170.00; 4.60; 25.44
2018-11-22 01:45:51; 170.00; 4.60; 25.44
2018-11-22 02:00:07; 169.00; 4.61; 25.50
2018-11-22 02:00:19; 170.00; 4.60; 25.50
2018-11-22 02:00:31; 168.00; 4.62; 25.50
2018-11-22 02:00:44; 170.00; 4.60; 25.50
2018-11-22 02:00:56; 170.00; 4.60; 25.50
2018-11-22 02:15:11; 170.00; 4.60; 25.63
2018-11-22 02:15:24; 169.00; 4.61; 25.63
2018-11-22 02:15:36; 169.00; 4.61; 25.63
2018-11-22 02:15:49; 168.00; 4.62; 25.63
2018-11-22 02:30:04; 169.00; 4.61; 25.56
2018-11-22 02:30:17; 169.00; 4.61; 25.56
2018-11-22 02:30:29; 170.00; 4.60; 25.56
2018-11-22 02:30:41; 170.00; 4.60; 25.56
2018-11-22 02:30:54; 169.00; 4.61; 25.56
2018-11-22 02:45:09; 170.00; 4.60; 25.50
2018-11-22 02:45:21; 169.00; 4.61; 25.50
2018-11-22 02:45:34; 169.00; 4.61; 25.50
2018-11-22 02:45:46; 170.00; 4.60; 25.50
2018-11-22 02:45:59; 169.00; 4.61; 25.50
2018-11-22 03:00:03; 169.00; 4.61; 25.56
2018-11-22 03:00:15; 168.00; 4.62; 25.56
2018-11-22 03:00:28; 170.00; 4.61; 25.56
2018-11-22 03:00:40; 170.00; 4.60; 25.56
2018-11-22 03:00:53; 169.00; 4.61; 25.63
2018-11-22 03:15:08; 170.00; 4.60; 25.81
2018-11-22 03:15:20; 170.00; 4.59; 25.81
2018-11-22 03:15:33; 170.00; 4.60; 25.81
2018-11-22 03:15:45; 169.00; 4.61; 25.81
2018-11-22 03:15:58; 169.00; 4.61; 25.81
2018-11-22 03:30:01; 169.00; 4.61; 25.81
2018-11-22 03:30:14; 169.00; 4.61; 25.81
2018-11-22 03:30:26; 169.00; 4.61; 25.81
2018-11-22 03:30:39; 169.00; 4.61; 25.81
2018-11-22 03:30:51; 168.00; 4.62; 25.81
2018-11-22 03:45:06; 169.00; 4.61; 25.63
2018-11-22 03:45:19; 169.00; 4.61; 25.63
2018-11-22 03:45:31; 169.00; 4.61; 25.63
2018-11-22 03:45:44; 169.00; 4.61; 25.63
2018-11-22 03:45:56; 168.00; 4.61; 25.63
2018-11-22 04:00:12; 169.00; 4.60; 25.50
2018-11-22 04:00:24; 169.00; 4.61; 25.50
2018-11-22 04:00:36; 169.00; 4.61; 25.50
2018-11-22 04:00:49; 170.00; 4.60; 25.50
2018-11-22 04:15:04; 170.00; 4.60; 25.38
2018-11-22 04:15:17; 170.00; 4.60; 25.38
2018-11-22 04:15:29; 169.00; 4.61; 25.38
2018-11-22 04:15:41; 172.00; 4.58; 25.38
2018-11-22 04:15:54; 170.00; 4.61; 25.38
2018-11-22 04:30:09; 172.00; 4.59; 25.19
2018-11-22 04:30:22; 170.00; 4.60; 25.19
2018-11-22 04:30:34; 171.00; 4.58; 25.19
2018-11-22 04:30:47; 170.00; 4.61; 25.19
2018-11-22 04:30:59; 170.00; 4.61; 25.19
2018-11-22 04:45:03; 170.00; 4.61; 25.13
2018-11-22 04:45:15; 169.00; 4.62; 25.13
2018-11-22 04:45:28; 168.00; 4.62; 25.13
2018-11-22 04:45:40; 170.00; 4.60; 25.13
2018-11-22 04:45:53; 172.00; 4.59; 25.13
2018-11-22 05:00:08; 171.00; 4.59; 25.00
2018-11-22 05:00:20; 170.00; 4.61; 25.00
2018-11-22 05:00:33; 170.00; 4.60; 25.00
2018-11-22 05:00:45; 170.00; 4.60; 25.00
2018-11-22 05:00:58; 170.00; 4.60; 25.00
2018-11-22 05:15:01; 170.00; 4.60; 24.94
2018-11-22 05:15:14; 169.00; 4.60; 24.94
2018-11-22 05:15:26; 169.00; 4.61; 24.94
2018-11-22 05:15:39; 169.00; 4.62; 24.94
2018-11-22 05:15:51; 169.00; 4.61; 24.94
2018-11-22 05:30:06; 171.00; 4.59; 25.06
2018-11-22 05:30:19; 169.00; 4.61; 25.06
2018-11-22 05:30:31; 170.00; 4.60; 25.06
2018-11-22 05:30:44; 170.00; 4.59; 25.06
2018-11-22 05:30:56; 170.00; 4.60; 25.06
2018-11-22 05:45:11; 168.00; 4.61; 25.25
2018-11-22 05:45:24; 167.00; 4.64; 25.25
2018-11-22 05:45:36; 170.00; 4.60; 25.25
2018-11-22 05:45:49; 169.00; 4.61; 25.25
2018-11-22 06:00:04; 169.00; 4.62; 25.25
2018-11-22 06:00:16; 170.00; 4.60; 25.19
2018-11-22 06:00:29; 169.00; 4.61; 25.25
2018-11-22 06:00:41; 170.00; 4.60; 25.25
2018-11-22 06:00:54; 171.00; 4.60; 25.25
2018-11-22 06:15:09; 170.00; 4.59; 25.13
2018-11-22 06:15:22; 170.00; 4.59; 25.13
2018-11-22 06:15:34; 169.00; 4.61; 25.13
2018-11-22 06:15:46; 172.00; 4.59; 25.13
2018-11-22 06:15:59; 170.00; 4.60; 25.13
2018-11-22 06:30:03; 170.00; 4.61; 25.13
2018-11-22 06:30:15; 168.00; 4.62; 25.13
2018-11-22 06:30:28; 171.00; 4.59; 25.13
2018-11-22 06:30:40; 168.00; 4.62; 25.13
2018-11-22 06:30:53; 169.00; 4.61; 25.13
2018-11-22 06:45:08; 171.00; 4.59; 25.13
2018-11-22 06:45:20; 171.00; 4.59; 25.13
2018-11-22 06:45:33; 171.00; 4.59; 25.06
2018-11-22 06:45:45; 171.00; 4.59; 25.06
2018-11-22 06:45:58; 172.00; 4.59; 25.13
2018-11-22 07:00:02; 167.00; 4.63; 25.06
2018-11-22 07:00:14; 170.00; 4.60; 25.13
2018-11-22 07:00:27; 172.00; 4.58; 25.06
2018-11-22 07:00:39; 170.00; 4.60; 25.13
2018-11-22 07:00:52; 169.00; 4.61; 25.13
2018-11-22 07:15:07; 171.00; 4.59; 25.13
2018-11-22 07:15:19; 171.00; 4.59; 25.13
2018-11-22 07:15:32; 169.00; 4.61; 25.13
2018-11-22 07:15:44; 169.00; 4.61; 25.13
2018-11-22 07:15:57; 171.00; 4.59; 25.13
2018-11-22 07:30:12; 171.00; 4.59; 25.31
2018-11-22 07:30:24; 169.00; 4.61; 25.31
2018-11-22 07:30:37; 170.00; 4.61; 25.31
2018-11-22 07:30:49; 170.00; 4.60; 25.31
2018-11-22 07:45:04; 170.00; 4.60; 25.50
2018-11-22 07:45:17; 169.00; 4.60; 25.50
2018-11-22 07:45:29; 170.00; 4.61; 25.50
2018-11-22 07:45:42; 169.00; 4.61; 25.50
2018-11-22 07:45:54; 169.00; 4.61; 25.50
2018-11-22 08:00:09; 171.00; 4.60; 27.19
2018-11-22 08:00:22; 170.00; 4.60; 27.19
2018-11-22 08:00:34; 169.00; 4.60; 27.19
2018-11-22 08:00:47; 170.00; 4.60; 27.19
2018-11-22 08:00:59; 169.00; 4.62; 27.19
2018-11-22 08:15:03; 170.00; 4.59; 27.88
2018-11-22 08:15:15; 169.00; 4.61; 27.88
2018-11-22 08:15:28; 171.00; 4.60; 27.94
2018-11-22 08:15:40; 168.00; 4.62; 27.94
2018-11-22 08:15:53; 168.00; 4.63; 28.00
2018-11-22 08:30:07; 171.00; 4.59; 29.19
2018-11-22 08:30:20; 169.00; 4.61; 29.19
2018-11-22 08:30:32; 170.00; 4.60; 29.19
2018-11-22 08:30:45; 171.00; 4.59; 29.19
2018-11-22 08:30:57; 170.00; 4.60; 29.19
2018-11-22 08:45:01; 171.00; 4.60; 30.19
2018-11-22 08:45:13; 169.00; 4.61; 30.19
2018-11-22 08:45:26; 171.00; 4.59; 30.19
2018-11-22 08:45:38; 171.00; 4.60; 30.25
2018-11-22 08:45:51; 171.00; 4.60; 30.25
2018-11-22 09:00:05; 170.00; 4.61; 31.38
2018-11-22 09:00:18; 169.00; 4.61; 31.44
2018-11-22 09:00:30; 169.00; 4.60; 31.50
2018-11-22 09:00:43; 169.00; 4.61; 31.56
2018-11-22 09:00:55; 169.00; 4.61; 31.63
2018-11-22 09:15:10; 169.00; 4.61; 31.88
2018-11-22 09:15:22; 169.00; 4.62; 31.88
2018-11-22 09:15:35; 168.00; 4.62; 31.88
2018-11-22 09:15:47; 168.00; 4.62; 31.94
2018-11-22 09:16:00; 169.00; 4.61; 31.94
2018-11-22 09:30:03; 168.00; 4.62; 32.88
2018-11-22 09:30:15; 169.00; 4.61; 32.88
2018-11-22 09:30:28; 168.00; 4.62; 32.94
2018-11-22 09:30:40; 170.00; 4.60; 33.00
2018-11-22 09:30:53; 170.00; 4.60; 33.13
2018-11-22 09:45:07; 170.00; 4.60; 33.25
2018-11-22 09:45:20; 168.00; 4.61; 33.25
2018-11-22 09:45:32; 169.00; 4.61; 33.19
2018-11-22 09:45:44; 169.00; 4.61; 33.25
2018-11-22 09:45:57; 168.00; 4.62; 33.25
2018-11-22 10:00:11; 169.00; 4.61; 33.50
2018-11-22 10:00:24; 169.00; 4.61; 33.50
2018-11-22 10:00:36; 169.00; 4.61; 33.38
2018-11-22 10:00:49; 168.00; 4.62; 33.44
2018-11-22 10:15:03; 168.00; 4.62; 34.31
2018-11-22 10:15:16; 167.00; 4.63; 34.25
2018-11-22 10:15:28; 168.00; 4.62; 34.31
2018-11-22 10:15:41; 168.00; 4.62; 34.44
2018-11-22 10:15:53; 168.00; 4.62; 34.50
2018-11-22 10:30:08; 167.00; 4.63; 35.00
2018-11-22 10:30:20; 166.00; 4.64; 34.81
2018-11-22 10:30:33; 169.00; 4.61; 34.69
2018-11-22 10:30:45; 168.00; 4.62; 34.69
2018-11-22 10:30:58; 170.00; 4.60; 34.75
2018-11-22 10:45:12; 169.00; 4.62; 36.19
2018-11-22 10:45:24; 169.00; 4.62; 36.25
2018-11-22 10:45:37; 167.00; 4.63; 36.25
2018-11-22 10:45:49; 168.00; 4.62; 36.19
2018-11-22 11:00:04; 169.00; 4.61; 35.69
2018-11-22 11:00:16; 169.00; 4.61; 35.69
2018-11-22 11:00:29; 166.00; 4.63; 35.75
2018-11-22 11:00:41; 168.00; 4.62; 35.75
2018-11-22 11:00:54; 167.00; 4.62; 35.75
2018-11-22 11:15:08; 168.00; 4.62; 34.63
2018-11-22 11:15:20; 168.00; 4.62; 34.69
2018-11-22 11:15:33; 169.00; 4.61; 34.75
2018-11-22 11:15:45; 169.00; 4.61; 34.75
2018-11-22 11:15:58; 167.00; 4.63; 34.81
2018-11-22 11:30:01; 171.00; 4.60; 35.56
2018-11-22 11:30:13; 168.00; 4.61; 35.56
2018-11-22 11:30:26; 169.00; 4.61; 35.56
2018-11-22 11:30:38; 169.00; 4.61; 35.63
2018-11-22 11:30:51; 168.00; 4.62; 35.63
2018-11-22 11:45:05; 166.00; 4.63; 36.31
2018-11-22 11:45:18; 169.00; 4.60; 36.38
2018-11-22 11:45:30; 168.00; 4.61; 36.31
2018-11-22 11:45:43; 169.00; 4.62; 36.31
2018-11-22 11:45:55; 167.00; 4.63; 36.25
2018-11-22 12:00:10; 169.00; 4.61; 37.94
2018-11-22 12:00:22; 169.00; 4.61; 37.94
2018-11-22 12:00:34; 169.00; 4.61; 37.94
2018-11-22 12:00:47; 168.00; 4.62; 37.88
2018-11-22 12:00:59; 169.00; 4.61; 37.88
2018-11-22 12:15:02; 168.00; 4.62; 35.69
2018-11-22 12:15:15; 168.00; 4.62; 35.56
2018-11-22 12:15:27; 169.00; 4.60; 35.56
2018-11-22 12:15:40; 170.00; 4.60; 35.50
2018-11-22 12:15:52; 168.00; 4.61; 35.50
2018-11-22 12:30:07; 169.00; 4.60; 33.00
2018-11-22 12:30:19; 169.00; 4.61; 33.00
2018-11-22 12:30:32; 169.00; 4.61; 32.94
2018-11-22 12:30:44; 168.00; 4.62; 32.94
2018-11-22 12:30:57; 169.00; 4.60; 32.94
2018-11-22 12:45:11; 168.00; 4.62; 32.56
2018-11-22 12:45:24; 168.00; 4.62; 32.56
2018-11-22 12:45:36; 169.00; 4.61; 32.56
2018-11-22 12:45:49; 169.00; 4.61; 32.50
2018-11-22 13:00:03; 169.00; 4.61; 31.00
2018-11-22 13:00:16; 169.00; 4.61; 31.00
2018-11-22 13:00:28; 169.00; 4.61; 31.00
2018-11-22 13:00:41; 169.00; 4.61; 30.94
2018-11-22 13:00:53; 169.00; 4.61; 30.94
2018-11-22 13:15:08; 169.00; 4.61; 29.44
2018-11-22 13:15:20; 169.00; 4.61; 29.38
2018-11-22 13:15:33; 169.00; 4.60; 29.38
2018-11-22 13:15:45; 169.00; 4.61; 29.38
2018-11-22 13:15:58; 169.00; 4.61; 29.31
2018-11-22 13:30:01; 168.00; 4.62; 28.44
2018-11-22 13:30:14; 169.00; 4.61; 28.44
2018-11-22 13:30:26; 169.00; 4.61; 28.44
2018-11-22 13:30:38; 169.00; 4.61; 28.38
2018-11-22 13:30:51; 168.00; 4.62; 28.38
2018-11-22 13:45:06; 168.00; 4.62; 25.13
2018-11-22 13:45:18; 170.00; 4.60; 25.00
2018-11-22 13:45:31; 170.00; 4.60; 24.94
2018-11-22 13:45:43; 170.00; 4.60; 24.88
2018-11-22 13:45:56; 171.00; 4.59; 24.81
2018-11-22 14:00:11; 177.00; 4.54; 20.50
2018-11-22 14:00:23; 181.00; 4.49; 20.44
2018-11-22 14:00:35; 174.00; 4.54; 20.44
2018-11-22 14:00:48; 176.00; 4.53; 20.44
2018-11-22 14:01:00; 179.00; 4.52; 20.44
2018-11-22 14:15:04; 176.00; 4.54; 20.13
2018-11-22 14:15:16; 183.00; 4.48; 20.13
2018-11-22 14:15:29; 182.00; 4.48; 20.13
2018-11-22 14:15:41; 177.00; 4.53; 20.13
2018-11-22 14:15:54; 182.00; 4.48; 20.13
2018-11-22 14:30:09; 179.00; 4.51; 20.38
2018-11-22 14:30:21; 180.00; 4.50; 20.38
2018-11-22 14:30:34; 183.00; 4.47; 20.38
2018-11-22 14:30:46; 184.00; 4.46; 20.38
2018-11-22 14:30:59; 185.00; 4.46; 20.44
2018-11-22 14:45:03; 177.00; 4.53; 20.75
2018-11-22 14:45:16; 179.00; 4.51; 20.75
2018-11-22 14:45:28; 179.00; 4.51; 20.75
2018-11-22 14:45:40; 182.00; 4.48; 20.75
2018-11-22 14:45:53; 179.00; 4.51; 20.75
2018-11-22 15:00:08; 174.00; 4.56; 20.50
2018-11-22 15:00:21; 173.00; 4.57; 20.50
2018-11-22 15:00:33; 175.00; 4.55; 20.50
2018-11-22 15:00:46; 175.00; 4.56; 20.50
2018-11-22 15:00:58; 174.00; 4.56; 20.50
2018-11-22 15:15:02; 169.00; 4.61; 20.44
2018-11-22 15:15:15; 171.00; 4.59; 20.44
2018-11-22 15:15:27; 170.00; 4.60; 20.44
2018-11-22 15:15:40; 170.00; 4.59; 20.44
2018-11-22 15:15:52; 170.00; 4.60; 20.44
2018-11-22 15:30:08; 170.00; 4.60; 20.38
2018-11-22 15:30:20; 170.00; 4.60; 20.38
2018-11-22 15:30:33; 169.00; 4.61; 20.38
2018-11-22 15:30:45; 169.00; 4.61; 20.38
2018-11-22 15:30:58; 169.00; 4.61; 20.38
2018-11-22 15:45:01; 169.00; 4.61; 20.44
2018-11-22 15:45:14; 169.00; 4.61; 20.44
2018-11-22 15:45:26; 170.00; 4.61; 20.44
2018-11-22 15:45:39; 169.00; 4.61; 20.44
2018-11-22 15:45:51; 170.00; 4.60; 20.44
2018-11-22 16:00:07; 170.00; 4.61; 20.13
2018-11-22 16:00:19; 170.00; 4.60; 20.13
2018-11-22 16:00:32; 169.00; 4.61; 20.13
2018-11-22 16:00:44; 170.00; 4.60; 20.13
2018-11-22 16:00:57; 170.00; 4.60; 20.13
2018-11-22 16:15:01; 169.00; 4.61; 20.19
2018-11-22 16:15:13; 169.00; 4.61; 20.19
2018-11-22 16:15:26; 168.00; 4.62; 20.13
2018-11-22 16:15:38; 169.00; 4.61; 20.19
2018-11-22 16:15:51; 169.00; 4.61; 20.19
2018-11-22 16:30:06; 169.00; 4.61; 19.94
2018-11-22 16:30:18; 169.00; 4.61; 19.88
2018-11-22 16:30:31; 169.00; 4.61; 19.88
2018-11-22 16:30:43; 169.00; 4.61; 19.88
2018-11-22 16:30:56; 169.00; 4.61; 19.88
2018-11-22 16:45:11; 169.00; 4.61; 19.88
2018-11-22 16:45:24; 169.00; 4.61; 19.88
2018-11-22 16:45:36; 169.00; 4.61; 19.88
2018-11-22 16:45:49; 169.00; 4.61; 19.88
2018-11-22 17:00:04; 168.00; 4.61; 19.94
2018-11-22 17:00:17; 169.00; 4.61; 19.94
2018-11-22 17:00:29; 168.00; 4.62; 19.94
2018-11-22 17:00:42; 169.00; 4.61; 19.94
2018-11-22 17:00:54; 168.00; 4.62; 19.94
2018-11-22 17:15:09; 168.00; 4.62; 19.69
2018-11-22 17:15:22; 168.00; 4.62; 19.75
2018-11-22 17:15:34; 169.00; 4.61; 19.69
2018-11-22 17:15:47; 168.00; 4.62; 19.69
2018-11-22 17:15:59; 168.00; 4.62; 19.69
2018-11-22 17:30:03; 168.00; 4.62; 19.88
2018-11-22 17:30:16; 168.00; 4.62; 19.88
2018-11-22 17:30:28; 168.00; 4.62; 19.88
2018-11-22 17:30:41; 168.00; 4.62; 19.88
2018-11-22 17:30:53; 168.00; 4.62; 19.88
2018-11-22 17:45:09; 168.00; 4.62; 19.69
2018-11-22 17:45:21; 168.00; 4.62; 19.69
2018-11-22 17:45:34; 168.00; 4.62; 19.69
2018-11-22 17:45:46; 168.00; 4.62; 19.63
2018-11-22 17:45:59; 168.00; 4.62; 19.63
2018-11-22 18:00:02; 168.00; 4.62; 19.69
2018-11-22 18:00:15; 168.00; 4.62; 19.69
2018-11-22 18:00:27; 168.00; 4.62; 19.69
2018-11-22 18:00:40; 168.00; 4.62; 19.69
2018-11-22 18:00:52; 168.00; 4.62; 19.69
2018-11-22 18:15:08; 167.00; 4.63; 19.75
2018-11-22 18:15:20; 167.00; 4.63; 19.75
2018-11-22 18:15:33; 168.00; 4.62; 19.75
2018-11-22 18:15:45; 168.00; 4.62; 19.75
2018-11-22 18:15:58; 168.00; 4.62; 19.75
2018-11-22 18:30:02; 168.00; 4.62; 19.63
2018-11-22 18:30:14; 168.00; 4.62; 19.63
2018-11-22 18:30:27; 168.00; 4.62; 19.63
2018-11-22 18:30:39; 168.00; 4.62; 19.63
2018-11-22 18:30:52; 168.00; 4.62; 19.63
2018-11-22 18:45:07; 167.00; 4.63; 19.63
2018-11-22 18:45:19; 167.00; 4.63; 19.63
2018-11-22 18:45:32; 168.00; 4.62; 19.63
2018-11-22 18:45:44; 167.00; 4.63; 19.56
2018-11-22 18:45:57; 167.00; 4.63; 19.63
2018-11-22 19:00:01; 168.00; 4.62; 19.56
2018-11-22 19:00:13; 167.00; 4.63; 19.56
2018-11-22 19:00:26; 167.00; 4.63; 19.56
2018-11-22 19:00:38; 168.00; 4.62; 19.56
2018-11-22 19:00:51; 168.00; 4.62; 19.56
2018-11-22 19:15:06; 167.00; 4.63; 19.56
2018-11-22 19:15:19; 167.00; 4.63; 19.56
2018-11-22 19:15:31; 167.00; 4.63; 19.56
2018-11-22 19:15:44; 167.00; 4.63; 19.56
2018-11-22 19:15:56; 167.00; 4.63; 19.56
2018-11-22 19:30:11; 166.00; 4.64; 19.44
2018-11-22 19:30:24; 166.00; 4.64; 19.44
2018-11-22 19:30:36; 166.00; 4.64; 19.44
2018-11-22 19:30:49; 166.00; 4.64; 19.44
2018-11-22 19:45:04; 166.00; 4.64; 19.56
2018-11-22 19:45:17; 166.00; 4.64; 19.56
2018-11-22 19:45:29; 166.00; 4.64; 19.56
2018-11-22 19:45:42; 167.00; 4.64; 19.56
2018-11-22 19:45:54; 166.00; 4.64; 19.56
2018-11-22 20:00:10; 166.00; 4.64; 19.50
2018-11-22 20:00:22; 166.00; 4.64; 19.50
2018-11-22 20:00:35; 166.00; 4.64; 19.50
2018-11-22 20:00:47; 166.00; 4.64; 19.50
2018-11-22 20:00:59; 166.00; 4.64; 19.50
2018-11-22 20:15:03; 167.00; 4.63; 19.50
2018-11-22 20:15:16; 166.00; 4.64; 19.50
2018-11-22 20:15:28; 166.00; 4.64; 19.50
2018-11-22 20:15:41; 167.00; 4.63; 19.50
2018-11-22 20:15:53; 167.00; 4.63; 19.50
2018-11-22 20:30:09; 166.00; 4.64; 19.44
2018-11-22 20:30:21; 167.00; 4.63; 19.44
2018-11-22 20:30:34; 167.00; 4.63; 19.44
2018-11-22 20:30:46; 166.00; 4.64; 19.44
2018-11-22 20:30:59; 166.00; 4.64; 19.44
2018-11-22 20:45:03; 167.00; 4.63; 19.44
2018-11-22 20:45:15; 167.00; 4.63; 19.44
2018-11-22 20:45:28; 167.00; 4.63; 19.44
2018-11-22 20:45:40; 167.00; 4.63; 19.44
2018-11-22 20:45:53; 167.00; 4.63; 19.44
2018-11-22 21:00:08; 167.00; 4.63; 19.44
2018-11-22 21:00:20; 167.00; 4.63; 19.44
2018-11-22 21:00:33; 167.00; 4.63; 19.44
2018-11-22 21:00:46; 167.00; 4.63; 19.44
2018-11-22 21:00:58; 167.00; 4.63; 19.44
2018-11-22 21:15:02; 166.00; 4.64; 19.50
2018-11-22 21:15:14; 166.00; 4.64; 19.44
2018-11-22 21:15:27; 166.00; 4.64; 19.50
2018-11-22 21:15:40; 166.00; 4.64; 19.50
2018-11-22 21:15:52; 166.00; 4.64; 19.44
2018-11-22 21:30:07; 166.00; 4.64; 19.50
2018-11-22 21:30:20; 166.00; 4.64; 19.50
2018-11-22 21:30:32; 167.00; 4.63; 19.50
2018-11-22 21:30:45; 167.00; 4.64; 19.50
2018-11-22 21:30:57; 167.00; 4.63; 19.50
2018-11-22 21:45:01; 167.00; 4.63; 19.44
2018-11-22 21:45:14; 167.00; 4.63; 19.44
2018-11-22 21:45:26; 166.00; 4.63; 19.44
2018-11-22 21:45:39; 167.00; 4.63; 19.44
2018-11-22 21:45:51; 166.00; 4.64; 19.44
2018-11-22 22:00:07; 166.00; 4.64; 19.69
2018-11-22 22:00:19; 167.00; 4.63; 19.69
2018-11-22 22:00:32; 167.00; 4.63; 19.69
2018-11-22 22:00:44; 167.00; 4.63; 19.63
2018-11-22 22:00:56; 167.00; 4.63; 19.69
2018-11-22 22:15:12; 167.00; 4.63; 19.88
2018-11-22 22:15:24; 167.00; 4.63; 19.88
2018-11-22 22:15:37; 167.00; 4.63; 19.88
2018-11-22 22:15:49; 167.00; 4.63; 19.88
2018-11-22 22:30:05; 167.00; 4.63; 19.88
2018-11-22 22:30:17; 167.00; 4.63; 19.88
2018-11-22 22:30:30; 167.00; 4.63; 19.88
2018-11-22 22:30:42; 167.00; 4.63; 19.88
2018-11-22 22:30:55; 167.00; 4.63; 19.88
2018-11-22 22:45:10; 167.00; 4.63; 19.63
2018-11-22 22:45:22; 167.00; 4.63; 19.63
2018-11-22 22:45:35; 167.00; 4.63; 19.63
2018-11-22 22:45:47; 167.00; 4.63; 19.63
2018-11-22 22:46:00; 167.00; 4.63; 19.63
2018-11-22 23:00:04; 167.00; 4.62; 19.63
2018-11-22 23:00:16; 167.00; 4.62; 19.63
2018-11-22 23:00:29; 167.00; 4.63; 19.63
2018-11-22 23:00:41; 167.00; 4.63; 19.63
2018-11-22 23:00:54; 168.00; 4.62; 19.63
2018-11-22 23:15:09; 167.00; 4.63; 19.13
2018-11-22 23:15:22; 168.00; 4.62; 19.13
2018-11-22 23:15:34; 168.00; 4.62; 19.13
2018-11-22 23:15:47; 169.00; 4.61; 19.13
2018-11-22 23:15:59; 168.00; 4.62; 19.13
2018-11-22 23:30:03; 169.00; 4.61; 18.81
2018-11-22 23:30:16; 170.00; 4.60; 18.81
2018-11-22 23:30:28; 169.00; 4.60; 18.81
2018-11-22 23:30:41; 169.00; 4.61; 18.81
2018-11-22 23:30:53; 168.00; 4.62; 18.81
2018-11-22 23:45:09; 171.00; 4.59; 18.50
2018-11-22 23:45:21; 171.00; 4.59; 18.50
2018-11-22 23:45:34; 170.00; 4.59; 18.50
2018-11-22 23:45:46; 170.00; 4.60; 18.50
2018-11-22 23:45:59; 171.00; 4.59; 18.50
