2018-04-14 00:00:10; 195.00; 4.35; 14.94
2018-04-14 00:00:22; 195.00; 4.35; 14.94
2018-04-14 00:00:34; 195.00; 4.35; 14.94
2018-04-14 00:00:47; 195.00; 4.35; 14.94
2018-04-14 00:00:59; 195.00; 4.35; 14.94
2018-04-14 00:15:04; 195.00; 4.35; 15.00
2018-04-14 00:15:16; 195.00; 4.35; 15.06
2018-04-14 00:15:29; 195.00; 4.35; 15.06
2018-04-14 00:15:41; 195.00; 4.35; 15.06
2018-04-14 00:15:54; 195.00; 4.35; 15.06
2018-04-14 00:30:10; 195.00; 4.35; 15.50
2018-04-14 00:30:22; 195.00; 4.35; 15.50
2018-04-14 00:30:34; 195.00; 4.35; 15.50
2018-04-14 00:30:47; 195.00; 4.35; 15.50
2018-04-14 00:30:59; 195.00; 4.35; 15.50
2018-04-14 00:45:04; 195.00; 4.35; 15.56
2018-04-14 00:45:16; 195.00; 4.35; 15.56
2018-04-14 00:45:29; 195.00; 4.35; 15.56
2018-04-14 00:45:41; 195.00; 4.35; 15.56
2018-04-14 00:45:54; 194.00; 4.36; 15.56
2018-04-14 01:00:10; 194.00; 4.36; 15.56
2018-04-14 01:00:22; 194.00; 4.36; 15.56
2018-04-14 01:00:34; 194.00; 4.36; 15.56
2018-04-14 01:00:47; 194.00; 4.36; 15.56
2018-04-14 01:00:59; 195.00; 4.35; 15.56
2018-04-14 01:15:04; 195.00; 4.35; 15.56
2018-04-14 01:15:16; 195.00; 4.35; 15.63
2018-04-14 01:15:29; 195.00; 4.35; 15.56
2018-04-14 01:15:41; 196.00; 4.34; 15.63
2018-04-14 01:15:53; 195.00; 4.35; 15.63
2018-04-14 01:30:09; 195.00; 4.35; 15.81
2018-04-14 01:30:22; 195.00; 4.35; 15.81
2018-04-14 01:30:34; 195.00; 4.35; 15.88
2018-04-14 01:30:47; 195.00; 4.35; 15.81
2018-04-14 01:30:59; 195.00; 4.35; 15.88
2018-04-14 01:45:04; 195.00; 4.35; 16.19
2018-04-14 01:45:16; 195.00; 4.35; 16.19
2018-04-14 01:45:29; 195.00; 4.35; 16.19
2018-04-14 01:45:41; 195.00; 4.35; 16.19
2018-04-14 01:45:53; 195.00; 4.35; 16.19
2018-04-14 02:00:09; 195.00; 4.35; 15.94
2018-04-14 02:00:22; 195.00; 4.35; 15.94
2018-04-14 02:00:34; 195.00; 4.35; 15.88
2018-04-14 02:00:46; 195.00; 4.35; 15.88
2018-04-14 02:00:59; 195.00; 4.35; 15.88
2018-04-14 02:15:04; 195.00; 4.35; 14.69
2018-04-14 02:15:16; 194.00; 4.36; 14.69
2018-04-14 02:15:28; 194.00; 4.36; 14.63
2018-04-14 02:15:41; 194.00; 4.36; 14.63
2018-04-14 02:15:53; 194.00; 4.36; 14.63
2018-04-14 02:30:09; 196.00; 4.34; 13.88
2018-04-14 02:30:22; 196.00; 4.34; 13.88
2018-04-14 02:30:34; 196.00; 4.34; 13.88
2018-04-14 02:30:46; 196.00; 4.34; 13.88
2018-04-14 02:30:59; 195.00; 4.35; 13.88
2018-04-14 02:45:04; 194.00; 4.35; 13.50
2018-04-14 02:45:16; 194.00; 4.36; 13.50
2018-04-14 02:45:28; 194.00; 4.35; 13.50
2018-04-14 02:45:41; 194.00; 4.36; 13.50
2018-04-14 02:45:53; 194.00; 4.36; 13.50
2018-04-14 03:00:09; 195.00; 4.35; 13.81
2018-04-14 03:00:22; 194.00; 4.35; 13.81
2018-04-14 03:00:34; 194.00; 4.36; 13.81
2018-04-14 03:00:47; 194.00; 4.35; 13.81
2018-04-14 03:00:59; 195.00; 4.35; 13.81
2018-04-14 03:15:04; 194.00; 4.36; 14.06
2018-04-14 03:15:16; 194.00; 4.35; 14.06
2018-04-14 03:15:29; 194.00; 4.36; 14.06
2018-04-14 03:15:41; 194.00; 4.36; 14.13
2018-04-14 03:15:53; 195.00; 4.35; 14.13
2018-04-14 03:30:10; 196.00; 4.34; 14.50
2018-04-14 03:30:22; 195.00; 4.34; 14.50
2018-04-14 03:30:34; 195.00; 4.35; 14.50
2018-04-14 03:30:47; 195.00; 4.35; 14.50
2018-04-14 03:30:59; 194.00; 4.36; 14.44
2018-04-14 03:45:04; 195.00; 4.34; 14.38
2018-04-14 03:45:16; 195.00; 4.35; 14.31
2018-04-14 03:45:29; 195.00; 4.34; 14.31
2018-04-14 03:45:41; 195.00; 4.35; 14.38
2018-04-14 03:45:53; 195.00; 4.35; 14.38
2018-04-14 04:00:10; 195.00; 4.35; 14.38
2018-04-14 04:00:22; 195.00; 4.35; 14.38
2018-04-14 04:00:34; 195.00; 4.35; 14.38
2018-04-14 04:00:47; 195.00; 4.35; 14.38
2018-04-14 04:00:59; 195.00; 4.35; 14.38
2018-04-14 04:15:04; 196.00; 4.34; 14.50
2018-04-14 04:15:16; 195.00; 4.34; 14.50
2018-04-14 04:15:29; 196.00; 4.34; 14.50
2018-04-14 04:15:41; 195.00; 4.35; 14.50
2018-04-14 04:15:53; 195.00; 4.35; 14.50
2018-04-14 04:30:10; 195.00; 4.35; 14.44
2018-04-14 04:30:22; 195.00; 4.35; 14.44
2018-04-14 04:30:34; 195.00; 4.35; 14.38
2018-04-14 04:30:47; 195.00; 4.35; 14.38
2018-04-14 04:30:59; 195.00; 4.35; 14.44
2018-04-14 04:45:04; 194.00; 4.36; 14.25
2018-04-14 04:45:16; 194.00; 4.35; 14.25
2018-04-14 04:45:28; 195.00; 4.35; 14.25
2018-04-14 04:45:41; 194.00; 4.35; 14.19
2018-04-14 04:45:53; 194.00; 4.35; 14.19
2018-04-14 05:00:09; 195.00; 4.35; 14.19
2018-04-14 05:00:22; 194.00; 4.35; 14.19
2018-04-14 05:00:34; 194.00; 4.35; 14.19
2018-04-14 05:00:47; 194.00; 4.35; 14.19
2018-04-14 05:00:59; 194.00; 4.35; 14.19
2018-04-14 05:15:04; 195.00; 4.35; 14.31
2018-04-14 05:15:16; 195.00; 4.34; 14.31
2018-04-14 05:15:28; 195.00; 4.35; 14.31
2018-04-14 05:15:41; 196.00; 4.34; 14.31
2018-04-14 05:15:53; 196.00; 4.34; 14.31
2018-04-14 05:30:09; 195.00; 4.34; 14.31
2018-04-14 05:30:22; 195.00; 4.35; 14.31
2018-04-14 05:30:34; 195.00; 4.34; 14.31
2018-04-14 05:30:47; 196.00; 4.34; 14.25
2018-04-14 05:30:59; 195.00; 4.35; 14.25
2018-04-14 05:45:04; 195.00; 4.35; 14.00
2018-04-14 05:45:16; 195.00; 4.34; 14.00
2018-04-14 05:45:29; 195.00; 4.35; 14.00
2018-04-14 05:45:41; 195.00; 4.35; 14.00
2018-04-14 05:45:53; 195.00; 4.35; 14.00
2018-04-14 06:00:10; 195.00; 4.35; 14.06
2018-04-14 06:00:22; 195.00; 4.35; 14.06
2018-04-14 06:00:34; 195.00; 4.35; 14.06
2018-04-14 06:00:47; 195.00; 4.34; 14.06
2018-04-14 06:00:59; 195.00; 4.35; 14.06
2018-04-14 06:15:04; 195.00; 4.34; 14.19
2018-04-14 06:15:16; 195.00; 4.35; 14.19
2018-04-14 06:15:29; 195.00; 4.35; 14.25
2018-04-14 06:15:41; 195.00; 4.35; 14.25
2018-04-14 06:15:54; 195.00; 4.35; 14.25
2018-04-14 06:30:10; 196.00; 4.34; 14.56
2018-04-14 06:30:22; 196.00; 4.34; 14.56
2018-04-14 06:30:34; 196.00; 4.34; 14.56
2018-04-14 06:30:47; 195.00; 4.35; 14.56
2018-04-14 06:30:59; 196.00; 4.34; 14.63
2018-04-14 06:45:04; 196.00; 4.34; 14.63
2018-04-14 06:45:16; 196.00; 4.34; 14.63
2018-04-14 06:45:29; 196.00; 4.34; 14.63
2018-04-14 06:45:41; 196.00; 4.34; 14.63
2018-04-14 06:45:53; 196.00; 4.34; 14.56
2018-04-14 07:00:10; 195.00; 4.34; 14.06
2018-04-14 07:00:22; 195.00; 4.35; 14.06
2018-04-14 07:00:34; 195.00; 4.35; 14.06
2018-04-14 07:00:47; 195.00; 4.35; 14.06
2018-04-14 07:00:59; 195.00; 4.35; 14.06
2018-04-14 07:15:04; 194.00; 4.36; 13.75
2018-04-14 07:15:16; 194.00; 4.36; 13.81
2018-04-14 07:15:29; 194.00; 4.36; 13.75
2018-04-14 07:15:41; 194.00; 4.36; 13.81
2018-04-14 07:15:54; 194.00; 4.36; 13.81
2018-04-14 07:30:10; 195.00; 4.35; 13.94
2018-04-14 07:30:22; 194.00; 4.35; 13.94
2018-04-14 07:30:35; 194.00; 4.35; 13.94
2018-04-14 07:30:47; 195.00; 4.35; 13.94
2018-04-14 07:30:59; 194.00; 4.35; 13.94
2018-04-14 07:45:04; 194.00; 4.35; 14.19
2018-04-14 07:45:17; 194.00; 4.35; 14.19
2018-04-14 07:45:29; 194.00; 4.36; 14.19
2018-04-14 07:45:41; 194.00; 4.35; 14.19
2018-04-14 07:45:54; 194.00; 4.35; 14.19
2018-04-14 08:00:10; 194.00; 4.35; 13.94
2018-04-14 08:00:22; 194.00; 4.35; 13.94
2018-04-14 08:00:35; 194.00; 4.35; 13.94
2018-04-14 08:00:47; 194.00; 4.35; 13.94
2018-04-14 08:00:59; 194.00; 4.36; 13.94
2018-04-14 08:15:04; 194.00; 4.35; 14.06
2018-04-14 08:15:17; 194.00; 4.35; 14.06
2018-04-14 08:15:29; 194.00; 4.35; 14.06
2018-04-14 08:15:41; 194.00; 4.36; 14.06
2018-04-14 08:15:54; 194.00; 4.35; 14.06
2018-04-14 08:30:10; 194.00; 4.36; 14.19
2018-04-14 08:30:22; 194.00; 4.36; 14.19
2018-04-14 08:30:35; 194.00; 4.36; 14.19
2018-04-14 08:30:47; 194.00; 4.36; 14.19
2018-04-14 08:31:00; 195.00; 4.35; 14.19
2018-04-14 08:45:04; 195.00; 4.35; 14.38
2018-04-14 08:45:17; 195.00; 4.35; 14.44
2018-04-14 08:45:29; 196.00; 4.34; 14.44
2018-04-14 08:45:42; 195.00; 4.34; 14.44
2018-04-14 08:45:54; 196.00; 4.34; 14.44
2018-04-14 09:00:10; 195.00; 4.35; 14.63
2018-04-14 09:00:22; 195.00; 4.35; 14.69
2018-04-14 09:00:35; 195.00; 4.35; 14.69
2018-04-14 09:00:47; 195.00; 4.35; 14.69
2018-04-14 09:00:59; 195.00; 4.35; 14.69
2018-04-14 09:15:04; 195.00; 4.35; 14.75
2018-04-14 09:15:17; 195.00; 4.35; 14.75
2018-04-14 09:15:29; 195.00; 4.35; 14.75
2018-04-14 09:15:41; 195.00; 4.35; 14.75
2018-04-14 09:15:54; 195.00; 4.35; 14.75
2018-04-14 09:30:10; 196.00; 4.34; 15.13
2018-04-14 09:30:22; 196.00; 4.34; 15.13
2018-04-14 09:30:35; 195.00; 4.35; 15.13
2018-04-14 09:30:47; 194.00; 4.36; 15.13
2018-04-14 09:31:00; 195.00; 4.35; 15.19
2018-04-14 09:45:04; 194.00; 4.36; 15.56
2018-04-14 09:45:17; 195.00; 4.35; 15.63
2018-04-14 09:45:29; 196.00; 4.34; 15.63
2018-04-14 09:45:41; 196.00; 4.34; 15.63
2018-04-14 09:45:54; 195.00; 4.35; 15.63
2018-04-14 10:00:10; 196.00; 4.35; 16.19
2018-04-14 10:00:22; 195.00; 4.35; 16.19
2018-04-14 10:00:35; 195.00; 4.35; 16.19
2018-04-14 10:00:47; 195.00; 4.35; 16.19
2018-04-14 10:01:00; 194.00; 4.36; 16.25
2018-04-14 10:15:04; 195.00; 4.35; 16.94
2018-04-14 10:15:17; 194.00; 4.36; 16.94
2018-04-14 10:15:29; 195.00; 4.35; 17.00
2018-04-14 10:15:41; 194.00; 4.36; 17.00
2018-04-14 10:15:54; 195.00; 4.35; 17.00
2018-04-14 10:30:10; 194.00; 4.36; 17.75
2018-04-14 10:30:22; 194.00; 4.36; 17.75
2018-04-14 10:30:35; 194.00; 4.36; 17.81
2018-04-14 10:30:47; 194.00; 4.36; 17.81
2018-04-14 10:30:59; 194.00; 4.36; 17.81
2018-04-14 10:45:04; 194.00; 4.36; 18.50
2018-04-14 10:45:16; 195.00; 4.35; 18.56
2018-04-14 10:45:29; 195.00; 4.35; 18.56
2018-04-14 10:45:41; 194.00; 4.36; 18.63
2018-04-14 10:45:53; 194.00; 4.36; 18.63
2018-04-14 11:00:09; 195.00; 4.35; 18.38
2018-04-14 11:00:21; 195.00; 4.35; 18.44
2018-04-14 11:00:34; 194.00; 4.36; 18.44
2018-04-14 11:00:46; 196.00; 4.35; 18.44
2018-04-14 11:00:59; 195.00; 4.35; 18.44
2018-04-14 11:15:03; 195.00; 4.35; 18.50
2018-04-14 11:15:16; 195.00; 4.35; 18.50
2018-04-14 11:15:28; 195.00; 4.35; 18.50
2018-04-14 11:15:40; 194.00; 4.36; 18.50
2018-04-14 11:15:53; 194.00; 4.36; 18.50
2018-04-14 11:30:09; 195.00; 4.35; 18.44
2018-04-14 11:30:21; 195.00; 4.35; 18.44
2018-04-14 11:30:33; 195.00; 4.35; 18.44
2018-04-14 11:30:46; 195.00; 4.35; 18.44
2018-04-14 11:30:58; 195.00; 4.35; 18.44
2018-04-14 11:45:03; 195.00; 4.35; 18.25
2018-04-14 11:45:15; 195.00; 4.35; 18.25
2018-04-14 11:45:27; 195.00; 4.35; 18.25
2018-04-14 11:45:40; 195.00; 4.35; 18.19
2018-04-14 11:45:52; 195.00; 4.35; 18.19
2018-04-14 12:00:08; 194.00; 4.36; 18.94
2018-04-14 12:00:20; 194.00; 4.36; 18.88
2018-04-14 12:00:33; 194.00; 4.36; 18.94
2018-04-14 12:00:45; 194.00; 4.36; 18.94
2018-04-14 12:00:58; 194.00; 4.36; 18.94
2018-04-14 12:15:02; 195.00; 4.35; 19.88
2018-04-14 12:15:14; 194.00; 4.36; 19.88
2018-04-14 12:15:27; 194.00; 4.36; 19.88
2018-04-14 12:15:39; 194.00; 4.36; 19.94
2018-04-14 12:15:51; 195.00; 4.35; 19.94
2018-04-14 12:30:07; 194.00; 4.36; 20.69
2018-04-14 12:30:20; 194.00; 4.36; 20.75
2018-04-14 12:30:32; 194.00; 4.36; 20.81
2018-04-14 12:30:44; 194.00; 4.36; 20.75
2018-04-14 12:30:57; 194.00; 4.36; 20.75
2018-04-14 12:45:01; 194.00; 4.36; 21.69
2018-04-14 12:45:13; 194.00; 4.36; 21.69
2018-04-14 12:45:26; 194.00; 4.36; 21.75
2018-04-14 12:45:38; 194.00; 4.36; 21.75
2018-04-14 12:45:50; 194.00; 4.36; 21.81
2018-04-14 13:00:06; 194.00; 4.36; 23.63
2018-04-14 13:00:18; 194.00; 4.36; 23.69
2018-04-14 13:00:31; 194.00; 4.36; 23.69
2018-04-14 13:00:43; 194.00; 4.36; 23.75
2018-04-14 13:00:55; 194.00; 4.36; 23.81
2018-04-14 13:15:11; 194.00; 4.36; 24.69
2018-04-14 13:15:23; 195.00; 4.35; 24.75
2018-04-14 13:15:36; 192.00; 4.38; 24.75
2018-04-14 13:15:48; 195.00; 4.36; 24.81
2018-04-14 13:16:00; 193.00; 4.37; 24.88
2018-04-14 13:30:04; 194.00; 4.36; 26.38
2018-04-14 13:30:17; 193.00; 4.37; 26.31
2018-04-14 13:30:29; 194.00; 4.36; 26.31
2018-04-14 13:30:41; 193.00; 4.37; 26.25
2018-04-14 13:30:54; 194.00; 4.36; 26.25
2018-04-14 13:45:09; 194.00; 4.36; 26.00
2018-04-14 13:45:21; 194.00; 4.36; 26.06
2018-04-14 13:45:34; 194.00; 4.36; 26.06
2018-04-14 13:45:46; 194.00; 4.36; 26.00
2018-04-14 13:45:58; 194.00; 4.36; 26.06
2018-04-14 14:00:02; 194.00; 4.36; 27.31
2018-04-14 14:00:15; 194.00; 4.36; 27.38
2018-04-14 14:00:27; 194.00; 4.36; 27.38
2018-04-14 14:00:39; 194.00; 4.36; 27.44
2018-04-14 14:00:52; 194.00; 4.36; 27.56
2018-04-14 14:15:07; 193.00; 4.36; 27.50
2018-04-14 14:15:19; 193.00; 4.38; 27.44
2018-04-14 14:15:31; 194.00; 4.35; 27.31
2018-04-14 14:15:44; 193.00; 4.37; 27.25
2018-04-14 14:15:56; 193.00; 4.37; 27.19
2018-04-14 14:30:11; 194.00; 4.36; 28.19
2018-04-14 14:30:24; 193.00; 4.37; 28.31
2018-04-14 14:30:36; 194.00; 4.36; 28.44
2018-04-14 14:30:49; 193.00; 4.36; 28.50
2018-04-14 14:45:03; 193.00; 4.37; 30.38
2018-04-14 14:45:16; 193.00; 4.37; 30.44
2018-04-14 14:45:28; 193.00; 4.37; 30.44
2018-04-14 14:45:41; 193.00; 4.37; 30.44
2018-04-14 14:45:53; 193.00; 4.37; 30.50
2018-04-14 15:00:08; 194.00; 4.36; 29.81
2018-04-14 15:00:20; 193.00; 4.37; 29.94
2018-04-14 15:00:33; 194.00; 4.36; 30.00
2018-04-14 15:00:45; 194.00; 4.36; 30.00
2018-04-14 15:00:57; 194.00; 4.36; 30.06
2018-04-14 15:15:01; 193.00; 4.36; 29.69
2018-04-14 15:15:13; 193.00; 4.37; 29.63
2018-04-14 15:15:26; 193.00; 4.37; 29.56
2018-04-14 15:15:38; 193.00; 4.37; 29.56
2018-04-14 15:15:50; 194.00; 4.36; 29.63
2018-04-14 15:30:05; 194.00; 4.36; 29.44
2018-04-14 15:30:18; 193.00; 4.37; 29.44
2018-04-14 15:30:30; 193.00; 4.36; 29.44
2018-04-14 15:30:42; 193.00; 4.37; 29.50
2018-04-14 15:30:55; 193.00; 4.37; 29.56
2018-04-14 15:45:10; 194.00; 4.36; 29.81
2018-04-14 15:45:22; 194.00; 4.36; 29.81
2018-04-14 15:45:34; 194.00; 4.36; 29.88
2018-04-14 15:45:47; 194.00; 4.36; 29.88
2018-04-14 15:45:59; 194.00; 4.36; 29.94
2018-04-14 16:00:03; 194.00; 4.36; 31.31
2018-04-14 16:00:15; 193.00; 4.37; 31.38
2018-04-14 16:00:27; 192.00; 4.38; 31.44
2018-04-14 16:00:40; 193.00; 4.37; 31.50
2018-04-14 16:00:52; 194.00; 4.36; 31.56
2018-04-14 16:15:07; 193.00; 4.37; 29.94
2018-04-14 16:15:19; 193.00; 4.38; 30.06
2018-04-14 16:15:32; 193.00; 4.37; 30.06
2018-04-14 16:15:44; 193.00; 4.37; 30.00
2018-04-14 16:15:57; 193.00; 4.37; 30.00
2018-04-14 16:30:12; 194.00; 4.36; 29.44
2018-04-14 16:30:24; 194.00; 4.36; 29.44
2018-04-14 16:30:36; 193.00; 4.37; 29.44
2018-04-14 16:30:49; 193.00; 4.37; 29.44
2018-04-14 16:45:04; 193.00; 4.37; 27.88
2018-04-14 16:45:16; 193.00; 4.37; 27.81
2018-04-14 16:45:29; 193.00; 4.37; 27.81
2018-04-14 16:45:41; 193.00; 4.37; 27.75
2018-04-14 16:45:53; 193.00; 4.37; 27.75
2018-04-14 17:00:09; 193.00; 4.37; 26.88
2018-04-14 17:00:21; 193.00; 4.37; 26.88
2018-04-14 17:00:33; 192.00; 4.38; 26.88
2018-04-14 17:00:46; 193.00; 4.37; 26.94
2018-04-14 17:00:58; 192.00; 4.38; 26.94
2018-04-14 17:15:02; 193.00; 4.37; 27.19
2018-04-14 17:15:14; 194.00; 4.36; 27.19
2018-04-14 17:15:27; 193.00; 4.37; 27.19
2018-04-14 17:15:39; 194.00; 4.36; 27.19
2018-04-14 17:15:51; 193.00; 4.37; 27.19
2018-04-14 17:30:07; 193.00; 4.37; 27.25
2018-04-14 17:30:19; 193.00; 4.37; 27.31
2018-04-14 17:30:31; 193.00; 4.37; 27.31
2018-04-14 17:30:44; 192.00; 4.38; 27.38
2018-04-14 17:30:56; 193.00; 4.37; 27.38
2018-04-14 17:45:11; 193.00; 4.37; 28.06
2018-04-14 17:45:24; 193.00; 4.37; 28.25
2018-04-14 17:45:36; 193.00; 4.37; 28.31
2018-04-14 17:45:49; 193.00; 4.37; 28.38
2018-04-14 18:00:03; 192.00; 4.38; 34.19
2018-04-14 18:00:16; 192.00; 4.38; 34.25
2018-04-14 18:00:28; 193.00; 4.37; 34.25
2018-04-14 18:00:41; 193.00; 4.38; 34.31
2018-04-14 18:00:53; 193.00; 4.37; 34.31
2018-04-14 18:15:08; 193.00; 4.37; 28.38
2018-04-14 18:15:20; 194.00; 4.36; 28.31
2018-04-14 18:15:33; 193.00; 4.37; 28.25
2018-04-14 18:15:45; 193.00; 4.37; 28.25
2018-04-14 18:15:57; 194.00; 4.36; 28.19
2018-04-14 18:30:01; 193.00; 4.37; 28.00
2018-04-14 18:30:13; 192.00; 4.38; 27.94
2018-04-14 18:30:26; 193.00; 4.37; 27.88
2018-04-14 18:30:38; 193.00; 4.37; 27.81
2018-04-14 18:30:51; 193.00; 4.38; 27.81
2018-04-14 18:45:06; 193.00; 4.37; 24.69
2018-04-14 18:45:18; 193.00; 4.36; 24.63
2018-04-14 18:45:30; 193.00; 4.37; 24.56
2018-04-14 18:45:43; 193.00; 4.36; 24.56
2018-04-14 18:45:55; 194.00; 4.37; 24.50
2018-04-14 19:00:11; 195.00; 4.36; 22.38
2018-04-14 19:00:23; 193.00; 4.37; 22.38
2018-04-14 19:00:36; 194.00; 4.36; 22.31
2018-04-14 19:00:48; 193.00; 4.37; 22.31
2018-04-14 19:01:00; 194.00; 4.36; 22.25
2018-04-14 19:15:05; 194.00; 4.36; 20.81
2018-04-14 19:15:17; 193.00; 4.36; 20.81
2018-04-14 19:15:29; 194.00; 4.36; 20.81
2018-04-14 19:15:42; 194.00; 4.36; 20.81
2018-04-14 19:15:54; 192.00; 4.38; 20.81
2018-04-14 19:30:10; 194.00; 4.36; 20.31
2018-04-14 19:30:22; 193.00; 4.37; 20.31
2018-04-14 19:30:35; 194.00; 4.36; 20.31
2018-04-14 19:30:47; 194.00; 4.36; 20.31
2018-04-14 19:30:59; 194.00; 4.36; 20.25
2018-04-14 19:45:04; 194.00; 4.36; 20.00
2018-04-14 19:45:16; 194.00; 4.36; 20.00
2018-04-14 19:45:28; 194.00; 4.36; 20.00
2018-04-14 19:45:41; 194.00; 4.36; 20.00
2018-04-14 19:45:53; 194.00; 4.36; 20.00
2018-04-14 20:00:09; 194.00; 4.36; 19.75
2018-04-14 20:00:21; 195.00; 4.35; 19.75
2018-04-14 20:00:34; 194.00; 4.36; 19.75
2018-04-14 20:00:46; 194.00; 4.36; 19.75
2018-04-14 20:00:59; 194.00; 4.36; 19.75
2018-04-14 20:15:03; 195.00; 4.35; 19.44
2018-04-14 20:15:15; 194.00; 4.36; 19.44
2018-04-14 20:15:28; 194.00; 4.36; 19.44
2018-04-14 20:15:40; 194.00; 4.36; 19.44
2018-04-14 20:15:52; 194.00; 4.36; 19.44
2018-04-14 20:30:08; 195.00; 4.35; 19.31
2018-04-14 20:30:21; 194.00; 4.36; 19.31
2018-04-14 20:30:33; 194.00; 4.36; 19.31
2018-04-14 20:30:46; 194.00; 4.36; 19.31
2018-04-14 20:30:58; 194.00; 4.36; 19.31
2018-04-14 20:45:02; 195.00; 4.35; 19.38
2018-04-14 20:45:15; 195.00; 4.35; 19.38
2018-04-14 20:45:27; 195.00; 4.35; 19.38
2018-04-14 20:45:39; 194.00; 4.36; 19.38
2018-04-14 20:45:52; 195.00; 4.36; 19.38
2018-04-14 21:00:08; 195.00; 4.35; 19.31
2018-04-14 21:00:20; 194.00; 4.36; 19.31
2018-04-14 21:00:32; 194.00; 4.36; 19.31
2018-04-14 21:00:45; 195.00; 4.36; 19.31
2018-04-14 21:00:57; 195.00; 4.35; 19.31
2018-04-14 21:15:02; 194.00; 4.36; 19.25
2018-04-14 21:15:14; 194.00; 4.36; 19.25
2018-04-14 21:15:26; 194.00; 4.36; 19.25
2018-04-14 21:15:39; 194.00; 4.36; 19.25
2018-04-14 21:15:51; 194.00; 4.36; 19.25
2018-04-14 21:30:07; 194.00; 4.36; 19.31
2018-04-14 21:30:19; 194.00; 4.36; 19.31
2018-04-14 21:30:32; 195.00; 4.35; 19.31
2018-04-14 21:30:44; 194.00; 4.36; 19.31
2018-04-14 21:30:57; 194.00; 4.36; 19.31
2018-04-14 21:45:01; 195.00; 4.35; 19.19
2018-04-14 21:45:13; 195.00; 4.35; 19.19
2018-04-14 21:45:26; 195.00; 4.35; 19.19
2018-04-14 21:45:38; 195.00; 4.35; 19.19
2018-04-14 21:45:51; 195.00; 4.35; 19.19
2018-04-14 22:00:06; 194.00; 4.36; 19.06
2018-04-14 22:00:19; 194.00; 4.36; 19.06
2018-04-14 22:00:31; 195.00; 4.35; 19.06
2018-04-14 22:00:44; 195.00; 4.35; 19.06
2018-04-14 22:00:56; 195.00; 4.35; 19.06
2018-04-14 22:15:12; 195.00; 4.35; 18.81
2018-04-14 22:15:24; 195.00; 4.35; 18.81
2018-04-14 22:15:37; 195.00; 4.35; 18.81
2018-04-14 22:15:49; 195.00; 4.35; 18.81
2018-04-14 22:30:05; 195.00; 4.35; 18.75
2018-04-14 22:30:17; 195.00; 4.35; 18.75
2018-04-14 22:30:30; 195.00; 4.35; 18.75
2018-04-14 22:30:42; 195.00; 4.35; 18.75
2018-04-14 22:30:54; 195.00; 4.35; 18.75
2018-04-14 22:45:10; 195.00; 4.35; 18.56
2018-04-14 22:45:23; 194.00; 4.36; 18.56
2018-04-14 22:45:35; 195.00; 4.35; 18.56
2018-04-14 22:45:48; 194.00; 4.36; 18.56
2018-04-14 22:46:00; 195.00; 4.35; 18.56
2018-04-14 23:00:04; 195.00; 4.35; 18.31
2018-04-14 23:00:17; 195.00; 4.35; 18.31
2018-04-14 23:00:29; 195.00; 4.35; 18.31
2018-04-14 23:00:41; 195.00; 4.35; 18.31
2018-04-14 23:00:54; 195.00; 4.35; 18.31
2018-04-14 23:15:10; 195.00; 4.35; 18.19
2018-04-14 23:15:22; 195.00; 4.35; 18.25
2018-04-14 23:15:35; 195.00; 4.35; 18.19
2018-04-14 23:15:47; 195.00; 4.35; 18.25
2018-04-14 23:15:59; 195.00; 4.36; 18.25
2018-04-14 23:30:04; 195.00; 4.35; 18.25
2018-04-14 23:30:16; 195.00; 4.35; 18.25
2018-04-14 23:30:29; 195.00; 4.35; 18.25
2018-04-14 23:30:41; 195.00; 4.35; 18.25
2018-04-14 23:30:53; 195.00; 4.35; 18.25
2018-04-14 23:45:09; 194.00; 4.36; 18.13
2018-04-14 23:45:22; 195.00; 4.35; 18.13
2018-04-14 23:45:34; 195.00; 4.35; 18.19
2018-04-14 23:45:46; 194.00; 4.36; 18.13
2018-04-14 23:45:59; 195.00; 4.35; 18.13
