2018-05-10 00:00:07; 221.00; 4.09; 19.19
2018-05-10 00:00:20; 221.00; 4.09; 19.25
2018-05-10 00:00:32; 221.00; 4.09; 19.19
2018-05-10 00:00:44; 221.00; 4.09; 19.25
2018-05-10 00:00:57; 221.00; 4.09; 19.25
2018-05-10 00:15:01; 222.00; 4.08; 19.13
2018-05-10 00:15:14; 221.00; 4.09; 19.13
2018-05-10 00:15:26; 221.00; 4.09; 19.13
2018-05-10 00:15:38; 222.00; 4.08; 19.13
2018-05-10 00:15:51; 221.00; 4.09; 19.13
2018-05-10 00:30:06; 221.00; 4.09; 19.00
2018-05-10 00:30:19; 221.00; 4.09; 19.00
2018-05-10 00:30:31; 222.00; 4.08; 19.00
2018-05-10 00:30:44; 221.00; 4.09; 19.00
2018-05-10 00:30:56; 221.00; 4.09; 19.00
2018-05-10 00:45:12; 222.00; 4.08; 18.94
2018-05-10 00:45:24; 222.00; 4.08; 18.94
2018-05-10 00:45:36; 222.00; 4.08; 18.94
2018-05-10 00:45:49; 221.00; 4.08; 18.94
2018-05-10 01:00:05; 221.00; 4.09; 18.81
2018-05-10 01:00:17; 221.00; 4.09; 18.81
2018-05-10 01:00:29; 222.00; 4.08; 18.81
2018-05-10 01:00:42; 222.00; 4.08; 18.88
2018-05-10 01:00:54; 222.00; 4.08; 18.88
2018-05-10 01:15:10; 222.00; 4.08; 18.81
2018-05-10 01:15:22; 222.00; 4.09; 18.81
2018-05-10 01:15:35; 222.00; 4.08; 18.81
2018-05-10 01:15:47; 221.00; 4.09; 18.81
2018-05-10 01:16:00; 221.00; 4.09; 18.81
2018-05-10 01:30:04; 221.00; 4.09; 18.75
2018-05-10 01:30:16; 221.00; 4.09; 18.75
2018-05-10 01:30:29; 221.00; 4.08; 18.75
2018-05-10 01:30:41; 221.00; 4.09; 18.75
2018-05-10 01:30:53; 222.00; 4.08; 18.75
2018-05-10 01:45:09; 221.00; 4.09; 18.69
2018-05-10 01:45:22; 221.00; 4.09; 18.69
2018-05-10 01:45:34; 221.00; 4.09; 18.69
2018-05-10 01:45:46; 221.00; 4.09; 18.69
2018-05-10 01:45:59; 221.00; 4.09; 18.69
2018-05-10 02:00:03; 221.00; 4.09; 18.63
2018-05-10 02:00:15; 221.00; 4.09; 18.63
2018-05-10 02:00:28; 221.00; 4.09; 18.63
2018-05-10 02:00:40; 221.00; 4.09; 18.63
2018-05-10 02:00:53; 221.00; 4.09; 18.63
2018-05-10 02:15:08; 221.00; 4.09; 18.63
2018-05-10 02:15:21; 221.00; 4.09; 18.63
2018-05-10 02:15:33; 221.00; 4.09; 18.63
2018-05-10 02:15:46; 221.00; 4.09; 18.63
2018-05-10 02:15:58; 221.00; 4.09; 18.63
2018-05-10 02:30:02; 221.00; 4.09; 18.69
2018-05-10 02:30:15; 222.00; 4.09; 18.69
2018-05-10 02:30:27; 222.00; 4.09; 18.69
2018-05-10 02:30:39; 221.00; 4.09; 18.69
2018-05-10 02:30:52; 221.00; 4.09; 18.69
2018-05-10 02:45:07; 221.00; 4.09; 18.69
2018-05-10 02:45:20; 221.00; 4.09; 18.69
2018-05-10 02:45:32; 221.00; 4.09; 18.69
2018-05-10 02:45:45; 221.00; 4.09; 18.69
2018-05-10 02:45:57; 221.00; 4.09; 18.69
2018-05-10 03:00:01; 221.00; 4.10; 18.69
2018-05-10 03:00:14; 221.00; 4.10; 18.69
2018-05-10 03:00:26; 221.00; 4.08; 18.69
2018-05-10 03:00:39; 220.00; 4.10; 18.69
2018-05-10 03:00:51; 220.00; 4.10; 18.69
2018-05-10 03:15:07; 220.00; 4.10; 18.69
2018-05-10 03:15:19; 220.00; 4.10; 18.69
2018-05-10 03:15:32; 220.00; 4.10; 18.69
2018-05-10 03:15:44; 220.00; 4.10; 18.69
2018-05-10 03:15:56; 220.00; 4.10; 18.63
2018-05-10 03:30:01; 220.00; 4.10; 18.63
2018-05-10 03:30:13; 220.00; 4.10; 18.63
2018-05-10 03:30:26; 220.00; 4.10; 18.63
2018-05-10 03:30:38; 220.00; 4.10; 18.63
2018-05-10 03:30:50; 220.00; 4.10; 18.63
2018-05-10 03:45:06; 220.00; 4.10; 18.63
2018-05-10 03:45:19; 220.00; 4.10; 18.63
2018-05-10 03:45:31; 220.00; 4.10; 18.63
2018-05-10 03:45:43; 220.00; 4.10; 18.63
2018-05-10 03:45:56; 220.00; 4.10; 18.63
2018-05-10 04:00:12; 220.00; 4.10; 18.63
2018-05-10 04:00:24; 220.00; 4.10; 18.63
2018-05-10 04:00:36; 220.00; 4.10; 18.63
2018-05-10 04:00:49; 220.00; 4.10; 18.63
2018-05-10 04:15:04; 220.00; 4.10; 18.63
2018-05-10 04:15:17; 220.00; 4.10; 18.63
2018-05-10 04:15:29; 220.00; 4.10; 18.63
2018-05-10 04:15:42; 220.00; 4.10; 18.63
2018-05-10 04:15:54; 220.00; 4.10; 18.63
2018-05-10 04:30:10; 219.00; 4.11; 18.56
2018-05-10 04:30:22; 220.00; 4.10; 18.56
2018-05-10 04:30:35; 219.00; 4.11; 18.56
2018-05-10 04:30:47; 220.00; 4.10; 18.56
2018-05-10 04:30:59; 220.00; 4.10; 18.56
2018-05-10 04:45:04; 219.00; 4.11; 18.56
2018-05-10 04:45:16; 219.00; 4.11; 18.56
2018-05-10 04:45:29; 219.00; 4.11; 18.56
2018-05-10 04:45:41; 219.00; 4.11; 18.56
2018-05-10 04:45:53; 218.00; 4.12; 18.63
2018-05-10 05:00:09; 218.00; 4.12; 18.50
2018-05-10 05:00:21; 217.00; 4.13; 18.50
2018-05-10 05:00:34; 218.00; 4.12; 18.56
2018-05-10 05:00:46; 217.00; 4.13; 18.50
2018-05-10 05:00:59; 218.00; 4.12; 18.50
2018-05-10 05:15:03; 215.00; 4.15; 18.50
2018-05-10 05:15:16; 218.00; 4.13; 18.50
2018-05-10 05:15:28; 216.00; 4.14; 18.50
2018-05-10 05:15:40; 216.00; 4.13; 18.50
2018-05-10 05:15:53; 217.00; 4.14; 18.50
2018-05-10 05:30:09; 213.00; 4.17; 18.56
2018-05-10 05:30:21; 215.00; 4.14; 18.56
2018-05-10 05:30:33; 216.00; 4.15; 18.56
2018-05-10 05:30:46; 215.00; 4.15; 18.56
2018-05-10 05:30:58; 216.00; 4.13; 18.56
2018-05-10 05:45:03; 220.00; 4.10; 18.56
2018-05-10 05:45:15; 216.00; 4.15; 18.56
2018-05-10 05:45:27; 214.00; 4.15; 18.56
2018-05-10 05:45:40; 214.00; 4.16; 18.56
2018-05-10 05:45:52; 215.00; 4.14; 18.56
2018-05-10 06:00:08; 216.00; 4.14; 18.63
2018-05-10 06:00:20; 215.00; 4.14; 18.63
2018-05-10 06:00:32; 218.00; 4.12; 18.63
2018-05-10 06:00:45; 215.00; 4.15; 18.63
2018-05-10 06:00:57; 217.00; 4.12; 18.63
2018-05-10 06:15:02; 217.00; 4.12; 18.56
2018-05-10 06:15:14; 216.00; 4.14; 18.56
2018-05-10 06:15:26; 218.00; 4.12; 18.56
2018-05-10 06:15:39; 217.00; 4.13; 18.56
2018-05-10 06:15:51; 217.00; 4.13; 18.56
2018-05-10 06:30:07; 217.00; 4.13; 18.50
2018-05-10 06:30:19; 218.00; 4.12; 18.50
2018-05-10 06:30:32; 218.00; 4.12; 18.50
2018-05-10 06:30:44; 218.00; 4.12; 18.50
2018-05-10 06:30:57; 217.00; 4.12; 18.50
2018-05-10 06:45:01; 218.00; 4.12; 18.44
2018-05-10 06:45:13; 217.00; 4.13; 18.44
2018-05-10 06:45:26; 217.00; 4.13; 18.44
2018-05-10 06:45:38; 218.00; 4.11; 18.44
2018-05-10 06:45:51; 220.00; 4.09; 18.44
2018-05-10 07:00:06; 217.00; 4.13; 18.13
2018-05-10 07:00:19; 217.00; 4.13; 18.13
2018-05-10 07:00:31; 217.00; 4.13; 18.13
2018-05-10 07:00:44; 217.00; 4.13; 18.13
2018-05-10 07:00:56; 217.00; 4.13; 18.13
2018-05-10 07:15:12; 217.00; 4.13; 17.81
2018-05-10 07:15:24; 217.00; 4.13; 17.81
2018-05-10 07:15:37; 217.00; 4.13; 17.81
2018-05-10 07:15:49; 218.00; 4.11; 17.81
2018-05-10 07:30:05; 216.00; 4.14; 17.75
2018-05-10 07:30:17; 216.00; 4.13; 17.75
2018-05-10 07:30:29; 217.00; 4.13; 17.75
2018-05-10 07:30:42; 217.00; 4.12; 17.75
2018-05-10 07:30:54; 217.00; 4.12; 17.75
2018-05-10 07:45:10; 217.00; 4.13; 17.75
2018-05-10 07:45:22; 218.00; 4.12; 17.75
2018-05-10 07:45:35; 216.00; 4.13; 17.75
2018-05-10 07:45:47; 216.00; 4.13; 17.75
2018-05-10 07:46:00; 217.00; 4.13; 17.75
2018-05-10 08:00:04; 217.00; 4.12; 17.81
2018-05-10 08:00:16; 217.00; 4.12; 17.81
2018-05-10 08:00:29; 217.00; 4.12; 17.81
2018-05-10 08:00:41; 217.00; 4.13; 17.81
2018-05-10 08:00:54; 217.00; 4.13; 17.81
2018-05-10 08:15:09; 216.00; 4.13; 17.81
2018-05-10 08:15:22; 216.00; 4.13; 17.81
2018-05-10 08:15:34; 217.00; 4.12; 17.81
2018-05-10 08:15:47; 217.00; 4.12; 17.81
2018-05-10 08:15:59; 217.00; 4.12; 17.81
2018-05-10 08:30:03; 217.00; 4.12; 17.94
2018-05-10 08:30:16; 218.00; 4.12; 17.94
2018-05-10 08:30:28; 218.00; 4.12; 17.94
2018-05-10 08:30:41; 218.00; 4.12; 17.94
2018-05-10 08:30:53; 217.00; 4.13; 17.94
2018-05-10 08:45:08; 218.00; 4.11; 17.88
2018-05-10 08:45:21; 218.00; 4.11; 17.88
2018-05-10 08:45:33; 219.00; 4.11; 17.88
2018-05-10 08:45:46; 217.00; 4.12; 17.88
2018-05-10 08:45:58; 218.00; 4.11; 17.88
2018-05-10 09:00:02; 218.00; 4.12; 17.81
2018-05-10 09:00:15; 218.00; 4.12; 17.81
2018-05-10 09:00:27; 218.00; 4.11; 17.81
2018-05-10 09:00:39; 218.00; 4.12; 17.81
2018-05-10 09:00:52; 218.00; 4.12; 17.81
2018-05-10 09:15:08; 218.00; 4.12; 17.69
2018-05-10 09:15:20; 218.00; 4.12; 17.69
2018-05-10 09:15:32; 217.00; 4.12; 17.69
2018-05-10 09:15:45; 217.00; 4.12; 17.69
2018-05-10 09:15:57; 217.00; 4.12; 17.75
2018-05-10 09:30:02; 218.00; 4.12; 17.75
2018-05-10 09:30:14; 218.00; 4.12; 17.75
2018-05-10 09:30:26; 217.00; 4.12; 17.75
2018-05-10 09:30:39; 217.00; 4.12; 17.81
2018-05-10 09:30:51; 218.00; 4.12; 17.81
2018-05-10 09:45:07; 217.00; 4.12; 17.75
2018-05-10 09:45:19; 217.00; 4.12; 17.75
2018-05-10 09:45:32; 218.00; 4.12; 17.75
2018-05-10 09:45:44; 217.00; 4.12; 17.75
2018-05-10 09:45:56; 218.00; 4.12; 17.75
2018-05-10 10:00:01; 217.00; 4.12; 18.00
2018-05-10 10:00:13; 217.00; 4.12; 18.06
2018-05-10 10:00:26; 217.00; 4.12; 18.06
2018-05-10 10:00:38; 217.00; 4.12; 18.06
2018-05-10 10:00:50; 218.00; 4.12; 18.06
2018-05-10 10:15:06; 217.00; 4.12; 17.94
2018-05-10 10:15:18; 218.00; 4.12; 17.94
2018-05-10 10:15:31; 218.00; 4.12; 17.94
2018-05-10 10:15:43; 218.00; 4.12; 17.88
2018-05-10 10:15:55; 218.00; 4.11; 17.88
2018-05-10 10:30:11; 217.00; 4.12; 17.94
2018-05-10 10:30:23; 217.00; 4.12; 17.94
2018-05-10 10:30:36; 218.00; 4.11; 17.88
2018-05-10 10:30:48; 218.00; 4.12; 17.88
2018-05-10 10:45:04; 218.00; 4.12; 17.88
2018-05-10 10:45:16; 218.00; 4.11; 17.88
2018-05-10 10:45:29; 218.00; 4.11; 17.88
2018-05-10 10:45:41; 218.00; 4.11; 17.88
2018-05-10 10:45:53; 218.00; 4.11; 17.88
2018-05-10 11:00:09; 218.00; 4.11; 17.50
2018-05-10 11:00:21; 218.00; 4.12; 17.50
2018-05-10 11:00:34; 217.00; 4.12; 17.50
2018-05-10 11:00:46; 217.00; 4.12; 17.50
2018-05-10 11:00:58; 217.00; 4.12; 17.50
2018-05-10 11:15:03; 218.00; 4.12; 17.19
2018-05-10 11:15:15; 218.00; 4.12; 17.19
2018-05-10 11:15:28; 218.00; 4.11; 17.19
2018-05-10 11:15:40; 218.00; 4.12; 17.19
2018-05-10 11:15:53; 218.00; 4.12; 17.19
2018-05-10 11:30:09; 218.00; 4.12; 17.50
2018-05-10 11:30:21; 218.00; 4.12; 17.50
2018-05-10 11:30:33; 218.00; 4.12; 17.50
2018-05-10 11:30:46; 217.00; 4.12; 17.50
2018-05-10 11:30:58; 217.00; 4.13; 17.50
2018-05-10 11:45:02; 217.00; 4.12; 18.13
2018-05-10 11:45:15; 218.00; 4.12; 18.13
2018-05-10 11:45:27; 218.00; 4.12; 18.13
2018-05-10 11:45:40; 217.00; 4.12; 18.13
2018-05-10 11:45:52; 217.00; 4.12; 18.13
2018-05-10 12:00:08; 217.00; 4.13; 18.31
2018-05-10 12:00:20; 217.00; 4.13; 18.31
2018-05-10 12:00:33; 217.00; 4.13; 18.31
2018-05-10 12:00:45; 217.00; 4.13; 18.31
2018-05-10 12:00:57; 217.00; 4.13; 18.38
2018-05-10 12:15:02; 217.00; 4.13; 18.81
2018-05-10 12:15:14; 217.00; 4.13; 18.81
2018-05-10 12:15:27; 217.00; 4.13; 18.81
2018-05-10 12:15:39; 217.00; 4.13; 18.81
2018-05-10 12:15:51; 217.00; 4.13; 18.81
2018-05-10 12:30:07; 218.00; 4.12; 19.13
2018-05-10 12:30:20; 218.00; 4.12; 19.13
2018-05-10 12:30:32; 217.00; 4.12; 19.13
2018-05-10 12:30:44; 217.00; 4.13; 19.19
2018-05-10 12:30:57; 217.00; 4.13; 19.19
2018-05-10 12:45:01; 218.00; 4.13; 20.63
2018-05-10 12:45:13; 218.00; 4.13; 20.63
2018-05-10 12:45:26; 217.00; 4.13; 20.56
2018-05-10 12:45:38; 217.00; 4.13; 20.50
2018-05-10 12:45:50; 217.00; 4.13; 20.50
2018-05-10 13:00:06; 218.00; 4.12; 19.63
2018-05-10 13:00:18; 218.00; 4.12; 19.63
2018-05-10 13:00:31; 218.00; 4.12; 19.63
2018-05-10 13:00:43; 218.00; 4.12; 19.63
2018-05-10 13:00:55; 218.00; 4.12; 19.63
2018-05-10 13:15:11; 218.00; 4.12; 18.31
2018-05-10 13:15:24; 217.00; 4.13; 18.25
2018-05-10 13:15:36; 217.00; 4.13; 18.25
2018-05-10 13:15:48; 218.00; 4.12; 18.25
2018-05-10 13:30:04; 219.00; 4.11; 18.19
2018-05-10 13:30:17; 219.00; 4.11; 18.19
2018-05-10 13:30:29; 219.00; 4.11; 18.19
2018-05-10 13:30:41; 218.00; 4.12; 18.19
2018-05-10 13:30:54; 218.00; 4.12; 18.25
2018-05-10 13:45:10; 218.00; 4.12; 18.44
2018-05-10 13:45:22; 218.00; 4.12; 18.44
2018-05-10 13:45:34; 217.00; 4.13; 18.44
2018-05-10 13:45:47; 218.00; 4.12; 18.44
2018-05-10 13:45:59; 217.00; 4.13; 18.44
2018-05-10 14:00:04; 218.00; 4.12; 18.69
2018-05-10 14:00:16; 218.00; 4.12; 18.69
2018-05-10 14:00:29; 218.00; 4.12; 18.69
2018-05-10 14:00:41; 218.00; 4.12; 18.69
2018-05-10 14:00:53; 219.00; 4.12; 18.69
2018-05-10 14:15:09; 217.00; 4.13; 20.88
2018-05-10 14:15:21; 216.00; 4.14; 20.94
2018-05-10 14:15:34; 217.00; 4.13; 21.00
2018-05-10 14:15:46; 217.00; 4.13; 21.06
2018-05-10 14:15:59; 216.00; 4.14; 21.13
2018-05-10 14:30:03; 216.00; 4.14; 21.44
2018-05-10 14:30:15; 216.00; 4.13; 21.44
2018-05-10 14:30:27; 216.00; 4.13; 21.44
2018-05-10 14:30:40; 216.00; 4.14; 21.38
2018-05-10 14:30:52; 216.00; 4.14; 21.38
2018-05-10 14:45:08; 216.00; 4.14; 21.13
2018-05-10 14:45:20; 216.00; 4.14; 21.13
2018-05-10 14:45:33; 217.00; 4.14; 21.06
2018-05-10 14:45:45; 217.00; 4.13; 21.00
2018-05-10 14:45:57; 216.00; 4.14; 21.00
2018-05-10 15:00:02; 216.00; 4.14; 20.31
2018-05-10 15:00:14; 217.00; 4.13; 20.25
2018-05-10 15:00:26; 216.00; 4.14; 20.25
2018-05-10 15:00:39; 217.00; 4.13; 20.19
2018-05-10 15:00:51; 217.00; 4.13; 20.19
2018-05-10 15:15:07; 217.00; 4.13; 19.81
2018-05-10 15:15:19; 217.00; 4.13; 19.81
2018-05-10 15:15:32; 217.00; 4.13; 19.81
2018-05-10 15:15:44; 217.00; 4.13; 19.75
2018-05-10 15:15:56; 217.00; 4.13; 19.75
2018-05-10 15:30:01; 217.00; 4.13; 20.06
2018-05-10 15:30:13; 217.00; 4.13; 20.06
2018-05-10 15:30:26; 217.00; 4.13; 20.06
2018-05-10 15:30:38; 217.00; 4.13; 20.06
2018-05-10 15:30:51; 217.00; 4.13; 20.06
2018-05-10 15:45:06; 217.00; 4.13; 19.88
2018-05-10 15:45:19; 217.00; 4.13; 19.88
2018-05-10 15:45:31; 217.00; 4.13; 19.94
2018-05-10 15:45:43; 217.00; 4.13; 19.94
2018-05-10 15:45:56; 217.00; 4.13; 19.94
2018-05-10 16:00:12; 217.00; 4.13; 20.75
2018-05-10 16:00:24; 217.00; 4.13; 20.75
2018-05-10 16:00:36; 217.00; 4.13; 20.81
2018-05-10 16:00:49; 217.00; 4.13; 20.75
2018-05-10 16:15:04; 217.00; 4.13; 23.00
2018-05-10 16:15:17; 217.00; 4.13; 23.06
2018-05-10 16:15:29; 216.00; 4.14; 23.13
2018-05-10 16:15:41; 216.00; 4.14; 23.13
2018-05-10 16:15:54; 216.00; 4.14; 23.19
2018-05-10 16:30:09; 217.00; 4.13; 21.25
2018-05-10 16:30:22; 217.00; 4.13; 21.19
2018-05-10 16:30:34; 217.00; 4.13; 21.13
2018-05-10 16:30:46; 216.00; 4.13; 21.13
2018-05-10 16:30:59; 217.00; 4.13; 21.13
2018-05-10 16:45:03; 217.00; 4.13; 21.75
2018-05-10 16:45:15; 217.00; 4.13; 21.75
2018-05-10 16:45:28; 217.00; 4.13; 21.69
2018-05-10 16:45:40; 217.00; 4.13; 21.69
2018-05-10 16:45:52; 217.00; 4.13; 21.69
2018-05-10 17:00:08; 218.00; 4.12; 21.75
2018-05-10 17:00:20; 218.00; 4.12; 21.69
2018-05-10 17:00:33; 218.00; 4.12; 21.69
2018-05-10 17:00:45; 218.00; 4.12; 21.69
2018-05-10 17:00:57; 218.00; 4.12; 21.69
2018-05-10 17:15:01; 211.00; 4.15; 21.56
2018-05-10 17:15:14; 215.00; 4.11; 21.56
2018-05-10 17:15:26; 218.00; 4.13; 21.50
2018-05-10 17:15:39; 218.00; 4.12; 21.50
2018-05-10 17:15:51; 217.00; 4.14; 21.56
2018-05-10 17:30:06; 215.00; 4.17; 22.38
2018-05-10 17:30:18; 218.00; 4.12; 22.44
2018-05-10 17:30:31; 217.00; 4.13; 22.44
2018-05-10 17:30:43; 217.00; 4.13; 22.56
2018-05-10 17:30:56; 217.00; 4.13; 22.63
2018-05-10 17:45:11; 214.00; 4.16; 20.31
2018-05-10 17:45:23; 217.00; 4.13; 20.31
2018-05-10 17:45:36; 216.00; 4.14; 20.25
2018-05-10 17:45:48; 213.00; 4.18; 20.19
2018-05-10 17:46:00; 217.00; 4.13; 20.19
2018-05-10 18:00:05; 217.00; 4.13; 19.25
2018-05-10 18:00:17; 218.00; 4.12; 19.25
2018-05-10 18:00:29; 217.00; 4.13; 19.25
2018-05-10 18:00:42; 217.00; 4.13; 19.19
2018-05-10 18:00:54; 213.00; 4.17; 19.19
2018-05-10 18:15:10; 217.00; 4.13; 18.56
2018-05-10 18:15:22; 218.00; 4.12; 18.56
2018-05-10 18:15:34; 217.00; 4.13; 18.56
2018-05-10 18:15:47; 216.00; 4.13; 18.56
2018-05-10 18:15:59; 216.00; 4.14; 18.56
2018-05-10 18:30:03; 219.00; 4.12; 18.50
2018-05-10 18:30:16; 216.00; 4.12; 18.50
2018-05-10 18:30:28; 216.00; 4.15; 18.50
2018-05-10 18:30:40; 218.00; 4.12; 18.50
2018-05-10 18:30:53; 216.00; 4.16; 18.50
2018-05-10 18:45:08; 216.00; 4.14; 18.56
2018-05-10 18:45:21; 218.00; 4.12; 18.56
2018-05-10 18:45:33; 217.00; 4.12; 18.56
2018-05-10 18:45:45; 218.00; 4.12; 18.56
2018-05-10 18:45:58; 219.00; 4.11; 18.56
2018-05-10 19:00:02; 217.00; 4.13; 17.94
2018-05-10 19:00:14; 216.00; 4.14; 17.94
2018-05-10 19:00:27; 216.00; 4.14; 17.94
2018-05-10 19:00:39; 217.00; 4.13; 17.94
2018-05-10 19:00:52; 218.00; 4.12; 17.94
2018-05-10 19:15:07; 213.00; 4.15; 17.63
2018-05-10 19:15:19; 218.00; 4.11; 17.63
2018-05-10 19:15:32; 218.00; 4.12; 17.63
2018-05-10 19:15:44; 219.00; 4.11; 17.63
2018-05-10 19:15:56; 216.00; 4.12; 17.63
2018-05-10 19:30:12; 217.00; 4.12; 17.50
2018-05-10 19:30:24; 217.00; 4.13; 17.50
2018-05-10 19:30:37; 215.00; 4.09; 17.44
2018-05-10 19:30:49; 218.00; 4.12; 17.44
2018-05-10 19:45:05; 217.00; 4.14; 16.94
2018-05-10 19:45:17; 217.00; 4.12; 16.94
2018-05-10 19:45:29; 219.00; 4.11; 16.94
2018-05-10 19:45:42; 219.00; 4.11; 16.94
2018-05-10 19:45:54; 219.00; 4.11; 16.94
2018-05-10 20:00:10; 216.00; 4.14; 16.88
2018-05-10 20:00:22; 218.00; 4.12; 16.88
2018-05-10 20:00:35; 218.00; 4.11; 16.88
2018-05-10 20:00:47; 220.00; 4.09; 16.88
2018-05-10 20:01:00; 219.00; 4.11; 16.88
2018-05-10 20:15:04; 217.00; 4.13; 16.69
2018-05-10 20:15:16; 219.00; 4.11; 16.69
2018-05-10 20:15:29; 219.00; 4.10; 16.69
2018-05-10 20:15:41; 218.00; 4.11; 16.69
2018-05-10 20:15:53; 220.00; 4.10; 16.69
2018-05-10 20:30:09; 218.00; 4.12; 16.50
2018-05-10 20:30:22; 220.00; 4.10; 16.50
2018-05-10 20:30:34; 220.00; 4.09; 16.56
2018-05-10 20:30:46; 219.00; 4.11; 16.50
2018-05-10 20:30:59; 219.00; 4.11; 16.50
2018-05-10 20:45:03; 217.00; 4.14; 16.63
2018-05-10 20:45:16; 221.00; 4.11; 16.56
2018-05-10 20:45:28; 217.00; 4.13; 16.56
2018-05-10 20:45:40; 221.00; 4.09; 16.63
2018-05-10 20:45:53; 215.00; 4.15; 16.63
2018-05-10 21:00:09; 218.00; 4.13; 16.56
2018-05-10 21:00:21; 218.00; 4.12; 16.56
2018-05-10 21:00:33; 213.00; 4.15; 16.63
2018-05-10 21:00:46; 217.00; 4.12; 16.56
2018-05-10 21:00:58; 217.00; 4.13; 16.63
2018-05-10 21:15:02; 218.00; 4.12; 16.44
2018-05-10 21:15:15; 220.00; 4.10; 16.44
2018-05-10 21:15:27; 218.00; 4.12; 16.50
2018-05-10 21:15:40; 218.00; 4.13; 16.50
2018-05-10 21:15:52; 217.00; 4.12; 16.50
2018-05-10 21:30:08; 222.00; 4.07; 16.31
2018-05-10 21:30:20; 218.00; 4.13; 16.31
2018-05-10 21:30:32; 219.00; 4.12; 16.31
2018-05-10 21:30:45; 217.00; 4.12; 16.31
2018-05-10 21:30:57; 218.00; 4.13; 16.31
2018-05-10 21:45:01; 218.00; 4.12; 16.31
2018-05-10 21:45:14; 219.00; 4.10; 16.25
2018-05-10 21:45:26; 209.00; 4.21; 16.25
2018-05-10 21:45:39; 218.00; 4.12; 16.25
2018-05-10 21:45:51; 218.00; 4.12; 16.25
2018-05-10 22:00:07; 217.00; 4.12; 16.50
2018-05-10 22:00:19; 220.00; 4.10; 16.50
2018-05-10 22:00:31; 219.00; 4.12; 16.50
2018-05-10 22:00:44; 219.00; 4.11; 16.50
2018-05-10 22:00:56; 216.00; 4.13; 16.44
2018-05-10 22:15:12; 217.00; 4.12; 16.44
2018-05-10 22:15:24; 218.00; 4.12; 16.44
2018-05-10 22:15:36; 218.00; 4.13; 16.44
2018-05-10 22:15:49; 222.00; 4.08; 16.44
2018-05-10 22:30:04; 218.00; 4.12; 16.50
2018-05-10 22:30:17; 217.00; 4.13; 16.50
2018-05-10 22:30:29; 221.00; 4.09; 16.50
2018-05-10 22:30:42; 216.00; 4.14; 16.50
2018-05-10 22:30:54; 216.00; 4.14; 16.50
2018-05-10 22:45:10; 219.00; 4.11; 16.44
2018-05-10 22:45:22; 218.00; 4.13; 16.44
2018-05-10 22:45:34; 220.00; 4.10; 16.44
2018-05-10 22:45:47; 218.00; 4.12; 16.44
2018-05-10 22:45:59; 220.00; 4.10; 16.44
2018-05-10 23:00:03; 220.00; 4.10; 16.44
2018-05-10 23:00:16; 219.00; 4.10; 16.44
2018-05-10 23:00:28; 218.00; 4.14; 16.44
2018-05-10 23:00:41; 219.00; 4.12; 16.44
2018-05-10 23:00:53; 212.00; 4.19; 16.44
2018-05-10 23:15:08; 222.00; 4.07; 16.44
2018-05-10 23:15:21; 222.00; 4.08; 16.50
2018-05-10 23:15:33; 219.00; 4.10; 16.44
2018-05-10 23:15:45; 219.00; 4.10; 16.44
2018-05-10 23:15:58; 223.00; 4.07; 16.50
2018-05-10 23:30:02; 225.00; 4.05; 16.56
2018-05-10 23:30:14; 218.00; 4.11; 16.56
2018-05-10 23:30:27; 219.00; 4.11; 16.56
2018-05-10 23:30:39; 218.00; 4.11; 16.56
2018-05-10 23:30:52; 218.00; 4.13; 16.63
2018-05-10 23:45:07; 218.00; 4.11; 16.75
2018-05-10 23:45:20; 212.00; 4.17; 16.75
2018-05-10 23:45:32; 221.00; 4.08; 16.75
2018-05-10 23:45:44; 217.00; 4.13; 16.75
2018-05-10 23:45:57; 214.00; 4.16; 16.69
