2018-10-01 00:00:08; 401.00; 2.29; 20.44
2018-10-01 00:00:20; 399.00; 2.31; 20.38
2018-10-01 00:00:33; 399.00; 2.31; 20.38
2018-10-01 00:00:45; 399.00; 2.31; 20.44
2018-10-01 00:00:58; 399.00; 2.31; 20.44
2018-10-01 00:15:01; 401.00; 2.29; 20.19
2018-10-01 00:15:14; 401.00; 2.29; 20.19
2018-10-01 00:15:26; 401.00; 2.29; 20.19
2018-10-01 00:15:39; 401.00; 2.29; 20.19
2018-10-01 00:15:51; 401.00; 2.29; 20.19
2018-10-01 00:30:06; 400.00; 2.30; 20.25
2018-10-01 00:30:19; 400.00; 2.30; 20.19
2018-10-01 00:30:31; 400.00; 2.30; 20.25
2018-10-01 00:30:44; 400.00; 2.30; 20.25
2018-10-01 00:30:56; 400.00; 2.30; 20.25
2018-10-01 00:45:11; 400.00; 2.30; 19.56
2018-10-01 00:45:24; 400.00; 2.30; 19.56
2018-10-01 00:45:36; 400.00; 2.30; 19.50
2018-10-01 00:45:49; 400.00; 2.30; 19.50
2018-10-01 01:00:04; 400.00; 2.30; 19.81
2018-10-01 01:00:16; 401.00; 2.29; 19.81
2018-10-01 01:00:29; 401.00; 2.29; 19.81
2018-10-01 01:00:41; 401.00; 2.29; 19.81
2018-10-01 01:00:54; 401.00; 2.29; 19.81
2018-10-01 01:15:09; 400.00; 2.30; 19.81
2018-10-01 01:15:21; 400.00; 2.30; 19.81
2018-10-01 01:15:34; 400.00; 2.30; 19.81
2018-10-01 01:15:46; 400.00; 2.30; 19.81
2018-10-01 01:15:59; 400.00; 2.30; 19.81
2018-10-01 01:30:02; 401.00; 2.29; 19.88
2018-10-01 01:30:15; 401.00; 2.29; 19.88
2018-10-01 01:30:27; 401.00; 2.29; 19.88
2018-10-01 01:30:40; 401.00; 2.29; 19.88
2018-10-01 01:30:52; 401.00; 2.29; 19.88
2018-10-01 01:45:07; 401.00; 2.29; 19.81
2018-10-01 01:45:20; 401.00; 2.29; 19.81
2018-10-01 01:45:32; 401.00; 2.29; 19.81
2018-10-01 01:45:45; 401.00; 2.29; 19.81
2018-10-01 01:45:57; 401.00; 2.29; 19.81
2018-10-01 02:00:01; 401.00; 2.29; 19.50
2018-10-01 02:00:13; 401.00; 2.29; 19.50
2018-10-01 02:00:26; 401.00; 2.29; 19.50
2018-10-01 02:00:38; 400.00; 2.30; 19.50
2018-10-01 02:00:51; 400.00; 2.30; 19.50
2018-10-01 02:15:06; 402.00; 2.28; 19.06
2018-10-01 02:15:19; 402.00; 2.28; 19.06
2018-10-01 02:15:31; 402.00; 2.28; 19.06
2018-10-01 02:15:43; 402.00; 2.28; 19.06
2018-10-01 02:15:56; 402.00; 2.28; 19.06
2018-10-01 02:30:11; 401.00; 2.29; 18.63
2018-10-01 02:30:23; 401.00; 2.29; 18.63
2018-10-01 02:30:36; 402.00; 2.28; 18.63
2018-10-01 02:30:48; 402.00; 2.28; 18.63
2018-10-01 02:45:04; 401.00; 2.29; 18.56
2018-10-01 02:45:16; 401.00; 2.29; 18.56
2018-10-01 02:45:29; 401.00; 2.29; 18.56
2018-10-01 02:45:41; 401.00; 2.29; 18.56
2018-10-01 02:45:54; 401.00; 2.29; 18.56
2018-10-01 03:00:09; 402.00; 2.28; 18.38
2018-10-01 03:00:21; 402.00; 2.28; 18.38
2018-10-01 03:00:34; 402.00; 2.28; 18.38
2018-10-01 03:00:46; 402.00; 2.28; 18.38
2018-10-01 03:00:59; 402.00; 2.28; 18.38
2018-10-01 03:15:03; 403.00; 2.27; 17.69
2018-10-01 03:15:15; 403.00; 2.27; 17.69
2018-10-01 03:15:28; 403.00; 2.27; 17.69
2018-10-01 03:15:40; 403.00; 2.27; 17.69
2018-10-01 03:15:52; 403.00; 2.27; 17.69
2018-10-01 03:30:07; 402.00; 2.28; 17.38
2018-10-01 03:30:20; 403.00; 2.27; 17.38
2018-10-01 03:30:32; 404.00; 2.26; 17.31
2018-10-01 03:30:45; 403.00; 2.27; 17.31
2018-10-01 03:30:57; 403.00; 2.27; 17.31
2018-10-01 03:45:01; 403.00; 2.27; 16.69
2018-10-01 03:45:13; 403.00; 2.27; 16.63
2018-10-01 03:45:26; 403.00; 2.27; 16.63
2018-10-01 03:45:38; 403.00; 2.27; 16.63
2018-10-01 03:45:51; 403.00; 2.27; 16.63
2018-10-01 04:00:06; 403.00; 2.27; 16.44
2018-10-01 04:00:19; 404.00; 2.26; 16.38
2018-10-01 04:00:31; 404.00; 2.26; 16.38
2018-10-01 04:00:43; 404.00; 2.26; 16.38
2018-10-01 04:00:56; 404.00; 2.26; 16.38
2018-10-01 04:15:11; 404.00; 2.26; 16.00
2018-10-01 04:15:24; 404.00; 2.26; 16.00
2018-10-01 04:15:36; 404.00; 2.26; 16.00
2018-10-01 04:15:49; 403.00; 2.27; 16.00
2018-10-01 04:30:04; 404.00; 2.26; 15.69
2018-10-01 04:30:17; 404.00; 2.26; 15.69
2018-10-01 04:30:29; 403.00; 2.27; 15.69
2018-10-01 04:30:41; 403.00; 2.27; 15.69
2018-10-01 04:30:54; 402.00; 2.28; 15.63
2018-10-01 04:45:10; 403.00; 2.27; 15.31
2018-10-01 04:45:22; 403.00; 2.27; 15.31
2018-10-01 04:45:35; 403.00; 2.27; 15.31
2018-10-01 04:45:47; 403.00; 2.27; 15.31
2018-10-01 04:46:00; 403.00; 2.27; 15.31
2018-10-01 05:00:04; 404.00; 2.26; 15.06
2018-10-01 05:00:16; 404.00; 2.26; 15.06
2018-10-01 05:00:29; 404.00; 2.26; 15.06
2018-10-01 05:00:41; 405.00; 2.25; 15.06
2018-10-01 05:00:54; 404.00; 2.26; 15.06
2018-10-01 05:15:09; 405.00; 2.25; 14.94
2018-10-01 05:15:21; 405.00; 2.25; 14.94
2018-10-01 05:15:34; 405.00; 2.25; 14.88
2018-10-01 05:15:46; 405.00; 2.25; 14.88
2018-10-01 05:15:58; 405.00; 2.25; 14.88
2018-10-01 05:30:03; 403.00; 2.27; 14.69
2018-10-01 05:30:15; 404.00; 2.26; 14.69
2018-10-01 05:30:27; 405.00; 2.25; 14.69
2018-10-01 05:30:40; 405.00; 2.25; 14.69
2018-10-01 05:30:52; 404.00; 2.26; 14.69
2018-10-01 05:45:08; 404.00; 2.26; 14.50
2018-10-01 05:45:20; 404.00; 2.26; 14.50
2018-10-01 05:45:33; 404.00; 2.26; 14.50
2018-10-01 05:45:45; 404.00; 2.26; 14.50
2018-10-01 05:45:58; 404.00; 2.26; 14.50
2018-10-01 06:00:02; 404.00; 2.26; 14.38
2018-10-01 06:00:14; 404.00; 2.26; 14.38
2018-10-01 06:00:26; 404.00; 2.26; 14.38
2018-10-01 06:00:39; 404.00; 2.26; 14.38
2018-10-01 06:00:51; 404.00; 2.26; 14.38
2018-10-01 06:15:07; 404.00; 2.26; 14.38
2018-10-01 06:15:19; 404.00; 2.26; 14.38
2018-10-01 06:15:32; 405.00; 2.25; 14.38
2018-10-01 06:15:44; 405.00; 2.25; 14.38
2018-10-01 06:15:57; 405.00; 2.25; 14.38
2018-10-01 06:30:01; 404.00; 2.26; 14.38
2018-10-01 06:30:13; 404.00; 2.26; 14.38
2018-10-01 06:30:26; 405.00; 2.25; 14.38
2018-10-01 06:30:38; 405.00; 2.25; 14.38
2018-10-01 06:30:50; 405.00; 2.25; 14.31
2018-10-01 06:45:06; 405.00; 2.25; 14.31
2018-10-01 06:45:18; 405.00; 2.25; 14.31
2018-10-01 06:45:31; 405.00; 2.25; 14.31
2018-10-01 06:45:43; 405.00; 2.25; 14.31
2018-10-01 06:45:56; 405.00; 2.25; 14.31
2018-10-01 07:00:11; 405.00; 2.25; 14.38
2018-10-01 07:00:24; 405.00; 2.25; 14.38
2018-10-01 07:00:36; 404.00; 2.26; 14.38
2018-10-01 07:00:49; 404.00; 2.26; 14.38
2018-10-01 07:15:04; 406.00; 2.26; 14.31
2018-10-01 07:15:17; 405.00; 2.25; 14.31
2018-10-01 07:15:29; 405.00; 2.25; 14.31
2018-10-01 07:15:42; 405.00; 2.25; 14.31
2018-10-01 07:15:54; 405.00; 2.25; 14.31
2018-10-01 07:30:09; 404.00; 2.26; 13.94
2018-10-01 07:30:22; 404.00; 2.26; 13.94
2018-10-01 07:30:34; 405.00; 2.25; 13.94
2018-10-01 07:30:47; 404.00; 2.26; 13.94
2018-10-01 07:30:59; 405.00; 2.25; 13.94
2018-10-01 07:45:02; 405.00; 2.25; 13.44
2018-10-01 07:45:15; 405.00; 2.25; 13.50
2018-10-01 07:45:27; 405.00; 2.25; 13.50
2018-10-01 07:45:40; 405.00; 2.25; 13.50
2018-10-01 07:45:52; 405.00; 2.25; 13.50
2018-10-01 08:00:08; 405.00; 2.25; 13.81
2018-10-01 08:00:20; 405.00; 2.25; 13.81
2018-10-01 08:00:32; 405.00; 2.25; 13.81
2018-10-01 08:00:45; 405.00; 2.25; 13.81
2018-10-01 08:00:57; 762.00; -1.32; 13.81
2018-10-01 08:15:01; 406.00; 2.24; 13.75
2018-10-01 08:15:14; 405.00; 2.25; 13.75
2018-10-01 08:15:26; 405.00; 2.25; 13.75
2018-10-01 08:15:39; 405.00; 2.25; 13.75
2018-10-01 08:15:51; 406.00; 2.24; 13.75
2018-10-01 08:30:06; 405.00; 2.25; 14.00
2018-10-01 08:30:19; 405.00; 2.25; 14.00
2018-10-01 08:30:31; 404.00; 2.26; 14.00
2018-10-01 08:30:44; 762.00; -1.32; 14.00
2018-10-01 08:30:56; 405.00; 2.25; 14.00
2018-10-01 08:45:10; 403.00; 2.27; 14.19
2018-10-01 08:45:23; 403.00; 2.27; 14.19
2018-10-01 08:45:35; 405.00; 2.25; 14.19
2018-10-01 08:45:48; 404.00; 2.26; 14.19
2018-10-01 08:46:00; 404.00; 2.26; 14.19
2018-10-01 09:00:04; 405.00; 2.25; 14.25
2018-10-01 09:00:16; 405.00; 2.25; 14.25
2018-10-01 09:00:29; 405.00; 2.25; 14.25
2018-10-01 09:00:41; 405.00; 2.25; 14.25
2018-10-01 09:00:54; 405.00; 2.25; 14.25
2018-10-01 09:15:08; 405.00; 2.25; 14.06
2018-10-01 09:15:21; 404.00; 2.26; 14.06
2018-10-01 09:15:33; 406.00; 2.24; 14.06
2018-10-01 09:15:46; 405.00; 2.25; 14.13
2018-10-01 09:15:58; 404.00; 2.26; 14.13
2018-10-01 09:30:01; 405.00; 2.25; 14.06
2018-10-01 09:30:13; 405.00; 2.25; 14.06
2018-10-01 09:30:26; 405.00; 2.25; 14.06
2018-10-01 09:30:38; 404.00; 2.26; 14.13
2018-10-01 09:30:51; 404.00; 2.26; 14.13
2018-10-01 09:45:05; 404.00; 2.26; 14.13
2018-10-01 09:45:17; 404.00; 2.26; 14.13
2018-10-01 09:45:30; 404.00; 2.26; 14.13
2018-10-01 09:45:42; 404.00; 2.26; 14.13
2018-10-01 09:45:55; 404.00; 2.26; 14.13
2018-10-01 10:00:09; 405.00; 2.25; 14.31
2018-10-01 10:00:22; 405.00; 2.25; 14.31
2018-10-01 10:00:34; 405.00; 2.25; 14.31
2018-10-01 10:00:47; 405.00; 2.25; 14.31
2018-10-01 10:00:59; 405.00; 2.25; 14.31
2018-10-01 10:15:03; 405.00; 2.25; 14.31
2018-10-01 10:15:16; 405.00; 2.25; 14.31
2018-10-01 10:15:28; 405.00; 2.25; 14.31
2018-10-01 10:15:41; 405.00; 2.25; 14.31
2018-10-01 10:15:53; 405.00; 2.25; 14.31
2018-10-01 10:30:08; 405.00; 2.25; 14.44
2018-10-01 10:30:21; 405.00; 2.25; 14.44
2018-10-01 10:30:33; 405.00; 2.25; 14.44
2018-10-01 10:30:46; 405.00; 2.25; 14.44
2018-10-01 10:30:58; 405.00; 2.25; 14.44
2018-10-01 10:45:02; 405.00; 2.25; 14.69
2018-10-01 10:45:15; 405.00; 2.25; 14.75
2018-10-01 10:45:27; 405.00; 2.25; 14.75
2018-10-01 10:45:40; 405.00; 2.25; 14.75
2018-10-01 10:45:52; 405.00; 2.25; 14.75
2018-10-01 11:00:08; 404.00; 2.26; 15.25
2018-10-01 11:00:20; 404.00; 2.26; 15.31
2018-10-01 11:00:32; 404.00; 2.26; 15.31
2018-10-01 11:00:45; 404.00; 2.26; 15.31
2018-10-01 11:00:57; 403.00; 2.27; 15.31
2018-10-01 11:15:02; 404.00; 2.26; 15.81
2018-10-01 11:15:14; 404.00; 2.26; 15.88
2018-10-01 11:15:27; 404.00; 2.26; 15.88
2018-10-01 11:15:39; 404.00; 2.26; 15.81
2018-10-01 11:15:52; 404.00; 2.26; 15.81
2018-10-01 11:30:07; 404.00; 2.26; 16.00
2018-10-01 11:30:19; 404.00; 2.26; 16.00
2018-10-01 11:30:32; 404.00; 2.26; 16.00
2018-10-01 11:30:44; 403.00; 2.27; 16.06
2018-10-01 11:30:57; 403.00; 2.27; 16.06
2018-10-01 11:45:01; 404.00; 2.26; 15.50
2018-10-01 11:45:13; 404.00; 2.26; 15.50
2018-10-01 11:45:25; 404.00; 2.26; 15.50
2018-10-01 11:45:38; 405.00; 2.25; 15.50
2018-10-01 11:45:50; 404.00; 2.26; 15.50
2018-10-01 12:00:05; 404.00; 2.26; 15.31
2018-10-01 12:00:18; 404.00; 2.26; 15.38
2018-10-01 12:00:30; 404.00; 2.26; 15.38
2018-10-01 12:00:43; 404.00; 2.26; 15.38
2018-10-01 12:00:55; 404.00; 2.26; 15.38
2018-10-01 12:15:11; 404.00; 2.26; 16.56
2018-10-01 12:15:23; 402.00; 2.28; 16.56
2018-10-01 12:15:35; 403.00; 2.27; 16.63
2018-10-01 12:15:48; 403.00; 2.27; 16.63
2018-10-01 12:16:00; 403.00; 2.27; 16.69
2018-10-01 12:30:04; 403.00; 2.27; 17.31
2018-10-01 12:30:17; 403.00; 2.27; 17.38
2018-10-01 12:30:29; 404.00; 2.26; 17.44
2018-10-01 12:30:41; 402.00; 2.28; 17.50
2018-10-01 12:30:54; 402.00; 2.28; 17.56
2018-10-01 12:45:09; 403.00; 2.27; 17.88
2018-10-01 12:45:22; 403.00; 2.27; 17.81
2018-10-01 12:45:34; 404.00; 2.26; 17.81
2018-10-01 12:45:47; 402.00; 2.28; 17.94
2018-10-01 12:45:59; 404.00; 2.26; 17.88
2018-10-01 13:00:03; 404.00; 2.26; 17.00
2018-10-01 13:00:15; 404.00; 2.26; 17.00
2018-10-01 13:00:28; 404.00; 2.26; 17.00
2018-10-01 13:00:40; 404.00; 2.26; 17.00
2018-10-01 13:00:53; 403.00; 2.27; 17.00
2018-10-01 13:15:08; 402.00; 2.28; 17.06
2018-10-01 13:15:20; 402.00; 2.28; 17.06
2018-10-01 13:15:33; 402.00; 2.28; 17.06
2018-10-01 13:15:45; 402.00; 2.28; 17.00
2018-10-01 13:15:58; 402.00; 2.28; 17.00
2018-10-01 13:30:02; 404.00; 2.26; 16.63
2018-10-01 13:30:14; 404.00; 2.26; 16.56
2018-10-01 13:30:27; 403.00; 2.27; 16.50
2018-10-01 13:30:39; 403.00; 2.27; 16.50
2018-10-01 13:30:51; 403.00; 2.27; 16.50
2018-10-01 13:45:07; 406.00; 2.24; 16.06
2018-10-01 13:45:19; 404.00; 2.26; 16.06
2018-10-01 13:45:31; 406.00; 2.24; 16.13
2018-10-01 13:45:44; 406.00; 2.24; 16.13
2018-10-01 13:45:56; 404.00; 2.26; 16.06
2018-10-01 14:00:11; 408.00; 2.22; 16.63
2018-10-01 14:00:23; 410.00; 2.20; 16.63
2018-10-01 14:00:36; 405.00; 2.25; 16.69
2018-10-01 14:00:48; 406.00; 2.24; 16.63
2018-10-01 14:15:04; 404.00; 2.26; 15.38
2018-10-01 14:15:16; 406.00; 2.24; 15.38
2018-10-01 14:15:29; 404.00; 2.26; 15.38
2018-10-01 14:15:41; 409.00; 2.21; 15.38
2018-10-01 14:15:53; 409.00; 2.21; 15.38
2018-10-01 14:30:09; 407.00; 2.23; 14.81
2018-10-01 14:30:22; 409.00; 2.21; 14.88
2018-10-01 14:30:34; 409.00; 2.21; 14.88
2018-10-01 14:30:47; 406.00; 2.24; 14.88
2018-10-01 14:30:59; 405.00; 2.25; 14.88
2018-10-01 14:45:03; 406.00; 2.24; 15.88
2018-10-01 14:45:16; 405.00; 2.25; 15.88
2018-10-01 14:45:28; 407.00; 2.23; 15.94
2018-10-01 14:45:41; 407.00; 2.23; 15.94
2018-10-01 14:45:53; 406.00; 2.24; 15.94
2018-10-01 15:00:08; 404.00; 2.26; 16.00
2018-10-01 15:00:21; 406.00; 2.24; 16.00
2018-10-01 15:00:33; 403.00; 2.27; 16.00
2018-10-01 15:00:46; 404.00; 2.26; 15.94
2018-10-01 15:00:58; 406.00; 2.24; 15.94
2018-10-01 15:15:02; 405.00; 2.24; 16.44
2018-10-01 15:15:15; 405.00; 2.23; 16.44
2018-10-01 15:15:27; 404.00; 2.26; 16.44
2018-10-01 15:15:40; 406.00; 2.24; 16.44
2018-10-01 15:15:52; 407.00; 2.23; 16.44
2018-10-01 15:30:07; 407.00; 2.23; 16.81
2018-10-01 15:30:20; 407.00; 2.23; 16.81
2018-10-01 15:30:32; 406.00; 2.23; 16.81
2018-10-01 15:30:45; 407.00; 2.24; 16.81
2018-10-01 15:30:57; 408.00; 2.23; 16.81
2018-10-01 15:45:01; 405.00; 2.25; 16.31
2018-10-01 15:45:13; 408.00; 2.26; 16.38
2018-10-01 15:45:26; 405.00; 2.25; 16.38
2018-10-01 15:45:38; 407.00; 2.23; 16.31
2018-10-01 15:45:50; 406.00; 2.24; 16.31
2018-10-01 16:00:05; 404.00; 2.25; 16.06
2018-10-01 16:00:18; 405.00; 2.25; 16.06
2018-10-01 16:00:30; 404.00; 2.26; 16.06
2018-10-01 16:00:43; 407.00; 2.23; 16.00
2018-10-01 16:00:55; 405.00; 2.25; 16.00
2018-10-01 16:15:10; 404.00; 2.26; 16.06
2018-10-01 16:15:22; 404.00; 2.25; 16.06
2018-10-01 16:15:35; 404.00; 2.26; 16.06
2018-10-01 16:15:48; 405.00; 2.25; 16.06
2018-10-01 16:16:00; 403.00; 2.26; 16.06
2018-10-01 16:30:03; 405.00; 2.25; 16.69
2018-10-01 16:30:16; 405.00; 2.25; 16.69
2018-10-01 16:30:28; 405.00; 2.25; 16.69
2018-10-01 16:30:41; 406.00; 2.25; 16.75
2018-10-01 16:30:53; 406.00; 2.25; 16.75
2018-10-01 16:45:08; 404.00; 2.26; 18.31
2018-10-01 16:45:21; 404.00; 2.26; 18.31
2018-10-01 16:45:33; 404.00; 2.26; 18.44
2018-10-01 16:45:46; 404.00; 2.26; 18.44
2018-10-01 16:45:58; 405.00; 2.25; 18.50
2018-10-01 17:00:01; 404.00; 2.26; 18.69
2018-10-01 17:00:14; 404.00; 2.26; 18.63
2018-10-01 17:00:26; 404.00; 2.26; 18.63
2018-10-01 17:00:39; 404.00; 2.26; 18.63
2018-10-01 17:00:51; 405.00; 2.25; 18.56
2018-10-01 17:15:06; 404.00; 2.26; 18.25
2018-10-01 17:15:18; 404.00; 2.26; 18.19
2018-10-01 17:15:31; 404.00; 2.26; 18.25
2018-10-01 17:15:43; 404.00; 2.26; 18.19
2018-10-01 17:15:56; 404.00; 2.26; 18.13
2018-10-01 17:30:10; 405.00; 2.25; 17.63
2018-10-01 17:30:23; 405.00; 2.25; 17.69
2018-10-01 17:30:35; 404.00; 2.25; 17.69
2018-10-01 17:30:48; 405.00; 2.25; 17.75
2018-10-01 17:31:00; 405.00; 2.25; 17.75
2018-10-01 17:45:04; 405.00; 2.25; 18.25
2018-10-01 17:45:16; 405.00; 2.25; 18.19
2018-10-01 17:45:29; 404.00; 2.26; 18.25
2018-10-01 17:45:41; 404.00; 2.26; 18.25
2018-10-01 17:45:53; 404.00; 2.26; 18.31
2018-10-01 18:00:08; 404.00; 2.26; 19.06
2018-10-01 18:00:21; 404.00; 2.26; 19.00
2018-10-01 18:00:33; 404.00; 2.26; 19.06
2018-10-01 18:00:45; 405.00; 2.25; 19.00
2018-10-01 18:00:58; 405.00; 2.25; 19.00
2018-10-01 18:15:01; 405.00; 2.25; 17.38
2018-10-01 18:15:14; 405.00; 2.25; 17.38
2018-10-01 18:15:26; 406.00; 2.25; 17.38
2018-10-01 18:15:39; 405.00; 2.25; 17.38
2018-10-01 18:15:51; 405.00; 2.25; 17.31
2018-10-01 18:30:06; 406.00; 2.25; 17.44
2018-10-01 18:30:18; 405.00; 2.25; 17.44
2018-10-01 18:30:31; 405.00; 2.25; 17.38
2018-10-01 18:30:43; 405.00; 2.25; 17.38
2018-10-01 18:30:56; 404.00; 2.26; 17.38
2018-10-01 18:45:11; 404.00; 2.26; 18.06
2018-10-01 18:45:24; 404.00; 2.26; 18.13
2018-10-01 18:45:36; 403.00; 2.27; 18.13
2018-10-01 18:45:48; 404.00; 2.25; 18.19
2018-10-01 19:00:03; 405.00; 2.25; 18.88
2018-10-01 19:00:15; 404.00; 2.26; 18.94
2018-10-01 19:00:28; 405.00; 2.25; 18.94
2018-10-01 19:00:40; 405.00; 2.25; 18.94
2018-10-01 19:00:53; 405.00; 2.25; 18.94
2018-10-01 19:15:07; 406.00; 2.24; 18.06
2018-10-01 19:15:20; 405.00; 2.25; 18.06
2018-10-01 19:15:32; 404.00; 2.26; 18.06
2018-10-01 19:15:45; 404.00; 2.26; 18.06
2018-10-01 19:15:57; 405.00; 2.26; 18.06
2018-10-01 19:30:01; 406.00; 2.24; 16.63
2018-10-01 19:30:13; 406.00; 2.24; 16.56
2018-10-01 19:30:26; 406.00; 2.24; 16.56
2018-10-01 19:30:38; 406.00; 2.24; 16.56
2018-10-01 19:30:51; 407.00; 2.24; 16.50
2018-10-01 19:45:05; 406.00; 2.24; 14.81
2018-10-01 19:45:17; 406.00; 2.24; 14.75
2018-10-01 19:45:30; 406.00; 2.25; 14.75
2018-10-01 19:45:42; 405.00; 2.25; 14.75
2018-10-01 19:45:55; 406.00; 2.24; 14.75
2018-10-01 20:00:10; 407.00; 2.23; 13.94
2018-10-01 20:00:22; 407.00; 2.23; 13.94
2018-10-01 20:00:35; 406.00; 2.24; 13.94
2018-10-01 20:00:47; 407.00; 2.23; 13.88
2018-10-01 20:00:59; 407.00; 2.23; 13.88
2018-10-01 20:15:03; 406.00; 2.24; 13.31
2018-10-01 20:15:15; 406.00; 2.24; 13.31
2018-10-01 20:15:28; 407.00; 2.24; 13.25
2018-10-01 20:15:40; 406.00; 2.24; 13.25
2018-10-01 20:15:53; 406.00; 2.24; 13.25
2018-10-01 20:30:08; 407.00; 2.23; 12.81
2018-10-01 20:30:20; 407.00; 2.23; 12.81
2018-10-01 20:30:33; 407.00; 2.23; 12.81
2018-10-01 20:30:45; 407.00; 2.23; 12.75
2018-10-01 20:30:58; 407.00; 2.23; 12.75
2018-10-01 20:45:01; 407.00; 2.23; 12.38
2018-10-01 20:45:14; 407.00; 2.22; 12.38
2018-10-01 20:45:26; 407.00; 2.23; 12.38
2018-10-01 20:45:38; 407.00; 2.23; 12.38
2018-10-01 20:45:51; 408.00; 2.23; 12.38
2018-10-01 21:00:06; 407.00; 2.23; 12.00
2018-10-01 21:00:18; 407.00; 2.23; 12.00
2018-10-01 21:00:31; 408.00; 2.22; 12.00
2018-10-01 21:00:43; 408.00; 2.22; 12.00
2018-10-01 21:00:56; 408.00; 2.22; 12.00
2018-10-01 21:15:11; 407.00; 2.23; 11.81
2018-10-01 21:15:23; 407.00; 2.23; 11.81
2018-10-01 21:15:36; 407.00; 2.23; 11.75
2018-10-01 21:15:48; 407.00; 2.22; 11.75
2018-10-01 21:30:03; 407.00; 2.23; 11.69
2018-10-01 21:30:16; 407.00; 2.23; 11.69
2018-10-01 21:30:28; 406.00; 2.23; 11.69
2018-10-01 21:30:41; 407.00; 2.23; 11.69
2018-10-01 21:30:53; 407.00; 2.23; 11.69
2018-10-01 21:45:08; 407.00; 2.23; 11.44
2018-10-01 21:45:21; 407.00; 2.23; 11.38
2018-10-01 21:45:33; 407.00; 2.23; 11.38
2018-10-01 21:45:45; 407.00; 2.23; 11.38
2018-10-01 21:45:58; 407.00; 2.22; 11.38
2018-10-01 22:00:01; 406.00; 2.23; 11.19
2018-10-01 22:00:14; 407.00; 2.23; 11.19
2018-10-01 22:00:26; 407.00; 2.23; 11.19
2018-10-01 22:00:39; 407.00; 2.23; 11.19
2018-10-01 22:00:51; 407.00; 2.23; 11.19
2018-10-01 22:15:05; 407.00; 2.23; 10.81
2018-10-01 22:15:17; 409.00; 2.22; 10.81
2018-10-01 22:15:29; 409.00; 2.22; 10.81
2018-10-01 22:15:42; 409.00; 2.22; 10.81
2018-10-01 22:15:54; 408.00; 2.22; 10.81
2018-10-01 22:30:10; 408.00; 2.22; 10.44
2018-10-01 22:30:22; 408.00; 2.22; 10.44
2018-10-01 22:30:35; 408.00; 2.23; 10.44
2018-10-01 22:30:47; 408.00; 2.22; 10.44
2018-10-01 22:31:00; 408.00; 2.22; 10.38
2018-10-01 22:45:04; 408.00; 2.22; 10.44
2018-10-01 22:45:16; 408.00; 2.22; 10.44
2018-10-01 22:45:28; 408.00; 2.22; 10.44
2018-10-01 22:45:41; 408.00; 2.22; 10.44
2018-10-01 22:45:53; 408.00; 2.22; 10.44
2018-10-01 23:00:08; 408.00; 2.22; 10.13
2018-10-01 23:00:21; 408.00; 2.22; 10.13
2018-10-01 23:00:33; 408.00; 2.22; 10.13
2018-10-01 23:00:46; 408.00; 2.22; 10.13
2018-10-01 23:00:58; 408.00; 2.22; 10.13
2018-10-01 23:15:02; 408.00; 2.22; 10.56
2018-10-01 23:15:15; 408.00; 2.22; 10.56
2018-10-01 23:15:27; 408.00; 2.22; 10.56
2018-10-01 23:15:39; 408.00; 2.22; 10.56
2018-10-01 23:15:52; 408.00; 2.22; 10.56
2018-10-01 23:30:07; 408.00; 2.22; 10.69
2018-10-01 23:30:20; 408.00; 2.21; 10.69
2018-10-01 23:30:32; 408.00; 2.22; 10.69
2018-10-01 23:30:45; 408.00; 2.22; 10.69
2018-10-01 23:30:57; 408.00; 2.22; 10.69
2018-10-01 23:45:01; 408.00; 2.22; 10.44
2018-10-01 23:45:13; 409.00; 2.21; 10.44
2018-10-01 23:45:26; 408.00; 2.22; 10.44
2018-10-01 23:45:38; 408.00; 2.22; 10.44
2018-10-01 23:45:51; 408.00; 2.22; 10.44
