2018-04-06 00:00:07; 195.00; 4.35; 22.25
2018-04-06 00:00:19; 195.00; 4.35; 22.31
2018-04-06 00:00:32; 195.00; 4.35; 22.31
2018-04-06 00:00:44; 195.00; 4.35; 22.25
2018-04-06 00:00:56; 195.00; 4.35; 22.25
2018-04-06 00:15:01; 195.00; 4.35; 22.06
2018-04-06 00:15:13; 195.00; 4.35; 22.06
2018-04-06 00:15:25; 195.00; 4.35; 22.06
2018-04-06 00:15:38; 195.00; 4.35; 22.06
2018-04-06 00:15:50; 195.00; 4.35; 22.13
2018-04-06 00:30:05; 195.00; 4.35; 22.31
2018-04-06 00:30:18; 195.00; 4.35; 22.38
2018-04-06 00:30:30; 195.00; 4.35; 22.38
2018-04-06 00:30:43; 195.00; 4.35; 22.38
2018-04-06 00:30:55; 195.00; 4.35; 22.38
2018-04-06 00:45:11; 195.00; 4.35; 22.63
2018-04-06 00:45:23; 195.00; 4.35; 22.63
2018-04-06 00:45:35; 195.00; 4.35; 22.63
2018-04-06 00:45:48; 195.00; 4.35; 22.56
2018-04-06 00:46:00; 195.00; 4.35; 22.63
2018-04-06 01:00:04; 195.00; 4.35; 22.38
2018-04-06 01:00:17; 195.00; 4.35; 22.38
2018-04-06 01:00:29; 195.00; 4.35; 22.38
2018-04-06 01:00:41; 195.00; 4.35; 22.38
2018-04-06 01:00:54; 195.00; 4.35; 22.38
2018-04-06 01:15:09; 195.00; 4.35; 22.13
2018-04-06 01:15:22; 195.00; 4.35; 22.13
2018-04-06 01:15:34; 195.00; 4.35; 22.13
2018-04-06 01:15:47; 195.00; 4.35; 22.13
2018-04-06 01:15:59; 196.00; 4.35; 22.13
2018-04-06 01:30:03; 195.00; 4.35; 22.44
2018-04-06 01:30:15; 194.00; 4.36; 22.38
2018-04-06 01:30:28; 194.00; 4.36; 22.38
2018-04-06 01:30:40; 194.00; 4.36; 22.38
2018-04-06 01:30:53; 195.00; 4.35; 22.38
2018-04-06 01:45:08; 196.00; 4.34; 21.94
2018-04-06 01:45:21; 196.00; 4.34; 21.94
2018-04-06 01:45:33; 195.00; 4.35; 21.88
2018-04-06 01:45:45; 195.00; 4.35; 21.88
2018-04-06 01:45:58; 195.00; 4.35; 21.88
2018-04-06 02:00:02; 195.00; 4.35; 21.69
2018-04-06 02:00:14; 195.00; 4.35; 21.69
2018-04-06 02:00:26; 196.00; 4.34; 21.69
2018-04-06 02:00:39; 196.00; 4.34; 21.69
2018-04-06 02:00:51; 196.00; 4.34; 21.69
2018-04-06 02:15:07; 195.00; 4.35; 21.56
2018-04-06 02:15:19; 195.00; 4.35; 21.50
2018-04-06 02:15:32; 195.00; 4.35; 21.50
2018-04-06 02:15:44; 195.00; 4.35; 21.50
2018-04-06 02:15:56; 196.00; 4.34; 21.50
2018-04-06 02:30:01; 195.00; 4.35; 21.50
2018-04-06 02:30:13; 195.00; 4.35; 21.44
2018-04-06 02:30:25; 195.00; 4.35; 21.50
2018-04-06 02:30:38; 195.00; 4.35; 21.50
2018-04-06 02:30:50; 196.00; 4.34; 21.50
2018-04-06 02:45:06; 196.00; 4.34; 21.13
2018-04-06 02:45:18; 196.00; 4.34; 21.13
2018-04-06 02:45:31; 196.00; 4.34; 21.13
2018-04-06 02:45:43; 195.00; 4.35; 21.13
2018-04-06 02:45:55; 196.00; 4.34; 21.13
2018-04-06 03:00:11; 195.00; 4.35; 21.38
2018-04-06 03:00:23; 195.00; 4.35; 21.38
2018-04-06 03:00:36; 195.00; 4.35; 21.38
2018-04-06 03:00:48; 195.00; 4.35; 21.38
2018-04-06 03:15:04; 195.00; 4.35; 22.00
2018-04-06 03:15:16; 195.00; 4.35; 22.00
2018-04-06 03:15:28; 195.00; 4.35; 22.00
2018-04-06 03:15:41; 195.00; 4.35; 22.00
2018-04-06 03:15:53; 195.00; 4.35; 22.06
2018-04-06 03:30:09; 195.00; 4.35; 22.38
2018-04-06 03:30:21; 195.00; 4.35; 22.38
2018-04-06 03:30:33; 195.00; 4.35; 22.38
2018-04-06 03:30:46; 195.00; 4.35; 22.38
2018-04-06 03:30:58; 195.00; 4.35; 22.38
2018-04-06 03:45:02; 195.00; 4.35; 22.38
2018-04-06 03:45:15; 195.00; 4.35; 22.38
2018-04-06 03:45:27; 195.00; 4.35; 22.38
2018-04-06 03:45:39; 195.00; 4.35; 22.38
2018-04-06 03:45:52; 195.00; 4.35; 22.38
2018-04-06 04:00:07; 195.00; 4.35; 22.50
2018-04-06 04:00:20; 195.00; 4.35; 22.50
2018-04-06 04:00:32; 194.00; 4.36; 22.50
2018-04-06 04:00:45; 194.00; 4.36; 22.50
2018-04-06 04:00:57; 194.00; 4.36; 22.50
2018-04-06 04:15:01; 194.00; 4.36; 23.00
2018-04-06 04:15:13; 194.00; 4.36; 23.00
2018-04-06 04:15:26; 194.00; 4.36; 23.00
2018-04-06 04:15:38; 194.00; 4.36; 23.00
2018-04-06 04:15:51; 194.00; 4.36; 23.00
2018-04-06 04:30:06; 194.00; 4.36; 23.31
2018-04-06 04:30:18; 194.00; 4.36; 23.31
2018-04-06 04:30:31; 194.00; 4.36; 23.31
2018-04-06 04:30:43; 194.00; 4.36; 23.31
2018-04-06 04:30:56; 195.00; 4.35; 23.31
2018-04-06 04:45:11; 194.00; 4.36; 23.13
2018-04-06 04:45:23; 195.00; 4.36; 23.13
2018-04-06 04:45:36; 195.00; 4.36; 23.06
2018-04-06 04:45:48; 195.00; 4.35; 23.06
2018-04-06 05:00:04; 194.00; 4.36; 22.75
2018-04-06 05:00:16; 194.00; 4.36; 22.75
2018-04-06 05:00:28; 194.00; 4.36; 22.75
2018-04-06 05:00:41; 195.00; 4.35; 22.75
2018-04-06 05:00:53; 194.00; 4.36; 22.75
2018-04-06 05:15:09; 194.00; 4.36; 22.50
2018-04-06 05:15:21; 195.00; 4.35; 22.50
2018-04-06 05:15:34; 195.00; 4.35; 22.50
2018-04-06 05:15:46; 194.00; 4.36; 22.50
2018-04-06 05:15:58; 194.00; 4.36; 22.50
2018-04-06 05:30:02; 194.00; 4.36; 22.63
2018-04-06 05:30:15; 195.00; 4.35; 22.69
2018-04-06 05:30:27; 194.00; 4.36; 22.69
2018-04-06 05:30:40; 194.00; 4.36; 22.69
2018-04-06 05:30:52; 195.00; 4.35; 22.69
2018-04-06 05:45:08; 194.00; 4.36; 22.75
2018-04-06 05:45:20; 194.00; 4.36; 22.75
2018-04-06 05:45:32; 195.00; 4.35; 22.75
2018-04-06 05:45:45; 195.00; 4.35; 22.75
2018-04-06 05:45:57; 195.00; 4.35; 22.75
2018-04-06 06:00:01; 194.00; 4.36; 22.50
2018-04-06 06:00:13; 195.00; 4.35; 22.50
2018-04-06 06:00:26; 196.00; 4.35; 22.50
2018-04-06 06:00:38; 195.00; 4.35; 22.50
2018-04-06 06:00:51; 195.00; 4.35; 22.50
2018-04-06 06:15:06; 196.00; 4.35; 22.25
2018-04-06 06:15:19; 195.00; 4.35; 22.25
2018-04-06 06:15:31; 194.00; 4.36; 22.25
2018-04-06 06:15:43; 195.00; 4.35; 22.19
2018-04-06 06:15:56; 195.00; 4.35; 22.19
2018-04-06 06:30:11; 194.00; 4.36; 22.00
2018-04-06 06:30:24; 194.00; 4.36; 21.94
2018-04-06 06:30:36; 195.00; 4.35; 21.94
2018-04-06 06:30:48; 195.00; 4.35; 21.94
2018-04-06 06:45:04; 195.00; 4.35; 21.88
2018-04-06 06:45:16; 194.00; 4.36; 21.88
2018-04-06 06:45:29; 195.00; 4.35; 21.94
2018-04-06 06:45:41; 194.00; 4.36; 21.94
2018-04-06 06:45:53; 195.00; 4.35; 21.94
2018-04-06 07:00:09; 195.00; 4.35; 22.19
2018-04-06 07:00:21; 195.00; 4.34; 22.19
2018-04-06 07:00:34; 195.00; 4.35; 22.19
2018-04-06 07:00:46; 195.00; 4.35; 22.19
2018-04-06 07:00:58; 195.00; 4.35; 22.19
2018-04-06 07:15:02; 195.00; 4.35; 21.88
2018-04-06 07:15:15; 195.00; 4.35; 21.88
2018-04-06 07:15:27; 195.00; 4.35; 21.88
2018-04-06 07:15:40; 195.00; 4.35; 21.88
2018-04-06 07:15:52; 195.00; 4.35; 21.88
2018-04-06 07:30:07; 196.00; 4.34; 21.94
2018-04-06 07:30:20; 196.00; 4.34; 21.94
2018-04-06 07:30:32; 196.00; 4.34; 21.94
2018-04-06 07:30:44; 196.00; 4.34; 21.94
2018-04-06 07:30:57; 196.00; 4.34; 21.94
2018-04-06 07:45:01; 195.00; 4.35; 21.81
2018-04-06 07:45:13; 196.00; 4.34; 21.81
2018-04-06 07:45:25; 196.00; 4.34; 21.81
2018-04-06 07:45:38; 196.00; 4.34; 21.81
2018-04-06 07:45:50; 196.00; 4.34; 21.81
2018-04-06 08:00:06; 196.00; 4.34; 21.63
2018-04-06 08:00:18; 196.00; 4.34; 21.63
2018-04-06 08:00:31; 195.00; 4.35; 21.63
2018-04-06 08:00:43; 195.00; 4.35; 21.63
2018-04-06 08:00:55; 195.00; 4.35; 21.63
2018-04-06 08:15:11; 196.00; 4.34; 21.81
2018-04-06 08:15:23; 195.00; 4.35; 21.81
2018-04-06 08:15:36; 195.00; 4.35; 21.81
2018-04-06 08:15:48; 196.00; 4.34; 21.81
2018-04-06 08:16:00; 195.00; 4.34; 21.81
2018-04-06 08:30:04; 196.00; 4.34; 22.00
2018-04-06 08:30:17; 196.00; 4.34; 22.00
2018-04-06 08:30:29; 196.00; 4.34; 22.00
2018-04-06 08:30:42; 196.00; 4.34; 22.06
2018-04-06 08:30:54; 196.00; 4.34; 22.06
2018-04-06 08:45:09; 195.00; 4.35; 22.50
2018-04-06 08:45:22; 195.00; 4.35; 22.50
2018-04-06 08:45:34; 195.00; 4.35; 22.50
2018-04-06 08:45:46; 195.00; 4.35; 22.50
2018-04-06 08:45:59; 195.00; 4.35; 22.50
2018-04-06 09:00:03; 196.00; 4.34; 22.50
2018-04-06 09:00:15; 196.00; 4.34; 22.50
2018-04-06 09:00:28; 196.00; 4.34; 22.50
2018-04-06 09:00:40; 196.00; 4.34; 22.50
2018-04-06 09:00:53; 195.00; 4.35; 22.50
2018-04-06 09:15:08; 196.00; 4.34; 22.13
2018-04-06 09:15:20; 196.00; 4.34; 22.13
2018-04-06 09:15:33; 196.00; 4.34; 22.06
2018-04-06 09:15:45; 196.00; 4.34; 22.06
2018-04-06 09:15:58; 196.00; 4.34; 22.06
2018-04-06 09:30:02; 197.00; 4.33; 20.50
2018-04-06 09:30:14; 197.00; 4.33; 20.50
2018-04-06 09:30:26; 197.00; 4.33; 20.50
2018-04-06 09:30:39; 197.00; 4.33; 20.50
2018-04-06 09:30:51; 197.00; 4.33; 20.50
2018-04-06 09:45:07; 197.00; 4.33; 20.00
2018-04-06 09:45:19; 197.00; 4.33; 20.00
2018-04-06 09:45:32; 196.00; 4.34; 20.00
2018-04-06 09:45:44; 196.00; 4.34; 20.00
2018-04-06 09:45:56; 196.00; 4.34; 20.00
2018-04-06 10:00:01; 197.00; 4.33; 19.81
2018-04-06 10:00:13; 197.00; 4.33; 19.81
2018-04-06 10:00:25; 197.00; 4.33; 19.81
2018-04-06 10:00:38; 197.00; 4.33; 19.88
2018-04-06 10:00:50; 197.00; 4.33; 19.88
2018-04-06 10:15:06; 196.00; 4.34; 20.50
2018-04-06 10:15:18; 196.00; 4.34; 20.50
2018-04-06 10:15:31; 196.00; 4.34; 20.50
2018-04-06 10:15:43; 196.00; 4.34; 20.50
2018-04-06 10:15:55; 196.00; 4.34; 20.50
2018-04-06 10:30:11; 196.00; 4.34; 20.50
2018-04-06 10:30:23; 196.00; 4.34; 20.50
2018-04-06 10:30:36; 195.00; 4.35; 20.50
2018-04-06 10:30:48; 195.00; 4.35; 20.50
2018-04-06 10:45:04; 195.00; 4.35; 20.81
2018-04-06 10:45:16; 195.00; 4.35; 20.81
2018-04-06 10:45:29; 195.00; 4.35; 20.81
2018-04-06 10:45:41; 195.00; 4.35; 20.81
2018-04-06 10:45:53; 195.00; 4.35; 20.81
2018-04-06 11:00:09; 195.00; 4.35; 21.25
2018-04-06 11:00:21; 195.00; 4.35; 21.25
2018-04-06 11:00:34; 195.00; 4.35; 21.25
2018-04-06 11:00:46; 195.00; 4.35; 21.25
2018-04-06 11:00:59; 195.00; 4.35; 21.31
2018-04-06 11:15:03; 194.00; 4.35; 21.94
2018-04-06 11:15:15; 194.00; 4.36; 21.94
2018-04-06 11:15:28; 194.00; 4.36; 21.94
2018-04-06 11:15:40; 195.00; 4.35; 22.00
2018-04-06 11:15:52; 195.00; 4.35; 22.00
2018-04-06 11:30:08; 194.00; 4.36; 23.69
2018-04-06 11:30:20; 194.00; 4.36; 23.75
2018-04-06 11:30:33; 194.00; 4.36; 23.81
2018-04-06 11:30:45; 194.00; 4.36; 23.88
2018-04-06 11:30:57; 194.00; 4.36; 23.81
2018-04-06 11:45:01; 195.00; 4.35; 23.75
2018-04-06 11:45:14; 195.00; 4.35; 23.69
2018-04-06 11:45:26; 195.00; 4.35; 23.63
2018-04-06 11:45:38; 195.00; 4.35; 23.63
2018-04-06 11:45:51; 195.00; 4.35; 23.56
2018-04-06 12:00:06; 194.00; 4.36; 22.81
2018-04-06 12:00:19; 194.00; 4.36; 22.81
2018-04-06 12:00:31; 194.00; 4.36; 22.88
2018-04-06 12:00:43; 194.00; 4.36; 22.88
2018-04-06 12:00:56; 194.00; 4.36; 22.88
2018-04-06 12:15:11; 194.00; 4.36; 25.13
2018-04-06 12:15:24; 194.00; 4.36; 25.13
2018-04-06 12:15:36; 194.00; 4.36; 25.13
2018-04-06 12:15:48; 194.00; 4.36; 25.19
2018-04-06 12:30:04; 194.00; 4.36; 28.38
2018-04-06 12:30:16; 194.00; 4.36; 28.44
2018-04-06 12:30:28; 193.00; 4.37; 28.44
2018-04-06 12:30:41; 193.00; 4.37; 28.50
2018-04-06 12:30:53; 193.00; 4.37; 28.50
2018-04-06 12:45:08; 193.00; 4.36; 28.13
2018-04-06 12:45:20; 193.00; 4.37; 28.19
2018-04-06 12:45:33; 193.00; 4.37; 28.25
2018-04-06 12:45:45; 193.00; 4.37; 28.31
2018-04-06 12:45:58; 193.00; 4.37; 28.31
2018-04-06 13:00:01; 194.00; 4.36; 30.13
2018-04-06 13:00:14; 194.00; 4.36; 30.13
2018-04-06 13:00:26; 194.00; 4.36; 30.06
2018-04-06 13:00:38; 194.00; 4.36; 30.06
2018-04-06 13:00:51; 193.00; 4.37; 30.06
2018-04-06 13:15:06; 193.00; 4.37; 28.88
2018-04-06 13:15:18; 193.00; 4.37; 28.88
2018-04-06 13:15:30; 193.00; 4.37; 28.81
2018-04-06 13:15:43; 193.00; 4.37; 28.75
2018-04-06 13:15:55; 193.00; 4.37; 28.75
2018-04-06 13:30:10; 194.00; 4.36; 26.00
2018-04-06 13:30:23; 194.00; 4.36; 25.94
2018-04-06 13:30:35; 194.00; 4.36; 25.94
2018-04-06 13:30:47; 194.00; 4.36; 25.88
2018-04-06 13:31:00; 194.00; 4.36; 25.88
2018-04-06 13:45:04; 194.00; 4.36; 25.13
2018-04-06 13:45:16; 194.00; 4.36; 25.19
2018-04-06 13:45:28; 194.00; 4.36; 25.13
2018-04-06 13:45:41; 194.00; 4.36; 25.13
2018-04-06 13:45:53; 194.00; 4.36; 25.13
2018-04-06 14:00:08; 194.00; 4.36; 27.63
2018-04-06 14:00:21; 194.00; 4.36; 27.56
2018-04-06 14:00:33; 194.00; 4.36; 27.50
2018-04-06 14:00:46; 194.00; 4.36; 27.50
2018-04-06 14:00:58; 194.00; 4.36; 27.44
2018-04-06 14:15:02; 194.00; 4.36; 27.38
2018-04-06 14:15:14; 194.00; 4.36; 27.50
2018-04-06 14:15:26; 193.00; 4.36; 27.44
2018-04-06 14:15:39; 194.00; 4.36; 27.38
2018-04-06 14:15:51; 194.00; 4.36; 27.31
2018-04-06 14:30:06; 194.00; 4.36; 26.69
2018-04-06 14:30:18; 194.00; 4.36; 26.63
2018-04-06 14:30:31; 194.00; 4.36; 26.63
2018-04-06 14:30:43; 193.00; 4.37; 26.63
2018-04-06 14:30:56; 193.00; 4.37; 26.69
2018-04-06 14:45:11; 194.00; 4.36; 25.75
2018-04-06 14:45:23; 194.00; 4.36; 25.75
2018-04-06 14:45:35; 194.00; 4.36; 25.75
2018-04-06 14:45:48; 194.00; 4.36; 25.81
2018-04-06 14:46:00; 193.00; 4.37; 25.81
2018-04-06 15:00:04; 194.00; 4.36; 24.06
2018-04-06 15:00:16; 194.00; 4.36; 24.06
2018-04-06 15:00:29; 194.00; 4.36; 24.06
2018-04-06 15:00:41; 194.00; 4.36; 24.00
2018-04-06 15:00:54; 194.00; 4.36; 24.00
2018-04-06 15:15:09; 195.00; 4.35; 23.31
2018-04-06 15:15:21; 195.00; 4.35; 23.31
2018-04-06 15:15:34; 196.00; 4.35; 23.25
2018-04-06 15:15:46; 196.00; 4.34; 23.25
2018-04-06 15:15:58; 196.00; 4.34; 23.25
2018-04-06 15:30:02; 196.00; 4.34; 22.69
2018-04-06 15:30:15; 196.00; 4.34; 22.69
2018-04-06 15:30:27; 196.00; 4.34; 22.63
2018-04-06 15:30:40; 196.00; 4.34; 22.63
2018-04-06 15:30:52; 196.00; 4.34; 22.63
2018-04-06 15:45:08; 196.00; 4.34; 22.50
2018-04-06 15:45:20; 195.00; 4.35; 22.50
2018-04-06 15:45:32; 196.00; 4.34; 22.56
2018-04-06 15:45:45; 196.00; 4.34; 22.56
2018-04-06 15:45:57; 196.00; 4.34; 22.56
2018-04-06 16:00:01; 196.00; 4.34; 23.00
2018-04-06 16:00:14; 195.00; 4.35; 23.00
2018-04-06 16:00:26; 196.00; 4.34; 23.00
2018-04-06 16:00:38; 196.00; 4.34; 23.00
2018-04-06 16:00:51; 195.00; 4.35; 23.00
2018-04-06 16:15:06; 195.00; 4.35; 23.06
2018-04-06 16:15:19; 196.00; 4.35; 23.06
2018-04-06 16:15:31; 196.00; 4.35; 23.06
2018-04-06 16:15:43; 195.00; 4.35; 23.06
2018-04-06 16:15:56; 195.00; 4.35; 23.06
2018-04-06 16:30:11; 195.00; 4.35; 22.94
2018-04-06 16:30:24; 195.00; 4.35; 22.94
2018-04-06 16:30:36; 195.00; 4.35; 22.94
2018-04-06 16:30:48; 195.00; 4.35; 22.94
2018-04-06 16:45:04; 195.00; 4.35; 23.63
2018-04-06 16:45:16; 195.00; 4.35; 23.69
2018-04-06 16:45:29; 195.00; 4.35; 23.69
2018-04-06 16:45:41; 194.00; 4.35; 23.69
2018-04-06 16:45:53; 194.00; 4.36; 23.75
2018-04-06 17:00:09; 195.00; 4.35; 26.44
2018-04-06 17:00:21; 195.00; 4.35; 26.38
2018-04-06 17:00:34; 194.00; 4.36; 26.38
2018-04-06 17:00:46; 193.00; 4.37; 26.38
2018-04-06 17:00:58; 194.00; 4.36; 26.44
2018-04-06 17:15:02; 194.00; 4.36; 25.31
2018-04-06 17:15:14; 194.00; 4.36; 25.31
2018-04-06 17:15:27; 194.00; 4.36; 25.31
2018-04-06 17:15:39; 194.00; 4.36; 25.31
2018-04-06 17:15:52; 194.00; 4.36; 25.31
2018-04-06 17:30:07; 194.00; 4.36; 25.06
2018-04-06 17:30:19; 194.00; 4.36; 25.13
2018-04-06 17:30:32; 194.00; 4.36; 25.19
2018-04-06 17:30:44; 194.00; 4.37; 25.25
2018-04-06 17:30:56; 194.00; 4.36; 25.25
2018-04-06 17:45:12; 194.00; 4.36; 25.25
2018-04-06 17:45:24; 194.00; 4.36; 25.25
2018-04-06 17:45:36; 194.00; 4.36; 25.19
2018-04-06 17:45:49; 194.00; 4.36; 25.19
2018-04-06 18:00:04; 194.00; 4.36; 24.94
2018-04-06 18:00:17; 194.00; 4.36; 24.88
2018-04-06 18:00:29; 194.00; 4.36; 24.88
2018-04-06 18:00:41; 194.00; 4.36; 24.88
2018-04-06 18:00:54; 194.00; 4.36; 24.88
2018-04-06 18:15:09; 194.00; 4.36; 23.63
2018-04-06 18:15:21; 194.00; 4.36; 23.63
2018-04-06 18:15:34; 194.00; 4.36; 23.63
2018-04-06 18:15:46; 194.00; 4.36; 23.63
2018-04-06 18:15:59; 194.00; 4.36; 23.63
2018-04-06 18:30:03; 194.00; 4.36; 23.19
2018-04-06 18:30:15; 193.00; 4.37; 23.19
2018-04-06 18:30:27; 194.00; 4.36; 23.19
2018-04-06 18:30:40; 194.00; 4.36; 23.19
2018-04-06 18:30:52; 194.00; 4.36; 23.19
2018-04-06 18:45:08; 194.00; 4.36; 22.81
2018-04-06 18:45:20; 194.00; 4.36; 22.75
2018-04-06 18:45:32; 193.00; 4.37; 22.75
2018-04-06 18:45:45; 194.00; 4.36; 22.75
2018-04-06 18:45:57; 194.00; 4.36; 22.75
2018-04-06 19:00:01; 195.00; 4.35; 22.44
2018-04-06 19:00:14; 195.00; 4.35; 22.44
2018-04-06 19:00:26; 194.00; 4.36; 22.44
2018-04-06 19:00:39; 194.00; 4.36; 22.44
2018-04-06 19:00:51; 194.00; 4.36; 22.38
2018-04-06 19:15:06; 195.00; 4.35; 22.13
2018-04-06 19:15:19; 194.00; 4.36; 22.13
2018-04-06 19:15:31; 195.00; 4.36; 22.13
2018-04-06 19:15:44; 194.00; 4.36; 22.13
2018-04-06 19:15:56; 195.00; 4.35; 22.13
2018-04-06 19:30:11; 194.00; 4.36; 21.94
2018-04-06 19:30:24; 194.00; 4.36; 21.94
2018-04-06 19:30:36; 194.00; 4.36; 21.94
2018-04-06 19:30:48; 194.00; 4.36; 21.94
2018-04-06 19:45:04; 195.00; 4.35; 21.75
2018-04-06 19:45:16; 195.00; 4.35; 21.75
2018-04-06 19:45:29; 195.00; 4.35; 21.75
2018-04-06 19:45:41; 194.00; 4.36; 21.75
2018-04-06 19:45:53; 194.00; 4.35; 21.75
2018-04-06 20:00:09; 194.00; 4.36; 21.63
2018-04-06 20:00:21; 194.00; 4.36; 21.63
2018-04-06 20:00:34; 195.00; 4.35; 21.63
2018-04-06 20:00:46; 195.00; 4.35; 21.63
2018-04-06 20:00:59; 195.00; 4.35; 21.63
2018-04-06 20:15:03; 194.00; 4.36; 21.56
2018-04-06 20:15:15; 194.00; 4.36; 21.56
2018-04-06 20:15:28; 194.00; 4.36; 21.56
2018-04-06 20:15:40; 194.00; 4.36; 21.56
2018-04-06 20:15:52; 194.00; 4.36; 21.56
2018-04-06 20:30:08; 195.00; 4.35; 21.44
2018-04-06 20:30:20; 195.00; 4.35; 21.38
2018-04-06 20:30:33; 195.00; 4.35; 21.44
2018-04-06 20:30:45; 195.00; 4.35; 21.38
2018-04-06 20:30:57; 194.00; 4.36; 21.38
2018-04-06 20:45:02; 194.00; 4.36; 21.19
2018-04-06 20:45:14; 194.00; 4.36; 21.19
2018-04-06 20:45:27; 194.00; 4.36; 21.19
2018-04-06 20:45:39; 194.00; 4.36; 21.19
2018-04-06 20:45:51; 194.00; 4.36; 21.19
2018-04-06 21:00:07; 195.00; 4.35; 21.00
2018-04-06 21:00:19; 195.00; 4.35; 21.00
2018-04-06 21:00:32; 195.00; 4.35; 21.00
2018-04-06 21:00:44; 195.00; 4.35; 21.00
2018-04-06 21:00:56; 195.00; 4.35; 21.00
2018-04-06 21:15:01; 195.00; 4.35; 20.75
2018-04-06 21:15:13; 195.00; 4.35; 20.69
2018-04-06 21:15:25; 195.00; 4.35; 20.69
2018-04-06 21:15:38; 195.00; 4.35; 20.69
2018-04-06 21:15:50; 195.00; 4.35; 20.69
2018-04-06 21:30:06; 195.00; 4.35; 20.56
2018-04-06 21:30:18; 195.00; 4.35; 20.56
2018-04-06 21:30:31; 195.00; 4.35; 20.50
2018-04-06 21:30:43; 195.00; 4.35; 20.56
2018-04-06 21:30:55; 195.00; 4.35; 20.50
2018-04-06 21:45:11; 195.00; 4.35; 20.38
2018-04-06 21:45:23; 195.00; 4.35; 20.38
2018-04-06 21:45:36; 195.00; 4.35; 20.38
2018-04-06 21:45:48; 195.00; 4.35; 20.38
2018-04-06 22:00:04; 195.00; 4.35; 20.25
2018-04-06 22:00:16; 195.00; 4.35; 20.25
2018-04-06 22:00:29; 195.00; 4.35; 20.25
2018-04-06 22:00:41; 195.00; 4.35; 20.25
2018-04-06 22:00:54; 195.00; 4.35; 20.25
2018-04-06 22:15:09; 195.00; 4.35; 20.00
2018-04-06 22:15:22; 195.00; 4.35; 20.00
2018-04-06 22:15:34; 195.00; 4.35; 20.00
2018-04-06 22:15:46; 195.00; 4.35; 20.00
2018-04-06 22:15:59; 195.00; 4.35; 20.00
2018-04-06 22:30:03; 195.00; 4.35; 19.69
2018-04-06 22:30:16; 195.00; 4.35; 19.69
2018-04-06 22:30:28; 195.00; 4.35; 19.69
2018-04-06 22:30:40; 195.00; 4.35; 19.69
2018-04-06 22:30:53; 195.00; 4.35; 19.69
2018-04-06 22:45:08; 195.00; 4.35; 19.50
2018-04-06 22:45:21; 195.00; 4.35; 19.50
2018-04-06 22:45:33; 195.00; 4.35; 19.50
2018-04-06 22:45:46; 195.00; 4.35; 19.50
2018-04-06 22:45:58; 195.00; 4.35; 19.50
2018-04-06 23:00:02; 195.00; 4.35; 19.38
2018-04-06 23:00:15; 195.00; 4.35; 19.38
2018-04-06 23:00:27; 195.00; 4.35; 19.38
2018-04-06 23:00:40; 195.00; 4.35; 19.38
2018-04-06 23:00:52; 195.00; 4.35; 19.38
2018-04-06 23:15:08; 195.00; 4.35; 19.25
2018-04-06 23:15:20; 195.00; 4.35; 19.25
2018-04-06 23:15:32; 195.00; 4.35; 19.25
2018-04-06 23:15:45; 195.00; 4.35; 19.25
2018-04-06 23:15:57; 195.00; 4.35; 19.25
2018-04-06 23:30:02; 195.00; 4.35; 19.25
2018-04-06 23:30:14; 195.00; 4.35; 19.25
2018-04-06 23:30:26; 195.00; 4.35; 19.25
2018-04-06 23:30:39; 195.00; 4.35; 19.25
2018-04-06 23:30:51; 195.00; 4.35; 19.25
2018-04-06 23:45:07; 195.00; 4.35; 19.25
2018-04-06 23:45:19; 195.00; 4.35; 19.25
2018-04-06 23:45:32; 195.00; 4.35; 19.25
2018-04-06 23:45:44; 195.00; 4.35; 19.25
2018-04-06 23:45:56; 195.00; 4.35; 19.25
