2018-06-15 00:00:12; 346.00; 2.84; 4.31
2018-06-15 00:00:24; 346.00; 2.84; 4.31
2018-06-15 00:00:37; 346.00; 2.84; 4.25
2018-06-15 00:00:49; 346.00; 2.84; 4.31
2018-06-15 00:15:05; 350.00; 2.80; 4.00
2018-06-15 00:15:17; 351.00; 2.79; 4.00
2018-06-15 00:15:30; 350.00; 2.80; 4.00
2018-06-15 00:15:42; 348.00; 2.82; 4.00
2018-06-15 00:15:55; 345.00; 2.85; 4.06
2018-06-15 00:30:11; 349.00; 2.81; 3.75
2018-06-15 00:30:23; 349.00; 2.81; 3.75
2018-06-15 00:30:35; 347.00; 2.83; 3.75
2018-06-15 00:30:48; 344.00; 2.85; 3.75
2018-06-15 00:31:00; 343.00; 2.87; 3.75
2018-06-15 00:45:05; 348.00; 2.82; 3.94
2018-06-15 00:45:17; 347.00; 2.82; 3.94
2018-06-15 00:45:29; 346.00; 2.83; 3.94
2018-06-15 00:45:42; 345.00; 2.85; 3.94
2018-06-15 00:45:54; 346.00; 2.84; 3.94
2018-06-15 01:00:10; 347.00; 2.83; 4.13
2018-06-15 01:00:22; 347.00; 2.83; 4.13
2018-06-15 01:00:35; 347.00; 2.83; 4.13
2018-06-15 01:00:47; 347.00; 2.83; 4.13
2018-06-15 01:01:00; 347.00; 2.83; 4.13
2018-06-15 01:15:05; 348.00; 2.82; 4.13
2018-06-15 01:15:17; 348.00; 2.82; 4.13
2018-06-15 01:15:30; 348.00; 2.82; 4.13
2018-06-15 01:15:42; 347.00; 2.83; 4.13
2018-06-15 01:15:55; 347.00; 2.83; 4.13
2018-06-15 01:30:11; 347.00; 2.82; 3.63
2018-06-15 01:30:23; 347.00; 2.82; 3.63
2018-06-15 01:30:36; 347.00; 2.82; 3.63
2018-06-15 01:30:48; 347.00; 2.83; 3.63
2018-06-15 01:45:04; 347.00; 2.82; 3.50
2018-06-15 01:45:16; 347.00; 2.83; 3.50
2018-06-15 01:45:28; 346.00; 2.83; 3.56
2018-06-15 01:45:41; 346.00; 2.83; 3.50
2018-06-15 01:45:53; 347.00; 2.83; 3.56
2018-06-15 02:00:09; 347.00; 2.82; 3.38
2018-06-15 02:00:21; 346.00; 2.83; 3.38
2018-06-15 02:00:33; 347.00; 2.83; 3.38
2018-06-15 02:00:46; 347.00; 2.83; 3.38
2018-06-15 02:00:58; 346.00; 2.83; 3.38
2018-06-15 02:15:02; 347.00; 2.83; 3.38
2018-06-15 02:15:15; 347.00; 2.83; 3.38
2018-06-15 02:15:27; 347.00; 2.83; 3.38
2018-06-15 02:15:39; 347.00; 2.83; 3.38
2018-06-15 02:15:52; 347.00; 2.83; 3.44
2018-06-15 02:30:07; 347.00; 2.83; 3.56
2018-06-15 02:30:20; 347.00; 2.83; 3.56
2018-06-15 02:30:32; 347.00; 2.83; 3.56
2018-06-15 02:30:45; 346.00; 2.83; 3.56
2018-06-15 02:30:57; 346.00; 2.83; 3.56
2018-06-15 02:45:01; 347.00; 2.83; 3.56
2018-06-15 02:45:13; 346.00; 2.83; 3.56
2018-06-15 02:45:26; 347.00; 2.83; 3.56
2018-06-15 02:45:38; 346.00; 2.83; 3.56
2018-06-15 02:45:51; 347.00; 2.83; 3.56
2018-06-15 03:00:06; 347.00; 2.83; 3.56
2018-06-15 03:00:18; 347.00; 2.82; 3.56
2018-06-15 03:00:31; 347.00; 2.83; 3.56
2018-06-15 03:00:43; 348.00; 2.82; 3.56
2018-06-15 03:00:56; 347.00; 2.83; 3.56
2018-06-15 03:15:11; 347.00; 2.83; 3.63
2018-06-15 03:15:23; 347.00; 2.82; 3.63
2018-06-15 03:15:36; 347.00; 2.82; 3.63
2018-06-15 03:15:48; 347.00; 2.83; 3.63
2018-06-15 03:30:04; 347.00; 2.83; 3.69
2018-06-15 03:30:16; 347.00; 2.83; 3.69
2018-06-15 03:30:28; 348.00; 2.82; 3.69
2018-06-15 03:30:41; 347.00; 2.83; 3.69
2018-06-15 03:30:53; 348.00; 2.82; 3.69
2018-06-15 03:45:09; 347.00; 2.82; 3.38
2018-06-15 03:45:21; 347.00; 2.82; 3.38
2018-06-15 03:45:33; 347.00; 2.82; 3.31
2018-06-15 03:45:46; 347.00; 2.82; 3.31
2018-06-15 03:45:58; 348.00; 2.82; 3.31
2018-06-15 04:00:02; 347.00; 2.83; 3.13
2018-06-15 04:00:15; 347.00; 2.83; 3.13
2018-06-15 04:00:27; 347.00; 2.83; 3.13
2018-06-15 04:00:40; 347.00; 2.83; 3.13
2018-06-15 04:00:52; 347.00; 2.83; 3.13
2018-06-15 04:15:08; 347.00; 2.82; 3.13
2018-06-15 04:15:20; 347.00; 2.83; 3.13
2018-06-15 04:15:32; 347.00; 2.82; 3.13
2018-06-15 04:15:45; 347.00; 2.82; 3.13
2018-06-15 04:15:57; 347.00; 2.82; 3.13
2018-06-15 04:30:02; 347.00; 2.83; 2.88
2018-06-15 04:30:14; 348.00; 2.82; 2.88
2018-06-15 04:30:26; 347.00; 2.82; 2.94
2018-06-15 04:30:39; 348.00; 2.82; 2.94
2018-06-15 04:30:51; 348.00; 2.82; 2.94
2018-06-15 04:45:07; 347.00; 2.83; 3.19
2018-06-15 04:45:19; 347.00; 2.83; 3.19
2018-06-15 04:45:32; 347.00; 2.83; 3.25
2018-06-15 04:45:44; 347.00; 2.83; 3.19
2018-06-15 04:45:57; 347.00; 2.83; 3.19
2018-06-15 05:00:01; 347.00; 2.82; 3.31
2018-06-15 05:00:13; 348.00; 2.82; 3.31
2018-06-15 05:00:25; 348.00; 2.82; 3.31
2018-06-15 05:00:38; 348.00; 2.82; 3.25
2018-06-15 05:00:50; 348.00; 2.82; 3.25
2018-06-15 05:15:06; 348.00; 2.82; 2.94
2018-06-15 05:15:18; 348.00; 2.82; 2.94
2018-06-15 05:15:31; 348.00; 2.82; 2.94
2018-06-15 05:15:43; 348.00; 2.82; 2.94
2018-06-15 05:15:55; 348.00; 2.82; 2.88
2018-06-15 05:30:11; 348.00; 2.82; 2.63
2018-06-15 05:30:23; 348.00; 2.82; 2.63
2018-06-15 05:30:36; 348.00; 2.82; 2.63
2018-06-15 05:30:48; 348.00; 2.82; 2.63
2018-06-15 05:45:04; 348.00; 2.82; 2.88
2018-06-15 05:45:16; 348.00; 2.81; 2.94
2018-06-15 05:45:29; 349.00; 2.81; 2.94
2018-06-15 05:45:41; 348.00; 2.81; 2.94
2018-06-15 05:45:53; 348.00; 2.82; 2.94
2018-06-15 06:00:09; 348.00; 2.82; 2.94
2018-06-15 06:00:21; 348.00; 2.82; 2.94
2018-06-15 06:00:34; 348.00; 2.82; 2.94
2018-06-15 06:00:46; 348.00; 2.81; 2.94
2018-06-15 06:00:59; 348.00; 2.82; 2.88
2018-06-15 06:15:03; 349.00; 2.81; 2.56
2018-06-15 06:15:15; 348.00; 2.82; 2.56
2018-06-15 06:15:28; 349.00; 2.81; 2.56
2018-06-15 06:15:40; 348.00; 2.82; 2.56
2018-06-15 06:15:53; 348.00; 2.82; 2.56
2018-06-15 06:30:09; 349.00; 2.81; 2.25
2018-06-15 06:30:21; 349.00; 2.81; 2.19
2018-06-15 06:30:33; 349.00; 2.81; 2.19
2018-06-15 06:30:46; 349.00; 2.81; 2.19
2018-06-15 06:30:58; 349.00; 2.81; 2.25
2018-06-15 06:45:03; 350.00; 2.80; 2.38
2018-06-15 06:45:15; 349.00; 2.82; 2.38
2018-06-15 06:45:27; 349.00; 2.81; 2.38
2018-06-15 06:45:40; 349.00; 2.81; 2.38
2018-06-15 06:45:52; 349.00; 2.81; 2.38
2018-06-15 07:00:08; 350.00; 2.80; 2.44
2018-06-15 07:00:20; 350.00; 2.80; 2.44
2018-06-15 07:00:33; 349.00; 2.81; 2.44
2018-06-15 07:00:45; 350.00; 2.80; 2.44
2018-06-15 07:00:57; 349.00; 2.81; 2.44
2018-06-15 07:15:02; 349.00; 2.81; 2.44
2018-06-15 07:15:14; 350.00; 2.80; 2.44
2018-06-15 07:15:27; 350.00; 2.80; 2.44
2018-06-15 07:15:39; 349.00; 2.81; 2.44
2018-06-15 07:15:52; 350.00; 2.81; 2.44
2018-06-15 07:30:07; 349.00; 2.81; 2.44
2018-06-15 07:30:20; 349.00; 2.81; 2.44
2018-06-15 07:30:32; 349.00; 2.81; 2.44
2018-06-15 07:30:45; 349.00; 2.81; 2.44
2018-06-15 07:30:57; 349.00; 2.81; 2.44
2018-06-15 07:45:01; 349.00; 2.81; 2.13
2018-06-15 07:45:14; 350.00; 2.80; 2.13
2018-06-15 07:45:26; 349.00; 2.81; 2.13
2018-06-15 07:45:39; 349.00; 2.81; 2.13
2018-06-15 07:45:51; 349.00; 2.81; 2.13
2018-06-15 08:00:07; 350.00; 2.80; 1.88
2018-06-15 08:00:19; 350.00; 2.80; 1.81
2018-06-15 08:00:32; 350.00; 2.80; 1.81
2018-06-15 08:00:44; 350.00; 2.80; 1.81
2018-06-15 08:00:56; 349.00; 2.81; 1.81
2018-06-15 08:15:01; 350.00; 2.81; 2.19
2018-06-15 08:15:13; 349.00; 2.81; 2.19
2018-06-15 08:15:26; 350.00; 2.80; 2.19
2018-06-15 08:15:38; 349.00; 2.81; 2.19
2018-06-15 08:15:51; 350.00; 2.80; 2.19
2018-06-15 08:30:07; 349.00; 2.81; 2.50
2018-06-15 08:30:19; 349.00; 2.81; 2.50
2018-06-15 08:30:31; 349.00; 2.81; 2.56
2018-06-15 08:30:44; 349.00; 2.81; 2.56
2018-06-15 08:30:56; 349.00; 2.81; 2.56
2018-06-15 08:45:01; 350.00; 2.79; 2.63
2018-06-15 08:45:13; 350.00; 2.79; 2.63
2018-06-15 08:45:26; 349.00; 2.80; 2.63
2018-06-15 08:45:38; 349.00; 2.81; 2.63
2018-06-15 08:45:50; 347.00; 2.83; 2.63
2018-06-15 09:00:06; 349.00; 2.81; 2.88
2018-06-15 09:00:18; 349.00; 2.81; 2.94
2018-06-15 09:00:31; 348.00; 2.82; 2.94
2018-06-15 09:00:43; 347.00; 2.83; 2.94
2018-06-15 09:00:56; 349.00; 2.80; 2.94
2018-06-15 09:15:11; 349.00; 2.80; 3.13
2018-06-15 09:15:24; 349.00; 2.81; 3.13
2018-06-15 09:15:36; 349.00; 2.81; 3.13
2018-06-15 09:15:49; 348.00; 2.82; 3.13
2018-06-15 09:30:04; 350.00; 2.80; 3.94
2018-06-15 09:30:17; 350.00; 2.79; 3.94
2018-06-15 09:30:29; 350.00; 2.80; 3.94
2018-06-15 09:30:42; 349.00; 2.80; 3.94
2018-06-15 09:30:54; 350.00; 2.80; 3.94
2018-06-15 09:45:10; 349.00; 2.81; 5.06
2018-06-15 09:45:22; 349.00; 2.81; 5.06
2018-06-15 09:45:34; 349.00; 2.81; 5.13
2018-06-15 09:45:47; 349.00; 2.81; 5.13
2018-06-15 09:45:59; 348.00; 2.81; 5.13
2018-06-15 10:00:03; 350.00; 2.80; 5.13
2018-06-15 10:00:16; 350.00; 2.80; 5.13
2018-06-15 10:00:28; 350.00; 2.80; 5.13
2018-06-15 10:00:40; 350.00; 2.80; 5.13
2018-06-15 10:00:53; 350.00; 2.80; 5.13
2018-06-15 10:15:08; 350.00; 2.80; 6.69
2018-06-15 10:15:21; 349.00; 2.81; 6.69
2018-06-15 10:15:33; 349.00; 2.81; 6.75
2018-06-15 10:15:45; 349.00; 2.81; 6.75
2018-06-15 10:15:58; 349.00; 2.81; 6.81
2018-06-15 10:30:02; 348.00; 2.82; 8.56
2018-06-15 10:30:14; 348.00; 2.82; 8.56
2018-06-15 10:30:26; 348.00; 2.82; 8.56
2018-06-15 10:30:39; 349.00; 2.81; 8.63
2018-06-15 10:30:51; 349.00; 2.81; 8.63
2018-06-15 10:45:06; 349.00; 2.81; 10.13
2018-06-15 10:45:19; 349.00; 2.81; 10.19
2018-06-15 10:45:31; 348.00; 2.82; 10.31
2018-06-15 10:45:44; 349.00; 2.81; 10.38
2018-06-15 10:45:56; 348.00; 2.79; 10.50
2018-06-15 11:00:11; 348.00; 2.82; 12.00
2018-06-15 11:00:23; 348.00; 2.82; 12.13
2018-06-15 11:00:36; 347.00; 2.81; 12.19
2018-06-15 11:00:48; 348.00; 2.80; 12.19
2018-06-15 11:01:00; 350.00; 2.80; 12.06
2018-06-15 11:15:03; 348.00; 2.83; 14.13
2018-06-15 11:15:16; 349.00; 2.81; 14.13
2018-06-15 11:15:28; 350.00; 2.80; 14.19
2018-06-15 11:15:40; 348.00; 2.82; 14.19
2018-06-15 11:15:53; 346.00; 2.84; 14.13
2018-06-15 11:30:07; 348.00; 2.82; 14.50
2018-06-15 11:30:19; 351.00; 2.79; 14.44
2018-06-15 11:30:31; 350.00; 2.80; 14.44
2018-06-15 11:30:44; 348.00; 2.82; 14.44
2018-06-15 11:30:56; 347.00; 2.84; 14.44
2018-06-15 11:45:11; 348.00; 2.82; 15.19
2018-06-15 11:45:23; 350.00; 2.81; 15.13
2018-06-15 11:45:35; 348.00; 2.82; 15.06
2018-06-15 11:45:48; 347.00; 2.83; 15.06
2018-06-15 11:46:00; 348.00; 2.82; 15.06
2018-06-15 12:00:04; 348.00; 2.82; 15.94
2018-06-15 12:00:16; 349.00; 2.80; 16.00
2018-06-15 12:00:28; 348.00; 2.82; 16.00
2018-06-15 12:00:41; 348.00; 2.82; 15.88
2018-06-15 12:00:53; 347.00; 2.83; 15.75
2018-06-15 12:15:08; 346.00; 2.83; 16.00
2018-06-15 12:15:20; 346.00; 2.84; 15.88
2018-06-15 12:15:32; 347.00; 2.83; 15.88
2018-06-15 12:15:45; 348.00; 2.83; 15.88
2018-06-15 12:15:57; 346.00; 2.84; 15.94
2018-06-15 12:30:12; 348.00; 2.82; 15.75
2018-06-15 12:30:24; 349.00; 2.82; 15.75
2018-06-15 12:30:37; 346.00; 2.84; 15.81
2018-06-15 12:30:49; 347.00; 2.83; 15.81
2018-06-15 12:45:04; 346.00; 2.84; 16.38
2018-06-15 12:45:16; 346.00; 2.83; 16.44
2018-06-15 12:45:28; 346.00; 2.84; 16.44
2018-06-15 12:45:41; 346.00; 2.84; 16.50
2018-06-15 12:45:53; 347.00; 2.83; 16.63
2018-06-15 13:00:08; 346.00; 2.84; 17.31
2018-06-15 13:00:20; 346.00; 2.84; 17.38
2018-06-15 13:00:33; 346.00; 2.84; 17.31
2018-06-15 13:00:45; 347.00; 2.83; 17.31
2018-06-15 13:00:57; 347.00; 2.83; 17.25
2018-06-15 13:15:12; 346.00; 2.84; 16.25
2018-06-15 13:15:24; 346.00; 2.85; 16.31
2018-06-15 13:15:36; 347.00; 2.83; 16.19
2018-06-15 13:15:49; 347.00; 2.83; 16.25
2018-06-15 13:30:03; 345.00; 2.85; 16.00
2018-06-15 13:30:16; 346.00; 2.84; 16.00
2018-06-15 13:30:28; 347.00; 2.83; 15.94
2018-06-15 13:30:40; 348.00; 2.82; 15.88
2018-06-15 13:30:53; 347.00; 2.82; 15.94
2018-06-15 13:45:07; 347.00; 2.83; 17.19
2018-06-15 13:45:20; 349.00; 2.81; 17.13
2018-06-15 13:45:32; 347.00; 2.83; 17.19
2018-06-15 13:45:45; 347.00; 2.83; 17.19
2018-06-15 13:45:57; 346.00; 2.85; 17.19
2018-06-15 14:00:11; 346.00; 2.84; 17.31
2018-06-15 14:00:24; 346.00; 2.84; 17.31
2018-06-15 14:00:36; 347.00; 2.82; 17.31
2018-06-15 14:00:49; 348.00; 2.82; 17.31
2018-06-15 14:15:03; 346.00; 2.84; 17.69
2018-06-15 14:15:15; 348.00; 2.82; 17.69
2018-06-15 14:15:28; 347.00; 2.83; 17.75
2018-06-15 14:15:40; 348.00; 2.82; 17.69
2018-06-15 14:15:52; 348.00; 2.81; 17.75
2018-06-15 14:30:07; 346.00; 2.84; 17.63
2018-06-15 14:30:19; 348.00; 2.83; 17.63
2018-06-15 14:30:31; 346.00; 2.84; 17.69
2018-06-15 14:30:44; 346.00; 2.84; 17.69
2018-06-15 14:30:56; 346.00; 2.84; 17.75
2018-06-15 14:45:10; 347.00; 2.84; 17.44
2018-06-15 14:45:23; 346.00; 2.84; 17.50
2018-06-15 14:45:35; 346.00; 2.84; 17.56
2018-06-15 14:45:48; 346.00; 2.84; 17.56
2018-06-15 14:46:00; 345.00; 2.84; 17.63
2018-06-15 15:00:03; 346.00; 2.84; 18.50
2018-06-15 15:00:15; 347.00; 2.83; 18.56
2018-06-15 15:00:28; 346.00; 2.84; 18.63
2018-06-15 15:00:40; 347.00; 2.83; 18.56
2018-06-15 15:00:52; 346.00; 2.84; 18.50
2018-06-15 15:15:07; 346.00; 2.84; 16.69
2018-06-15 15:15:19; 347.00; 2.83; 16.69
2018-06-15 15:15:32; 346.00; 2.84; 16.75
2018-06-15 15:15:44; 347.00; 2.83; 16.69
2018-06-15 15:15:56; 347.00; 2.83; 16.63
2018-06-15 15:30:11; 346.00; 2.83; 17.31
2018-06-15 15:30:23; 347.00; 2.83; 17.38
2018-06-15 15:30:36; 346.00; 2.84; 17.44
2018-06-15 15:30:48; 346.00; 2.84; 17.44
2018-06-15 15:31:00; 347.00; 2.83; 17.50
2018-06-15 15:45:04; 347.00; 2.83; 19.00
2018-06-15 15:45:16; 347.00; 2.83; 19.00
2018-06-15 15:45:28; 347.00; 2.84; 19.00
2018-06-15 15:45:41; 347.00; 2.83; 18.94
2018-06-15 15:45:53; 346.00; 2.83; 18.88
2018-06-15 16:00:07; 346.00; 2.84; 19.69
2018-06-15 16:00:20; 346.00; 2.84; 19.75
2018-06-15 16:00:32; 346.00; 2.84; 19.81
2018-06-15 16:00:44; 346.00; 2.84; 19.75
2018-06-15 16:00:57; 345.00; 2.85; 19.63
2018-06-15 16:15:11; 345.00; 2.85; 17.94
2018-06-15 16:15:23; 347.00; 2.83; 17.88
2018-06-15 16:15:36; 347.00; 2.83; 17.94
2018-06-15 16:15:48; 346.00; 2.84; 18.00
2018-06-15 16:30:03; 347.00; 2.83; 17.94
2018-06-15 16:30:15; 346.00; 2.84; 17.88
2018-06-15 16:30:27; 348.00; 2.82; 17.81
2018-06-15 16:30:40; 347.00; 2.83; 17.63
2018-06-15 16:30:52; 347.00; 2.83; 17.63
2018-06-15 16:45:07; 347.00; 2.83; 16.25
2018-06-15 16:45:19; 347.00; 2.83; 16.25
2018-06-15 16:45:32; 347.00; 2.83; 16.31
2018-06-15 16:45:44; 347.00; 2.83; 16.31
2018-06-15 16:45:56; 348.00; 2.83; 16.31
2018-06-15 17:00:11; 347.00; 2.83; 16.88
2018-06-15 17:00:23; 347.00; 2.83; 17.00
2018-06-15 17:00:36; 346.00; 2.84; 17.06
2018-06-15 17:00:48; 347.00; 2.83; 17.13
2018-06-15 17:01:00; 348.00; 2.82; 17.25
2018-06-15 17:15:04; 347.00; 2.83; 18.06
2018-06-15 17:15:16; 347.00; 2.83; 18.00
2018-06-15 17:15:29; 347.00; 2.82; 17.94
2018-06-15 17:15:41; 347.00; 2.83; 17.88
2018-06-15 17:15:53; 346.00; 2.83; 17.81
2018-06-15 17:30:08; 347.00; 2.83; 17.00
2018-06-15 17:30:20; 347.00; 2.83; 16.94
2018-06-15 17:30:33; 346.00; 2.84; 17.00
2018-06-15 17:30:45; 347.00; 2.83; 17.00
2018-06-15 17:30:57; 347.00; 2.83; 17.06
2018-06-15 17:45:11; 347.00; 2.83; 17.81
2018-06-15 17:45:24; 346.00; 2.84; 17.81
2018-06-15 17:45:36; 347.00; 2.83; 17.81
2018-06-15 17:45:49; 348.00; 2.83; 17.88
2018-06-15 18:00:03; 346.00; 2.83; 16.25
2018-06-15 18:00:16; 347.00; 2.82; 16.31
2018-06-15 18:00:28; 347.00; 2.83; 16.31
2018-06-15 18:00:40; 348.00; 2.82; 16.31
2018-06-15 18:00:53; 347.00; 2.83; 16.38
2018-06-15 18:15:08; 347.00; 2.83; 15.25
2018-06-15 18:15:20; 347.00; 2.83; 15.25
2018-06-15 18:15:32; 347.00; 2.81; 15.25
2018-06-15 18:15:45; 348.00; 2.82; 15.19
2018-06-15 18:15:57; 347.00; 2.83; 15.19
2018-06-15 18:30:01; 348.00; 2.82; 12.31
2018-06-15 18:30:14; 347.00; 2.84; 12.25
2018-06-15 18:30:26; 346.00; 2.84; 12.25
2018-06-15 18:30:38; 347.00; 2.83; 12.19
2018-06-15 18:30:51; 347.00; 2.83; 12.19
2018-06-15 18:45:06; 347.00; 2.83; 10.56
2018-06-15 18:45:18; 347.00; 2.83; 10.50
2018-06-15 18:45:31; 347.00; 2.83; 10.50
2018-06-15 18:45:43; 347.00; 2.83; 10.50
2018-06-15 18:45:56; 347.00; 2.83; 10.50
2018-06-15 19:00:11; 348.00; 2.82; 9.56
2018-06-15 19:00:23; 348.00; 2.82; 9.56
2018-06-15 19:00:36; 348.00; 2.82; 9.56
2018-06-15 19:00:48; 348.00; 2.82; 9.50
2018-06-15 19:01:00; 347.00; 2.83; 9.50
2018-06-15 19:15:04; 347.00; 2.83; 9.06
2018-06-15 19:15:17; 348.00; 2.82; 9.06
2018-06-15 19:15:29; 348.00; 2.82; 9.06
2018-06-15 19:15:41; 347.00; 2.83; 9.06
2018-06-15 19:15:54; 347.00; 2.83; 9.06
2018-06-15 19:30:09; 347.00; 2.83; 8.69
2018-06-15 19:30:22; 347.00; 2.83; 8.69
2018-06-15 19:30:34; 348.00; 2.82; 8.69
2018-06-15 19:30:46; 348.00; 2.82; 8.69
2018-06-15 19:30:59; 348.00; 2.82; 8.69
2018-06-15 19:45:03; 348.00; 2.82; 8.50
2018-06-15 19:45:15; 348.00; 2.82; 8.50
2018-06-15 19:45:28; 348.00; 2.82; 8.50
2018-06-15 19:45:40; 348.00; 2.82; 8.50
2018-06-15 19:45:52; 348.00; 2.82; 8.50
2018-06-15 20:00:08; 348.00; 2.82; 8.31
2018-06-15 20:00:20; 348.00; 2.82; 8.31
2018-06-15 20:00:33; 348.00; 2.82; 8.31
2018-06-15 20:00:45; 348.00; 2.82; 8.31
2018-06-15 20:00:57; 348.00; 2.82; 8.31
2018-06-15 20:15:01; 348.00; 2.82; 8.19
2018-06-15 20:15:14; 348.00; 2.82; 8.19
2018-06-15 20:15:26; 348.00; 2.82; 8.19
2018-06-15 20:15:38; 348.00; 2.82; 8.19
2018-06-15 20:15:51; 348.00; 2.82; 8.19
2018-06-15 20:30:06; 348.00; 2.82; 7.94
2018-06-15 20:30:19; 348.00; 2.82; 8.00
2018-06-15 20:30:31; 348.00; 2.82; 7.94
2018-06-15 20:30:43; 348.00; 2.82; 7.94
2018-06-15 20:30:56; 348.00; 2.82; 7.94
2018-06-15 20:45:12; 349.00; 2.81; 7.63
2018-06-15 20:45:24; 349.00; 2.81; 7.63
2018-06-15 20:45:36; 349.00; 2.81; 7.56
2018-06-15 20:45:49; 349.00; 2.81; 7.56
2018-06-15 21:00:04; 349.00; 2.81; 7.25
2018-06-15 21:00:17; 349.00; 2.81; 7.25
2018-06-15 21:00:29; 349.00; 2.81; 7.25
2018-06-15 21:00:42; 349.00; 2.81; 7.25
2018-06-15 21:00:54; 349.00; 2.81; 7.25
2018-06-15 21:15:09; 349.00; 2.81; 7.13
2018-06-15 21:15:22; 349.00; 2.81; 7.13
2018-06-15 21:15:34; 349.00; 2.81; 7.13
2018-06-15 21:15:46; 349.00; 2.81; 7.13
2018-06-15 21:15:59; 349.00; 2.81; 7.13
2018-06-15 21:30:03; 349.00; 2.81; 7.50
2018-06-15 21:30:15; 349.00; 2.81; 7.50
2018-06-15 21:30:27; 349.00; 2.81; 7.50
2018-06-15 21:30:40; 349.00; 2.81; 7.44
2018-06-15 21:30:52; 349.00; 2.81; 7.44
2018-06-15 21:45:07; 350.00; 2.80; 6.94
2018-06-15 21:45:20; 350.00; 2.80; 6.94
2018-06-15 21:45:32; 350.00; 2.80; 6.94
2018-06-15 21:45:45; 350.00; 2.80; 6.94
2018-06-15 21:45:57; 350.00; 2.80; 6.88
2018-06-15 22:00:01; 350.00; 2.80; 6.19
2018-06-15 22:00:13; 350.00; 2.80; 6.19
2018-06-15 22:00:26; 350.00; 2.80; 6.19
2018-06-15 22:00:38; 350.00; 2.80; 6.19
2018-06-15 22:00:51; 350.00; 2.80; 6.13
2018-06-15 22:15:06; 349.00; 2.81; 5.81
2018-06-15 22:15:18; 349.00; 2.80; 5.75
2018-06-15 22:15:31; 350.00; 2.80; 5.75
2018-06-15 22:15:43; 349.00; 2.80; 5.75
2018-06-15 22:15:56; 349.00; 2.81; 5.75
2018-06-15 22:30:11; 351.00; 2.80; 5.44
2018-06-15 22:30:23; 350.00; 2.80; 5.44
2018-06-15 22:30:36; 350.00; 2.80; 5.44
2018-06-15 22:30:48; 350.00; 2.80; 5.44
2018-06-15 22:45:04; 350.00; 2.80; 5.19
2018-06-15 22:45:16; 350.00; 2.80; 5.19
2018-06-15 22:45:29; 350.00; 2.80; 5.19
2018-06-15 22:45:41; 350.00; 2.80; 5.19
2018-06-15 22:45:53; 351.00; 2.79; 5.19
2018-06-15 23:00:09; 351.00; 2.79; 5.06
2018-06-15 23:00:22; 351.00; 2.79; 5.06
2018-06-15 23:00:34; 350.00; 2.80; 5.06
2018-06-15 23:00:46; 351.00; 2.79; 5.06
2018-06-15 23:00:59; 351.00; 2.79; 5.06
2018-06-15 23:15:03; 351.00; 2.79; 4.75
2018-06-15 23:15:15; 351.00; 2.79; 4.81
2018-06-15 23:15:28; 351.00; 2.79; 4.75
2018-06-15 23:15:40; 351.00; 2.79; 4.75
2018-06-15 23:15:53; 351.00; 2.79; 4.75
2018-06-15 23:30:09; 351.00; 2.79; 4.63
2018-06-15 23:30:21; 351.00; 2.79; 4.63
2018-06-15 23:30:33; 351.00; 2.79; 4.63
2018-06-15 23:30:46; 351.00; 2.79; 4.63
2018-06-15 23:30:58; 351.00; 2.79; 4.63
2018-06-15 23:45:02; 351.00; 2.79; 4.44
2018-06-15 23:45:15; 351.00; 2.79; 4.44
2018-06-15 23:45:27; 351.00; 2.79; 4.44
2018-06-15 23:45:40; 351.00; 2.79; 4.44
2018-06-15 23:45:52; 351.00; 2.79; 4.44
