2018-09-26 00:00:06; 0.00; 6.30; 19.81
2018-09-26 00:00:18; 0.00; 6.30; 19.81
2018-09-26 00:00:31; 0.00; 6.30; 19.81
2018-09-26 00:00:43; 0.00; 6.30; 19.81
2018-09-26 00:00:55; 0.00; 6.30; 19.81
2018-09-26 00:15:02; 0.00; 6.30; 19.69
2018-09-26 00:15:14; 0.00; 6.30; 19.69
2018-09-26 00:15:27; 0.00; 6.30; 19.69
2018-09-26 00:15:39; 0.00; 6.30; 19.69
2018-09-26 00:15:51; 0.00; 6.30; 19.69
2018-09-26 00:30:09; 0.00; 6.30; 19.56
2018-09-26 00:30:22; 0.00; 6.30; 19.56
2018-09-26 00:30:34; 0.00; 6.30; 19.56
2018-09-26 00:30:47; 0.00; 6.30; 19.56
2018-09-26 00:30:59; 0.00; 6.30; 19.56
2018-09-26 00:45:06; 0.00; 6.30; 19.63
2018-09-26 00:45:18; 0.00; 6.30; 19.63
2018-09-26 00:45:30; 0.00; 6.30; 19.63
2018-09-26 00:45:43; 0.00; 6.30; 19.63
2018-09-26 00:45:55; 0.00; 6.30; 19.63
2018-09-26 01:00:02; 0.00; 6.30; 19.69
2018-09-26 01:00:14; 0.00; 6.30; 19.69
2018-09-26 01:00:26; 0.00; 6.30; 19.69
2018-09-26 01:00:39; 0.00; 6.30; 19.69
2018-09-26 01:00:51; 0.00; 6.30; 19.69
2018-09-26 01:15:09; 0.00; 6.30; 19.69
2018-09-26 01:15:22; 0.00; 6.30; 19.75
2018-09-26 01:15:34; 0.00; 6.30; 19.69
2018-09-26 01:15:46; 0.00; 6.30; 19.69
2018-09-26 01:15:59; 0.00; 6.30; 19.69
2018-09-26 01:30:05; 0.00; 6.30; 19.69
2018-09-26 01:30:18; 0.00; 6.30; 19.69
2018-09-26 01:30:30; 0.00; 6.30; 19.69
2018-09-26 01:30:42; 0.00; 6.30; 19.69
2018-09-26 01:30:55; 0.00; 6.30; 19.69
2018-09-26 01:45:01; 0.00; 6.30; 19.63
2018-09-26 01:45:14; 0.00; 6.30; 19.63
2018-09-26 01:45:26; 0.00; 6.30; 19.63
2018-09-26 01:45:38; 0.00; 6.30; 19.63
2018-09-26 01:45:51; 0.00; 6.30; 19.63
2018-09-26 02:00:09; 0.00; 6.30; 19.63
2018-09-26 02:00:21; 0.00; 6.30; 19.63
2018-09-26 02:00:34; 0.00; 6.30; 19.63
2018-09-26 02:00:46; 0.00; 6.30; 19.63
2018-09-26 02:00:58; 0.00; 6.30; 19.63
2018-09-26 02:15:05; 0.00; 6.30; 19.56
2018-09-26 02:15:17; 0.00; 6.30; 19.56
2018-09-26 02:15:30; 0.00; 6.30; 19.56
2018-09-26 02:15:42; 0.00; 6.30; 19.56
2018-09-26 02:15:54; 0.00; 6.30; 19.56
2018-09-26 02:30:01; 0.00; 6.30; 19.50
2018-09-26 02:30:13; 0.00; 6.30; 19.50
2018-09-26 02:30:26; 0.00; 6.30; 19.50
2018-09-26 02:30:38; 0.00; 6.30; 19.50
2018-09-26 02:30:50; 0.00; 6.30; 19.50
2018-09-26 02:45:08; 0.00; 6.30; 19.50
2018-09-26 02:45:21; 0.00; 6.30; 19.44
2018-09-26 02:45:33; 0.00; 6.30; 19.44
2018-09-26 02:45:46; 0.00; 6.30; 19.44
2018-09-26 02:45:58; 0.00; 6.30; 19.44
2018-09-26 03:00:05; 0.00; 6.30; 19.38
2018-09-26 03:00:17; 0.00; 6.30; 19.38
2018-09-26 03:00:29; 0.00; 6.30; 19.38
2018-09-26 03:00:42; 0.00; 6.30; 19.38
2018-09-26 03:00:54; 0.00; 6.30; 19.38
2018-09-26 03:15:01; 0.00; 6.30; 19.13
2018-09-26 03:15:13; 0.00; 6.30; 19.13
2018-09-26 03:15:25; 0.00; 6.30; 19.13
2018-09-26 03:15:38; 0.00; 6.30; 19.19
2018-09-26 03:15:50; 0.00; 6.30; 19.13
2018-09-26 03:30:08; 0.00; 6.30; 19.25
2018-09-26 03:30:21; 0.00; 6.30; 19.25
2018-09-26 03:30:33; 0.00; 6.30; 19.25
2018-09-26 03:30:45; 0.00; 6.30; 19.25
2018-09-26 03:30:58; 0.00; 6.30; 19.25
2018-09-26 03:45:04; 0.00; 6.30; 19.25
2018-09-26 03:45:17; 0.00; 6.30; 19.25
2018-09-26 03:45:29; 0.00; 6.30; 19.25
2018-09-26 03:45:41; 0.00; 6.30; 19.25
2018-09-26 03:45:54; 0.00; 6.30; 19.25
2018-09-26 04:00:12; 0.00; 6.30; 19.25
2018-09-26 04:00:24; 0.00; 6.30; 19.25
2018-09-26 04:00:37; 0.00; 6.30; 19.25
2018-09-26 04:00:49; 0.00; 6.30; 19.25
2018-09-26 04:15:07; 0.00; 6.30; 19.19
2018-09-26 04:15:19; 0.00; 6.30; 19.19
2018-09-26 04:15:32; 0.00; 6.30; 19.19
2018-09-26 04:15:44; 0.00; 6.30; 19.19
2018-09-26 04:15:57; 0.00; 6.30; 19.19
2018-09-26 04:30:03; 0.00; 6.30; 19.13
2018-09-26 04:30:15; 0.00; 6.30; 19.13
2018-09-26 04:30:28; 0.00; 6.30; 19.13
2018-09-26 04:30:40; 0.00; 6.30; 19.13
2018-09-26 04:30:53; 0.00; 6.30; 19.13
2018-09-26 04:45:10; 0.00; 6.30; 19.00
2018-09-26 04:45:23; 0.00; 6.30; 19.00
2018-09-26 04:45:35; 0.00; 6.30; 19.00
2018-09-26 04:45:48; 0.00; 6.30; 19.00
2018-09-26 04:46:00; 0.00; 6.30; 19.00
2018-09-26 05:00:07; 0.00; 6.30; 18.81
2018-09-26 05:00:19; 0.00; 6.30; 18.81
2018-09-26 05:00:31; 0.00; 6.30; 18.81
2018-09-26 05:00:44; 0.00; 6.30; 18.81
2018-09-26 05:00:56; 0.00; 6.30; 18.81
2018-09-26 05:15:03; 0.00; 6.30; 18.69
2018-09-26 05:15:15; 0.00; 6.30; 18.69
2018-09-26 05:15:28; 0.00; 6.30; 18.69
2018-09-26 05:15:40; 0.00; 6.30; 18.69
2018-09-26 05:15:53; 0.00; 6.30; 18.69
2018-09-26 05:30:10; 0.00; 6.30; 18.75
2018-09-26 05:30:23; 0.00; 6.30; 18.75
2018-09-26 05:30:35; 0.00; 6.30; 18.75
2018-09-26 05:30:48; 0.00; 6.30; 18.75
2018-09-26 05:31:00; 0.00; 6.30; 18.75
2018-09-26 05:45:07; 0.00; 6.30; 18.75
2018-09-26 05:45:19; 0.00; 6.30; 18.75
2018-09-26 05:45:31; 0.00; 6.30; 18.75
2018-09-26 05:45:44; 0.00; 6.30; 18.75
2018-09-26 05:45:56; 0.00; 6.30; 18.75
2018-09-26 06:00:03; 0.00; 6.30; 18.63
2018-09-26 06:00:15; 0.00; 6.30; 18.63
2018-09-26 06:00:27; 0.00; 6.30; 18.63
2018-09-26 06:00:40; 0.00; 6.30; 18.63
2018-09-26 06:00:52; 0.00; 6.30; 18.56
2018-09-26 06:15:10; 0.00; 6.30; 18.44
2018-09-26 06:15:23; 0.00; 6.30; 18.44
2018-09-26 06:15:35; 0.00; 6.30; 18.44
2018-09-26 06:15:48; 0.00; 6.30; 18.44
2018-09-26 06:16:00; 0.00; 6.30; 18.44
2018-09-26 06:30:06; 0.00; 6.30; 18.31
2018-09-26 06:30:19; 0.00; 6.30; 18.31
2018-09-26 06:30:31; 0.00; 6.30; 18.31
2018-09-26 06:30:44; 0.00; 6.30; 18.31
2018-09-26 06:30:56; 0.00; 6.30; 18.31
2018-09-26 06:45:03; 0.00; 6.30; 18.31
2018-09-26 06:45:15; 0.00; 6.30; 18.31
2018-09-26 06:45:27; 0.00; 6.30; 18.31
2018-09-26 06:45:40; 0.00; 6.30; 18.31
2018-09-26 06:45:52; 0.00; 6.30; 18.31
2018-09-26 07:00:10; 0.00; 6.30; 17.94
2018-09-26 07:00:23; 0.00; 6.30; 17.94
2018-09-26 07:00:35; 0.00; 6.30; 17.94
2018-09-26 07:00:48; 0.00; 6.30; 17.94
2018-09-26 07:01:00; 0.00; 6.30; 17.94
2018-09-26 07:15:06; 0.00; 6.30; 17.75
2018-09-26 07:15:19; 761.00; -1.31; 17.75
2018-09-26 07:15:31; 761.00; -1.31; 17.75
2018-09-26 07:15:44; 761.00; -1.31; 17.75
2018-09-26 07:15:56; 761.00; -1.31; 17.75
2018-09-26 07:30:01; 761.00; -1.31; 17.56
2018-09-26 07:30:13; 761.00; -1.31; 17.56
2018-09-26 07:30:26; 761.00; -1.31; 17.56
2018-09-26 07:30:38; 761.00; -1.31; 17.56
2018-09-26 07:30:51; 761.00; -1.31; 17.56
2018-09-26 07:45:06; 761.00; -1.31; 17.81
2018-09-26 07:45:19; 761.00; -1.31; 17.81
2018-09-26 07:45:31; 761.00; -1.31; 17.81
2018-09-26 07:45:44; 761.00; -1.31; 17.81
2018-09-26 07:45:56; 761.00; -1.31; 17.81
2018-09-26 08:00:11; 761.00; -1.31; 18.06
2018-09-26 08:00:24; 761.00; -1.31; 18.06
2018-09-26 08:00:36; 761.00; -1.31; 18.06
2018-09-26 08:00:49; 761.00; -1.31; 18.13
2018-09-26 08:15:04; 761.00; -1.31; 18.44
2018-09-26 08:15:17; 761.00; -1.31; 18.44
2018-09-26 08:15:29; 761.00; -1.31; 18.44
2018-09-26 08:15:42; 761.00; -1.31; 18.44
2018-09-26 08:15:54; 761.00; -1.31; 18.44
2018-09-26 08:30:10; 761.00; -1.31; 19.00
2018-09-26 08:30:22; 761.00; -1.31; 19.00
2018-09-26 08:30:35; 761.00; -1.31; 19.00
2018-09-26 08:30:47; 761.00; -1.31; 19.00
2018-09-26 08:31:00; 761.00; -1.31; 19.00
2018-09-26 08:45:04; 0.00; 6.30; 19.75
2018-09-26 08:45:16; 0.00; 6.30; 19.75
2018-09-26 08:45:28; 0.00; 6.30; 19.75
2018-09-26 08:45:41; 0.00; 6.30; 19.75
2018-09-26 08:45:53; 0.00; 6.30; 19.81
2018-09-26 09:00:11; 0.00; 6.30; 20.38
2018-09-26 09:00:23; 0.00; 6.30; 20.44
2018-09-26 09:00:36; 0.00; 6.30; 20.38
2018-09-26 09:00:48; 0.00; 6.30; 20.38
2018-09-26 09:15:05; 762.00; -1.32; 21.25
2018-09-26 09:15:18; 762.00; -1.32; 21.25
2018-09-26 09:15:30; 762.00; -1.32; 21.31
2018-09-26 09:15:43; 762.00; -1.32; 21.38
2018-09-26 09:15:55; 762.00; -1.32; 21.44
2018-09-26 09:30:10; 762.00; -1.32; 24.00
2018-09-26 09:30:23; 762.00; -1.32; 24.06
2018-09-26 09:30:35; 762.00; -1.32; 24.13
2018-09-26 09:30:48; 762.00; -1.32; 24.25
2018-09-26 09:31:00; 762.00; -1.32; 24.31
2018-09-26 09:45:04; 399.00; 2.31; 24.44
2018-09-26 09:45:16; 399.00; 2.31; 24.38
2018-09-26 09:45:29; 399.00; 2.31; 24.44
2018-09-26 09:45:41; 399.00; 2.31; 24.38
2018-09-26 09:45:54; 399.00; 2.31; 24.38
2018-09-26 10:00:08; 398.00; 2.32; 24.75
2018-09-26 10:00:21; 398.00; 2.32; 24.81
2018-09-26 10:00:33; 398.00; 2.32; 24.81
2018-09-26 10:00:46; 398.00; 2.32; 24.81
2018-09-26 10:00:58; 399.00; 2.31; 24.81
2018-09-26 10:15:01; 399.00; 2.31; 25.69
2018-09-26 10:15:13; 398.00; 2.32; 25.69
2018-09-26 10:15:26; 398.00; 2.32; 25.56
2018-09-26 10:15:38; 398.00; 2.32; 25.44
2018-09-26 10:15:51; 399.00; 2.31; 25.31
2018-09-26 10:30:05; 397.00; 2.33; 25.31
2018-09-26 10:30:17; 397.00; 2.33; 25.31
2018-09-26 10:30:30; 397.00; 2.33; 25.38
2018-09-26 10:30:42; 397.00; 2.33; 25.44
2018-09-26 10:30:55; 397.00; 2.33; 25.44
2018-09-26 10:45:09; 399.00; 2.31; 24.69
2018-09-26 10:45:21; 399.00; 2.31; 24.56
2018-09-26 10:45:34; 399.00; 2.31; 24.56
2018-09-26 10:45:46; 399.00; 2.31; 24.56
2018-09-26 10:45:59; 399.00; 2.31; 24.44
2018-09-26 11:00:02; 398.00; 2.32; 24.50
2018-09-26 11:00:14; 401.00; 2.29; 24.44
2018-09-26 11:00:27; 398.00; 2.32; 24.38
2018-09-26 11:00:39; 398.00; 2.32; 24.38
2018-09-26 11:00:52; 398.00; 2.32; 24.38
2018-09-26 11:15:06; 400.00; 2.30; 26.44
2018-09-26 11:15:19; 400.00; 2.30; 26.44
2018-09-26 11:15:31; 400.00; 2.30; 26.50
2018-09-26 11:15:44; 396.00; 2.34; 26.44
2018-09-26 11:15:56; 397.00; 2.33; 26.38
2018-09-26 11:30:10; 397.00; 2.33; 26.50
2018-09-26 11:30:23; 396.00; 2.34; 26.56
2018-09-26 11:30:35; 396.00; 2.34; 26.56
2018-09-26 11:30:48; 398.00; 2.32; 26.63
2018-09-26 11:31:00; 397.00; 2.33; 26.69
2018-09-26 11:45:03; 398.00; 2.32; 26.44
2018-09-26 11:45:16; 397.00; 2.33; 26.50
2018-09-26 11:45:28; 397.00; 2.33; 26.44
2018-09-26 11:45:41; 397.00; 2.33; 26.31
2018-09-26 11:45:53; 397.00; 2.33; 26.31
2018-09-26 12:00:07; 396.00; 2.34; 27.81
2018-09-26 12:00:20; 396.00; 2.34; 27.88
2018-09-26 12:00:32; 396.00; 2.34; 27.94
2018-09-26 12:00:45; 396.00; 2.34; 28.00
2018-09-26 12:00:57; 396.00; 2.34; 27.94
2018-09-26 12:15:11; 396.00; 2.34; 29.00
2018-09-26 12:15:24; 396.00; 2.34; 29.13
2018-09-26 12:15:36; 398.00; 2.32; 29.13
2018-09-26 12:15:49; 396.00; 2.34; 29.13
2018-09-26 12:30:03; 397.00; 2.33; 28.25
2018-09-26 12:30:15; 397.00; 2.33; 28.13
2018-09-26 12:30:28; 397.00; 2.33; 28.00
2018-09-26 12:30:40; 395.00; 2.35; 27.81
2018-09-26 12:30:53; 395.00; 2.35; 27.69
2018-09-26 12:45:07; 400.00; 2.30; 26.13
2018-09-26 12:45:19; 400.00; 2.30; 26.13
2018-09-26 12:45:32; 398.00; 2.32; 26.13
2018-09-26 12:45:44; 398.00; 2.32; 26.19
2018-09-26 12:45:57; 398.00; 2.32; 26.13
2018-09-26 13:00:11; 398.00; 2.32; 26.69
2018-09-26 13:00:24; 397.00; 2.33; 26.69
2018-09-26 13:00:36; 398.00; 2.32; 26.69
2018-09-26 13:00:49; 398.00; 2.32; 26.69
2018-09-26 13:15:03; 398.00; 2.32; 26.69
2018-09-26 13:15:15; 397.00; 2.33; 26.56
2018-09-26 13:15:28; 399.00; 2.31; 26.63
2018-09-26 13:15:40; 399.00; 2.31; 26.63
2018-09-26 13:15:53; 762.00; -1.32; 26.63
2018-09-26 13:30:07; 398.00; 2.32; 27.06
2018-09-26 13:30:19; 398.00; 2.32; 27.00
2018-09-26 13:30:32; 398.00; 2.32; 27.06
2018-09-26 13:30:44; 398.00; 2.32; 27.13
2018-09-26 13:30:57; 762.00; -1.32; 27.13
2018-09-26 13:45:10; 398.00; 2.32; 27.38
2018-09-26 13:45:22; 398.00; 2.32; 27.44
2018-09-26 13:45:35; 398.00; 2.32; 27.38
2018-09-26 13:45:47; 398.00; 2.32; 27.31
2018-09-26 13:46:00; 398.00; 2.32; 27.31
2018-09-26 14:00:02; 399.00; 2.31; 28.56
2018-09-26 14:00:15; 397.00; 2.33; 28.63
2018-09-26 14:00:27; 397.00; 2.33; 28.69
2018-09-26 14:00:40; 398.00; 2.32; 28.69
2018-09-26 14:00:52; 398.00; 2.32; 28.63
2018-09-26 14:15:06; 398.00; 2.33; 30.69
2018-09-26 14:15:19; 397.00; 2.33; 30.69
2018-09-26 14:15:31; 397.00; 2.33; 30.69
2018-09-26 14:15:44; 395.00; 2.35; 30.69
2018-09-26 14:15:56; 397.00; 2.33; 30.69
2018-09-26 14:30:10; 396.00; 2.34; 29.38
2018-09-26 14:30:23; 395.00; 2.35; 29.50
2018-09-26 14:30:35; 396.00; 2.34; 29.63
2018-09-26 14:30:48; 396.00; 2.34; 29.75
2018-09-26 14:31:00; 396.00; 2.34; 29.88
2018-09-26 14:45:03; 397.00; 2.33; 28.13
2018-09-26 14:45:15; 397.00; 2.33; 28.13
2018-09-26 14:45:28; 397.00; 2.33; 28.06
2018-09-26 14:45:40; 397.00; 2.33; 28.06
2018-09-26 14:45:53; 397.00; 2.33; 28.06
2018-09-26 15:00:07; 398.00; 2.32; 28.38
2018-09-26 15:00:19; 398.00; 2.32; 28.44
2018-09-26 15:00:32; 398.00; 2.32; 28.44
2018-09-26 15:00:44; 398.00; 2.32; 28.44
2018-09-26 15:00:57; 398.00; 2.32; 28.44
2018-09-26 15:15:10; 396.00; 2.34; 27.94
2018-09-26 15:15:23; 396.00; 2.34; 27.94
2018-09-26 15:15:35; 396.00; 2.34; 28.00
2018-09-26 15:15:48; 396.00; 2.34; 28.00
2018-09-26 15:16:00; 396.00; 2.34; 27.94
2018-09-26 15:30:02; 762.00; -1.32; 27.44
2018-09-26 15:30:15; 761.00; -1.31; 27.44
2018-09-26 15:30:27; 761.00; -1.31; 27.38
2018-09-26 15:30:40; 761.00; -1.31; 27.38
2018-09-26 15:30:52; 761.00; -1.31; 27.38
2018-09-26 15:45:06; 399.00; 2.31; 28.44
2018-09-26 15:45:19; 398.00; 2.32; 28.44
2018-09-26 15:45:31; 398.00; 2.32; 28.44
2018-09-26 15:45:44; 398.00; 2.32; 28.50
2018-09-26 15:45:56; 398.00; 2.32; 28.50
2018-09-26 16:00:10; 397.00; 2.33; 27.81
2018-09-26 16:00:22; 397.00; 2.33; 27.81
2018-09-26 16:00:35; 397.00; 2.33; 27.81
2018-09-26 16:00:47; 397.00; 2.33; 27.81
2018-09-26 16:01:00; 397.00; 2.33; 27.94
2018-09-26 16:15:02; 398.00; 2.32; 28.63
2018-09-26 16:15:14; 398.00; 2.32; 28.63
2018-09-26 16:15:27; 398.00; 2.32; 28.63
2018-09-26 16:15:39; 398.00; 2.32; 28.63
2018-09-26 16:15:52; 398.00; 2.32; 28.63
2018-09-26 16:30:06; 397.00; 2.33; 27.44
2018-09-26 16:30:18; 397.00; 2.33; 27.44
2018-09-26 16:30:31; 397.00; 2.33; 27.44
2018-09-26 16:30:43; 397.00; 2.33; 27.50
2018-09-26 16:30:55; 397.00; 2.33; 27.44
2018-09-26 16:45:10; 398.00; 2.32; 26.50
2018-09-26 16:45:22; 398.00; 2.32; 26.56
2018-09-26 16:45:35; 398.00; 2.32; 26.56
2018-09-26 16:45:47; 398.00; 2.32; 26.56
2018-09-26 16:46:00; 398.00; 2.32; 26.56
2018-09-26 17:00:03; 398.00; 2.32; 25.94
2018-09-26 17:00:15; 398.00; 2.32; 25.94
2018-09-26 17:00:28; 398.00; 2.32; 25.94
2018-09-26 17:00:40; 398.00; 2.32; 25.94
2018-09-26 17:00:53; 398.00; 2.32; 25.94
2018-09-26 17:15:07; 398.00; 2.32; 27.00
2018-09-26 17:15:20; 398.00; 2.32; 26.94
2018-09-26 17:15:32; 398.00; 2.32; 26.94
2018-09-26 17:15:45; 398.00; 2.32; 27.00
2018-09-26 17:15:57; 398.00; 2.32; 27.00
2018-09-26 17:30:11; 398.00; 2.32; 29.94
2018-09-26 17:30:24; 398.00; 2.32; 30.00
2018-09-26 17:30:36; 398.00; 2.32; 29.88
2018-09-26 17:30:49; 398.00; 2.32; 29.88
2018-09-26 17:45:03; 762.00; -1.32; 26.56
2018-09-26 17:45:15; 762.00; -1.32; 26.50
2018-09-26 17:45:28; 762.00; -1.32; 26.44
2018-09-26 17:45:40; 762.00; -1.32; 26.44
2018-09-26 17:45:53; 762.00; -1.32; 26.38
2018-09-26 18:00:08; 762.00; -1.32; 25.25
2018-09-26 18:00:20; 762.00; -1.32; 25.25
2018-09-26 18:00:33; 762.00; -1.32; 25.25
2018-09-26 18:00:45; 762.00; -1.32; 25.25
2018-09-26 18:00:58; 762.00; -1.32; 25.25
2018-09-26 18:15:02; 762.00; -1.32; 26.19
2018-09-26 18:15:14; 762.00; -1.32; 26.19
2018-09-26 18:15:27; 762.00; -1.32; 26.25
2018-09-26 18:15:39; 762.00; -1.32; 26.31
2018-09-26 18:15:51; 762.00; -1.32; 26.31
2018-09-26 18:30:07; 762.00; -1.32; 26.19
2018-09-26 18:30:19; 762.00; -1.32; 26.19
2018-09-26 18:30:32; 762.00; -1.32; 26.19
2018-09-26 18:30:44; 762.00; -1.32; 26.25
2018-09-26 18:30:57; 762.00; -1.32; 26.25
2018-09-26 18:45:11; 397.00; 2.33; 25.50
2018-09-26 18:45:24; 397.00; 2.33; 25.50
2018-09-26 18:45:36; 397.00; 2.33; 25.44
2018-09-26 18:45:49; 397.00; 2.33; 25.44
2018-09-26 19:00:03; 762.00; -1.32; 24.25
2018-09-26 19:00:15; 762.00; -1.32; 24.25
2018-09-26 19:00:28; 762.00; -1.32; 24.25
2018-09-26 19:00:40; 762.00; -1.32; 24.19
2018-09-26 19:00:53; 762.00; -1.32; 24.19
2018-09-26 19:15:08; 762.00; -1.32; 23.50
2018-09-26 19:15:20; 762.00; -1.32; 23.50
2018-09-26 19:15:33; 762.00; -1.32; 23.50
2018-09-26 19:15:45; 762.00; -1.32; 23.44
2018-09-26 19:15:58; 762.00; -1.32; 23.44
2018-09-26 19:30:01; 762.00; -1.32; 23.06
2018-09-26 19:30:14; 762.00; -1.32; 23.06
2018-09-26 19:30:26; 762.00; -1.32; 23.06
2018-09-26 19:30:39; 762.00; -1.32; 23.06
2018-09-26 19:30:51; 762.00; -1.32; 23.06
2018-09-26 19:45:07; 762.00; -1.32; 22.69
2018-09-26 19:45:19; 762.00; -1.32; 22.69
2018-09-26 19:45:31; 762.00; -1.32; 22.69
2018-09-26 19:45:44; 762.00; -1.32; 22.69
2018-09-26 19:45:56; 762.00; -1.32; 22.69
2018-09-26 20:00:12; 762.00; -1.32; 22.44
2018-09-26 20:00:24; 762.00; -1.32; 22.44
2018-09-26 20:00:37; 762.00; -1.32; 22.44
2018-09-26 20:00:49; 762.00; -1.32; 22.44
2018-09-26 20:15:04; 762.00; -1.32; 22.13
2018-09-26 20:15:17; 762.00; -1.32; 22.13
2018-09-26 20:15:29; 762.00; -1.32; 22.13
2018-09-26 20:15:42; 762.00; -1.32; 22.13
2018-09-26 20:15:54; 762.00; -1.32; 22.13
2018-09-26 20:30:10; 762.00; -1.32; 21.94
2018-09-26 20:30:22; 762.00; -1.32; 21.94
2018-09-26 20:30:35; 762.00; -1.32; 21.94
2018-09-26 20:30:47; 762.00; -1.32; 21.94
2018-09-26 20:31:00; 762.00; -1.32; 21.94
2018-09-26 20:45:04; 762.00; -1.32; 21.63
2018-09-26 20:45:16; 762.00; -1.32; 21.63
2018-09-26 20:45:28; 762.00; -1.32; 21.63
2018-09-26 20:45:41; 762.00; -1.32; 21.63
2018-09-26 20:45:53; 762.00; -1.32; 21.63
2018-09-26 21:00:11; 0.00; 6.30; 21.25
2018-09-26 21:00:23; 0.00; 6.30; 21.25
2018-09-26 21:00:35; 0.00; 6.30; 21.25
2018-09-26 21:00:48; 762.00; -1.32; 21.25
2018-09-26 21:01:00; 762.00; -1.32; 21.25
2018-09-26 21:15:04; 762.00; -1.32; 21.13
2018-09-26 21:15:17; 762.00; -1.32; 21.13
2018-09-26 21:15:29; 762.00; -1.32; 21.13
2018-09-26 21:15:42; 762.00; -1.32; 21.13
2018-09-26 21:15:54; 761.00; -1.31; 21.13
2018-09-26 21:30:09; 762.00; -1.32; 20.94
2018-09-26 21:30:22; 762.00; -1.32; 20.94
2018-09-26 21:30:34; 762.00; -1.32; 20.94
2018-09-26 21:30:47; 762.00; -1.32; 20.94
2018-09-26 21:30:59; 762.00; -1.32; 20.94
2018-09-26 21:45:03; 400.00; 2.30; 20.75
2018-09-26 21:45:15; 399.00; 2.31; 20.75
2018-09-26 21:45:28; 399.00; 2.31; 20.75
2018-09-26 21:45:40; 399.00; 2.31; 20.69
2018-09-26 21:45:53; 399.00; 2.31; 20.69
2018-09-26 22:00:08; 761.00; -1.31; 20.44
2018-09-26 22:00:20; 761.00; -1.31; 20.44
2018-09-26 22:00:33; 761.00; -1.31; 20.44
2018-09-26 22:00:45; 761.00; -1.31; 20.44
2018-09-26 22:00:58; 761.00; -1.31; 20.44
2018-09-26 22:15:02; 760.00; -1.30; 20.06
2018-09-26 22:15:14; 760.00; -1.30; 20.06
2018-09-26 22:15:26; 760.00; -1.30; 20.06
2018-09-26 22:15:39; 760.00; -1.30; 20.06
2018-09-26 22:15:51; 760.00; -1.30; 20.06
2018-09-26 22:30:07; 760.00; -1.30; 19.88
2018-09-26 22:30:19; 760.00; -1.30; 19.88
2018-09-26 22:30:32; 760.00; -1.30; 19.88
2018-09-26 22:30:44; 760.00; -1.30; 19.88
2018-09-26 22:30:57; 760.00; -1.30; 19.88
2018-09-26 22:45:12; 400.00; 2.30; 19.69
2018-09-26 22:45:24; 400.00; 2.30; 19.69
2018-09-26 22:45:37; 400.00; 2.30; 19.69
2018-09-26 22:45:49; 400.00; 2.30; 19.69
2018-09-26 23:00:04; 401.00; 2.29; 19.50
2018-09-26 23:00:17; 401.00; 2.29; 19.50
2018-09-26 23:00:29; 401.00; 2.29; 19.56
2018-09-26 23:00:42; 401.00; 2.29; 19.50
2018-09-26 23:00:54; 401.00; 2.29; 19.50
2018-09-26 23:15:09; 401.00; 2.29; 19.44
2018-09-26 23:15:22; 401.00; 2.29; 19.44
2018-09-26 23:15:34; 401.00; 2.29; 19.44
2018-09-26 23:15:47; 401.00; 2.29; 19.44
2018-09-26 23:15:59; 401.00; 2.29; 19.44
2018-09-26 23:30:03; 401.00; 2.29; 19.25
2018-09-26 23:30:15; 401.00; 2.29; 19.25
2018-09-26 23:30:28; 401.00; 2.29; 19.25
2018-09-26 23:30:40; 401.00; 2.29; 19.25
2018-09-26 23:30:53; 401.00; 2.29; 19.25
2018-09-26 23:45:08; 401.00; 2.29; 19.06
2018-09-26 23:45:21; 401.00; 2.29; 19.06
2018-09-26 23:45:33; 401.00; 2.29; 19.06
2018-09-26 23:45:46; 401.00; 2.29; 19.06
2018-09-26 23:45:58; 401.00; 2.29; 19.00
