2018-10-10 00:00:11; 359.00; 2.71; 17.44
2018-10-10 00:00:24; 359.00; 2.71; 17.44
2018-10-10 00:00:36; 359.00; 2.71; 17.44
2018-10-10 00:00:49; 359.00; 2.71; 17.44
2018-10-10 00:15:03; 359.00; 2.71; 17.25
2018-10-10 00:15:16; 359.00; 2.71; 17.25
2018-10-10 00:15:28; 359.00; 2.71; 17.25
2018-10-10 00:15:41; 359.00; 2.71; 17.25
2018-10-10 00:15:53; 359.00; 2.71; 17.25
2018-10-10 00:30:08; 359.00; 2.71; 17.13
2018-10-10 00:30:20; 359.00; 2.71; 17.19
2018-10-10 00:30:33; 359.00; 2.71; 17.19
2018-10-10 00:30:45; 359.00; 2.71; 17.19
2018-10-10 00:30:58; 359.00; 2.71; 17.13
2018-10-10 00:45:01; 360.00; 2.70; 16.81
2018-10-10 00:45:13; 360.00; 2.70; 16.81
2018-10-10 00:45:26; 359.00; 2.71; 16.81
2018-10-10 00:45:38; 359.00; 2.71; 16.81
2018-10-10 00:45:50; 359.00; 2.71; 16.81
2018-10-10 01:00:05; 359.00; 2.71; 16.69
2018-10-10 01:00:17; 358.00; 2.72; 16.69
2018-10-10 01:00:30; 358.00; 2.71; 16.69
2018-10-10 01:00:42; 359.00; 2.71; 16.69
2018-10-10 01:00:55; 359.00; 2.71; 16.69
2018-10-10 01:15:09; 358.00; 2.71; 16.69
2018-10-10 01:15:22; 359.00; 2.71; 16.69
2018-10-10 01:15:34; 358.00; 2.72; 16.69
2018-10-10 01:15:47; 358.00; 2.72; 16.69
2018-10-10 01:15:59; 359.00; 2.70; 16.69
2018-10-10 01:30:02; 359.00; 2.71; 16.44
2018-10-10 01:30:15; 359.00; 2.71; 16.44
2018-10-10 01:30:27; 358.00; 2.71; 16.44
2018-10-10 01:30:39; 359.00; 2.71; 16.44
2018-10-10 01:30:52; 359.00; 2.71; 16.38
2018-10-10 01:45:06; 360.00; 2.70; 15.94
2018-10-10 01:45:19; 360.00; 2.70; 15.94
2018-10-10 01:45:31; 359.00; 2.71; 15.94
2018-10-10 01:45:44; 360.00; 2.70; 15.88
2018-10-10 01:45:56; 359.00; 2.70; 15.88
2018-10-10 02:00:09; 360.00; 2.71; 15.56
2018-10-10 02:00:21; 361.00; 2.70; 15.56
2018-10-10 02:00:34; 361.00; 2.70; 15.56
2018-10-10 02:00:46; 361.00; 2.70; 15.56
2018-10-10 02:00:59; 361.00; 2.70; 15.56
2018-10-10 02:15:12; 361.00; 2.70; 15.50
2018-10-10 02:15:24; 359.00; 2.70; 15.50
2018-10-10 02:15:37; 361.00; 2.69; 15.44
2018-10-10 02:15:49; 361.00; 2.69; 15.44
2018-10-10 02:30:04; 361.00; 2.69; 15.25
2018-10-10 02:30:16; 361.00; 2.69; 15.25
2018-10-10 02:30:29; 361.00; 2.69; 15.25
2018-10-10 02:30:41; 362.00; 2.68; 15.25
2018-10-10 02:30:54; 361.00; 2.69; 15.25
2018-10-10 02:45:08; 361.00; 2.69; 15.13
2018-10-10 02:45:21; 360.00; 2.70; 15.13
2018-10-10 02:45:33; 361.00; 2.69; 15.13
2018-10-10 02:45:46; 361.00; 2.69; 15.13
2018-10-10 02:45:58; 361.00; 2.69; 15.13
2018-10-10 03:00:02; 360.00; 2.70; 15.00
2018-10-10 03:00:14; 360.00; 2.70; 15.00
2018-10-10 03:00:26; 361.00; 2.69; 15.00
2018-10-10 03:00:39; 362.00; 2.69; 15.00
2018-10-10 03:00:51; 361.00; 2.69; 15.00
2018-10-10 03:15:06; 361.00; 2.69; 14.94
2018-10-10 03:15:19; 361.00; 2.69; 14.94
2018-10-10 03:15:31; 361.00; 2.69; 14.94
2018-10-10 03:15:44; 361.00; 2.69; 14.94
2018-10-10 03:15:56; 361.00; 2.69; 14.94
2018-10-10 03:30:11; 361.00; 2.69; 14.94
2018-10-10 03:30:23; 361.00; 2.69; 14.94
2018-10-10 03:30:36; 361.00; 2.69; 15.00
2018-10-10 03:30:48; 361.00; 2.69; 15.00
2018-10-10 03:45:03; 361.00; 2.69; 14.69
2018-10-10 03:45:15; 361.00; 2.69; 14.69
2018-10-10 03:45:28; 361.00; 2.69; 14.69
2018-10-10 03:45:40; 361.00; 2.69; 14.69
2018-10-10 03:45:53; 361.00; 2.69; 14.69
2018-10-10 04:00:08; 362.00; 2.69; 14.38
2018-10-10 04:00:20; 362.00; 2.69; 14.31
2018-10-10 04:00:32; 362.00; 2.69; 14.38
2018-10-10 04:00:45; 362.00; 2.69; 14.31
2018-10-10 04:00:57; 362.00; 2.69; 14.31
2018-10-10 04:15:01; 362.00; 2.68; 14.31
2018-10-10 04:15:13; 362.00; 2.68; 14.31
2018-10-10 04:15:26; 362.00; 2.69; 14.31
2018-10-10 04:15:38; 361.00; 2.69; 14.31
2018-10-10 04:15:51; 361.00; 2.70; 14.31
2018-10-10 04:30:05; 363.00; 2.68; 14.38
2018-10-10 04:30:18; 362.00; 2.68; 14.38
2018-10-10 04:30:30; 362.00; 2.68; 14.38
2018-10-10 04:30:43; 362.00; 2.69; 14.38
2018-10-10 04:30:55; 362.00; 2.69; 14.38
2018-10-10 04:45:10; 361.00; 2.69; 14.13
2018-10-10 04:45:23; 361.00; 2.68; 14.13
2018-10-10 04:45:35; 361.00; 2.69; 14.13
2018-10-10 04:45:48; 361.00; 2.69; 14.13
2018-10-10 04:46:00; 361.00; 2.69; 14.13
2018-10-10 05:00:04; 361.00; 2.69; 14.06
2018-10-10 05:00:17; 361.00; 2.69; 14.06
2018-10-10 05:00:29; 361.00; 2.69; 14.06
2018-10-10 05:00:42; 361.00; 2.69; 14.06
2018-10-10 05:00:54; 361.00; 2.69; 14.06
2018-10-10 05:15:09; 360.00; 2.70; 14.13
2018-10-10 05:15:21; 361.00; 2.69; 14.13
2018-10-10 05:15:34; 361.00; 2.69; 14.13
2018-10-10 05:15:46; 361.00; 2.69; 14.19
2018-10-10 05:15:59; 362.00; 2.68; 14.19
2018-10-10 05:30:02; 362.00; 2.68; 14.13
2018-10-10 05:30:15; 361.00; 2.69; 14.13
2018-10-10 05:30:27; 361.00; 2.69; 14.13
2018-10-10 05:30:40; 361.00; 2.69; 14.13
2018-10-10 05:30:52; 361.00; 2.69; 14.13
2018-10-10 05:45:07; 361.00; 2.68; 13.94
2018-10-10 05:45:19; 362.00; 2.68; 13.94
2018-10-10 05:45:32; 361.00; 2.69; 13.94
2018-10-10 05:45:44; 361.00; 2.69; 13.94
2018-10-10 05:45:57; 360.00; 2.70; 13.94
2018-10-10 06:00:11; 361.00; 2.69; 13.88
2018-10-10 06:00:24; 361.00; 2.69; 13.88
2018-10-10 06:00:36; 361.00; 2.69; 13.88
2018-10-10 06:00:49; 361.00; 2.69; 13.88
2018-10-10 06:15:03; 361.00; 2.69; 13.69
2018-10-10 06:15:16; 361.00; 2.69; 13.69
2018-10-10 06:15:28; 361.00; 2.69; 13.69
2018-10-10 06:15:41; 361.00; 2.69; 13.69
2018-10-10 06:15:53; 360.00; 2.70; 13.63
2018-10-10 06:30:08; 361.00; 2.69; 13.50
2018-10-10 06:30:20; 361.00; 2.69; 13.50
2018-10-10 06:30:33; 361.00; 2.69; 13.50
2018-10-10 06:30:45; 361.00; 2.69; 13.50
2018-10-10 06:30:58; 361.00; 2.69; 13.50
2018-10-10 06:45:01; 361.00; 2.68; 13.38
2018-10-10 06:45:14; 362.00; 2.68; 13.38
2018-10-10 06:45:26; 362.00; 2.68; 13.38
2018-10-10 06:45:38; 361.00; 2.69; 13.31
2018-10-10 06:45:51; 361.00; 2.69; 13.31
2018-10-10 07:00:06; 361.00; 2.69; 13.25
2018-10-10 07:00:18; 361.00; 2.69; 13.25
2018-10-10 07:00:31; 362.00; 2.68; 13.25
2018-10-10 07:00:43; 362.00; 2.68; 13.19
2018-10-10 07:00:56; 361.00; 2.69; 13.25
2018-10-10 07:15:10; 361.00; 2.69; 13.13
2018-10-10 07:15:23; 361.00; 2.69; 13.13
2018-10-10 07:15:35; 361.00; 2.69; 13.13
2018-10-10 07:15:48; 361.00; 2.69; 13.13
2018-10-10 07:16:00; 361.00; 2.69; 13.13
2018-10-10 07:30:03; 361.00; 2.69; 13.38
2018-10-10 07:30:16; 361.00; 2.69; 13.44
2018-10-10 07:30:28; 361.00; 2.69; 13.44
2018-10-10 07:30:41; 361.00; 2.69; 13.44
2018-10-10 07:30:53; 361.00; 2.69; 13.44
2018-10-10 07:45:08; 361.00; 2.69; 13.63
2018-10-10 07:45:20; 361.00; 2.69; 13.63
2018-10-10 07:45:33; 361.00; 2.69; 13.63
2018-10-10 07:45:45; 361.00; 2.69; 13.69
2018-10-10 07:45:58; 361.00; 2.69; 13.69
2018-10-10 08:00:01; 361.00; 2.69; 14.06
2018-10-10 08:00:14; 360.00; 2.70; 14.06
2018-10-10 08:00:26; 361.00; 2.69; 14.06
2018-10-10 08:00:38; 361.00; 2.69; 14.13
2018-10-10 08:00:51; 361.00; 2.69; 14.13
2018-10-10 08:15:06; 360.00; 2.70; 14.75
2018-10-10 08:15:18; 360.00; 2.70; 14.75
2018-10-10 08:15:31; 360.00; 2.70; 14.81
2018-10-10 08:15:43; 360.00; 2.70; 14.88
2018-10-10 08:15:56; 361.00; 2.69; 14.88
2018-10-10 08:30:10; 360.00; 2.70; 16.06
2018-10-10 08:30:22; 360.00; 2.70; 16.13
2018-10-10 08:30:35; 360.00; 2.70; 16.13
2018-10-10 08:30:47; 361.00; 2.69; 16.13
2018-10-10 08:31:00; 361.00; 2.69; 16.13
2018-10-10 08:45:03; 359.00; 2.71; 15.94
2018-10-10 08:45:15; 359.00; 2.71; 15.88
2018-10-10 08:45:28; 359.00; 2.71; 15.88
2018-10-10 08:45:40; 359.00; 2.71; 15.88
2018-10-10 08:45:53; 359.00; 2.70; 15.88
2018-10-10 09:00:07; 360.00; 2.70; 16.13
2018-10-10 09:00:20; 360.00; 2.70; 16.13
2018-10-10 09:00:32; 360.00; 2.70; 16.19
2018-10-10 09:00:44; 360.00; 2.70; 16.19
2018-10-10 09:00:57; 361.00; 2.69; 16.25
2018-10-10 09:15:12; 360.00; 2.70; 16.44
2018-10-10 09:15:24; 360.00; 2.70; 16.44
2018-10-10 09:15:37; 360.00; 2.70; 16.44
2018-10-10 09:15:49; 360.00; 2.70; 16.44
2018-10-10 09:30:04; 359.00; 2.70; 17.25
2018-10-10 09:30:16; 360.00; 2.70; 17.31
2018-10-10 09:30:28; 360.00; 2.70; 17.31
2018-10-10 09:30:41; 360.00; 2.70; 17.25
2018-10-10 09:30:53; 360.00; 2.70; 17.31
2018-10-10 09:45:07; 359.00; 2.71; 17.94
2018-10-10 09:45:20; 359.00; 2.71; 17.94
2018-10-10 09:45:32; 359.00; 2.71; 18.00
2018-10-10 09:45:45; 359.00; 2.71; 18.00
2018-10-10 09:45:57; 359.00; 2.71; 18.06
2018-10-10 10:00:01; 359.00; 2.71; 19.56
2018-10-10 10:00:13; 359.00; 2.71; 19.56
2018-10-10 10:00:26; 359.00; 2.71; 19.63
2018-10-10 10:00:38; 360.00; 2.71; 19.69
2018-10-10 10:00:50; 359.00; 2.71; 19.75
2018-10-10 10:15:05; 360.00; 2.71; 19.88
2018-10-10 10:15:17; 360.00; 2.71; 19.88
2018-10-10 10:15:29; 360.00; 2.71; 19.88
2018-10-10 10:15:42; 360.00; 2.71; 19.88
2018-10-10 10:15:54; 360.00; 2.71; 19.94
2018-10-10 10:30:08; 357.00; 2.72; 20.94
2018-10-10 10:30:21; 358.00; 2.72; 20.94
2018-10-10 10:30:33; 358.00; 2.72; 21.00
2018-10-10 10:30:46; 358.00; 2.73; 21.06
2018-10-10 10:30:58; 358.00; 2.72; 21.19
2018-10-10 10:45:01; 357.00; 2.73; 22.19
2018-10-10 10:45:13; 358.00; 2.72; 22.19
2018-10-10 10:45:26; 358.00; 2.72; 22.19
2018-10-10 10:45:38; 359.00; 2.71; 22.19
2018-10-10 10:45:51; 358.00; 2.72; 22.25
2018-10-10 11:00:05; 358.00; 2.73; 22.63
2018-10-10 11:00:17; 358.00; 2.73; 22.69
2018-10-10 11:00:30; 358.00; 2.72; 22.69
2018-10-10 11:00:42; 358.00; 2.73; 22.69
2018-10-10 11:00:55; 358.00; 2.73; 22.69
2018-10-10 11:15:09; 359.00; 2.71; 23.00
2018-10-10 11:15:21; 359.00; 2.72; 22.94
2018-10-10 11:15:34; 358.00; 2.73; 23.00
2018-10-10 11:15:46; 358.00; 2.73; 23.00
2018-10-10 11:15:59; 358.00; 2.72; 23.00
2018-10-10 11:30:01; 358.00; 2.72; 23.81
2018-10-10 11:30:14; 358.00; 2.72; 23.88
2018-10-10 11:30:26; 357.00; 2.73; 23.88
2018-10-10 11:30:39; 357.00; 2.73; 23.88
2018-10-10 11:30:51; 356.00; 2.74; 23.88
2018-10-10 11:45:05; 357.00; 2.73; 24.06
2018-10-10 11:45:17; 356.00; 2.74; 24.13
2018-10-10 11:45:30; 357.00; 2.73; 24.25
2018-10-10 11:45:42; 357.00; 2.73; 24.25
2018-10-10 11:45:55; 356.00; 2.73; 24.31
2018-10-10 12:00:09; 356.00; 2.74; 24.50
2018-10-10 12:00:21; 356.00; 2.74; 24.44
2018-10-10 12:00:34; 357.00; 2.73; 24.44
2018-10-10 12:00:46; 357.00; 2.73; 24.50
2018-10-10 12:00:59; 357.00; 2.73; 24.44
2018-10-10 12:15:01; 356.00; 2.74; 25.50
2018-10-10 12:15:14; 357.00; 2.74; 25.63
2018-10-10 12:15:26; 356.00; 2.73; 25.56
2018-10-10 12:15:38; 356.00; 2.74; 25.50
2018-10-10 12:15:51; 356.00; 2.74; 25.56
2018-10-10 12:30:05; 356.00; 2.74; 25.69
2018-10-10 12:30:17; 356.00; 2.74; 25.63
2018-10-10 12:30:30; 356.00; 2.74; 25.63
2018-10-10 12:30:42; 355.00; 2.74; 25.56
2018-10-10 12:30:54; 355.00; 2.75; 25.50
2018-10-10 12:45:08; 355.00; 2.75; 25.00
2018-10-10 12:45:21; 356.00; 2.74; 25.00
2018-10-10 12:45:33; 355.00; 2.75; 25.00
2018-10-10 12:45:46; 355.00; 2.75; 25.06
2018-10-10 12:45:58; 355.00; 2.75; 25.06
2018-10-10 13:00:01; 355.00; 2.74; 26.13
2018-10-10 13:00:13; 355.00; 2.75; 26.13
2018-10-10 13:00:26; 355.00; 2.75; 26.13
2018-10-10 13:00:38; 355.00; 2.75; 26.06
2018-10-10 13:00:50; 354.00; 2.76; 26.19
2018-10-10 13:15:04; 355.00; 2.75; 25.50
2018-10-10 13:15:17; 355.00; 2.75; 25.44
2018-10-10 13:15:29; 355.00; 2.75; 25.50
2018-10-10 13:15:41; 356.00; 2.75; 25.38
2018-10-10 13:15:54; 355.00; 2.75; 25.31
2018-10-10 13:30:08; 356.00; 2.74; 26.06
2018-10-10 13:30:20; 355.00; 2.75; 26.06
2018-10-10 13:30:33; 355.00; 2.75; 26.00
2018-10-10 13:30:45; 354.00; 2.76; 25.94
2018-10-10 13:30:58; 354.00; 2.76; 25.88
2018-10-10 13:45:12; 354.00; 2.76; 26.19
2018-10-10 13:45:24; 354.00; 2.76; 26.25
2018-10-10 13:45:37; 354.00; 2.76; 26.19
2018-10-10 13:45:49; 354.00; 2.76; 26.19
2018-10-10 14:00:03; 354.00; 2.76; 26.81
2018-10-10 14:00:15; 354.00; 2.76; 26.88
2018-10-10 14:00:28; 354.00; 2.76; 26.81
2018-10-10 14:00:40; 354.00; 2.76; 26.75
2018-10-10 14:00:53; 354.00; 2.76; 26.75
2018-10-10 14:15:06; 354.00; 2.76; 27.13
2018-10-10 14:15:19; 354.00; 2.76; 27.13
2018-10-10 14:15:31; 354.00; 2.76; 27.13
2018-10-10 14:15:44; 354.00; 2.76; 27.25
2018-10-10 14:15:56; 354.00; 2.76; 27.31
2018-10-10 14:30:10; 354.00; 2.76; 25.81
2018-10-10 14:30:22; 354.00; 2.76; 25.94
2018-10-10 14:30:35; 354.00; 2.76; 26.00
2018-10-10 14:30:47; 355.00; 2.76; 26.00
2018-10-10 14:31:00; 355.00; 2.75; 26.06
2018-10-10 14:45:02; 355.00; 2.75; 26.69
2018-10-10 14:45:15; 355.00; 2.75; 26.69
2018-10-10 14:45:27; 354.00; 2.76; 26.69
2018-10-10 14:45:40; 354.00; 2.76; 26.56
2018-10-10 14:45:52; 354.00; 2.76; 26.50
2018-10-10 15:00:06; 354.00; 2.76; 26.88
2018-10-10 15:00:18; 354.00; 2.76; 26.81
2018-10-10 15:00:31; 354.00; 2.76; 26.81
2018-10-10 15:00:43; 354.00; 2.76; 26.75
2018-10-10 15:00:56; 354.00; 2.76; 26.75
2018-10-10 15:15:09; 354.00; 2.76; 27.06
2018-10-10 15:15:22; 354.00; 2.75; 27.06
2018-10-10 15:15:34; 354.00; 2.76; 27.06
2018-10-10 15:15:47; 355.00; 2.75; 27.13
2018-10-10 15:15:59; 354.00; 2.76; 27.13
2018-10-10 15:30:01; 354.00; 2.76; 27.44
2018-10-10 15:30:14; 354.00; 2.76; 27.44
2018-10-10 15:30:26; 354.00; 2.75; 27.50
2018-10-10 15:30:39; 355.00; 2.75; 27.56
2018-10-10 15:30:51; 355.00; 2.75; 27.50
2018-10-10 15:45:06; 355.00; 2.75; 27.06
2018-10-10 15:45:18; 354.00; 2.76; 27.00
2018-10-10 15:45:30; 354.00; 2.75; 27.06
2018-10-10 15:45:43; 355.00; 2.75; 27.00
2018-10-10 15:45:55; 354.00; 2.76; 27.00
2018-10-10 16:00:09; 355.00; 2.76; 27.88
2018-10-10 16:00:22; 355.00; 2.76; 27.94
2018-10-10 16:00:34; 355.00; 2.75; 28.00
2018-10-10 16:00:47; 355.00; 2.75; 27.94
2018-10-10 16:00:59; 355.00; 2.76; 28.06
2018-10-10 16:15:01; 355.00; 2.76; 27.38
2018-10-10 16:15:14; 354.00; 2.76; 27.38
2018-10-10 16:15:26; 354.00; 2.75; 27.44
2018-10-10 16:15:39; 355.00; 2.75; 27.44
2018-10-10 16:15:51; 355.00; 2.75; 27.38
2018-10-10 16:30:05; 354.00; 2.76; 27.06
2018-10-10 16:30:18; 356.00; 2.74; 27.13
2018-10-10 16:30:30; 356.00; 2.74; 27.19
2018-10-10 16:30:42; 355.00; 2.75; 27.25
2018-10-10 16:30:55; 354.00; 2.76; 27.38
2018-10-10 16:45:09; 355.00; 2.75; 27.00
2018-10-10 16:45:22; 355.00; 2.75; 27.00
2018-10-10 16:45:34; 355.00; 2.75; 26.94
2018-10-10 16:45:47; 355.00; 2.75; 26.94
2018-10-10 16:45:59; 354.00; 2.76; 27.00
2018-10-10 17:00:01; 354.00; 2.76; 27.00
2018-10-10 17:00:14; 355.00; 2.75; 26.94
2018-10-10 17:00:26; 355.00; 2.75; 26.81
2018-10-10 17:00:39; 355.00; 2.75; 26.75
2018-10-10 17:00:51; 355.00; 2.75; 26.69
2018-10-10 17:15:05; 355.00; 2.75; 26.50
2018-10-10 17:15:17; 355.00; 2.75; 26.44
2018-10-10 17:15:30; 355.00; 2.75; 26.38
2018-10-10 17:15:42; 355.00; 2.75; 26.38
2018-10-10 17:15:55; 354.00; 2.76; 26.44
2018-10-10 17:30:09; 355.00; 2.75; 26.25
2018-10-10 17:30:21; 355.00; 2.75; 26.25
2018-10-10 17:30:34; 354.00; 2.75; 26.25
2018-10-10 17:30:46; 355.00; 2.75; 26.31
2018-10-10 17:30:58; 356.00; 2.74; 26.31
2018-10-10 17:45:01; 355.00; 2.75; 26.25
2018-10-10 17:45:13; 355.00; 2.75; 26.19
2018-10-10 17:45:26; 355.00; 2.75; 26.25
2018-10-10 17:45:38; 355.00; 2.75; 26.25
2018-10-10 17:45:51; 355.00; 2.75; 26.25
2018-10-10 18:00:04; 355.00; 2.75; 25.69
2018-10-10 18:00:17; 355.00; 2.75; 25.63
2018-10-10 18:00:29; 355.00; 2.75; 25.69
2018-10-10 18:00:42; 355.00; 2.75; 25.69
2018-10-10 18:00:54; 356.00; 2.74; 25.63
2018-10-10 18:15:08; 355.00; 2.75; 25.06
2018-10-10 18:15:21; 354.00; 2.76; 25.06
2018-10-10 18:15:33; 355.00; 2.75; 25.06
2018-10-10 18:15:45; 356.00; 2.74; 25.06
2018-10-10 18:15:58; 356.00; 2.74; 25.00
2018-10-10 18:30:01; 356.00; 2.74; 24.81
2018-10-10 18:30:13; 355.00; 2.75; 24.81
2018-10-10 18:30:26; 356.00; 2.75; 24.75
2018-10-10 18:30:38; 355.00; 2.75; 24.69
2018-10-10 18:30:50; 355.00; 2.75; 24.69
2018-10-10 18:45:04; 356.00; 2.74; 24.25
2018-10-10 18:45:17; 356.00; 2.74; 24.25
2018-10-10 18:45:29; 356.00; 2.74; 24.25
2018-10-10 18:45:42; 356.00; 2.75; 24.31
2018-10-10 18:45:54; 356.00; 2.74; 24.25
2018-10-10 19:00:08; 356.00; 2.74; 23.50
2018-10-10 19:00:21; 357.00; 2.73; 23.50
2018-10-10 19:00:33; 357.00; 2.73; 23.50
2018-10-10 19:00:46; 356.00; 2.74; 23.38
2018-10-10 19:00:58; 356.00; 2.74; 23.38
2018-10-10 19:15:01; 356.00; 2.74; 22.69
2018-10-10 19:15:13; 356.00; 2.73; 22.63
2018-10-10 19:15:26; 356.00; 2.74; 22.63
2018-10-10 19:15:38; 357.00; 2.73; 22.56
2018-10-10 19:15:50; 357.00; 2.73; 22.56
2018-10-10 19:30:04; 357.00; 2.73; 21.44
2018-10-10 19:30:17; 357.00; 2.73; 21.44
2018-10-10 19:30:29; 357.00; 2.73; 21.44
2018-10-10 19:30:42; 356.00; 2.74; 21.38
2018-10-10 19:30:54; 356.00; 2.74; 21.38
2018-10-10 19:45:09; 357.00; 2.73; 19.56
2018-10-10 19:45:21; 358.00; 2.72; 19.50
2018-10-10 19:45:34; 357.00; 2.73; 19.50
2018-10-10 19:45:46; 357.00; 2.73; 19.50
2018-10-10 19:45:59; 356.00; 2.74; 19.50
2018-10-10 20:00:01; 357.00; 2.73; 18.50
2018-10-10 20:00:14; 357.00; 2.73; 18.44
2018-10-10 20:00:26; 357.00; 2.73; 18.44
2018-10-10 20:00:39; 357.00; 2.73; 18.44
2018-10-10 20:00:51; 356.00; 2.74; 18.44
2018-10-10 20:15:06; 357.00; 2.73; 17.75
2018-10-10 20:15:18; 358.00; 2.72; 17.75
2018-10-10 20:15:30; 357.00; 2.73; 17.69
2018-10-10 20:15:43; 357.00; 2.73; 17.69
2018-10-10 20:15:55; 357.00; 2.73; 17.69
2018-10-10 20:30:10; 357.00; 2.73; 17.25
2018-10-10 20:30:22; 357.00; 2.73; 17.25
2018-10-10 20:30:35; 357.00; 2.73; 17.25
2018-10-10 20:30:47; 357.00; 2.73; 17.25
2018-10-10 20:31:00; 357.00; 2.73; 17.25
2018-10-10 20:45:03; 357.00; 2.73; 16.88
2018-10-10 20:45:15; 357.00; 2.73; 16.88
2018-10-10 20:45:27; 357.00; 2.73; 16.88
2018-10-10 20:45:40; 357.00; 2.73; 16.88
2018-10-10 20:45:52; 357.00; 2.73; 16.88
2018-10-10 21:00:07; 356.00; 2.74; 16.50
2018-10-10 21:00:19; 356.00; 2.74; 16.50
2018-10-10 21:00:32; 356.00; 2.74; 16.50
2018-10-10 21:00:44; 356.00; 2.74; 16.50
2018-10-10 21:00:56; 356.00; 2.74; 16.50
2018-10-10 21:15:11; 356.00; 2.74; 16.25
2018-10-10 21:15:23; 357.00; 2.73; 16.25
2018-10-10 21:15:36; 357.00; 2.74; 16.25
2018-10-10 21:15:48; 357.00; 2.73; 16.25
2018-10-10 21:30:01; 358.00; 2.73; 15.88
2018-10-10 21:30:13; 358.00; 2.73; 15.88
2018-10-10 21:30:26; 358.00; 2.73; 15.94
2018-10-10 21:30:38; 357.00; 2.74; 15.88
2018-10-10 21:30:51; 357.00; 2.73; 15.88
2018-10-10 21:45:03; 358.00; 2.72; 15.75
2018-10-10 21:45:16; 358.00; 2.73; 15.75
2018-10-10 21:45:28; 357.00; 2.73; 15.75
2018-10-10 21:45:41; 357.00; 2.74; 15.75
2018-10-10 21:45:53; 357.00; 2.74; 15.75
2018-10-10 22:00:07; 358.00; 2.72; 15.56
2018-10-10 22:00:19; 358.00; 2.72; 15.63
2018-10-10 22:00:31; 358.00; 2.72; 15.63
2018-10-10 22:00:44; 358.00; 2.72; 15.63
2018-10-10 22:00:56; 358.00; 2.72; 15.56
2018-10-10 22:15:11; 358.00; 2.72; 15.63
2018-10-10 22:15:23; 358.00; 2.72; 15.63
2018-10-10 22:15:36; 358.00; 2.72; 15.63
2018-10-10 22:15:48; 358.00; 2.73; 15.63
2018-10-10 22:30:03; 358.00; 2.72; 15.63
2018-10-10 22:30:15; 358.00; 2.72; 15.63
2018-10-10 22:30:28; 358.00; 2.72; 15.63
2018-10-10 22:30:40; 358.00; 2.72; 15.63
2018-10-10 22:30:53; 358.00; 2.72; 15.63
2018-10-10 22:45:07; 358.00; 2.72; 15.56
2018-10-10 22:45:20; 358.00; 2.72; 15.56
2018-10-10 22:45:32; 359.00; 2.71; 15.56
2018-10-10 22:45:45; 358.00; 2.72; 15.56
2018-10-10 22:45:57; 358.00; 2.72; 15.56
2018-10-10 23:00:12; 358.00; 2.72; 15.56
2018-10-10 23:00:24; 358.00; 2.72; 15.56
2018-10-10 23:00:36; 358.00; 2.73; 15.56
2018-10-10 23:00:49; 358.00; 2.73; 15.56
2018-10-10 23:15:03; 358.00; 2.72; 15.25
2018-10-10 23:15:16; 358.00; 2.72; 15.25
2018-10-10 23:15:28; 358.00; 2.72; 15.25
2018-10-10 23:15:41; 358.00; 2.72; 15.25
2018-10-10 23:15:53; 358.00; 2.72; 15.25
2018-10-10 23:30:08; 358.00; 2.72; 15.13
2018-10-10 23:30:20; 359.00; 2.71; 15.13
2018-10-10 23:30:33; 359.00; 2.71; 15.13
2018-10-10 23:30:45; 358.00; 2.71; 15.13
2018-10-10 23:30:57; 358.00; 2.72; 15.06
2018-10-10 23:45:12; 358.00; 2.72; 14.94
2018-10-10 23:45:24; 359.00; 2.71; 14.94
2018-10-10 23:45:37; 359.00; 2.71; 14.94
2018-10-10 23:45:49; 359.00; 2.71; 14.94
