2018-08-21 00:00:04; 412.00; 2.18; 5.00
2018-08-21 00:00:16; 412.00; 2.18; 5.00
2018-08-21 00:00:28; 412.00; 2.18; 4.94
2018-08-21 00:00:41; 412.00; 2.18; 4.94
2018-08-21 00:00:53; 412.00; 2.18; 4.94
2018-08-21 00:15:08; 412.00; 2.18; 5.44
2018-08-21 00:15:21; 412.00; 2.18; 5.38
2018-08-21 00:15:33; 412.00; 2.18; 5.38
2018-08-21 00:15:45; 412.00; 2.18; 5.38
2018-08-21 00:15:58; 412.00; 2.18; 5.38
2018-08-21 00:30:02; 412.00; 2.18; 5.00
2018-08-21 00:30:14; 412.00; 2.18; 5.00
2018-08-21 00:30:27; 412.00; 2.18; 5.00
2018-08-21 00:30:39; 412.00; 2.18; 5.00
2018-08-21 00:30:51; 412.00; 2.18; 5.00
2018-08-21 00:45:07; 412.00; 2.18; 4.81
2018-08-21 00:45:19; 412.00; 2.18; 4.81
2018-08-21 00:45:31; 412.00; 2.18; 4.81
2018-08-21 00:45:44; 412.00; 2.18; 4.81
2018-08-21 00:45:56; 412.00; 2.18; 4.81
2018-08-21 01:00:11; 412.00; 2.18; 4.75
2018-08-21 01:00:24; 412.00; 2.18; 4.75
2018-08-21 01:00:36; 412.00; 2.18; 4.75
2018-08-21 01:00:49; 412.00; 2.18; 4.69
2018-08-21 01:15:04; 412.00; 2.18; 4.56
2018-08-21 01:15:16; 412.00; 2.18; 4.56
2018-08-21 01:15:29; 412.00; 2.18; 4.56
2018-08-21 01:15:41; 412.00; 2.18; 4.50
2018-08-21 01:15:54; 412.00; 2.18; 4.50
2018-08-21 01:30:09; 412.00; 2.18; 4.50
2018-08-21 01:30:21; 412.00; 2.18; 4.50
2018-08-21 01:30:33; 412.00; 2.18; 4.50
2018-08-21 01:30:46; 412.00; 2.18; 4.56
2018-08-21 01:30:58; 412.00; 2.18; 4.56
2018-08-21 01:45:02; 412.00; 2.18; 4.50
2018-08-21 01:45:15; 413.00; 2.18; 4.50
2018-08-21 01:45:27; 413.00; 2.17; 4.44
2018-08-21 01:45:39; 412.00; 2.18; 4.44
2018-08-21 01:45:52; 412.00; 2.18; 4.44
2018-08-21 02:00:07; 412.00; 2.18; 4.44
2018-08-21 02:00:20; 413.00; 2.17; 4.38
2018-08-21 02:00:32; 413.00; 2.18; 4.38
2018-08-21 02:00:45; 412.00; 2.18; 4.38
2018-08-21 02:00:57; 412.00; 2.18; 4.38
2018-08-21 02:15:01; 413.00; 2.17; 4.50
2018-08-21 02:15:13; 413.00; 2.17; 4.50
2018-08-21 02:15:26; 413.00; 2.17; 4.44
2018-08-21 02:15:38; 413.00; 2.17; 4.44
2018-08-21 02:15:50; 413.00; 2.17; 4.44
2018-08-21 02:30:06; 412.00; 2.18; 4.13
2018-08-21 02:30:18; 413.00; 2.17; 4.13
2018-08-21 02:30:31; 412.00; 2.18; 4.13
2018-08-21 02:30:43; 413.00; 2.17; 4.13
2018-08-21 02:30:56; 413.00; 2.17; 4.13
2018-08-21 02:45:11; 413.00; 2.17; 3.94
2018-08-21 02:45:23; 413.00; 2.17; 3.94
2018-08-21 02:45:36; 413.00; 2.17; 3.94
2018-08-21 02:45:48; 413.00; 2.17; 3.94
2018-08-21 03:00:05; 412.00; 2.18; 3.75
2018-08-21 03:00:17; 412.00; 2.18; 3.75
2018-08-21 03:00:29; 413.00; 2.17; 3.75
2018-08-21 03:00:42; 413.00; 2.17; 3.75
2018-08-21 03:00:54; 413.00; 2.17; 3.75
2018-08-21 03:15:11; 413.00; 2.17; 3.69
2018-08-21 03:15:24; 413.00; 2.17; 3.69
2018-08-21 03:15:36; 413.00; 2.17; 3.75
2018-08-21 03:15:48; 413.00; 2.17; 3.69
2018-08-21 03:30:05; 412.00; 2.18; 4.25
2018-08-21 03:30:17; 413.00; 2.17; 4.25
2018-08-21 03:30:30; 412.00; 2.18; 4.25
2018-08-21 03:30:42; 412.00; 2.18; 4.25
2018-08-21 03:30:54; 413.00; 2.18; 4.25
2018-08-21 03:45:11; 412.00; 2.17; 3.63
2018-08-21 03:45:23; 413.00; 2.17; 3.63
2018-08-21 03:45:36; 412.00; 2.17; 3.63
2018-08-21 03:45:48; 413.00; 2.17; 3.63
2018-08-21 03:46:00; 413.00; 2.17; 3.63
2018-08-21 04:00:05; 413.00; 2.17; 3.75
2018-08-21 04:00:18; 412.00; 2.17; 3.75
2018-08-21 04:00:30; 412.00; 2.18; 3.75
2018-08-21 04:00:43; 412.00; 2.18; 3.69
2018-08-21 04:00:55; 412.00; 2.18; 3.75
2018-08-21 04:15:11; 413.00; 2.17; 3.31
2018-08-21 04:15:24; 413.00; 2.17; 3.31
2018-08-21 04:15:36; 413.00; 2.17; 3.31
2018-08-21 04:15:49; 413.00; 2.17; 3.31
2018-08-21 04:30:05; 412.00; 2.18; 3.19
2018-08-21 04:30:18; 412.00; 2.18; 3.19
2018-08-21 04:30:30; 414.00; 2.15; 3.19
2018-08-21 04:30:42; 412.00; 2.18; 3.19
2018-08-21 04:30:55; 412.00; 2.17; 3.19
2018-08-21 04:45:11; 413.00; 2.17; 3.19
2018-08-21 04:45:24; 413.00; 2.17; 3.19
2018-08-21 04:45:36; 411.00; 2.19; 3.19
2018-08-21 04:45:49; 412.00; 2.17; 3.19
2018-08-21 05:00:05; 413.00; 2.17; 3.06
2018-08-21 05:00:18; 412.00; 2.18; 3.06
2018-08-21 05:00:30; 413.00; 2.17; 3.06
2018-08-21 05:00:42; 413.00; 2.17; 3.06
2018-08-21 05:00:55; 412.00; 2.18; 3.06
2018-08-21 05:15:11; 413.00; 2.17; 3.13
2018-08-21 05:15:24; 413.00; 2.17; 3.13
2018-08-21 05:15:36; 413.00; 2.17; 3.13
2018-08-21 05:15:48; 412.00; 2.18; 3.13
2018-08-21 05:30:05; 413.00; 2.17; 3.00
2018-08-21 05:30:17; 413.00; 2.17; 3.00
2018-08-21 05:30:29; 412.00; 2.18; 3.00
2018-08-21 05:30:42; 413.00; 2.17; 3.00
2018-08-21 05:30:54; 413.00; 2.17; 3.00
2018-08-21 05:45:10; 413.00; 2.17; 2.88
2018-08-21 05:45:23; 413.00; 2.17; 2.94
2018-08-21 05:45:35; 413.00; 2.17; 2.94
2018-08-21 05:45:47; 413.00; 2.17; 2.88
2018-08-21 05:46:00; 413.00; 2.17; 2.88
2018-08-21 06:00:04; 413.00; 2.17; 2.75
2018-08-21 06:00:17; 413.00; 2.17; 2.75
2018-08-21 06:00:29; 413.00; 2.17; 2.75
2018-08-21 06:00:41; 413.00; 2.17; 2.75
2018-08-21 06:00:54; 413.00; 2.17; 2.75
2018-08-21 06:15:09; 413.00; 2.17; 2.56
2018-08-21 06:15:22; 413.00; 2.17; 2.56
2018-08-21 06:15:34; 413.00; 2.17; 2.56
2018-08-21 06:15:47; 413.00; 2.17; 2.56
2018-08-21 06:15:59; 413.00; 2.17; 2.50
2018-08-21 06:30:03; 413.00; 2.17; 2.31
2018-08-21 06:30:16; 413.00; 2.17; 2.31
2018-08-21 06:30:28; 413.00; 2.17; 2.31
2018-08-21 06:30:41; 412.00; 2.17; 2.31
2018-08-21 06:30:53; 413.00; 2.17; 2.31
2018-08-21 06:45:09; 412.00; 2.18; 2.13
2018-08-21 06:45:21; 413.00; 2.17; 2.13
2018-08-21 06:45:34; 413.00; 2.17; 2.13
2018-08-21 06:45:46; 412.00; 2.18; 2.13
2018-08-21 06:45:58; 413.00; 2.17; 2.13
2018-08-21 07:00:03; 412.00; 2.18; 1.94
2018-08-21 07:00:15; 412.00; 2.17; 1.94
2018-08-21 07:00:28; 412.00; 2.18; 1.94
2018-08-21 07:00:40; 412.00; 2.18; 1.94
2018-08-21 07:00:53; 412.00; 2.17; 1.94
2018-08-21 07:15:09; 413.00; 2.17; 1.63
2018-08-21 07:15:21; 413.00; 2.16; 1.69
2018-08-21 07:15:33; 412.00; 2.17; 1.69
2018-08-21 07:15:46; 412.00; 2.18; 1.69
2018-08-21 07:15:58; 413.00; 2.17; 1.69
2018-08-21 07:30:03; 413.00; 2.17; 1.69
2018-08-21 07:30:15; 412.00; 2.18; 1.69
2018-08-21 07:30:28; 412.00; 2.18; 1.69
2018-08-21 07:30:40; 412.00; 2.18; 1.69
2018-08-21 07:30:52; 412.00; 2.18; 1.69
2018-08-21 07:45:08; 412.00; 2.18; 1.69
2018-08-21 07:45:21; 412.00; 2.18; 1.69
2018-08-21 07:45:33; 412.00; 2.18; 1.69
2018-08-21 07:45:46; 412.00; 2.18; 1.69
2018-08-21 07:45:58; 412.00; 2.18; 1.69
2018-08-21 08:00:02; 412.00; 2.18; 1.69
2018-08-21 08:00:15; 412.00; 2.17; 1.69
2018-08-21 08:00:27; 412.00; 2.18; 1.69
2018-08-21 08:00:40; 412.00; 2.17; 1.69
2018-08-21 08:00:52; 412.00; 2.18; 1.75
2018-08-21 08:15:08; 412.00; 2.17; 1.88
2018-08-21 08:15:20; 412.00; 2.18; 1.88
2018-08-21 08:15:33; 412.00; 2.17; 1.88
2018-08-21 08:15:45; 412.00; 2.17; 1.88
2018-08-21 08:15:57; 411.00; 2.19; 1.88
2018-08-21 08:30:02; 412.00; 2.17; 2.06
2018-08-21 08:30:15; 412.00; 2.18; 2.06
2018-08-21 08:30:27; 413.00; 2.17; 2.06
2018-08-21 08:30:39; 413.00; 2.18; 2.06
2018-08-21 08:30:52; 412.00; 2.18; 2.06
2018-08-21 08:45:07; 413.00; 2.17; 2.44
2018-08-21 08:45:20; 412.00; 2.18; 2.50
2018-08-21 08:45:32; 412.00; 2.18; 2.50
2018-08-21 08:45:45; 412.00; 2.18; 2.50
2018-08-21 08:45:57; 412.00; 2.18; 2.50
2018-08-21 09:00:01; 412.00; 2.18; 3.19
2018-08-21 09:00:14; 412.00; 2.18; 3.19
2018-08-21 09:00:26; 412.00; 2.18; 3.25
2018-08-21 09:00:38; 412.00; 2.18; 3.25
2018-08-21 09:00:51; 412.00; 2.18; 3.25
2018-08-21 09:15:07; 412.00; 2.18; 4.69
2018-08-21 09:15:19; 411.00; 2.19; 4.69
2018-08-21 09:15:32; 411.00; 2.19; 4.69
2018-08-21 09:15:44; 412.00; 2.18; 4.69
2018-08-21 09:15:56; 412.00; 2.18; 4.69
2018-08-21 09:30:12; 411.00; 2.19; 7.25
2018-08-21 09:30:24; 411.00; 2.19; 7.31
2018-08-21 09:30:37; 411.00; 2.19; 7.44
2018-08-21 09:30:49; 411.00; 2.19; 7.50
2018-08-21 09:45:04; 411.00; 2.19; 10.56
2018-08-21 09:45:16; 410.00; 2.20; 10.56
2018-08-21 09:45:29; 411.00; 2.19; 10.63
2018-08-21 09:45:41; 410.00; 2.20; 10.63
2018-08-21 09:45:54; 410.00; 2.20; 10.63
2018-08-21 10:00:09; 411.00; 2.19; 12.63
2018-08-21 10:00:21; 410.00; 2.20; 12.69
2018-08-21 10:00:33; 411.00; 2.19; 12.75
2018-08-21 10:00:46; 411.00; 2.19; 12.81
2018-08-21 10:00:58; 410.00; 2.20; 12.81
2018-08-21 10:15:02; 410.00; 2.20; 14.44
2018-08-21 10:15:14; 410.00; 2.20; 14.44
2018-08-21 10:15:26; 410.00; 2.20; 14.56
2018-08-21 10:15:39; 410.00; 2.20; 14.56
2018-08-21 10:15:51; 410.00; 2.20; 14.63
2018-08-21 10:30:05; 410.00; 2.20; 15.06
2018-08-21 10:30:17; 410.00; 2.20; 15.13
2018-08-21 10:30:30; 409.00; 2.21; 15.13
2018-08-21 10:30:42; 409.00; 2.21; 15.19
2018-08-21 10:30:54; 410.00; 2.20; 15.19
2018-08-21 10:45:09; 408.00; 2.22; 15.13
2018-08-21 10:45:22; 407.00; 2.23; 15.13
2018-08-21 10:45:34; 408.00; 2.22; 15.13
2018-08-21 10:45:46; 408.00; 2.22; 15.13
2018-08-21 10:45:59; 409.00; 2.21; 15.00
2018-08-21 11:00:02; 408.00; 2.22; 15.44
2018-08-21 11:00:14; 408.00; 2.22; 15.44
2018-08-21 11:00:27; 408.00; 2.22; 15.50
2018-08-21 11:00:39; 408.00; 2.22; 15.56
2018-08-21 11:00:51; 407.00; 2.23; 15.44
2018-08-21 11:15:06; 408.00; 2.22; 16.06
2018-08-21 11:15:18; 408.00; 2.22; 16.13
2018-08-21 11:15:31; 408.00; 2.22; 16.19
2018-08-21 11:15:43; 408.00; 2.22; 16.25
2018-08-21 11:15:56; 408.00; 2.22; 16.31
2018-08-21 11:30:10; 408.00; 2.22; 16.56
2018-08-21 11:30:23; 408.00; 2.22; 16.63
2018-08-21 11:30:35; 408.00; 2.22; 16.63
2018-08-21 11:30:47; 408.00; 2.23; 16.63
2018-08-21 11:31:00; 408.00; 2.22; 16.63
2018-08-21 11:45:03; 408.00; 2.22; 16.69
2018-08-21 11:45:15; 408.00; 2.22; 16.75
2018-08-21 11:45:28; 408.00; 2.22; 16.69
2018-08-21 11:45:40; 408.00; 2.22; 16.75
2018-08-21 11:45:52; 408.00; 2.22; 16.75
2018-08-21 12:00:07; 407.00; 2.23; 17.19
2018-08-21 12:00:19; 407.00; 2.23; 17.25
2018-08-21 12:00:32; 407.00; 2.23; 17.25
2018-08-21 12:00:44; 407.00; 2.23; 17.31
2018-08-21 12:00:56; 407.00; 2.23; 17.25
2018-08-21 12:15:11; 408.00; 2.23; 17.50
2018-08-21 12:15:23; 408.00; 2.22; 17.38
2018-08-21 12:15:36; 407.00; 2.23; 17.25
2018-08-21 12:15:48; 407.00; 2.23; 17.19
2018-08-21 12:16:00; 407.00; 2.23; 17.25
2018-08-21 12:30:03; 407.00; 2.23; 17.06
2018-08-21 12:30:16; 407.00; 2.23; 17.19
2018-08-21 12:30:28; 407.00; 2.23; 17.19
2018-08-21 12:30:41; 407.00; 2.23; 17.19
2018-08-21 12:30:53; 407.00; 2.23; 17.19
2018-08-21 12:45:08; 408.00; 2.23; 17.25
2018-08-21 12:45:20; 407.00; 2.23; 17.25
2018-08-21 12:45:32; 407.00; 2.23; 17.19
2018-08-21 12:45:45; 407.00; 2.23; 17.13
2018-08-21 12:45:57; 407.00; 2.23; 17.06
2018-08-21 13:00:11; 407.00; 2.23; 18.19
2018-08-21 13:00:24; 407.00; 2.23; 18.06
2018-08-21 13:00:36; 407.00; 2.23; 18.06
2018-08-21 13:00:48; 408.00; 2.22; 18.00
2018-08-21 13:15:03; 407.00; 2.23; 17.63
2018-08-21 13:15:15; 407.00; 2.23; 17.63
2018-08-21 13:15:27; 407.00; 2.23; 17.56
2018-08-21 13:15:40; 406.00; 2.24; 17.63
2018-08-21 13:15:52; 406.00; 2.24; 17.69
2018-08-21 13:30:07; 407.00; 2.23; 17.69
2018-08-21 13:30:19; 407.00; 2.23; 17.75
2018-08-21 13:30:31; 407.00; 2.23; 17.69
2018-08-21 13:30:44; 407.00; 2.23; 17.63
2018-08-21 13:30:56; 407.00; 2.23; 17.50
2018-08-21 13:45:10; 406.00; 2.24; 18.44
2018-08-21 13:45:23; 406.00; 2.24; 18.44
2018-08-21 13:45:35; 405.00; 2.24; 18.50
2018-08-21 13:45:48; 406.00; 2.24; 18.44
2018-08-21 13:46:00; 406.00; 2.23; 18.31
2018-08-21 14:00:03; 406.00; 2.24; 18.81
2018-08-21 14:00:16; 407.00; 2.23; 18.88
2018-08-21 14:00:28; 407.00; 2.23; 18.81
2018-08-21 14:00:40; 406.00; 2.24; 18.81
2018-08-21 14:00:53; 406.00; 2.24; 18.81
2018-08-21 14:15:07; 406.00; 2.24; 18.81
2018-08-21 14:15:19; 406.00; 2.24; 18.75
2018-08-21 14:15:32; 406.00; 2.24; 18.75
2018-08-21 14:15:44; 406.00; 2.24; 18.81
2018-08-21 14:15:56; 407.00; 2.23; 18.81
2018-08-21 14:30:11; 406.00; 2.24; 18.75
2018-08-21 14:30:23; 406.00; 2.24; 18.75
2018-08-21 14:30:36; 406.00; 2.24; 18.81
2018-08-21 14:30:48; 406.00; 2.24; 18.81
2018-08-21 14:31:00; 406.00; 2.24; 18.88
2018-08-21 14:45:03; 406.00; 2.24; 19.31
2018-08-21 14:45:15; 406.00; 2.24; 19.31
2018-08-21 14:45:28; 405.00; 2.25; 19.31
2018-08-21 14:45:40; 406.00; 2.24; 19.31
2018-08-21 14:45:53; 405.00; 2.25; 19.31
2018-08-21 15:00:07; 405.00; 2.25; 20.06
2018-08-21 15:00:19; 405.00; 2.25; 20.13
2018-08-21 15:00:32; 405.00; 2.25; 20.13
2018-08-21 15:00:44; 406.00; 2.24; 20.06
2018-08-21 15:00:57; 406.00; 2.24; 20.06
2018-08-21 15:15:11; 406.00; 2.24; 19.81
2018-08-21 15:15:24; 406.00; 2.23; 19.88
2018-08-21 15:15:36; 406.00; 2.24; 19.94
2018-08-21 15:15:49; 406.00; 2.24; 19.94
2018-08-21 15:30:03; 405.00; 2.25; 19.81
2018-08-21 15:30:15; 405.00; 2.25; 19.88
2018-08-21 15:30:28; 405.00; 2.25; 19.75
2018-08-21 15:30:40; 405.00; 2.25; 19.81
2018-08-21 15:30:53; 405.00; 2.25; 19.81
2018-08-21 15:45:07; 406.00; 2.25; 20.44
2018-08-21 15:45:19; 405.00; 2.25; 20.50
2018-08-21 15:45:32; 406.00; 2.24; 20.50
2018-08-21 15:45:44; 405.00; 2.25; 20.50
2018-08-21 15:45:56; 405.00; 2.25; 20.50
2018-08-21 16:00:09; 405.00; 2.25; 20.75
2018-08-21 16:00:22; 405.00; 2.25; 20.50
2018-08-21 16:00:34; 406.00; 2.25; 20.31
2018-08-21 16:00:46; 405.00; 2.25; 20.38
2018-08-21 16:00:59; 405.00; 2.25; 20.38
2018-08-21 16:15:02; 405.00; 2.25; 21.31
2018-08-21 16:15:14; 405.00; 2.25; 21.38
2018-08-21 16:15:26; 405.00; 2.25; 21.38
2018-08-21 16:15:39; 405.00; 2.25; 21.38
2018-08-21 16:15:51; 405.00; 2.25; 21.31
2018-08-21 16:30:05; 405.00; 2.25; 20.94
2018-08-21 16:30:18; 405.00; 2.25; 21.00
2018-08-21 16:30:30; 405.00; 2.25; 21.00
2018-08-21 16:30:42; 405.00; 2.25; 21.00
2018-08-21 16:30:55; 405.00; 2.25; 21.06
2018-08-21 16:45:09; 404.00; 2.26; 21.94
2018-08-21 16:45:21; 404.00; 2.26; 22.00
2018-08-21 16:45:34; 404.00; 2.26; 21.75
2018-08-21 16:45:46; 405.00; 2.25; 21.50
2018-08-21 16:45:58; 404.00; 2.26; 21.31
2018-08-21 17:00:01; 405.00; 2.24; 20.63
2018-08-21 17:00:14; 406.00; 2.24; 20.63
2018-08-21 17:00:26; 405.00; 2.25; 20.56
2018-08-21 17:00:39; 405.00; 2.25; 20.50
2018-08-21 17:00:51; 405.00; 2.24; 20.56
2018-08-21 17:15:06; 405.00; 2.25; 21.69
2018-08-21 17:15:18; 405.00; 2.25; 21.69
2018-08-21 17:15:31; 405.00; 2.25; 21.63
2018-08-21 17:15:43; 405.00; 2.25; 21.63
2018-08-21 17:15:55; 405.00; 2.26; 21.63
2018-08-21 17:30:10; 405.00; 2.25; 21.38
2018-08-21 17:30:22; 405.00; 2.25; 21.44
2018-08-21 17:30:34; 405.00; 2.26; 21.44
2018-08-21 17:30:47; 405.00; 2.25; 21.44
2018-08-21 17:30:59; 405.00; 2.25; 21.50
2018-08-21 17:45:02; 405.00; 2.25; 20.50
2018-08-21 17:45:15; 404.00; 2.25; 20.50
2018-08-21 17:45:27; 405.00; 2.25; 20.44
2018-08-21 17:45:40; 406.00; 2.24; 20.44
2018-08-21 17:45:52; 405.00; 2.25; 20.44
2018-08-21 18:00:07; 405.00; 2.25; 19.13
2018-08-21 18:00:19; 405.00; 2.26; 19.13
2018-08-21 18:00:31; 405.00; 2.25; 19.19
2018-08-21 18:00:44; 404.00; 2.25; 19.06
2018-08-21 18:00:56; 406.00; 2.24; 19.13
2018-08-21 18:15:11; 405.00; 2.25; 20.06
2018-08-21 18:15:23; 405.00; 2.25; 20.06
2018-08-21 18:15:35; 405.00; 2.25; 20.06
2018-08-21 18:15:48; 405.00; 2.25; 20.06
2018-08-21 18:16:00; 405.00; 2.25; 20.06
2018-08-21 18:30:03; 405.00; 2.25; 19.50
2018-08-21 18:30:15; 404.00; 2.25; 19.50
2018-08-21 18:30:28; 405.00; 2.25; 19.44
2018-08-21 18:30:40; 405.00; 2.25; 19.38
2018-08-21 18:30:53; 405.00; 2.25; 19.44
2018-08-21 18:45:07; 405.00; 2.25; 18.56
2018-08-21 18:45:19; 405.00; 2.25; 18.50
2018-08-21 18:45:32; 405.00; 2.25; 18.50
2018-08-21 18:45:44; 405.00; 2.25; 18.50
2018-08-21 18:45:56; 405.00; 2.25; 18.44
2018-08-21 19:00:11; 404.00; 2.25; 15.94
2018-08-21 19:00:23; 404.00; 2.25; 15.88
2018-08-21 19:00:36; 404.00; 2.25; 15.88
2018-08-21 19:00:48; 404.00; 2.26; 15.88
2018-08-21 19:01:00; 404.00; 2.25; 15.81
2018-08-21 19:15:03; 406.00; 2.24; 13.06
2018-08-21 19:15:16; 405.00; 2.25; 13.00
2018-08-21 19:15:28; 405.00; 2.25; 13.00
2018-08-21 19:15:41; 405.00; 2.25; 12.94
2018-08-21 19:15:53; 405.00; 2.25; 12.88
2018-08-21 19:30:08; 405.00; 2.25; 11.13
2018-08-21 19:30:20; 405.00; 2.25; 11.06
2018-08-21 19:30:33; 405.00; 2.25; 11.06
2018-08-21 19:30:45; 406.00; 2.24; 11.06
2018-08-21 19:30:57; 405.00; 2.25; 11.06
2018-08-21 19:45:01; 405.00; 2.25; 10.38
2018-08-21 19:45:14; 405.00; 2.25; 10.38
2018-08-21 19:45:26; 405.00; 2.25; 10.38
2018-08-21 19:45:39; 405.00; 2.25; 10.38
2018-08-21 19:45:51; 405.00; 2.25; 10.38
2018-08-21 20:00:06; 405.00; 2.25; 10.06
2018-08-21 20:00:19; 405.00; 2.25; 10.06
2018-08-21 20:00:31; 405.00; 2.25; 10.13
2018-08-21 20:00:43; 405.00; 2.25; 10.13
2018-08-21 20:00:56; 405.00; 2.25; 10.13
2018-08-21 20:15:11; 405.00; 2.25; 9.75
2018-08-21 20:15:23; 405.00; 2.25; 9.75
2018-08-21 20:15:36; 405.00; 2.25; 9.81
2018-08-21 20:15:48; 405.00; 2.25; 9.75
2018-08-21 20:30:04; 405.00; 2.25; 9.63
2018-08-21 20:30:16; 405.00; 2.25; 9.56
2018-08-21 20:30:29; 405.00; 2.25; 9.56
2018-08-21 20:30:41; 405.00; 2.25; 9.56
2018-08-21 20:30:53; 405.00; 2.25; 9.56
2018-08-21 20:45:09; 405.00; 2.25; 9.38
2018-08-21 20:45:21; 405.00; 2.25; 9.38
2018-08-21 20:45:33; 405.00; 2.25; 9.38
2018-08-21 20:45:46; 405.00; 2.25; 9.38
2018-08-21 20:45:58; 405.00; 2.25; 9.38
2018-08-21 21:00:02; 405.00; 2.25; 9.31
2018-08-21 21:00:15; 405.00; 2.25; 9.31
2018-08-21 21:00:27; 405.00; 2.25; 9.31
2018-08-21 21:00:39; 405.00; 2.25; 9.31
2018-08-21 21:00:52; 405.00; 2.25; 9.31
2018-08-21 21:15:07; 404.00; 2.26; 9.75
2018-08-21 21:15:20; 405.00; 2.25; 9.75
2018-08-21 21:15:32; 404.00; 2.26; 9.75
2018-08-21 21:15:44; 405.00; 2.25; 9.75
2018-08-21 21:15:57; 404.00; 2.26; 9.75
2018-08-21 21:30:01; 404.00; 2.26; 9.69
2018-08-21 21:30:13; 404.00; 2.26; 9.69
2018-08-21 21:30:25; 405.00; 2.26; 9.69
2018-08-21 21:30:38; 404.00; 2.26; 9.69
2018-08-21 21:30:50; 404.00; 2.26; 9.63
2018-08-21 21:45:06; 405.00; 2.25; 9.38
2018-08-21 21:45:18; 405.00; 2.25; 9.38
2018-08-21 21:45:30; 405.00; 2.25; 9.38
2018-08-21 21:45:43; 405.00; 2.25; 9.38
2018-08-21 21:45:55; 405.00; 2.25; 9.31
2018-08-21 22:00:11; 405.00; 2.25; 9.00
2018-08-21 22:00:23; 405.00; 2.25; 9.00
2018-08-21 22:00:35; 405.00; 2.25; 9.00
2018-08-21 22:00:48; 405.00; 2.25; 9.00
2018-08-21 22:01:00; 405.00; 2.25; 9.00
2018-08-21 22:15:04; 405.00; 2.25; 8.63
2018-08-21 22:15:16; 405.00; 2.25; 8.63
2018-08-21 22:15:29; 405.00; 2.25; 8.63
2018-08-21 22:15:41; 405.00; 2.25; 8.63
2018-08-21 22:15:54; 405.00; 2.25; 8.63
2018-08-21 22:30:09; 405.00; 2.25; 8.25
2018-08-21 22:30:21; 405.00; 2.25; 8.25
2018-08-21 22:30:34; 405.00; 2.25; 8.25
2018-08-21 22:30:46; 405.00; 2.25; 8.25
2018-08-21 22:30:59; 405.00; 2.25; 8.25
2018-08-21 22:45:03; 406.00; 2.24; 7.75
2018-08-21 22:45:15; 406.00; 2.24; 7.75
2018-08-21 22:45:28; 406.00; 2.24; 7.75
2018-08-21 22:45:40; 406.00; 2.24; 7.75
2018-08-21 22:45:52; 406.00; 2.24; 7.75
2018-08-21 23:00:08; 405.00; 2.25; 7.50
2018-08-21 23:00:20; 406.00; 2.25; 7.50
2018-08-21 23:00:33; 406.00; 2.24; 7.50
2018-08-21 23:00:45; 406.00; 2.24; 7.50
2018-08-21 23:00:57; 406.00; 2.24; 7.50
2018-08-21 23:15:01; 406.00; 2.25; 7.56
2018-08-21 23:15:14; 405.00; 2.25; 7.63
2018-08-21 23:15:26; 406.00; 2.25; 7.56
2018-08-21 23:15:39; 405.00; 2.25; 7.56
2018-08-21 23:15:51; 405.00; 2.25; 7.63
2018-08-21 23:30:07; 405.00; 2.25; 7.56
2018-08-21 23:30:19; 405.00; 2.25; 7.56
2018-08-21 23:30:31; 406.00; 2.24; 7.56
2018-08-21 23:30:44; 406.00; 2.24; 7.56
2018-08-21 23:30:56; 407.00; 2.25; 7.56
2018-08-21 23:45:12; 405.00; 2.24; 7.31
2018-08-21 23:45:24; 406.00; 2.24; 7.31
2018-08-21 23:45:37; 406.00; 2.24; 7.31
2018-08-21 23:45:49; 406.00; 2.24; 7.31
