2018-07-30 00:00:07; 412.00; 2.18; 8.25
2018-07-30 00:00:20; 412.00; 2.18; 8.25
2018-07-30 00:00:32; 412.00; 2.18; 8.31
2018-07-30 00:00:44; 412.00; 2.18; 8.25
2018-07-30 00:00:57; 412.00; 2.18; 8.25
2018-07-30 00:15:01; 412.00; 2.18; 8.00
2018-07-30 00:15:14; 413.00; 2.17; 8.00
2018-07-30 00:15:26; 413.00; 2.17; 8.00
2018-07-30 00:15:39; 412.00; 2.18; 8.00
2018-07-30 00:15:51; 412.00; 2.18; 8.00
2018-07-30 00:30:07; 412.00; 2.18; 8.19
2018-07-30 00:30:19; 413.00; 2.17; 8.19
2018-07-30 00:30:32; 413.00; 2.17; 8.19
2018-07-30 00:30:44; 413.00; 2.17; 8.25
2018-07-30 00:30:57; 412.00; 2.18; 8.25
2018-07-30 00:45:01; 413.00; 2.17; 8.19
2018-07-30 00:45:14; 413.00; 2.17; 8.19
2018-07-30 00:45:26; 412.00; 2.18; 8.19
2018-07-30 00:45:38; 413.00; 2.17; 8.19
2018-07-30 00:45:51; 413.00; 2.17; 8.19
2018-07-30 01:00:07; 413.00; 2.17; 7.81
2018-07-30 01:00:19; 413.00; 2.17; 7.81
2018-07-30 01:00:32; 413.00; 2.17; 7.81
2018-07-30 01:00:44; 413.00; 2.17; 7.81
2018-07-30 01:00:56; 413.00; 2.17; 7.81
2018-07-30 01:15:01; 413.00; 2.17; 7.81
2018-07-30 01:15:13; 412.00; 2.18; 7.81
2018-07-30 01:15:26; 413.00; 2.17; 7.75
2018-07-30 01:15:38; 413.00; 2.17; 7.75
2018-07-30 01:15:51; 413.00; 2.17; 7.75
2018-07-30 01:30:06; 414.00; 2.16; 7.38
2018-07-30 01:30:19; 412.00; 2.18; 7.38
2018-07-30 01:30:31; 413.00; 2.17; 7.38
2018-07-30 01:30:44; 413.00; 2.17; 7.31
2018-07-30 01:30:56; 412.00; 2.18; 7.31
2018-07-30 01:45:01; 413.00; 2.17; 6.88
2018-07-30 01:45:13; 413.00; 2.17; 6.88
2018-07-30 01:45:26; 413.00; 2.17; 6.88
2018-07-30 01:45:38; 411.00; 2.19; 6.88
2018-07-30 01:45:50; 413.00; 2.17; 6.88
2018-07-30 02:00:06; 411.00; 2.18; 6.94
2018-07-30 02:00:19; 411.00; 2.19; 6.94
2018-07-30 02:00:31; 411.00; 2.19; 6.94
2018-07-30 02:00:44; 410.00; 2.19; 6.88
2018-07-30 02:00:56; 411.00; 2.19; 6.94
2018-07-30 02:15:01; 412.00; 2.18; 6.69
2018-07-30 02:15:13; 410.00; 2.20; 6.69
2018-07-30 02:15:26; 411.00; 2.19; 6.69
2018-07-30 02:15:38; 411.00; 2.19; 6.69
2018-07-30 02:15:50; 412.00; 2.18; 6.69
2018-07-30 02:30:06; 411.00; 2.19; 6.69
2018-07-30 02:30:19; 411.00; 2.19; 6.69
2018-07-30 02:30:31; 410.00; 2.20; 6.69
2018-07-30 02:30:44; 412.00; 2.18; 6.69
2018-07-30 02:30:56; 412.00; 2.18; 6.75
2018-07-30 02:45:01; 410.00; 2.20; 6.81
2018-07-30 02:45:13; 413.00; 2.17; 6.81
2018-07-30 02:45:26; 412.00; 2.18; 6.81
2018-07-30 02:45:38; 412.00; 2.18; 6.81
2018-07-30 02:45:50; 410.00; 2.20; 6.81
2018-07-30 03:00:06; 412.00; 2.18; 6.81
2018-07-30 03:00:19; 412.00; 2.18; 6.75
2018-07-30 03:00:31; 412.00; 2.18; 6.75
2018-07-30 03:00:44; 412.00; 2.18; 6.75
2018-07-30 03:00:56; 410.00; 2.20; 6.75
2018-07-30 03:15:01; 412.00; 2.18; 7.00
2018-07-30 03:15:13; 412.00; 2.18; 7.00
2018-07-30 03:15:26; 412.00; 2.18; 7.00
2018-07-30 03:15:38; 412.00; 2.18; 7.00
2018-07-30 03:15:50; 412.00; 2.18; 7.00
2018-07-30 03:30:06; 413.00; 2.17; 7.25
2018-07-30 03:30:19; 413.00; 2.17; 7.25
2018-07-30 03:30:31; 413.00; 2.17; 7.19
2018-07-30 03:30:44; 413.00; 2.17; 7.19
2018-07-30 03:30:56; 413.00; 2.17; 7.19
2018-07-30 03:45:12; 413.00; 2.17; 6.81
2018-07-30 03:45:24; 413.00; 2.17; 6.81
2018-07-30 03:45:37; 762.00; -1.32; 6.75
2018-07-30 03:45:49; 412.00; 2.17; 6.75
2018-07-30 04:00:05; 410.00; 2.20; 6.19
2018-07-30 04:00:17; 410.00; 2.20; 6.19
2018-07-30 04:00:30; 411.00; 2.19; 6.19
2018-07-30 04:00:42; 411.00; 2.19; 6.13
2018-07-30 04:00:55; 411.00; 2.19; 6.13
2018-07-30 04:15:11; 412.00; 2.18; 6.19
2018-07-30 04:15:23; 412.00; 2.18; 6.25
2018-07-30 04:15:35; 412.00; 2.18; 6.25
2018-07-30 04:15:48; 412.00; 2.18; 6.25
2018-07-30 04:16:00; 412.00; 2.18; 6.25
2018-07-30 04:30:05; 412.00; 2.18; 6.13
2018-07-30 04:30:17; 412.00; 2.18; 6.13
2018-07-30 04:30:30; 413.00; 2.17; 6.13
2018-07-30 04:30:42; 413.00; 2.17; 6.13
2018-07-30 04:30:54; 413.00; 2.17; 6.13
2018-07-30 04:45:11; 413.00; 2.17; 6.25
2018-07-30 04:45:23; 413.00; 2.17; 6.25
2018-07-30 04:45:35; 413.00; 2.17; 6.25
2018-07-30 04:45:48; 413.00; 2.17; 6.25
2018-07-30 04:46:00; 413.00; 2.17; 6.25
2018-07-30 05:00:05; 413.00; 2.17; 6.13
2018-07-30 05:00:17; 413.00; 2.17; 6.06
2018-07-30 05:00:30; 413.00; 2.17; 6.06
2018-07-30 05:00:42; 413.00; 2.17; 6.06
2018-07-30 05:00:54; 413.00; 2.17; 6.06
2018-07-30 05:15:11; 414.00; 2.16; 5.88
2018-07-30 05:15:23; 414.00; 2.16; 5.88
2018-07-30 05:15:35; 414.00; 2.16; 5.88
2018-07-30 05:15:48; 414.00; 2.16; 5.88
2018-07-30 05:16:00; 414.00; 2.16; 5.88
2018-07-30 05:30:05; 413.00; 2.17; 5.94
2018-07-30 05:30:17; 413.00; 2.17; 5.94
2018-07-30 05:30:29; 413.00; 2.17; 5.94
2018-07-30 05:30:42; 413.00; 2.17; 5.94
2018-07-30 05:30:54; 413.00; 2.17; 5.94
2018-07-30 05:45:10; 414.00; 2.16; 5.75
2018-07-30 05:45:23; 414.00; 2.16; 5.75
2018-07-30 05:45:35; 414.00; 2.16; 5.75
2018-07-30 05:45:48; 414.00; 2.16; 5.75
2018-07-30 05:46:00; 414.00; 2.16; 5.81
2018-07-30 06:00:05; 414.00; 2.16; 5.81
2018-07-30 06:00:17; 414.00; 2.16; 5.81
2018-07-30 06:00:29; 414.00; 2.16; 5.81
2018-07-30 06:00:42; 414.00; 2.16; 5.81
2018-07-30 06:00:54; 414.00; 2.16; 5.81
2018-07-30 06:15:10; 415.00; 2.15; 5.81
2018-07-30 06:15:23; 415.00; 2.15; 5.75
2018-07-30 06:15:35; 414.00; 2.16; 5.75
2018-07-30 06:15:48; 414.00; 2.16; 5.75
2018-07-30 06:16:00; 414.00; 2.16; 5.75
2018-07-30 06:30:05; 415.00; 2.15; 5.94
2018-07-30 06:30:17; 415.00; 2.15; 5.94
2018-07-30 06:30:30; 415.00; 2.15; 5.94
2018-07-30 06:30:42; 415.00; 2.15; 5.94
2018-07-30 06:30:54; 415.00; 2.15; 5.94
2018-07-30 06:45:11; 414.00; 2.16; 5.94
2018-07-30 06:45:23; 414.00; 2.16; 6.00
2018-07-30 06:45:35; 414.00; 2.16; 5.94
2018-07-30 06:45:48; 414.00; 2.16; 6.00
2018-07-30 06:46:00; 414.00; 2.16; 6.00
2018-07-30 07:00:05; 415.00; 2.15; 6.06
2018-07-30 07:00:17; 414.00; 2.16; 6.06
2018-07-30 07:00:30; 415.00; 2.15; 6.06
2018-07-30 07:00:42; 412.00; 2.15; 6.06
2018-07-30 07:00:55; 414.00; 2.16; 6.06
2018-07-30 07:15:11; 415.00; 2.15; 5.69
2018-07-30 07:15:23; 415.00; 2.15; 5.69
2018-07-30 07:15:35; 415.00; 2.15; 5.69
2018-07-30 07:15:48; 415.00; 2.15; 5.69
2018-07-30 07:16:00; 415.00; 2.15; 5.69
2018-07-30 07:30:05; 416.00; 2.14; 5.56
2018-07-30 07:30:18; 416.00; 2.14; 5.56
2018-07-30 07:30:30; 416.00; 2.14; 5.56
2018-07-30 07:30:42; 416.00; 2.14; 5.56
2018-07-30 07:30:55; 416.00; 2.14; 5.56
2018-07-30 07:45:11; 416.00; 2.14; 5.06
2018-07-30 07:45:23; 416.00; 2.14; 5.00
2018-07-30 07:45:36; 416.00; 2.14; 5.00
2018-07-30 07:45:48; 416.00; 2.14; 5.00
2018-07-30 08:00:05; 416.00; 2.14; 4.94
2018-07-30 08:00:17; 417.00; 2.13; 4.94
2018-07-30 08:00:29; 417.00; 2.13; 4.94
2018-07-30 08:00:42; 417.00; 2.13; 4.94
2018-07-30 08:00:54; 416.00; 2.14; 4.94
2018-07-30 08:15:11; 416.00; 2.14; 4.69
2018-07-30 08:15:23; 416.00; 2.14; 4.69
2018-07-30 08:15:35; 414.00; 2.16; 4.75
2018-07-30 08:15:48; 414.00; 2.16; 4.69
2018-07-30 08:16:00; 414.00; 2.16; 4.69
2018-07-30 08:30:05; 416.00; 2.14; 4.88
2018-07-30 08:30:17; 415.00; 2.15; 4.88
2018-07-30 08:30:30; 416.00; 2.14; 4.88
2018-07-30 08:30:42; 416.00; 2.14; 4.88
2018-07-30 08:30:55; 416.00; 2.14; 4.88
2018-07-30 08:45:11; 415.00; 2.15; 5.06
2018-07-30 08:45:23; 414.00; 2.16; 5.06
2018-07-30 08:45:36; 415.00; 2.15; 5.00
2018-07-30 08:45:48; 415.00; 2.15; 5.06
2018-07-30 09:00:05; 417.00; 2.13; 5.25
2018-07-30 09:00:17; 415.00; 2.15; 5.25
2018-07-30 09:00:29; 415.00; 2.15; 5.31
2018-07-30 09:00:42; 415.00; 2.15; 5.25
2018-07-30 09:00:54; 415.00; 2.15; 5.25
2018-07-30 09:15:10; 415.00; 2.15; 5.44
2018-07-30 09:15:23; 415.00; 2.15; 5.44
2018-07-30 09:15:35; 415.00; 2.15; 5.44
2018-07-30 09:15:48; 415.00; 2.15; 5.44
2018-07-30 09:16:00; 415.00; 2.15; 5.44
2018-07-30 09:30:05; 415.00; 2.15; 6.00
2018-07-30 09:30:17; 416.00; 2.14; 6.00
2018-07-30 09:30:30; 416.00; 2.14; 6.06
2018-07-30 09:30:42; 416.00; 2.14; 6.06
2018-07-30 09:30:54; 416.00; 2.14; 6.06
2018-07-30 09:45:10; 416.00; 2.14; 7.19
2018-07-30 09:45:23; 416.00; 2.14; 7.19
2018-07-30 09:45:35; 416.00; 2.14; 7.19
2018-07-30 09:45:48; 415.00; 2.15; 7.25
2018-07-30 09:46:00; 415.00; 2.15; 7.25
2018-07-30 10:00:04; 414.00; 2.16; 12.38
2018-07-30 10:00:17; 409.00; 2.21; 12.44
2018-07-30 10:00:29; 411.00; 2.19; 12.50
2018-07-30 10:00:41; 410.00; 2.20; 12.63
2018-07-30 10:00:54; 410.00; 2.20; 12.75
2018-07-30 10:15:09; 414.00; 2.16; 14.94
2018-07-30 10:15:21; 414.00; 2.16; 14.94
2018-07-30 10:15:34; 414.00; 2.17; 14.94
2018-07-30 10:15:46; 412.00; 2.18; 15.00
2018-07-30 10:15:58; 412.00; 2.18; 15.13
2018-07-30 10:30:02; 408.00; 2.22; 15.69
2018-07-30 10:30:14; 411.00; 2.19; 15.69
2018-07-30 10:30:27; 408.00; 2.22; 15.75
2018-07-30 10:30:39; 409.00; 2.22; 15.75
2018-07-30 10:30:52; 408.00; 2.22; 15.75
2018-07-30 10:45:07; 762.00; -1.32; 16.25
2018-07-30 10:45:19; 762.00; -1.32; 16.31
2018-07-30 10:45:32; 409.00; 2.21; 16.25
2018-07-30 10:45:44; 409.00; 2.21; 16.19
2018-07-30 10:45:56; 409.00; 2.21; 16.13
2018-07-30 11:00:11; 410.00; 2.20; 16.25
2018-07-30 11:00:24; 410.00; 2.20; 16.25
2018-07-30 11:00:36; 410.00; 2.20; 16.25
2018-07-30 11:00:48; 409.00; 2.21; 16.25
2018-07-30 11:15:03; 409.00; 2.21; 16.50
2018-07-30 11:15:15; 409.00; 2.21; 16.50
2018-07-30 11:15:28; 410.00; 2.20; 16.56
2018-07-30 11:15:40; 410.00; 2.20; 16.50
2018-07-30 11:15:53; 410.00; 2.20; 16.50
2018-07-30 11:30:08; 409.00; 2.21; 17.75
2018-07-30 11:30:20; 409.00; 2.21; 17.75
2018-07-30 11:30:32; 409.00; 2.21; 17.69
2018-07-30 11:30:45; 409.00; 2.21; 17.69
2018-07-30 11:30:57; 409.00; 2.21; 17.63
2018-07-30 11:45:01; 408.00; 2.22; 19.06
2018-07-30 11:45:13; 409.00; 2.21; 19.06
2018-07-30 11:45:25; 407.00; 2.23; 19.06
2018-07-30 11:45:38; 407.00; 2.23; 19.00
2018-07-30 11:45:50; 408.00; 2.22; 19.06
2018-07-30 12:00:05; 406.00; 2.24; 18.19
2018-07-30 12:00:18; 405.00; 2.25; 18.25
2018-07-30 12:00:30; 406.00; 2.24; 18.19
2018-07-30 12:00:42; 408.00; 2.22; 18.19
2018-07-30 12:00:55; 405.00; 2.25; 18.19
2018-07-30 12:15:10; 409.00; 2.21; 19.94
2018-07-30 12:15:22; 409.00; 2.21; 19.94
2018-07-30 12:15:34; 410.00; 2.20; 19.94
2018-07-30 12:15:47; 406.00; 2.24; 19.94
2018-07-30 12:15:59; 406.00; 2.24; 19.94
2018-07-30 12:30:02; 406.00; 2.24; 20.94
2018-07-30 12:30:15; 406.00; 2.24; 20.88
2018-07-30 12:30:27; 406.00; 2.24; 20.81
2018-07-30 12:30:40; 406.00; 2.24; 20.81
2018-07-30 12:30:52; 406.00; 2.24; 20.75
2018-07-30 12:45:07; 404.00; 2.26; 20.75
2018-07-30 12:45:19; 404.00; 2.26; 20.88
2018-07-30 12:45:31; 404.00; 2.26; 20.94
2018-07-30 12:45:44; 404.00; 2.26; 20.88
2018-07-30 12:45:56; 404.00; 2.26; 20.81
2018-07-30 13:00:11; 404.00; 2.26; 21.19
2018-07-30 13:00:23; 409.00; 2.21; 21.31
2018-07-30 13:00:36; 404.00; 2.26; 21.31
2018-07-30 13:00:48; 404.00; 2.26; 21.31
2018-07-30 13:15:03; 405.00; 2.25; 21.63
2018-07-30 13:15:15; 405.00; 2.25; 21.63
2018-07-30 13:15:28; 405.00; 2.25; 21.69
2018-07-30 13:15:40; 405.00; 2.25; 21.69
2018-07-30 13:15:52; 405.00; 2.25; 21.69
2018-07-30 13:30:07; 405.00; 2.25; 21.56
2018-07-30 13:30:19; 405.00; 2.25; 21.56
2018-07-30 13:30:32; 405.00; 2.25; 21.56
2018-07-30 13:30:44; 406.00; 2.24; 21.56
2018-07-30 13:30:57; 404.00; 2.26; 21.50
2018-07-30 13:45:12; 404.00; 2.26; 23.00
2018-07-30 13:45:24; 405.00; 2.25; 23.00
2018-07-30 13:45:36; 404.00; 2.26; 23.00
2018-07-30 13:45:49; 404.00; 2.26; 23.06
2018-07-30 14:00:03; 403.00; 2.27; 22.81
2018-07-30 14:00:16; 404.00; 2.26; 22.94
2018-07-30 14:00:28; 405.00; 2.25; 23.00
2018-07-30 14:00:40; 404.00; 2.26; 23.00
2018-07-30 14:00:53; 402.00; 2.28; 22.94
2018-07-30 14:15:07; 406.00; 2.24; 23.88
2018-07-30 14:15:20; 403.00; 2.27; 23.81
2018-07-30 14:15:32; 403.00; 2.27; 23.81
2018-07-30 14:15:45; 404.00; 2.26; 23.88
2018-07-30 14:15:57; 404.00; 2.26; 23.88
2018-07-30 14:30:12; 402.00; 2.28; 22.44
2018-07-30 14:30:24; 403.00; 2.27; 22.38
2018-07-30 14:30:36; 403.00; 2.27; 22.38
2018-07-30 14:30:49; 403.00; 2.27; 22.44
2018-07-30 14:45:03; 403.00; 2.27; 22.75
2018-07-30 14:45:16; 404.00; 2.26; 22.75
2018-07-30 14:45:28; 404.00; 2.26; 22.75
2018-07-30 14:45:40; 404.00; 2.26; 22.81
2018-07-30 14:45:53; 403.00; 2.27; 22.94
2018-07-30 15:00:07; 404.00; 2.26; 23.50
2018-07-30 15:00:20; 404.00; 2.26; 23.56
2018-07-30 15:00:32; 404.00; 2.26; 23.63
2018-07-30 15:00:44; 404.00; 2.26; 23.63
2018-07-30 15:00:57; 404.00; 2.26; 23.63
2018-07-30 15:15:11; 404.00; 2.26; 23.00
2018-07-30 15:15:24; 402.00; 2.28; 23.06
2018-07-30 15:15:36; 402.00; 2.28; 23.13
2018-07-30 15:15:49; 402.00; 2.28; 23.13
2018-07-30 15:30:03; 404.00; 2.26; 23.31
2018-07-30 15:30:16; 404.00; 2.26; 23.19
2018-07-30 15:30:28; 404.00; 2.26; 23.13
2018-07-30 15:30:40; 403.00; 2.27; 23.06
2018-07-30 15:30:53; 403.00; 2.27; 23.00
2018-07-30 15:45:08; 402.00; 2.28; 23.19
2018-07-30 15:45:20; 401.00; 2.29; 23.19
2018-07-30 15:45:32; 401.00; 2.29; 23.19
2018-07-30 15:45:45; 401.00; 2.29; 23.13
2018-07-30 15:45:57; 401.00; 2.29; 23.19
2018-07-30 16:00:12; 402.00; 2.28; 22.81
2018-07-30 16:00:24; 402.00; 2.28; 22.81
2018-07-30 16:00:36; 402.00; 2.28; 22.81
2018-07-30 16:00:49; 402.00; 2.28; 22.75
2018-07-30 16:15:03; 403.00; 2.27; 23.94
2018-07-30 16:15:16; 403.00; 2.27; 23.88
2018-07-30 16:15:28; 403.00; 2.27; 23.94
2018-07-30 16:15:41; 402.00; 2.28; 23.88
2018-07-30 16:15:53; 402.00; 2.28; 23.94
2018-07-30 16:30:08; 402.00; 2.28; 22.75
2018-07-30 16:30:20; 402.00; 2.28; 22.81
2018-07-30 16:30:32; 402.00; 2.28; 22.75
2018-07-30 16:30:45; 402.00; 2.28; 22.69
2018-07-30 16:30:57; 402.00; 2.28; 22.63
2018-07-30 16:45:01; 401.00; 2.29; 23.19
2018-07-30 16:45:13; 402.00; 2.28; 23.31
2018-07-30 16:45:25; 401.00; 2.29; 23.50
2018-07-30 16:45:38; 401.00; 2.29; 23.63
2018-07-30 16:45:50; 401.00; 2.29; 23.63
2018-07-30 17:00:05; 401.00; 2.29; 22.94
2018-07-30 17:00:17; 401.00; 2.29; 23.00
2018-07-30 17:00:30; 401.00; 2.29; 22.94
2018-07-30 17:00:42; 401.00; 2.29; 22.94
2018-07-30 17:00:54; 401.00; 2.29; 23.00
2018-07-30 17:15:09; 403.00; 2.27; 22.13
2018-07-30 17:15:21; 403.00; 2.27; 22.19
2018-07-30 17:15:34; 403.00; 2.27; 22.19
2018-07-30 17:15:46; 403.00; 2.27; 22.19
2018-07-30 17:15:58; 403.00; 2.27; 22.25
2018-07-30 17:30:02; 402.00; 2.28; 21.13
2018-07-30 17:30:14; 402.00; 2.28; 21.06
2018-07-30 17:30:26; 402.00; 2.28; 21.00
2018-07-30 17:30:39; 404.00; 2.26; 21.00
2018-07-30 17:30:51; 403.00; 2.27; 21.00
2018-07-30 17:45:06; 407.00; 2.23; 21.31
2018-07-30 17:45:18; 407.00; 2.23; 21.31
2018-07-30 17:45:31; 407.00; 2.23; 21.31
2018-07-30 17:45:43; 407.00; 2.23; 21.38
2018-07-30 17:45:56; 407.00; 2.23; 21.38
2018-07-30 18:00:10; 405.00; 2.25; 21.13
2018-07-30 18:00:23; 405.00; 2.25; 21.13
2018-07-30 18:00:35; 405.00; 2.25; 21.13
2018-07-30 18:00:48; 405.00; 2.25; 21.06
2018-07-30 18:01:00; 405.00; 2.25; 21.13
2018-07-30 18:15:04; 759.00; -1.29; 20.81
2018-07-30 18:15:16; 759.00; -1.29; 20.75
2018-07-30 18:15:28; 761.00; -1.31; 20.75
2018-07-30 18:15:41; 761.00; -1.31; 20.69
2018-07-30 18:15:53; 761.00; -1.31; 20.69
2018-07-30 18:30:08; 407.00; 2.23; 20.00
2018-07-30 18:30:20; 407.00; 2.23; 19.94
2018-07-30 18:30:32; 407.00; 2.23; 19.94
2018-07-30 18:30:45; 407.00; 2.23; 19.88
2018-07-30 18:30:57; 407.00; 2.23; 19.81
2018-07-30 18:45:01; 404.00; 2.26; 19.00
2018-07-30 18:45:13; 406.00; 2.24; 19.00
2018-07-30 18:45:25; 405.00; 2.25; 19.00
2018-07-30 18:45:38; 405.00; 2.25; 19.00
2018-07-30 18:45:50; 406.00; 2.24; 19.00
2018-07-30 19:00:05; 408.00; 2.22; 17.13
2018-07-30 19:00:18; 408.00; 2.22; 17.06
2018-07-30 19:00:30; 408.00; 2.22; 17.00
2018-07-30 19:00:42; 408.00; 2.22; 17.00
2018-07-30 19:00:55; 408.00; 2.22; 16.94
2018-07-30 19:15:10; 409.00; 2.21; 14.69
2018-07-30 19:15:22; 409.00; 2.21; 14.69
2018-07-30 19:15:35; 409.00; 2.21; 14.63
2018-07-30 19:15:47; 761.00; -1.31; 14.63
2018-07-30 19:16:00; 761.00; -1.31; 14.63
2018-07-30 19:30:04; 762.00; -1.32; 13.69
2018-07-30 19:30:16; 762.00; -1.32; 13.69
2018-07-30 19:30:29; 762.00; -1.32; 13.69
2018-07-30 19:30:41; 762.00; -1.32; 13.69
2018-07-30 19:30:53; 762.00; -1.32; 13.69
2018-07-30 19:45:09; 763.00; -1.33; 13.44
2018-07-30 19:45:21; 763.00; -1.33; 13.44
2018-07-30 19:45:34; 407.00; 2.23; 13.44
2018-07-30 19:45:46; 407.00; 2.23; 13.44
2018-07-30 19:45:59; 407.00; 2.23; 13.44
2018-07-30 20:00:03; 408.00; 2.22; 13.06
2018-07-30 20:00:15; 408.00; 2.22; 13.06
2018-07-30 20:00:28; 408.00; 2.22; 13.06
2018-07-30 20:00:40; 408.00; 2.22; 13.06
2018-07-30 20:00:52; 408.00; 2.22; 13.06
2018-07-30 20:15:08; 409.00; 2.21; 12.81
2018-07-30 20:15:21; 409.00; 2.21; 12.75
2018-07-30 20:15:33; 409.00; 2.21; 12.75
2018-07-30 20:15:45; 409.00; 2.21; 12.75
2018-07-30 20:15:58; 409.00; 2.21; 12.75
2018-07-30 20:30:02; 410.00; 2.20; 12.50
2018-07-30 20:30:15; 410.00; 2.20; 12.50
2018-07-30 20:30:27; 410.00; 2.20; 12.50
2018-07-30 20:30:39; 410.00; 2.20; 12.50
2018-07-30 20:30:52; 410.00; 2.20; 12.50
2018-07-30 20:45:08; 410.00; 2.20; 12.00
2018-07-30 20:45:20; 410.00; 2.20; 12.00
2018-07-30 20:45:32; 410.00; 2.20; 12.00
2018-07-30 20:45:45; 410.00; 2.20; 12.00
2018-07-30 20:45:57; 410.00; 2.20; 12.00
2018-07-30 21:00:01; 761.00; -1.31; 11.75
2018-07-30 21:00:14; 755.00; -1.25; 11.75
2018-07-30 21:00:26; 758.00; -1.28; 11.75
2018-07-30 21:00:38; 761.00; -1.31; 11.75
2018-07-30 21:00:51; 756.00; -1.26; 11.75
2018-07-30 21:15:06; 411.00; 2.19; 11.56
2018-07-30 21:15:19; 411.00; 2.19; 11.56
2018-07-30 21:15:31; 411.00; 2.19; 11.63
2018-07-30 21:15:44; 411.00; 2.19; 11.63
2018-07-30 21:15:56; 411.00; 2.19; 11.63
2018-07-30 21:30:11; 412.00; 2.18; 11.63
2018-07-30 21:30:24; 412.00; 2.18; 11.63
2018-07-30 21:30:36; 412.00; 2.18; 11.63
2018-07-30 21:30:48; 412.00; 2.18; 11.63
2018-07-30 21:45:04; 762.00; -1.32; 11.31
2018-07-30 21:45:17; 762.00; -1.32; 11.31
2018-07-30 21:45:29; 406.00; 2.24; 11.25
2018-07-30 21:45:41; 406.00; 2.24; 11.25
2018-07-30 21:45:54; 412.00; 2.18; 11.25
2018-07-30 22:00:09; 411.00; 2.19; 10.88
2018-07-30 22:00:22; 411.00; 2.19; 10.88
2018-07-30 22:00:34; 411.00; 2.19; 10.88
2018-07-30 22:00:47; 411.00; 2.19; 10.88
2018-07-30 22:00:59; 411.00; 2.19; 10.88
2018-07-30 22:15:03; 408.00; 2.22; 10.56
2018-07-30 22:15:16; 408.00; 2.22; 10.56
2018-07-30 22:15:28; 408.00; 2.22; 10.50
2018-07-30 22:15:41; 408.00; 2.22; 10.50
2018-07-30 22:15:53; 408.00; 2.22; 10.50
2018-07-30 22:30:09; 412.00; 2.18; 10.25
2018-07-30 22:30:21; 412.00; 2.18; 10.25
2018-07-30 22:30:34; 412.00; 2.18; 10.25
2018-07-30 22:30:46; 412.00; 2.18; 10.25
2018-07-30 22:30:58; 412.00; 2.18; 10.25
2018-07-30 22:45:03; 408.00; 2.22; 10.00
2018-07-30 22:45:15; 408.00; 2.22; 9.94
2018-07-30 22:45:28; 408.00; 2.22; 10.00
2018-07-30 22:45:40; 408.00; 2.22; 9.94
2018-07-30 22:45:53; 408.00; 2.22; 9.94
2018-07-30 23:00:08; 412.00; 2.18; 9.25
2018-07-30 23:00:21; 412.00; 2.18; 9.25
2018-07-30 23:00:33; 412.00; 2.18; 9.25
2018-07-30 23:00:46; 412.00; 2.18; 9.25
2018-07-30 23:00:58; 412.00; 2.18; 9.25
2018-07-30 23:15:02; 412.00; 2.18; 8.88
2018-07-30 23:15:15; 412.00; 2.18; 8.88
2018-07-30 23:15:27; 412.00; 2.18; 8.88
2018-07-30 23:15:40; 412.00; 2.18; 8.88
2018-07-30 23:15:52; 412.00; 2.18; 8.88
2018-07-30 23:30:08; 409.00; 2.21; 8.56
2018-07-30 23:30:20; 409.00; 2.21; 8.56
2018-07-30 23:30:33; 409.00; 2.21; 8.56
2018-07-30 23:30:45; 409.00; 2.21; 8.56
2018-07-30 23:30:57; 409.00; 2.21; 8.56
2018-07-30 23:45:02; 413.00; 2.17; 8.38
2018-07-30 23:45:15; 413.00; 2.17; 8.38
2018-07-30 23:45:27; 413.00; 2.17; 8.38
2018-07-30 23:45:39; 413.00; 2.17; 8.38
2018-07-30 23:45:52; 413.00; 2.17; 8.38
