2018-05-28 00:00:11; 237.00; 3.93; 18.38
2018-05-28 00:00:23; 237.00; 3.93; 18.38
2018-05-28 00:00:36; 237.00; 3.93; 18.38
2018-05-28 00:00:48; 237.00; 3.93; 18.38
2018-05-28 00:15:03; 237.00; 3.93; 18.50
2018-05-28 00:15:16; 237.00; 3.93; 18.56
2018-05-28 00:15:28; 237.00; 3.93; 18.50
2018-05-28 00:15:41; 237.00; 3.93; 18.50
2018-05-28 00:15:53; 237.00; 3.93; 18.56
2018-05-28 00:30:08; 237.00; 3.93; 18.75
2018-05-28 00:30:21; 237.00; 3.93; 18.75
2018-05-28 00:30:33; 237.00; 3.93; 18.75
2018-05-28 00:30:46; 237.00; 3.93; 18.75
2018-05-28 00:30:58; 237.00; 3.93; 18.75
2018-05-28 00:45:02; 237.00; 3.93; 18.63
2018-05-28 00:45:14; 237.00; 3.93; 18.63
2018-05-28 00:45:27; 237.00; 3.93; 18.63
2018-05-28 00:45:39; 237.00; 3.93; 18.63
2018-05-28 00:45:51; 237.00; 3.93; 18.63
2018-05-28 01:00:07; 238.00; 3.92; 18.44
2018-05-28 01:00:19; 237.00; 3.93; 18.50
2018-05-28 01:00:32; 237.00; 3.93; 18.50
2018-05-28 01:00:44; 237.00; 3.93; 18.50
2018-05-28 01:00:56; 237.00; 3.93; 18.50
2018-05-28 01:15:12; 237.00; 3.93; 18.50
2018-05-28 01:15:24; 237.00; 3.93; 18.50
2018-05-28 01:15:37; 237.00; 3.93; 18.50
2018-05-28 01:15:49; 237.00; 3.93; 18.50
2018-05-28 01:30:04; 237.00; 3.93; 18.50
2018-05-28 01:30:17; 237.00; 3.93; 18.50
2018-05-28 01:30:29; 237.00; 3.93; 18.50
2018-05-28 01:30:41; 237.00; 3.93; 18.50
2018-05-28 01:30:54; 237.00; 3.93; 18.50
2018-05-28 01:45:09; 238.00; 3.92; 18.38
2018-05-28 01:45:22; 238.00; 3.92; 18.38
2018-05-28 01:45:34; 238.00; 3.92; 18.38
2018-05-28 01:45:46; 238.00; 3.92; 18.38
2018-05-28 01:45:59; 238.00; 3.92; 18.38
2018-05-28 02:00:03; 237.00; 3.93; 18.38
2018-05-28 02:00:15; 238.00; 3.92; 18.38
2018-05-28 02:00:28; 238.00; 3.92; 18.38
2018-05-28 02:00:40; 237.00; 3.93; 18.38
2018-05-28 02:00:52; 237.00; 3.93; 18.38
2018-05-28 02:15:08; 238.00; 3.92; 18.44
2018-05-28 02:15:20; 238.00; 3.92; 18.44
2018-05-28 02:15:33; 238.00; 3.92; 18.44
2018-05-28 02:15:45; 238.00; 3.92; 18.50
2018-05-28 02:15:57; 237.00; 3.93; 18.44
2018-05-28 02:30:01; 237.00; 3.93; 18.69
2018-05-28 02:30:14; 237.00; 3.93; 18.69
2018-05-28 02:30:26; 237.00; 3.93; 18.69
2018-05-28 02:30:38; 237.00; 3.93; 18.69
2018-05-28 02:30:51; 237.00; 3.93; 18.69
2018-05-28 02:45:06; 237.00; 3.93; 18.75
2018-05-28 02:45:19; 237.00; 3.93; 18.75
2018-05-28 02:45:31; 238.00; 3.92; 18.75
2018-05-28 02:45:43; 238.00; 3.92; 18.75
2018-05-28 02:45:56; 238.00; 3.93; 18.75
2018-05-28 03:00:11; 237.00; 3.93; 18.56
2018-05-28 03:00:24; 238.00; 3.92; 18.56
2018-05-28 03:00:36; 237.00; 3.93; 18.56
2018-05-28 03:00:48; 237.00; 3.93; 18.56
2018-05-28 03:15:04; 238.00; 3.92; 18.38
2018-05-28 03:15:16; 238.00; 3.92; 18.44
2018-05-28 03:15:28; 238.00; 3.93; 18.44
2018-05-28 03:15:41; 238.00; 3.92; 18.44
2018-05-28 03:15:53; 237.00; 3.93; 18.44
2018-05-28 03:30:09; 238.00; 3.92; 18.31
2018-05-28 03:30:21; 238.00; 3.92; 18.25
2018-05-28 03:30:33; 238.00; 3.92; 18.25
2018-05-28 03:30:46; 238.00; 3.92; 18.31
2018-05-28 03:30:58; 238.00; 3.92; 18.25
2018-05-28 03:45:02; 237.00; 3.92; 17.88
2018-05-28 03:45:14; 237.00; 3.93; 17.88
2018-05-28 03:45:27; 237.00; 3.92; 17.88
2018-05-28 03:45:39; 237.00; 3.92; 17.88
2018-05-28 03:45:51; 237.00; 3.92; 17.88
2018-05-28 04:00:07; 238.00; 3.92; 17.88
2018-05-28 04:00:19; 237.00; 3.92; 17.88
2018-05-28 04:00:31; 237.00; 3.93; 17.88
2018-05-28 04:00:44; 237.00; 3.92; 17.88
2018-05-28 04:00:56; 237.00; 3.93; 17.88
2018-05-28 04:15:12; 236.00; 3.93; 17.94
2018-05-28 04:15:24; 237.00; 3.93; 17.94
2018-05-28 04:15:36; 236.00; 3.93; 18.00
2018-05-28 04:15:49; 237.00; 3.93; 18.00
2018-05-28 04:30:04; 237.00; 3.93; 18.25
2018-05-28 04:30:16; 237.00; 3.93; 18.31
2018-05-28 04:30:29; 236.00; 3.94; 18.31
2018-05-28 04:30:41; 237.00; 3.92; 18.31
2018-05-28 04:30:53; 237.00; 3.93; 18.31
2018-05-28 04:45:09; 237.00; 3.93; 18.56
2018-05-28 04:45:21; 238.00; 3.93; 18.56
2018-05-28 04:45:34; 237.00; 3.93; 18.56
2018-05-28 04:45:46; 238.00; 3.92; 18.56
2018-05-28 04:45:58; 237.00; 3.93; 18.56
2018-05-28 05:00:02; 238.00; 3.92; 18.81
2018-05-28 05:00:15; 238.00; 3.92; 18.81
2018-05-28 05:00:27; 238.00; 3.92; 18.81
2018-05-28 05:00:40; 238.00; 3.92; 18.81
2018-05-28 05:00:52; 237.00; 3.93; 18.81
2018-05-28 05:15:07; 238.00; 3.92; 18.88
2018-05-28 05:15:20; 238.00; 3.92; 18.88
2018-05-28 05:15:32; 238.00; 3.91; 18.88
2018-05-28 05:15:45; 237.00; 3.93; 18.88
2018-05-28 05:15:57; 238.00; 3.92; 18.88
2018-05-28 05:30:01; 238.00; 3.92; 18.81
2018-05-28 05:30:13; 238.00; 3.92; 18.81
2018-05-28 05:30:26; 238.00; 3.92; 18.81
2018-05-28 05:30:38; 238.00; 3.92; 18.81
2018-05-28 05:30:50; 238.00; 3.92; 18.81
2018-05-28 05:45:06; 238.00; 3.93; 18.81
2018-05-28 05:45:18; 238.00; 3.92; 18.81
2018-05-28 05:45:30; 237.00; 3.93; 18.81
2018-05-28 05:45:43; 238.00; 3.92; 18.81
2018-05-28 05:45:55; 238.00; 3.92; 18.81
2018-05-28 06:00:11; 238.00; 3.92; 18.81
2018-05-28 06:00:23; 238.00; 3.92; 18.88
2018-05-28 06:00:35; 238.00; 3.92; 18.81
2018-05-28 06:00:48; 238.00; 3.92; 18.81
2018-05-28 06:01:00; 238.00; 3.92; 18.81
2018-05-28 06:15:04; 237.00; 3.93; 18.88
2018-05-28 06:15:16; 238.00; 3.92; 18.88
2018-05-28 06:15:29; 239.00; 3.91; 18.88
2018-05-28 06:15:41; 238.00; 3.92; 18.88
2018-05-28 06:15:54; 238.00; 3.92; 18.88
2018-05-28 06:30:09; 237.00; 3.92; 19.06
2018-05-28 06:30:21; 238.00; 3.92; 19.06
2018-05-28 06:30:34; 238.00; 3.92; 19.06
2018-05-28 06:30:46; 238.00; 3.92; 19.06
2018-05-28 06:30:58; 238.00; 3.92; 19.06
2018-05-28 06:45:02; 238.00; 3.92; 19.13
2018-05-28 06:45:15; 239.00; 3.91; 19.13
2018-05-28 06:45:27; 238.00; 3.92; 19.13
2018-05-28 06:45:40; 237.00; 3.93; 19.13
2018-05-28 06:45:52; 238.00; 3.92; 19.13
2018-05-28 07:00:07; 238.00; 3.91; 19.00
2018-05-28 07:00:20; 238.00; 3.92; 19.00
2018-05-28 07:00:32; 237.00; 3.93; 19.00
2018-05-28 07:00:44; 238.00; 3.92; 19.00
2018-05-28 07:00:57; 237.00; 3.93; 19.00
2018-05-28 07:15:01; 239.00; 3.91; 19.00
2018-05-28 07:15:13; 238.00; 3.92; 19.00
2018-05-28 07:15:26; 238.00; 3.92; 19.00
2018-05-28 07:15:38; 238.00; 3.92; 19.00
2018-05-28 07:15:50; 237.00; 3.93; 19.00
2018-05-28 07:30:06; 238.00; 3.92; 18.88
2018-05-28 07:30:18; 238.00; 3.92; 18.88
2018-05-28 07:30:31; 239.00; 3.91; 18.88
2018-05-28 07:30:43; 238.00; 3.92; 18.88
2018-05-28 07:30:55; 238.00; 3.92; 18.88
2018-05-28 07:45:11; 239.00; 3.91; 18.75
2018-05-28 07:45:23; 238.00; 3.92; 18.75
2018-05-28 07:45:36; 238.00; 3.92; 18.81
2018-05-28 07:45:48; 238.00; 3.92; 18.75
2018-05-28 07:46:00; 237.00; 3.93; 18.75
2018-05-28 08:00:04; 237.00; 3.93; 19.00
2018-05-28 08:00:17; 238.00; 3.92; 19.00
2018-05-28 08:00:29; 238.00; 3.92; 19.00
2018-05-28 08:00:41; 238.00; 3.92; 19.00
2018-05-28 08:00:54; 238.00; 3.92; 19.00
2018-05-28 08:15:09; 237.00; 3.93; 18.94
2018-05-28 08:15:22; 238.00; 3.92; 18.94
2018-05-28 08:15:34; 238.00; 3.92; 18.94
2018-05-28 08:15:46; 238.00; 3.92; 18.94
2018-05-28 08:15:59; 238.00; 3.92; 18.94
2018-05-28 08:30:03; 238.00; 3.92; 18.94
2018-05-28 08:30:15; 239.00; 3.92; 18.94
2018-05-28 08:30:28; 238.00; 3.92; 18.94
2018-05-28 08:30:40; 239.00; 3.91; 18.94
2018-05-28 08:30:52; 239.00; 3.91; 18.94
2018-05-28 08:45:08; 239.00; 3.92; 19.13
2018-05-28 08:45:20; 237.00; 3.93; 19.13
2018-05-28 08:45:32; 237.00; 3.93; 19.13
2018-05-28 08:45:45; 238.00; 3.92; 19.06
2018-05-28 08:45:57; 238.00; 3.92; 19.13
2018-05-28 09:00:01; 238.00; 3.92; 19.38
2018-05-28 09:00:14; 237.00; 3.93; 19.38
2018-05-28 09:00:26; 238.00; 3.92; 19.38
2018-05-28 09:00:38; 237.00; 3.93; 19.38
2018-05-28 09:00:51; 238.00; 3.93; 19.38
2018-05-28 09:15:06; 237.00; 3.94; 19.69
2018-05-28 09:15:19; 236.00; 3.94; 19.69
2018-05-28 09:15:31; 238.00; 3.92; 19.69
2018-05-28 09:15:43; 239.00; 3.92; 19.69
2018-05-28 09:15:56; 238.00; 3.92; 19.69
2018-05-28 09:30:11; 238.00; 3.92; 21.13
2018-05-28 09:30:23; 238.00; 3.92; 21.19
2018-05-28 09:30:36; 237.00; 3.93; 21.19
2018-05-28 09:30:48; 238.00; 3.92; 21.19
2018-05-28 09:45:03; 239.00; 3.91; 22.00
2018-05-28 09:45:16; 237.00; 3.93; 22.06
2018-05-28 09:45:28; 237.00; 3.94; 22.06
2018-05-28 09:45:41; 238.00; 3.93; 22.06
2018-05-28 09:45:53; 237.00; 3.93; 22.06
2018-05-28 10:00:08; 240.00; 3.90; 21.00
2018-05-28 10:00:21; 240.00; 3.90; 20.94
2018-05-28 10:00:33; 239.00; 3.91; 20.94
2018-05-28 10:00:45; 239.00; 3.91; 20.94
2018-05-28 10:00:58; 239.00; 3.91; 20.94
2018-05-28 10:15:01; 240.00; 3.89; 20.75
2018-05-28 10:15:14; 238.00; 3.91; 20.81
2018-05-28 10:15:26; 238.00; 3.92; 20.88
2018-05-28 10:15:39; 239.00; 3.91; 20.88
2018-05-28 10:15:51; 238.00; 3.92; 20.88
2018-05-28 10:30:06; 238.00; 3.92; 23.19
2018-05-28 10:30:18; 238.00; 3.93; 23.19
2018-05-28 10:30:31; 237.00; 3.93; 23.19
2018-05-28 10:30:43; 239.00; 3.91; 23.25
2018-05-28 10:30:56; 237.00; 3.93; 23.31
2018-05-28 10:45:10; 239.00; 3.92; 24.50
2018-05-28 10:45:23; 237.00; 3.93; 24.44
2018-05-28 10:45:35; 236.00; 3.93; 24.50
2018-05-28 10:45:48; 239.00; 3.92; 24.50
2018-05-28 10:46:00; 239.00; 3.91; 24.50
2018-05-28 11:00:04; 238.00; 3.92; 23.69
2018-05-28 11:00:16; 240.00; 3.90; 23.63
2018-05-28 11:00:28; 237.00; 3.93; 23.63
2018-05-28 11:00:41; 239.00; 3.91; 23.63
2018-05-28 11:00:53; 238.00; 3.92; 23.63
2018-05-28 11:15:08; 237.00; 3.93; 26.19
2018-05-28 11:15:20; 237.00; 3.92; 26.25
2018-05-28 11:15:33; 238.00; 3.91; 26.25
2018-05-28 11:15:45; 237.00; 3.93; 26.31
2018-05-28 11:15:58; 237.00; 3.93; 26.44
2018-05-28 11:30:01; 236.00; 3.95; 27.69
2018-05-28 11:30:13; 236.00; 3.93; 27.69
2018-05-28 11:30:26; 237.00; 3.94; 27.63
2018-05-28 11:30:38; 238.00; 3.92; 27.69
2018-05-28 11:30:51; 237.00; 3.93; 27.69
2018-05-28 11:45:05; 235.00; 3.95; 28.00
2018-05-28 11:45:18; 235.00; 3.94; 28.00
2018-05-28 11:45:30; 234.00; 3.96; 27.94
2018-05-28 11:45:42; 235.00; 3.95; 27.94
2018-05-28 11:45:55; 237.00; 3.93; 27.94
2018-05-28 12:00:09; 234.00; 3.96; 28.50
2018-05-28 12:00:22; 235.00; 3.95; 28.50
2018-05-28 12:00:34; 236.00; 3.93; 28.38
2018-05-28 12:00:47; 234.00; 3.96; 28.38
2018-05-28 12:00:59; 236.00; 3.94; 28.38
2018-05-28 12:15:02; 236.00; 3.95; 28.56
2018-05-28 12:15:15; 237.00; 3.92; 28.56
2018-05-28 12:15:27; 236.00; 3.94; 28.63
2018-05-28 12:15:39; 236.00; 3.94; 28.63
2018-05-28 12:15:52; 236.00; 3.94; 28.56
2018-05-28 12:30:06; 235.00; 3.95; 28.69
2018-05-28 12:30:19; 236.00; 3.95; 28.81
2018-05-28 12:30:31; 236.00; 3.94; 28.75
2018-05-28 12:30:43; 236.00; 3.95; 28.81
2018-05-28 12:30:56; 237.00; 3.94; 28.88
2018-05-28 12:45:10; 235.00; 3.95; 28.81
2018-05-28 12:45:23; 235.00; 3.95; 28.81
2018-05-28 12:45:35; 233.00; 3.96; 28.94
2018-05-28 12:45:47; 240.00; 3.90; 29.00
2018-05-28 12:46:00; 234.00; 3.96; 29.06
2018-05-28 13:00:03; 236.00; 3.94; 29.00
2018-05-28 13:00:15; 238.00; 3.92; 29.00
2018-05-28 13:00:28; 236.00; 3.94; 29.00
2018-05-28 13:00:40; 235.00; 3.95; 29.06
2018-05-28 13:00:52; 233.00; 3.97; 29.06
2018-05-28 13:15:07; 239.00; 3.91; 29.38
2018-05-28 13:15:19; 238.00; 3.92; 29.38
2018-05-28 13:15:31; 232.00; 3.98; 29.31
2018-05-28 13:15:44; 231.00; 4.00; 29.38
2018-05-28 13:15:56; 234.00; 3.96; 29.44
2018-05-28 13:30:10; 236.00; 3.94; 29.75
2018-05-28 13:30:23; 233.00; 3.96; 29.81
2018-05-28 13:30:35; 239.00; 3.91; 29.75
2018-05-28 13:30:47; 235.00; 3.94; 29.81
2018-05-28 13:31:00; 238.00; 3.93; 29.81
2018-05-28 13:45:03; 237.00; 3.94; 30.00
2018-05-28 13:45:15; 236.00; 3.94; 30.00
2018-05-28 13:45:28; 237.00; 3.93; 30.00
2018-05-28 13:45:40; 233.00; 3.96; 30.06
2018-05-28 13:45:53; 237.00; 3.94; 30.06
2018-05-28 14:00:07; 236.00; 3.94; 30.31
2018-05-28 14:00:19; 234.00; 3.96; 30.38
2018-05-28 14:00:32; 235.00; 3.94; 30.38
2018-05-28 14:00:44; 232.00; 3.97; 30.38
2018-05-28 14:00:56; 236.00; 3.95; 30.38
2018-05-28 14:15:11; 234.00; 3.96; 30.19
2018-05-28 14:15:23; 239.00; 3.91; 30.19
2018-05-28 14:15:36; 236.00; 3.95; 30.25
2018-05-28 14:15:48; 233.00; 3.97; 30.25
2018-05-28 14:16:00; 233.00; 3.96; 30.31
2018-05-28 14:30:03; 234.00; 3.96; 30.56
2018-05-28 14:30:16; 237.00; 3.93; 30.56
2018-05-28 14:30:28; 232.00; 3.97; 30.56
2018-05-28 14:30:41; 236.00; 3.94; 30.56
2018-05-28 14:30:53; 236.00; 3.95; 30.50
2018-05-28 14:45:07; 236.00; 3.94; 31.56
2018-05-28 14:45:20; 233.00; 3.98; 31.56
2018-05-28 14:45:32; 236.00; 3.94; 31.63
2018-05-28 14:45:44; 235.00; 3.95; 31.56
2018-05-28 14:45:57; 233.00; 3.97; 31.63
2018-05-28 15:00:11; 238.00; 3.92; 31.38
2018-05-28 15:00:24; 237.00; 3.92; 31.38
2018-05-28 15:00:36; 236.00; 3.95; 31.38
2018-05-28 15:00:48; 235.00; 3.94; 31.44
2018-05-28 15:15:03; 236.00; 3.95; 31.75
2018-05-28 15:15:15; 237.00; 3.93; 31.75
2018-05-28 15:15:27; 235.00; 3.96; 31.75
2018-05-28 15:15:40; 235.00; 3.94; 31.75
2018-05-28 15:15:52; 235.00; 3.94; 31.81
2018-05-28 15:30:07; 232.00; 3.98; 31.69
2018-05-28 15:30:19; 236.00; 3.95; 31.69
2018-05-28 15:30:31; 234.00; 3.97; 31.63
2018-05-28 15:30:44; 230.00; 3.99; 31.69
2018-05-28 15:30:56; 233.00; 3.97; 31.75
2018-05-28 15:45:11; 234.00; 3.96; 31.94
2018-05-28 15:45:23; 232.00; 3.97; 31.81
2018-05-28 15:45:35; 231.00; 3.99; 31.88
2018-05-28 15:45:48; 232.00; 3.97; 31.81
2018-05-28 15:46:00; 236.00; 3.93; 31.88
2018-05-28 16:00:03; 235.00; 3.95; 31.63
2018-05-28 16:00:15; 237.00; 3.92; 31.63
2018-05-28 16:00:28; 233.00; 3.97; 31.56
2018-05-28 16:00:40; 232.00; 3.98; 31.56
2018-05-28 16:00:53; 232.00; 3.98; 31.56
2018-05-28 16:15:07; 238.00; 3.92; 31.44
2018-05-28 16:15:19; 238.00; 3.92; 31.44
2018-05-28 16:15:32; 237.00; 3.94; 31.38
2018-05-28 16:15:44; 235.00; 3.94; 31.38
2018-05-28 16:15:56; 238.00; 3.92; 31.44
2018-05-28 16:30:11; 235.00; 3.94; 31.56
2018-05-28 16:30:23; 236.00; 3.94; 31.56
2018-05-28 16:30:36; 238.00; 3.91; 31.56
2018-05-28 16:30:48; 235.00; 3.96; 31.56
2018-05-28 16:31:00; 237.00; 3.93; 31.56
2018-05-28 16:45:03; 237.00; 3.92; 32.00
2018-05-28 16:45:16; 233.00; 3.97; 32.06
2018-05-28 16:45:28; 236.00; 3.94; 32.06
2018-05-28 16:45:41; 239.00; 3.92; 32.00
2018-05-28 16:45:53; 237.00; 3.93; 32.00
2018-05-28 17:00:07; 236.00; 3.94; 31.44
2018-05-28 17:00:20; 234.00; 3.95; 31.44
2018-05-28 17:00:32; 236.00; 3.93; 31.44
2018-05-28 17:00:44; 235.00; 3.95; 31.38
2018-05-28 17:00:57; 235.00; 3.95; 31.44
2018-05-28 17:15:11; 237.00; 3.93; 30.88
2018-05-28 17:15:24; 237.00; 3.93; 30.88
2018-05-28 17:15:36; 239.00; 3.91; 30.88
2018-05-28 17:15:48; 240.00; 3.90; 30.88
2018-05-28 17:30:03; 238.00; 3.92; 30.88
2018-05-28 17:30:15; 238.00; 3.92; 30.81
2018-05-28 17:30:28; 237.00; 3.93; 30.81
2018-05-28 17:30:40; 237.00; 3.93; 30.81
2018-05-28 17:30:52; 237.00; 3.93; 30.88
2018-05-28 17:45:07; 237.00; 3.93; 30.31
2018-05-28 17:45:19; 238.00; 3.93; 30.25
2018-05-28 17:45:32; 237.00; 3.93; 30.25
2018-05-28 17:45:44; 238.00; 3.91; 30.31
2018-05-28 17:45:56; 238.00; 3.92; 30.31
2018-05-28 18:00:11; 240.00; 3.90; 29.13
2018-05-28 18:00:24; 241.00; 3.89; 29.13
2018-05-28 18:00:36; 237.00; 3.93; 29.06
2018-05-28 18:00:48; 237.00; 3.93; 29.06
2018-05-28 18:15:03; 239.00; 3.91; 26.94
2018-05-28 18:15:15; 240.00; 3.90; 26.94
2018-05-28 18:15:28; 239.00; 3.91; 26.94
2018-05-28 18:15:40; 240.00; 3.90; 26.88
2018-05-28 18:15:52; 239.00; 3.92; 26.88
2018-05-28 18:30:07; 239.00; 3.91; 25.44
2018-05-28 18:30:20; 240.00; 3.90; 25.38
2018-05-28 18:30:32; 238.00; 3.92; 25.38
2018-05-28 18:30:44; 241.00; 3.89; 25.31
2018-05-28 18:30:57; 239.00; 3.91; 25.31
2018-05-28 18:45:12; 240.00; 3.90; 24.50
2018-05-28 18:45:24; 240.00; 3.90; 24.44
2018-05-28 18:45:36; 240.00; 3.90; 24.44
2018-05-28 18:45:49; 240.00; 3.90; 24.38
2018-05-28 19:00:04; 241.00; 3.90; 22.44
2018-05-28 19:00:16; 241.00; 3.89; 22.44
2018-05-28 19:00:28; 240.00; 3.89; 22.44
2018-05-28 19:00:41; 241.00; 3.89; 22.38
2018-05-28 19:00:53; 240.00; 3.90; 22.38
2018-05-28 19:15:08; 241.00; 3.89; 21.38
2018-05-28 19:15:21; 241.00; 3.89; 21.38
2018-05-28 19:15:33; 241.00; 3.89; 21.38
2018-05-28 19:15:45; 241.00; 3.89; 21.31
2018-05-28 19:15:58; 241.00; 3.89; 21.31
2018-05-28 19:30:01; 241.00; 3.89; 20.81
2018-05-28 19:30:14; 241.00; 3.89; 20.81
2018-05-28 19:30:26; 241.00; 3.89; 20.81
2018-05-28 19:30:39; 241.00; 3.89; 20.81
2018-05-28 19:30:51; 241.00; 3.89; 20.81
2018-05-28 19:45:06; 241.00; 3.89; 20.69
2018-05-28 19:45:18; 241.00; 3.89; 20.69
2018-05-28 19:45:31; 241.00; 3.89; 20.69
2018-05-28 19:45:43; 241.00; 3.89; 20.69
2018-05-28 19:45:55; 241.00; 3.89; 20.69
2018-05-28 20:00:11; 241.00; 3.89; 20.81
2018-05-28 20:00:23; 241.00; 3.89; 20.81
2018-05-28 20:00:35; 241.00; 3.89; 20.81
2018-05-28 20:00:48; 241.00; 3.89; 20.81
2018-05-28 20:01:00; 241.00; 3.89; 20.81
2018-05-28 20:15:04; 241.00; 3.89; 20.81
2018-05-28 20:15:16; 241.00; 3.89; 20.81
2018-05-28 20:15:29; 241.00; 3.89; 20.81
2018-05-28 20:15:41; 241.00; 3.89; 20.81
2018-05-28 20:15:53; 241.00; 3.89; 20.81
2018-05-28 20:30:08; 241.00; 3.89; 20.69
2018-05-28 20:30:21; 241.00; 3.89; 20.69
2018-05-28 20:30:33; 241.00; 3.89; 20.69
2018-05-28 20:30:46; 241.00; 3.89; 20.69
2018-05-28 20:30:58; 241.00; 3.89; 20.69
2018-05-28 20:45:02; 241.00; 3.89; 21.13
2018-05-28 20:45:14; 240.00; 3.89; 21.13
2018-05-28 20:45:26; 241.00; 3.89; 21.13
2018-05-28 20:45:39; 241.00; 3.89; 21.13
2018-05-28 20:45:51; 241.00; 3.89; 21.13
2018-05-28 21:00:06; 240.00; 3.90; 21.44
2018-05-28 21:00:18; 240.00; 3.90; 21.44
2018-05-28 21:00:31; 240.00; 3.90; 21.44
2018-05-28 21:00:43; 240.00; 3.90; 21.44
2018-05-28 21:00:55; 240.00; 3.90; 21.44
2018-05-28 21:15:10; 241.00; 3.89; 21.38
2018-05-28 21:15:23; 241.00; 3.89; 21.31
2018-05-28 21:15:35; 241.00; 3.89; 21.31
2018-05-28 21:15:48; 241.00; 3.89; 21.31
2018-05-28 21:16:00; 241.00; 3.89; 21.31
2018-05-28 21:30:04; 241.00; 3.89; 20.81
2018-05-28 21:30:16; 241.00; 3.89; 20.81
2018-05-28 21:30:28; 242.00; 3.88; 20.81
2018-05-28 21:30:41; 242.00; 3.88; 20.75
2018-05-28 21:30:53; 242.00; 3.88; 20.75
2018-05-28 21:45:08; 242.00; 3.88; 20.13
2018-05-28 21:45:20; 242.00; 3.88; 20.13
2018-05-28 21:45:33; 242.00; 3.88; 20.13
2018-05-28 21:45:45; 242.00; 3.88; 20.13
2018-05-28 21:45:57; 242.00; 3.88; 20.13
2018-05-28 22:00:01; 241.00; 3.89; 19.88
2018-05-28 22:00:13; 241.00; 3.89; 19.88
2018-05-28 22:00:26; 241.00; 3.89; 19.88
2018-05-28 22:00:38; 241.00; 3.89; 19.88
2018-05-28 22:00:50; 241.00; 3.89; 19.88
2018-05-28 22:15:05; 241.00; 3.89; 20.19
2018-05-28 22:15:18; 241.00; 3.89; 20.19
2018-05-28 22:15:30; 241.00; 3.89; 20.25
2018-05-28 22:15:43; 241.00; 3.89; 20.25
2018-05-28 22:15:55; 241.00; 3.89; 20.25
2018-05-28 22:30:10; 241.00; 3.89; 20.63
2018-05-28 22:30:22; 241.00; 3.89; 20.69
2018-05-28 22:30:35; 240.00; 3.90; 20.69
2018-05-28 22:30:47; 241.00; 3.89; 20.69
2018-05-28 22:30:59; 241.00; 3.89; 20.69
2018-05-28 22:45:03; 242.00; 3.88; 21.00
2018-05-28 22:45:15; 241.00; 3.88; 21.00
2018-05-28 22:45:28; 241.00; 3.89; 21.00
2018-05-28 22:45:40; 241.00; 3.89; 21.00
2018-05-28 22:45:53; 245.00; 3.84; 21.00
2018-05-28 23:00:07; 241.00; 3.89; 21.00
2018-05-28 23:00:20; 241.00; 3.89; 21.00
2018-05-28 23:00:32; 241.00; 3.89; 21.00
2018-05-28 23:00:45; 241.00; 3.89; 21.06
2018-05-28 23:00:57; 241.00; 3.89; 21.06
2018-05-28 23:15:01; 242.00; 3.88; 20.94
2018-05-28 23:15:13; 242.00; 3.88; 21.00
2018-05-28 23:15:25; 242.00; 3.88; 20.94
2018-05-28 23:15:38; 241.00; 3.89; 20.94
2018-05-28 23:15:50; 241.00; 3.89; 20.94
2018-05-28 23:30:05; 242.00; 3.88; 20.69
2018-05-28 23:30:17; 242.00; 3.88; 20.75
2018-05-28 23:30:30; 241.00; 3.89; 20.75
2018-05-28 23:30:42; 241.00; 3.89; 20.69
2018-05-28 23:30:55; 241.00; 3.89; 20.69
2018-05-28 23:45:10; 241.00; 3.89; 20.81
2018-05-28 23:45:22; 241.00; 3.89; 20.81
2018-05-28 23:45:34; 241.00; 3.89; 20.81
2018-05-28 23:45:47; 241.00; 3.89; 20.88
2018-05-28 23:45:59; 241.00; 3.89; 20.88
