2018-04-18 00:00:07; 196.00; 4.34; 22.13
2018-04-18 00:00:19; 196.00; 4.34; 22.13
2018-04-18 00:00:31; 196.00; 4.34; 22.13
2018-04-18 00:00:44; 196.00; 4.34; 22.13
2018-04-18 00:00:56; 196.00; 4.34; 22.13
2018-04-18 00:15:12; 196.00; 4.34; 22.13
2018-04-18 00:15:24; 196.00; 4.34; 22.13
2018-04-18 00:15:36; 196.00; 4.34; 22.13
2018-04-18 00:15:49; 196.00; 4.34; 22.13
2018-04-18 00:30:04; 196.00; 4.34; 22.13
2018-04-18 00:30:17; 196.00; 4.34; 22.13
2018-04-18 00:30:29; 196.00; 4.34; 22.13
2018-04-18 00:30:42; 196.00; 4.34; 22.13
2018-04-18 00:30:54; 196.00; 4.34; 22.13
2018-04-18 00:45:09; 196.00; 4.34; 22.00
2018-04-18 00:45:22; 196.00; 4.34; 22.00
2018-04-18 00:45:34; 196.00; 4.34; 22.00
2018-04-18 00:45:47; 196.00; 4.34; 22.00
2018-04-18 00:45:59; 196.00; 4.34; 22.00
2018-04-18 01:00:03; 196.00; 4.34; 22.19
2018-04-18 01:00:15; 196.00; 4.34; 22.19
2018-04-18 01:00:28; 196.00; 4.34; 22.25
2018-04-18 01:00:40; 196.00; 4.34; 22.25
2018-04-18 01:00:53; 196.00; 4.34; 22.25
2018-04-18 01:15:08; 195.00; 4.35; 22.25
2018-04-18 01:15:20; 195.00; 4.35; 22.31
2018-04-18 01:15:33; 195.00; 4.35; 22.25
2018-04-18 01:15:45; 195.00; 4.35; 22.31
2018-04-18 01:15:58; 196.00; 4.34; 22.25
2018-04-18 01:30:02; 195.00; 4.35; 22.31
2018-04-18 01:30:14; 195.00; 4.35; 22.31
2018-04-18 01:30:26; 195.00; 4.35; 22.31
2018-04-18 01:30:39; 195.00; 4.35; 22.31
2018-04-18 01:30:51; 195.00; 4.35; 22.31
2018-04-18 01:45:07; 196.00; 4.34; 22.25
2018-04-18 01:45:19; 196.00; 4.34; 22.25
2018-04-18 01:45:32; 195.00; 4.35; 22.25
2018-04-18 01:45:44; 195.00; 4.35; 22.25
2018-04-18 01:45:56; 195.00; 4.35; 22.25
2018-04-18 02:00:12; 196.00; 4.34; 22.25
2018-04-18 02:00:24; 196.00; 4.34; 22.25
2018-04-18 02:00:36; 196.00; 4.34; 22.25
2018-04-18 02:00:49; 196.00; 4.34; 22.25
2018-04-18 02:15:04; 195.00; 4.35; 22.25
2018-04-18 02:15:17; 196.00; 4.34; 22.25
2018-04-18 02:15:29; 196.00; 4.34; 22.25
2018-04-18 02:15:41; 196.00; 4.34; 22.25
2018-04-18 02:15:54; 196.00; 4.34; 22.25
2018-04-18 02:30:09; 195.00; 4.35; 22.31
2018-04-18 02:30:22; 196.00; 4.34; 22.31
2018-04-18 02:30:34; 196.00; 4.34; 22.31
2018-04-18 02:30:46; 195.00; 4.35; 22.31
2018-04-18 02:30:59; 196.00; 4.34; 22.31
2018-04-18 02:45:03; 196.00; 4.34; 22.38
2018-04-18 02:45:15; 195.00; 4.35; 22.38
2018-04-18 02:45:28; 195.00; 4.35; 22.38
2018-04-18 02:45:40; 195.00; 4.35; 22.38
2018-04-18 02:45:52; 195.00; 4.35; 22.44
2018-04-18 03:00:08; 195.00; 4.35; 22.56
2018-04-18 03:00:20; 195.00; 4.35; 22.56
2018-04-18 03:00:33; 195.00; 4.35; 22.56
2018-04-18 03:00:45; 195.00; 4.35; 22.56
2018-04-18 03:00:58; 195.00; 4.35; 22.56
2018-04-18 03:15:02; 195.00; 4.35; 22.63
2018-04-18 03:15:14; 196.00; 4.34; 22.56
2018-04-18 03:15:26; 195.00; 4.35; 22.56
2018-04-18 03:15:39; 196.00; 4.34; 22.63
2018-04-18 03:15:51; 195.00; 4.35; 22.63
2018-04-18 03:30:07; 196.00; 4.34; 22.56
2018-04-18 03:30:19; 195.00; 4.35; 22.56
2018-04-18 03:30:32; 196.00; 4.34; 22.56
2018-04-18 03:30:44; 195.00; 4.35; 22.56
2018-04-18 03:30:56; 196.00; 4.34; 22.56
2018-04-18 03:45:12; 196.00; 4.34; 22.56
2018-04-18 03:45:24; 196.00; 4.35; 22.50
2018-04-18 03:45:37; 196.00; 4.34; 22.56
2018-04-18 03:45:49; 195.00; 4.35; 22.56
2018-04-18 04:00:04; 195.00; 4.35; 22.69
2018-04-18 04:00:17; 195.00; 4.35; 22.63
2018-04-18 04:00:29; 195.00; 4.35; 22.63
2018-04-18 04:00:42; 196.00; 4.34; 22.69
2018-04-18 04:00:54; 194.00; 4.36; 22.69
2018-04-18 04:15:09; 195.00; 4.35; 22.69
2018-04-18 04:15:22; 196.00; 4.34; 22.69
2018-04-18 04:15:34; 195.00; 4.35; 22.69
2018-04-18 04:15:47; 196.00; 4.34; 22.69
2018-04-18 04:15:59; 195.00; 4.36; 22.69
2018-04-18 04:30:03; 195.00; 4.35; 22.69
2018-04-18 04:30:16; 195.00; 4.35; 22.69
2018-04-18 04:30:28; 195.00; 4.35; 22.69
2018-04-18 04:30:40; 196.00; 4.34; 22.69
2018-04-18 04:30:53; 195.00; 4.35; 22.69
2018-04-18 04:45:08; 195.00; 4.35; 22.50
2018-04-18 04:45:21; 196.00; 4.34; 22.50
2018-04-18 04:45:33; 195.00; 4.35; 22.50
2018-04-18 04:45:45; 195.00; 4.35; 22.50
2018-04-18 04:45:58; 195.00; 4.35; 22.50
2018-04-18 05:00:02; 195.00; 4.35; 22.31
2018-04-18 05:00:14; 195.00; 4.35; 22.31
2018-04-18 05:00:27; 195.00; 4.35; 22.31
2018-04-18 05:00:39; 196.00; 4.34; 22.31
2018-04-18 05:00:51; 196.00; 4.35; 22.31
2018-04-18 05:15:07; 195.00; 4.35; 22.19
2018-04-18 05:15:19; 195.00; 4.35; 22.19
2018-04-18 05:15:32; 195.00; 4.35; 22.19
2018-04-18 05:15:44; 196.00; 4.34; 22.19
2018-04-18 05:15:56; 195.00; 4.35; 22.13
2018-04-18 05:30:12; 196.00; 4.34; 22.13
2018-04-18 05:30:24; 196.00; 4.34; 22.13
2018-04-18 05:30:37; 197.00; 4.33; 22.13
2018-04-18 05:30:49; 196.00; 4.34; 22.13
2018-04-18 05:45:05; 195.00; 4.35; 22.25
2018-04-18 05:45:17; 196.00; 4.34; 22.25
2018-04-18 05:45:29; 196.00; 4.34; 22.25
2018-04-18 05:45:42; 196.00; 4.34; 22.25
2018-04-18 05:45:54; 195.00; 4.35; 22.25
2018-04-18 06:00:10; 195.00; 4.35; 22.31
2018-04-18 06:00:22; 195.00; 4.35; 22.31
2018-04-18 06:00:34; 195.00; 4.35; 22.31
2018-04-18 06:00:47; 195.00; 4.35; 22.31
2018-04-18 06:00:59; 195.00; 4.35; 22.31
2018-04-18 06:15:03; 196.00; 4.34; 22.50
2018-04-18 06:15:16; 196.00; 4.34; 22.50
2018-04-18 06:15:28; 196.00; 4.34; 22.50
2018-04-18 06:15:40; 196.00; 4.34; 22.50
2018-04-18 06:15:53; 196.00; 4.34; 22.50
2018-04-18 06:30:08; 196.00; 4.34; 22.56
2018-04-18 06:30:20; 196.00; 4.34; 22.50
2018-04-18 06:30:33; 196.00; 4.34; 22.56
2018-04-18 06:30:45; 196.00; 4.34; 22.56
2018-04-18 06:30:58; 196.00; 4.34; 22.56
2018-04-18 06:45:02; 196.00; 4.34; 22.44
2018-04-18 06:45:14; 196.00; 4.34; 22.44
2018-04-18 06:45:27; 196.00; 4.34; 22.44
2018-04-18 06:45:39; 196.00; 4.34; 22.44
2018-04-18 06:45:51; 196.00; 4.34; 22.44
2018-04-18 07:00:07; 196.00; 4.34; 22.25
2018-04-18 07:00:19; 196.00; 4.34; 22.25
2018-04-18 07:00:32; 196.00; 4.34; 22.25
2018-04-18 07:00:44; 196.00; 4.34; 22.31
2018-04-18 07:00:56; 196.00; 4.34; 22.25
2018-04-18 07:15:12; 196.00; 4.34; 22.13
2018-04-18 07:15:24; 196.00; 4.34; 22.13
2018-04-18 07:15:37; 196.00; 4.34; 22.13
2018-04-18 07:15:49; 196.00; 4.34; 22.13
2018-04-18 07:30:04; 196.00; 4.34; 21.88
2018-04-18 07:30:17; 196.00; 4.34; 21.94
2018-04-18 07:30:29; 196.00; 4.34; 21.94
2018-04-18 07:30:42; 196.00; 4.34; 21.88
2018-04-18 07:30:54; 196.00; 4.34; 21.88
2018-04-18 07:45:09; 197.00; 4.33; 21.75
2018-04-18 07:45:22; 196.00; 4.33; 21.75
2018-04-18 07:45:34; 196.00; 4.34; 21.75
2018-04-18 07:45:46; 196.00; 4.34; 21.69
2018-04-18 07:45:59; 197.00; 4.33; 21.69
2018-04-18 08:00:03; 196.00; 4.34; 21.56
2018-04-18 08:00:15; 196.00; 4.34; 21.56
2018-04-18 08:00:28; 196.00; 4.34; 21.56
2018-04-18 08:00:40; 196.00; 4.34; 21.56
2018-04-18 08:00:52; 196.00; 4.34; 21.56
2018-04-18 08:15:08; 196.00; 4.34; 21.50
2018-04-18 08:15:20; 196.00; 4.34; 21.50
2018-04-18 08:15:33; 196.00; 4.34; 21.50
2018-04-18 08:15:45; 195.00; 4.35; 21.50
2018-04-18 08:15:57; 196.00; 4.34; 21.50
2018-04-18 08:30:01; 196.00; 4.34; 21.75
2018-04-18 08:30:14; 196.00; 4.34; 21.75
2018-04-18 08:30:26; 196.00; 4.34; 21.75
2018-04-18 08:30:39; 196.00; 4.34; 21.75
2018-04-18 08:30:51; 196.00; 4.34; 21.75
2018-04-18 08:45:06; 196.00; 4.34; 22.19
2018-04-18 08:45:19; 197.00; 4.33; 22.19
2018-04-18 08:45:31; 196.00; 4.34; 22.19
2018-04-18 08:45:44; 196.00; 4.34; 22.19
2018-04-18 08:45:56; 197.00; 4.33; 22.19
2018-04-18 09:00:11; 196.00; 4.34; 22.25
2018-04-18 09:00:24; 196.00; 4.34; 22.25
2018-04-18 09:00:36; 196.00; 4.34; 22.31
2018-04-18 09:00:49; 196.00; 4.34; 22.31
2018-04-18 09:15:04; 196.00; 4.34; 23.88
2018-04-18 09:15:16; 196.00; 4.34; 23.88
2018-04-18 09:15:29; 196.00; 4.34; 23.94
2018-04-18 09:15:41; 196.00; 4.34; 24.00
2018-04-18 09:15:54; 196.00; 4.34; 24.00
2018-04-18 09:30:09; 195.00; 4.35; 24.56
2018-04-18 09:30:21; 196.00; 4.34; 24.56
2018-04-18 09:30:34; 196.00; 4.34; 24.63
2018-04-18 09:30:46; 196.00; 4.34; 24.63
2018-04-18 09:30:58; 196.00; 4.34; 24.69
2018-04-18 09:45:02; 195.00; 4.35; 27.00
2018-04-18 09:45:15; 196.00; 4.34; 27.00
2018-04-18 09:45:27; 196.00; 4.34; 27.06
2018-04-18 09:45:39; 196.00; 4.34; 27.06
2018-04-18 09:45:52; 196.00; 4.34; 27.13
2018-04-18 10:00:07; 195.00; 4.35; 27.25
2018-04-18 10:00:19; 195.00; 4.35; 27.25
2018-04-18 10:00:32; 196.00; 4.34; 27.19
2018-04-18 10:00:44; 196.00; 4.35; 27.19
2018-04-18 10:00:56; 195.00; 4.35; 27.19
2018-04-18 10:15:11; 194.00; 4.36; 27.44
2018-04-18 10:15:24; 194.00; 4.36; 27.38
2018-04-18 10:15:36; 195.00; 4.35; 27.38
2018-04-18 10:15:48; 195.00; 4.35; 27.31
2018-04-18 10:30:03; 195.00; 4.35; 28.06
2018-04-18 10:30:16; 195.00; 4.35; 28.06
2018-04-18 10:30:28; 195.00; 4.35; 28.13
2018-04-18 10:30:41; 195.00; 4.35; 28.13
2018-04-18 10:30:53; 195.00; 4.35; 28.19
2018-04-18 10:45:08; 195.00; 4.34; 30.75
2018-04-18 10:45:20; 195.00; 4.35; 30.75
2018-04-18 10:45:33; 195.00; 4.35; 30.75
2018-04-18 10:45:45; 195.00; 4.35; 30.69
2018-04-18 10:45:57; 195.00; 4.35; 30.63
2018-04-18 11:00:01; 196.00; 4.34; 29.25
2018-04-18 11:00:13; 195.00; 4.35; 29.25
2018-04-18 11:00:26; 195.00; 4.35; 29.25
2018-04-18 11:00:38; 196.00; 4.34; 29.25
2018-04-18 11:00:50; 196.00; 4.34; 29.25
2018-04-18 11:15:05; 195.00; 4.35; 28.31
2018-04-18 11:15:18; 195.00; 4.35; 28.38
2018-04-18 11:15:30; 195.00; 4.35; 28.44
2018-04-18 11:15:42; 194.00; 4.35; 28.50
2018-04-18 11:15:55; 195.00; 4.35; 28.56
2018-04-18 11:30:10; 195.00; 4.35; 30.13
2018-04-18 11:30:22; 194.00; 4.36; 30.13
2018-04-18 11:30:34; 194.00; 4.36; 30.13
2018-04-18 11:30:47; 194.00; 4.36; 30.13
2018-04-18 11:30:59; 194.00; 4.36; 30.19
2018-04-18 11:45:03; 195.00; 4.35; 30.13
2018-04-18 11:45:15; 194.00; 4.36; 30.13
2018-04-18 11:45:27; 195.00; 4.35; 30.13
2018-04-18 11:45:40; 195.00; 4.35; 30.13
2018-04-18 11:45:52; 195.00; 4.35; 30.06
2018-04-18 12:00:07; 194.00; 4.36; 30.38
2018-04-18 12:00:19; 194.00; 4.36; 30.31
2018-04-18 12:00:32; 195.00; 4.35; 30.25
2018-04-18 12:00:44; 195.00; 4.35; 30.19
2018-04-18 12:00:56; 195.00; 4.35; 30.19
2018-04-18 12:15:11; 195.00; 4.35; 30.38
2018-04-18 12:15:23; 195.00; 4.35; 30.38
2018-04-18 12:15:36; 195.00; 4.35; 30.38
2018-04-18 12:15:48; 195.00; 4.35; 30.38
2018-04-18 12:30:03; 194.00; 4.36; 30.31
2018-04-18 12:30:15; 195.00; 4.35; 30.31
2018-04-18 12:30:28; 195.00; 4.35; 30.31
2018-04-18 12:30:40; 194.00; 4.36; 30.31
2018-04-18 12:30:52; 195.00; 4.35; 30.25
2018-04-18 12:45:07; 194.00; 4.36; 31.19
2018-04-18 12:45:20; 195.00; 4.35; 31.19
2018-04-18 12:45:32; 194.00; 4.36; 31.13
2018-04-18 12:45:44; 195.00; 4.36; 31.13
2018-04-18 12:45:57; 195.00; 4.35; 31.06
2018-04-18 13:00:11; 194.00; 4.36; 32.50
2018-04-18 13:00:24; 194.00; 4.36; 32.56
2018-04-18 13:00:36; 194.00; 4.36; 32.63
2018-04-18 13:00:49; 193.00; 4.37; 32.63
2018-04-18 13:15:03; 194.00; 4.36; 33.56
2018-04-18 13:15:16; 193.00; 4.37; 33.50
2018-04-18 13:15:28; 194.00; 4.36; 33.38
2018-04-18 13:15:40; 193.00; 4.37; 33.25
2018-04-18 13:15:53; 193.00; 4.37; 33.31
2018-04-18 13:30:07; 194.00; 4.36; 32.19
2018-04-18 13:30:20; 194.00; 4.36; 32.19
2018-04-18 13:30:32; 195.00; 4.35; 32.19
2018-04-18 13:30:44; 195.00; 4.35; 32.25
2018-04-18 13:30:57; 194.00; 4.36; 32.19
2018-04-18 13:45:12; 194.00; 4.36; 32.69
2018-04-18 13:45:24; 194.00; 4.36; 32.63
2018-04-18 13:45:36; 195.00; 4.35; 32.69
2018-04-18 13:45:49; 195.00; 4.35; 32.63
2018-04-18 14:00:03; 194.00; 4.36; 33.00
2018-04-18 14:00:16; 194.00; 4.36; 33.06
2018-04-18 14:00:28; 194.00; 4.36; 33.13
2018-04-18 14:00:40; 194.00; 4.36; 33.19
2018-04-18 14:00:53; 194.00; 4.36; 33.25
2018-04-18 14:15:07; 194.00; 4.36; 34.69
2018-04-18 14:15:20; 194.00; 4.36; 34.69
2018-04-18 14:15:32; 194.00; 4.36; 34.69
2018-04-18 14:15:44; 194.00; 4.36; 34.75
2018-04-18 14:15:57; 194.00; 4.36; 34.75
2018-04-18 14:30:11; 194.00; 4.36; 36.44
2018-04-18 14:30:24; 194.00; 4.36; 36.44
2018-04-18 14:30:36; 195.00; 4.35; 36.50
2018-04-18 14:30:48; 194.00; 4.36; 36.56
2018-04-18 14:45:03; 193.00; 4.37; 37.44
2018-04-18 14:45:15; 194.00; 4.36; 37.44
2018-04-18 14:45:28; 194.00; 4.36; 37.38
2018-04-18 14:45:40; 194.00; 4.36; 37.44
2018-04-18 14:45:52; 194.00; 4.36; 37.50
2018-04-18 15:00:07; 194.00; 4.36; 37.44
2018-04-18 15:00:19; 194.00; 4.36; 37.50
2018-04-18 15:00:31; 194.00; 4.36; 37.50
2018-04-18 15:00:44; 194.00; 4.36; 37.56
2018-04-18 15:00:56; 193.00; 4.36; 37.56
2018-04-18 15:15:10; 194.00; 4.35; 37.63
2018-04-18 15:15:23; 195.00; 4.35; 37.50
2018-04-18 15:15:35; 195.00; 4.35; 37.50
2018-04-18 15:15:47; 194.00; 4.36; 37.44
2018-04-18 15:16:00; 194.00; 4.36; 37.44
2018-04-18 15:30:03; 194.00; 4.36; 37.38
2018-04-18 15:30:15; 194.00; 4.36; 37.38
2018-04-18 15:30:28; 194.00; 4.36; 37.38
2018-04-18 15:30:40; 194.00; 4.36; 37.44
2018-04-18 15:30:52; 194.00; 4.36; 37.44
2018-04-18 15:45:07; 193.00; 4.36; 37.81
2018-04-18 15:45:19; 193.00; 4.37; 37.81
2018-04-18 15:45:31; 194.00; 4.36; 37.75
2018-04-18 15:45:44; 194.00; 4.36; 37.75
2018-04-18 15:45:56; 193.00; 4.37; 37.81
2018-04-18 16:00:11; 194.00; 4.36; 38.06
2018-04-18 16:00:23; 194.00; 4.36; 37.88
2018-04-18 16:00:35; 194.00; 4.36; 37.88
2018-04-18 16:00:48; 194.00; 4.36; 37.81
2018-04-18 16:01:00; 194.00; 4.36; 37.88
2018-04-18 16:15:03; 195.00; 4.35; 38.00
2018-04-18 16:15:15; 194.00; 4.36; 38.00
2018-04-18 16:15:28; 194.00; 4.36; 38.00
2018-04-18 16:15:40; 195.00; 4.35; 38.06
2018-04-18 16:15:53; 194.00; 4.36; 38.06
2018-04-18 16:30:07; 194.00; 4.36; 38.63
2018-04-18 16:30:19; 194.00; 4.36; 38.63
2018-04-18 16:30:32; 195.00; 4.35; 38.69
2018-04-18 16:30:44; 195.00; 4.35; 38.69
2018-04-18 16:30:56; 195.00; 4.35; 38.69
2018-04-18 16:45:11; 195.00; 4.36; 39.00
2018-04-18 16:45:23; 194.00; 4.35; 39.06
2018-04-18 16:45:35; 195.00; 4.35; 39.06
2018-04-18 16:45:48; 195.00; 4.35; 39.06
2018-04-18 16:46:00; 194.00; 4.36; 39.06
2018-04-18 17:00:03; 194.00; 4.36; 39.19
2018-04-18 17:00:15; 194.00; 4.36; 39.19
2018-04-18 17:00:28; 194.00; 4.36; 39.13
2018-04-18 17:00:40; 194.00; 4.36; 39.00
2018-04-18 17:00:53; 194.00; 4.36; 38.88
2018-04-18 17:15:07; 194.00; 4.36; 38.25
2018-04-18 17:15:19; 194.00; 4.36; 38.25
2018-04-18 17:15:32; 194.00; 4.36; 38.25
2018-04-18 17:15:44; 194.00; 4.36; 38.13
2018-04-18 17:15:56; 194.00; 4.36; 38.06
2018-04-18 17:30:11; 194.00; 4.36; 38.25
2018-04-18 17:30:23; 193.00; 4.37; 38.25
2018-04-18 17:30:36; 192.00; 4.38; 38.31
2018-04-18 17:30:48; 194.00; 4.35; 38.25
2018-04-18 17:31:00; 194.00; 4.36; 38.25
2018-04-18 17:45:03; 195.00; 4.35; 37.88
2018-04-18 17:45:16; 194.00; 4.36; 37.88
2018-04-18 17:45:28; 195.00; 4.35; 37.88
2018-04-18 17:45:40; 195.00; 4.35; 37.88
2018-04-18 17:45:53; 195.00; 4.35; 37.88
2018-04-18 18:00:07; 195.00; 4.35; 37.19
2018-04-18 18:00:20; 195.00; 4.35; 37.19
2018-04-18 18:00:32; 195.00; 4.35; 37.25
2018-04-18 18:00:44; 194.00; 4.36; 37.25
2018-04-18 18:00:57; 194.00; 4.36; 37.25
2018-04-18 18:15:11; 195.00; 4.35; 35.63
2018-04-18 18:15:24; 195.00; 4.35; 35.50
2018-04-18 18:15:36; 195.00; 4.35; 35.44
2018-04-18 18:15:48; 195.00; 4.35; 35.44
2018-04-18 18:30:03; 195.00; 4.35; 33.94
2018-04-18 18:30:15; 196.00; 4.35; 33.94
2018-04-18 18:30:28; 196.00; 4.34; 33.81
2018-04-18 18:30:40; 196.00; 4.34; 33.81
2018-04-18 18:30:52; 195.00; 4.35; 33.81
2018-04-18 18:45:07; 195.00; 4.35; 31.06
2018-04-18 18:45:20; 195.00; 4.35; 31.06
2018-04-18 18:45:32; 195.00; 4.35; 31.06
2018-04-18 18:45:44; 195.00; 4.35; 31.00
2018-04-18 18:45:57; 195.00; 4.35; 31.00
2018-04-18 19:00:12; 195.00; 4.35; 28.88
2018-04-18 19:00:24; 195.00; 4.35; 28.81
2018-04-18 19:00:36; 195.00; 4.35; 28.81
2018-04-18 19:00:49; 195.00; 4.35; 28.75
2018-04-18 19:15:04; 196.00; 4.34; 27.31
2018-04-18 19:15:16; 196.00; 4.34; 27.31
2018-04-18 19:15:28; 196.00; 4.34; 27.31
2018-04-18 19:15:41; 195.00; 4.34; 27.25
2018-04-18 19:15:53; 196.00; 4.35; 27.25
2018-04-18 19:30:08; 195.00; 4.35; 26.44
2018-04-18 19:30:21; 195.00; 4.35; 26.44
2018-04-18 19:30:33; 196.00; 4.34; 26.44
2018-04-18 19:30:45; 195.00; 4.35; 26.38
2018-04-18 19:30:58; 196.00; 4.34; 26.38
2018-04-18 19:45:02; 195.00; 4.35; 25.81
2018-04-18 19:45:14; 195.00; 4.35; 25.75
2018-04-18 19:45:26; 195.00; 4.35; 25.75
2018-04-18 19:45:39; 195.00; 4.35; 25.75
2018-04-18 19:45:51; 195.00; 4.35; 25.75
2018-04-18 20:00:06; 196.00; 4.34; 25.31
2018-04-18 20:00:19; 196.00; 4.34; 25.38
2018-04-18 20:00:31; 196.00; 4.34; 25.31
2018-04-18 20:00:43; 196.00; 4.34; 25.31
2018-04-18 20:00:56; 196.00; 4.34; 25.31
2018-04-18 20:15:11; 195.00; 4.34; 25.06
2018-04-18 20:15:23; 195.00; 4.35; 25.06
2018-04-18 20:15:36; 196.00; 4.34; 25.06
2018-04-18 20:15:48; 196.00; 4.34; 25.06
2018-04-18 20:16:00; 196.00; 4.34; 25.06
2018-04-18 20:30:04; 196.00; 4.34; 24.75
2018-04-18 20:30:17; 196.00; 4.34; 24.69
2018-04-18 20:30:29; 196.00; 4.34; 24.69
2018-04-18 20:30:41; 196.00; 4.34; 24.69
2018-04-18 20:30:54; 196.00; 4.34; 24.69
2018-04-18 20:45:09; 196.00; 4.34; 24.38
2018-04-18 20:45:21; 196.00; 4.34; 24.38
2018-04-18 20:45:34; 196.00; 4.34; 24.38
2018-04-18 20:45:46; 196.00; 4.34; 24.38
2018-04-18 20:45:59; 196.00; 4.34; 24.38
2018-04-18 21:00:02; 196.00; 4.34; 24.19
2018-04-18 21:00:15; 196.00; 4.34; 24.19
2018-04-18 21:00:27; 196.00; 4.34; 24.19
2018-04-18 21:00:40; 196.00; 4.34; 24.19
2018-04-18 21:00:52; 196.00; 4.34; 24.19
2018-04-18 21:15:07; 197.00; 4.33; 23.94
2018-04-18 21:15:20; 196.00; 4.34; 23.94
2018-04-18 21:15:32; 196.00; 4.34; 23.94
2018-04-18 21:15:44; 196.00; 4.34; 23.94
2018-04-18 21:15:57; 197.00; 4.33; 23.94
2018-04-18 21:30:01; 196.00; 4.34; 23.75
2018-04-18 21:30:13; 196.00; 4.34; 23.75
2018-04-18 21:30:26; 196.00; 4.34; 23.75
2018-04-18 21:30:38; 196.00; 4.34; 23.75
2018-04-18 21:30:50; 196.00; 4.34; 23.75
2018-04-18 21:45:06; 196.00; 4.34; 23.56
2018-04-18 21:45:18; 197.00; 4.33; 23.56
2018-04-18 21:45:31; 196.00; 4.34; 23.56
2018-04-18 21:45:43; 196.00; 4.34; 23.56
2018-04-18 21:45:55; 196.00; 4.34; 23.56
2018-04-18 22:00:11; 196.00; 4.34; 23.56
2018-04-18 22:00:23; 195.00; 4.35; 23.56
2018-04-18 22:00:35; 195.00; 4.35; 23.56
2018-04-18 22:00:48; 196.00; 4.34; 23.50
2018-04-18 22:01:00; 196.00; 4.34; 23.50
2018-04-18 22:15:04; 196.00; 4.34; 23.44
2018-04-18 22:15:16; 196.00; 4.34; 23.44
2018-04-18 22:15:29; 196.00; 4.34; 23.44
2018-04-18 22:15:41; 196.00; 4.34; 23.44
2018-04-18 22:15:54; 196.00; 4.34; 23.44
2018-04-18 22:30:09; 197.00; 4.33; 23.31
2018-04-18 22:30:21; 197.00; 4.34; 23.25
2018-04-18 22:30:34; 197.00; 4.33; 23.25
2018-04-18 22:30:46; 197.00; 4.34; 23.25
2018-04-18 22:30:59; 197.00; 4.33; 23.25
2018-04-18 22:45:02; 197.00; 4.33; 23.31
2018-04-18 22:45:15; 196.00; 4.34; 23.31
2018-04-18 22:45:27; 196.00; 4.34; 23.31
2018-04-18 22:45:40; 196.00; 4.34; 23.31
2018-04-18 22:45:52; 196.00; 4.34; 23.31
2018-04-18 23:00:07; 196.00; 4.34; 23.31
2018-04-18 23:00:20; 196.00; 4.34; 23.31
2018-04-18 23:00:32; 196.00; 4.34; 23.31
2018-04-18 23:00:44; 196.00; 4.34; 23.31
2018-04-18 23:00:57; 196.00; 4.34; 23.31
2018-04-18 23:15:01; 196.00; 4.34; 23.13
2018-04-18 23:15:13; 196.00; 4.34; 23.13
2018-04-18 23:15:26; 196.00; 4.34; 23.13
2018-04-18 23:15:38; 196.00; 4.34; 23.13
2018-04-18 23:15:50; 196.00; 4.34; 23.13
2018-04-18 23:30:06; 196.00; 4.34; 23.00
2018-04-18 23:30:18; 196.00; 4.34; 23.00
2018-04-18 23:30:30; 196.00; 4.34; 23.00
2018-04-18 23:30:43; 196.00; 4.34; 23.00
2018-04-18 23:30:55; 196.00; 4.34; 23.00
2018-04-18 23:45:11; 197.00; 4.33; 23.00
2018-04-18 23:45:23; 197.00; 4.33; 23.00
2018-04-18 23:45:36; 197.00; 4.33; 23.00
2018-04-18 23:45:48; 197.00; 4.33; 23.00
2018-04-18 23:46:00; 196.00; 4.34; 23.00
