2018-08-23 00:00:08; 399.00; 2.31; 10.56
2018-08-23 00:00:20; 399.00; 2.31; 10.56
2018-08-23 00:00:33; 399.00; 2.31; 10.56
2018-08-23 00:00:45; 399.00; 2.31; 10.56
2018-08-23 00:00:58; 399.00; 2.31; 10.56
2018-08-23 00:15:01; 399.00; 2.31; 10.81
2018-08-23 00:15:13; 399.00; 2.31; 10.81
2018-08-23 00:15:26; 399.00; 2.31; 10.75
2018-08-23 00:15:38; 399.00; 2.31; 10.81
2018-08-23 00:15:51; 399.00; 2.31; 10.81
2018-08-23 00:30:06; 399.00; 2.31; 10.56
2018-08-23 00:30:18; 399.00; 2.31; 10.56
2018-08-23 00:30:30; 399.00; 2.31; 10.56
2018-08-23 00:30:43; 399.00; 2.31; 10.56
2018-08-23 00:30:55; 399.00; 2.31; 10.56
2018-08-23 00:45:10; 399.00; 2.31; 10.50
2018-08-23 00:45:22; 399.00; 2.31; 10.50
2018-08-23 00:45:35; 399.00; 2.30; 10.50
2018-08-23 00:45:47; 399.00; 2.31; 10.50
2018-08-23 00:46:00; 400.00; 2.30; 10.50
2018-08-23 01:00:03; 399.00; 2.31; 10.38
2018-08-23 01:00:16; 399.00; 2.31; 10.38
2018-08-23 01:00:28; 399.00; 2.31; 10.38
2018-08-23 01:00:40; 399.00; 2.31; 10.38
2018-08-23 01:00:53; 399.00; 2.31; 10.38
2018-08-23 01:15:08; 399.00; 2.31; 10.25
2018-08-23 01:15:20; 399.00; 2.31; 10.25
2018-08-23 01:15:32; 399.00; 2.31; 10.25
2018-08-23 01:15:45; 399.00; 2.31; 10.25
2018-08-23 01:15:57; 399.00; 2.31; 10.25
2018-08-23 01:30:01; 399.00; 2.31; 10.00
2018-08-23 01:30:13; 399.00; 2.31; 10.00
2018-08-23 01:30:25; 399.00; 2.31; 10.00
2018-08-23 01:30:38; 399.00; 2.31; 10.00
2018-08-23 01:30:50; 399.00; 2.31; 10.00
2018-08-23 01:45:05; 399.00; 2.31; 10.00
2018-08-23 01:45:18; 399.00; 2.31; 10.00
2018-08-23 01:45:30; 399.00; 2.31; 10.00
2018-08-23 01:45:42; 399.00; 2.31; 10.00
2018-08-23 01:45:55; 399.00; 2.31; 9.94
2018-08-23 02:00:10; 398.00; 2.32; 10.00
2018-08-23 02:00:22; 398.00; 2.32; 10.00
2018-08-23 02:00:34; 398.00; 2.32; 9.94
2018-08-23 02:00:47; 399.00; 2.31; 9.94
2018-08-23 02:00:59; 400.00; 2.30; 10.00
2018-08-23 02:15:03; 399.00; 2.31; 10.13
2018-08-23 02:15:15; 398.00; 2.32; 10.19
2018-08-23 02:15:27; 398.00; 2.32; 10.19
2018-08-23 02:15:40; 398.00; 2.32; 10.19
2018-08-23 02:15:52; 398.00; 2.32; 10.19
2018-08-23 02:30:07; 399.00; 2.31; 10.19
2018-08-23 02:30:20; 398.00; 2.32; 10.19
2018-08-23 02:30:32; 398.00; 2.32; 10.19
2018-08-23 02:30:44; 399.00; 2.31; 10.19
2018-08-23 02:30:57; 398.00; 2.32; 10.19
2018-08-23 02:45:12; 399.00; 2.31; 10.13
2018-08-23 02:45:24; 398.00; 2.32; 10.13
2018-08-23 02:45:36; 399.00; 2.31; 10.13
2018-08-23 02:45:49; 399.00; 2.31; 10.13
2018-08-23 03:00:04; 399.00; 2.31; 9.94
2018-08-23 03:00:16; 399.00; 2.31; 9.94
2018-08-23 03:00:28; 398.00; 2.32; 9.94
2018-08-23 03:00:41; 399.00; 2.31; 9.94
2018-08-23 03:00:53; 399.00; 2.31; 9.94
2018-08-23 03:15:08; 399.00; 2.31; 9.81
2018-08-23 03:15:21; 400.00; 2.30; 9.81
2018-08-23 03:15:33; 400.00; 2.30; 9.81
2018-08-23 03:15:45; 399.00; 2.31; 9.81
2018-08-23 03:15:58; 399.00; 2.31; 9.81
2018-08-23 03:30:02; 400.00; 2.30; 9.50
2018-08-23 03:30:14; 400.00; 2.30; 9.50
2018-08-23 03:30:26; 400.00; 2.30; 9.50
2018-08-23 03:30:39; 400.00; 2.30; 9.50
2018-08-23 03:30:51; 400.00; 2.30; 9.50
2018-08-23 03:45:06; 400.00; 2.30; 9.50
2018-08-23 03:45:19; 399.00; 2.31; 9.50
2018-08-23 03:45:31; 400.00; 2.30; 9.50
2018-08-23 03:45:44; 400.00; 2.30; 9.50
2018-08-23 03:45:56; 400.00; 2.30; 9.50
2018-08-23 04:00:11; 399.00; 2.31; 9.63
2018-08-23 04:00:24; 400.00; 2.30; 9.63
2018-08-23 04:00:36; 399.00; 2.31; 9.63
2018-08-23 04:00:48; 399.00; 2.31; 9.63
2018-08-23 04:15:04; 399.00; 2.31; 9.69
2018-08-23 04:15:16; 399.00; 2.31; 9.69
2018-08-23 04:15:28; 400.00; 2.30; 9.69
2018-08-23 04:15:41; 399.00; 2.31; 9.69
2018-08-23 04:15:53; 400.00; 2.30; 9.69
2018-08-23 04:30:08; 399.00; 2.31; 9.56
2018-08-23 04:30:20; 400.00; 2.30; 9.56
2018-08-23 04:30:33; 400.00; 2.30; 9.56
2018-08-23 04:30:45; 399.00; 2.31; 9.56
2018-08-23 04:30:58; 399.00; 2.31; 9.56
2018-08-23 04:45:02; 399.00; 2.31; 9.50
2018-08-23 04:45:14; 399.00; 2.31; 9.50
2018-08-23 04:45:26; 400.00; 2.30; 9.50
2018-08-23 04:45:39; 400.00; 2.30; 9.50
2018-08-23 04:45:51; 400.00; 2.30; 9.50
2018-08-23 05:00:06; 399.00; 2.31; 9.38
2018-08-23 05:00:19; 400.00; 2.30; 9.44
2018-08-23 05:00:31; 399.00; 2.31; 9.44
2018-08-23 05:00:43; 399.00; 2.31; 9.44
2018-08-23 05:00:56; 399.00; 2.31; 9.44
2018-08-23 05:15:11; 400.00; 2.30; 9.38
2018-08-23 05:15:24; 399.00; 2.31; 9.38
2018-08-23 05:15:36; 400.00; 2.30; 9.38
2018-08-23 05:15:48; 400.00; 2.30; 9.38
2018-08-23 05:30:04; 399.00; 2.31; 9.31
2018-08-23 05:30:16; 400.00; 2.30; 9.31
2018-08-23 05:30:29; 400.00; 2.30; 9.31
2018-08-23 05:30:41; 400.00; 2.30; 9.25
2018-08-23 05:30:53; 400.00; 2.30; 9.25
2018-08-23 05:45:09; 400.00; 2.31; 9.00
2018-08-23 05:45:21; 400.00; 2.30; 9.00
2018-08-23 05:45:33; 400.00; 2.30; 8.94
2018-08-23 05:45:46; 400.00; 2.30; 8.94
2018-08-23 05:45:58; 400.00; 2.30; 8.94
2018-08-23 06:00:02; 400.00; 2.30; 8.81
2018-08-23 06:00:15; 401.00; 2.29; 8.81
2018-08-23 06:00:27; 399.00; 2.31; 8.81
2018-08-23 06:00:40; 399.00; 2.30; 8.81
2018-08-23 06:00:52; 400.00; 2.30; 8.81
2018-08-23 06:15:08; 400.00; 2.30; 8.75
2018-08-23 06:15:20; 400.00; 2.30; 8.75
2018-08-23 06:15:32; 400.00; 2.30; 8.75
2018-08-23 06:15:45; 400.00; 2.30; 8.75
2018-08-23 06:15:57; 400.00; 2.30; 8.75
2018-08-23 06:30:01; 400.00; 2.30; 8.63
2018-08-23 06:30:14; 400.00; 2.30; 8.63
2018-08-23 06:30:26; 400.00; 2.30; 8.69
2018-08-23 06:30:38; 400.00; 2.30; 8.63
2018-08-23 06:30:51; 400.00; 2.30; 8.63
2018-08-23 06:45:06; 401.00; 2.29; 8.63
2018-08-23 06:45:19; 400.00; 2.30; 8.63
2018-08-23 06:45:31; 400.00; 2.30; 8.63
2018-08-23 06:45:43; 400.00; 2.30; 8.56
2018-08-23 06:45:56; 400.00; 2.30; 8.56
2018-08-23 07:00:11; 400.00; 2.30; 8.50
2018-08-23 07:00:24; 400.00; 2.30; 8.50
2018-08-23 07:00:36; 400.00; 2.30; 8.50
2018-08-23 07:00:49; 400.00; 2.30; 8.50
2018-08-23 07:15:04; 400.00; 2.30; 8.50
2018-08-23 07:15:16; 401.00; 2.29; 8.50
2018-08-23 07:15:29; 400.00; 2.30; 8.50
2018-08-23 07:15:41; 401.00; 2.29; 8.50
2018-08-23 07:15:54; 399.00; 2.31; 8.50
2018-08-23 07:30:09; 400.00; 2.30; 8.69
2018-08-23 07:30:22; 400.00; 2.30; 8.69
2018-08-23 07:30:34; 400.00; 2.30; 8.69
2018-08-23 07:30:46; 400.00; 2.30; 8.69
2018-08-23 07:30:59; 399.00; 2.31; 8.69
2018-08-23 07:45:03; 400.00; 2.30; 8.69
2018-08-23 07:45:15; 400.00; 2.30; 8.69
2018-08-23 07:45:27; 400.00; 2.30; 8.69
2018-08-23 07:45:40; 400.00; 2.30; 8.69
2018-08-23 07:45:52; 400.00; 2.30; 8.63
2018-08-23 08:00:08; 400.00; 2.30; 8.56
2018-08-23 08:00:20; 400.00; 2.30; 8.56
2018-08-23 08:00:33; 399.00; 2.31; 8.56
2018-08-23 08:00:45; 400.00; 2.30; 8.56
2018-08-23 08:00:57; 400.00; 2.30; 8.56
2018-08-23 08:15:02; 399.00; 2.31; 8.50
2018-08-23 08:15:14; 400.00; 2.30; 8.50
2018-08-23 08:15:26; 400.00; 2.30; 8.50
2018-08-23 08:15:39; 400.00; 2.30; 8.50
2018-08-23 08:15:51; 400.00; 2.30; 8.50
2018-08-23 08:30:07; 399.00; 2.31; 8.69
2018-08-23 08:30:19; 400.00; 2.31; 8.69
2018-08-23 08:30:31; 400.00; 2.30; 8.69
2018-08-23 08:30:44; 400.00; 2.30; 8.69
2018-08-23 08:30:56; 400.00; 2.30; 8.69
2018-08-23 08:45:12; 399.00; 2.31; 8.94
2018-08-23 08:45:24; 400.00; 2.30; 8.94
2018-08-23 08:45:36; 401.00; 2.29; 8.94
2018-08-23 08:45:49; 400.00; 2.30; 8.94
2018-08-23 09:00:04; 401.00; 2.29; 9.25
2018-08-23 09:00:17; 400.00; 2.30; 9.25
2018-08-23 09:00:29; 400.00; 2.30; 9.31
2018-08-23 09:00:42; 400.00; 2.30; 9.31
2018-08-23 09:00:54; 399.00; 2.31; 9.31
2018-08-23 09:15:09; 400.00; 2.30; 9.69
2018-08-23 09:15:22; 402.00; 2.28; 9.69
2018-08-23 09:15:34; 401.00; 2.29; 9.69
2018-08-23 09:15:46; 401.00; 2.29; 9.69
2018-08-23 09:15:59; 400.00; 2.30; 9.69
2018-08-23 09:30:03; 401.00; 2.29; 11.63
2018-08-23 09:30:15; 400.00; 2.30; 11.63
2018-08-23 09:30:27; 401.00; 2.29; 11.69
2018-08-23 09:30:40; 400.00; 2.31; 11.69
2018-08-23 09:30:52; 399.00; 2.31; 11.75
2018-08-23 09:45:07; 399.00; 2.31; 13.06
2018-08-23 09:45:20; 400.00; 2.30; 13.00
2018-08-23 09:45:32; 400.00; 2.30; 13.00
2018-08-23 09:45:44; 399.00; 2.31; 13.00
2018-08-23 09:45:57; 399.00; 2.31; 13.06
2018-08-23 10:00:12; 399.00; 2.31; 13.56
2018-08-23 10:00:24; 398.00; 2.32; 13.63
2018-08-23 10:00:37; 399.00; 2.31; 13.63
2018-08-23 10:00:49; 399.00; 2.31; 13.63
2018-08-23 10:15:04; 399.00; 2.31; 14.19
2018-08-23 10:15:16; 397.00; 2.33; 14.19
2018-08-23 10:15:28; 398.00; 2.32; 14.19
2018-08-23 10:15:41; 399.00; 2.31; 14.19
2018-08-23 10:15:53; 399.00; 2.30; 14.13
2018-08-23 10:30:08; 400.00; 2.30; 14.06
2018-08-23 10:30:20; 398.00; 2.32; 14.06
2018-08-23 10:30:33; 398.00; 2.32; 14.06
2018-08-23 10:30:45; 398.00; 2.32; 14.06
2018-08-23 10:30:57; 398.00; 2.32; 14.13
2018-08-23 10:45:11; 397.00; 2.34; 15.19
2018-08-23 10:45:24; 398.00; 2.32; 15.19
2018-08-23 10:45:36; 398.00; 2.32; 15.25
2018-08-23 10:45:49; 399.00; 2.31; 15.31
2018-08-23 11:00:02; 398.00; 2.32; 15.75
2018-08-23 11:00:15; 398.00; 2.32; 15.81
2018-08-23 11:00:27; 398.00; 2.32; 15.81
2018-08-23 11:00:39; 398.00; 2.32; 15.88
2018-08-23 11:00:52; 398.00; 2.32; 15.81
2018-08-23 11:15:06; 397.00; 2.32; 16.50
2018-08-23 11:15:19; 398.00; 2.32; 16.50
2018-08-23 11:15:31; 398.00; 2.31; 16.50
2018-08-23 11:15:43; 398.00; 2.32; 16.50
2018-08-23 11:15:56; 398.00; 2.32; 16.56
2018-08-23 11:30:10; 398.00; 2.32; 17.63
2018-08-23 11:30:23; 398.00; 2.32; 17.63
2018-08-23 11:30:35; 399.00; 2.31; 17.63
2018-08-23 11:30:47; 398.00; 2.32; 17.63
2018-08-23 11:31:00; 398.00; 2.32; 17.63
2018-08-23 11:45:03; 397.00; 2.33; 17.63
2018-08-23 11:45:15; 398.00; 2.32; 17.63
2018-08-23 11:45:27; 398.00; 2.32; 17.69
2018-08-23 11:45:40; 398.00; 2.32; 17.69
2018-08-23 11:45:52; 398.00; 2.32; 17.69
2018-08-23 12:00:07; 398.00; 2.32; 17.13
2018-08-23 12:00:19; 398.00; 2.32; 17.19
2018-08-23 12:00:31; 398.00; 2.32; 17.13
2018-08-23 12:00:44; 397.00; 2.33; 17.13
2018-08-23 12:00:56; 398.00; 2.32; 17.13
2018-08-23 12:15:10; 398.00; 2.32; 18.31
2018-08-23 12:15:23; 398.00; 2.32; 18.38
2018-08-23 12:15:35; 398.00; 2.32; 18.44
2018-08-23 12:15:47; 397.00; 2.33; 18.50
2018-08-23 12:16:00; 398.00; 2.32; 18.44
2018-08-23 12:30:03; 398.00; 2.32; 19.63
2018-08-23 12:30:15; 398.00; 2.32; 19.56
2018-08-23 12:30:27; 398.00; 2.32; 19.56
2018-08-23 12:30:40; 398.00; 2.32; 19.63
2018-08-23 12:30:52; 397.00; 2.32; 19.69
2018-08-23 12:45:06; 398.00; 2.32; 19.63
2018-08-23 12:45:19; 397.00; 2.33; 19.69
2018-08-23 12:45:31; 397.00; 2.33; 19.75
2018-08-23 12:45:43; 397.00; 2.33; 19.75
2018-08-23 12:45:56; 397.00; 2.33; 19.75
2018-08-23 13:00:10; 397.00; 2.33; 20.38
2018-08-23 13:00:22; 397.00; 2.33; 20.38
2018-08-23 13:00:34; 397.00; 2.33; 20.38
2018-08-23 13:00:47; 397.00; 2.33; 20.38
2018-08-23 13:00:59; 397.00; 2.33; 20.38
2018-08-23 13:15:02; 397.00; 2.33; 21.13
2018-08-23 13:15:14; 396.00; 2.34; 21.06
2018-08-23 13:15:27; 397.00; 2.33; 21.06
2018-08-23 13:15:39; 397.00; 2.33; 21.06
2018-08-23 13:15:51; 397.00; 2.33; 20.94
2018-08-23 13:30:05; 396.00; 2.34; 21.31
2018-08-23 13:30:18; 395.00; 2.35; 21.25
2018-08-23 13:30:30; 395.00; 2.35; 21.25
2018-08-23 13:30:42; 395.00; 2.35; 21.31
2018-08-23 13:30:55; 395.00; 2.35; 21.38
2018-08-23 13:45:09; 396.00; 2.34; 22.31
2018-08-23 13:45:21; 395.00; 2.35; 22.19
2018-08-23 13:45:33; 396.00; 2.34; 22.19
2018-08-23 13:45:46; 396.00; 2.34; 22.19
2018-08-23 13:45:58; 395.00; 2.35; 22.06
2018-08-23 14:00:01; 396.00; 2.34; 20.69
2018-08-23 14:00:13; 396.00; 2.34; 20.75
2018-08-23 14:00:26; 397.00; 2.34; 20.81
2018-08-23 14:00:38; 396.00; 2.34; 20.88
2018-08-23 14:00:50; 396.00; 2.34; 20.88
2018-08-23 14:15:04; 396.00; 2.34; 21.63
2018-08-23 14:15:17; 396.00; 2.34; 21.50
2018-08-23 14:15:29; 395.00; 2.35; 21.50
2018-08-23 14:15:42; 395.00; 2.35; 21.44
2018-08-23 14:15:54; 395.00; 2.35; 21.44
2018-08-23 14:30:08; 395.00; 2.35; 21.69
2018-08-23 14:30:20; 395.00; 2.35; 21.75
2018-08-23 14:30:33; 395.00; 2.35; 21.75
2018-08-23 14:30:45; 395.00; 2.35; 21.81
2018-08-23 14:30:57; 395.00; 2.35; 21.88
2018-08-23 14:45:11; 395.00; 2.35; 21.75
2018-08-23 14:45:24; 394.00; 2.36; 21.75
2018-08-23 14:45:36; 394.00; 2.36; 21.75
2018-08-23 14:45:48; 394.00; 2.36; 21.81
2018-08-23 15:00:02; 395.00; 2.35; 21.50
2018-08-23 15:00:15; 395.00; 2.35; 21.44
2018-08-23 15:00:27; 396.00; 2.34; 21.44
2018-08-23 15:00:39; 396.00; 2.35; 21.44
2018-08-23 15:00:52; 395.00; 2.35; 21.44
2018-08-23 15:15:06; 395.00; 2.35; 21.38
2018-08-23 15:15:18; 395.00; 2.35; 21.38
2018-08-23 15:15:30; 395.00; 2.35; 21.38
2018-08-23 15:15:43; 395.00; 2.35; 21.38
2018-08-23 15:15:55; 394.00; 2.36; 21.38
2018-08-23 15:30:09; 395.00; 2.35; 22.06
2018-08-23 15:30:21; 395.00; 2.35; 22.13
2018-08-23 15:30:34; 395.00; 2.35; 22.06
2018-08-23 15:30:46; 395.00; 2.35; 22.00
2018-08-23 15:30:59; 395.00; 2.35; 22.06
2018-08-23 15:45:01; 394.00; 2.36; 21.38
2018-08-23 15:45:14; 394.00; 2.36; 21.38
2018-08-23 15:45:26; 395.00; 2.35; 21.38
2018-08-23 15:45:38; 394.00; 2.36; 21.38
2018-08-23 15:45:51; 394.00; 2.36; 21.38
2018-08-23 19:30:03; 395.00; 2.35; 14.81
2018-08-23 19:30:16; 395.00; 2.35; 14.81
2018-08-23 19:30:28; 395.00; 2.36; 14.81
2018-08-23 19:30:40; 395.00; 2.35; 14.81
2018-08-23 19:30:53; 394.00; 2.36; 14.81
2018-08-23 19:45:07; 395.00; 2.35; 14.44
2018-08-23 19:45:20; 395.00; 2.35; 14.44
2018-08-23 19:45:32; 395.00; 2.35; 14.44
2018-08-23 19:45:44; 395.00; 2.35; 14.44
2018-08-23 19:45:57; 395.00; 2.35; 14.44
2018-08-23 20:00:12; 395.00; 2.35; 14.13
2018-08-23 20:00:24; 395.00; 2.35; 14.13
2018-08-23 20:00:36; 395.00; 2.35; 14.13
2018-08-23 20:00:49; 395.00; 2.35; 14.13
2018-08-23 20:15:03; 395.00; 2.35; 14.00
2018-08-23 20:15:16; 395.00; 2.35; 14.00
2018-08-23 20:15:28; 395.00; 2.35; 14.00
2018-08-23 20:15:40; 395.00; 2.35; 14.00
2018-08-23 20:15:53; 395.00; 2.35; 14.00
2018-08-23 20:30:07; 395.00; 2.35; 13.81
2018-08-23 20:30:20; 395.00; 2.35; 13.81
2018-08-23 20:30:32; 395.00; 2.35; 13.81
2018-08-23 20:30:45; 395.00; 2.35; 13.81
2018-08-23 20:30:57; 395.00; 2.35; 13.81
2018-08-23 20:45:12; 395.00; 2.35; 13.44
2018-08-23 20:45:24; 395.00; 2.35; 13.44
2018-08-23 20:45:36; 395.00; 2.35; 13.44
2018-08-23 20:45:49; 395.00; 2.35; 13.44
2018-08-23 21:00:04; 395.00; 2.35; 13.50
2018-08-23 21:00:16; 395.00; 2.35; 13.50
2018-08-23 21:00:28; 395.00; 2.35; 13.50
2018-08-23 21:00:41; 395.00; 2.35; 13.50
2018-08-23 21:00:53; 395.00; 2.35; 13.50
2018-08-23 21:15:08; 395.00; 2.35; 13.50
2018-08-23 21:15:20; 395.00; 2.35; 13.50
2018-08-23 21:15:32; 395.00; 2.35; 13.44
2018-08-23 21:15:45; 395.00; 2.35; 13.50
2018-08-23 21:15:57; 395.00; 2.35; 13.50
2018-08-23 21:30:00; 395.00; 2.35; 13.25
2018-08-23 21:30:13; 395.00; 2.35; 13.25
2018-08-23 21:30:25; 395.00; 2.35; 13.25
2018-08-23 21:30:38; 395.00; 2.35; 13.25
2018-08-23 21:30:50; 395.00; 2.35; 13.25
2018-08-23 21:45:05; 396.00; 2.34; 13.06
2018-08-23 21:45:17; 396.00; 2.34; 13.06
2018-08-23 21:45:29; 395.00; 2.35; 13.06
2018-08-23 21:45:42; 396.00; 2.34; 13.06
2018-08-23 21:45:54; 396.00; 2.34; 13.06
2018-08-23 22:00:09; 395.00; 2.35; 13.00
2018-08-23 22:00:21; 395.00; 2.35; 13.00
2018-08-23 22:00:34; 395.00; 2.35; 13.00
2018-08-23 22:00:46; 395.00; 2.35; 13.00
2018-08-23 22:00:58; 395.00; 2.35; 13.00
2018-08-23 22:15:02; 396.00; 2.34; 12.81
2018-08-23 22:15:14; 396.00; 2.34; 12.81
2018-08-23 22:15:26; 396.00; 2.34; 12.81
2018-08-23 22:15:39; 396.00; 2.34; 12.81
2018-08-23 22:15:51; 396.00; 2.34; 12.81
2018-08-23 22:30:06; 395.00; 2.34; 12.63
2018-08-23 22:30:18; 395.00; 2.34; 12.63
2018-08-23 22:30:31; 395.00; 2.34; 12.63
2018-08-23 22:30:43; 395.00; 2.34; 12.63
2018-08-23 22:30:55; 396.00; 2.34; 12.63
2018-08-23 22:45:10; 394.00; 2.35; 12.81
2018-08-23 22:45:22; 395.00; 2.34; 12.88
2018-08-23 22:45:35; 396.00; 2.34; 12.88
2018-08-23 22:45:47; 395.00; 2.35; 12.88
2018-08-23 22:46:00; 395.00; 2.35; 12.88
2018-08-23 23:00:03; 396.00; 2.34; 12.88
2018-08-23 23:00:15; 395.00; 2.35; 12.88
2018-08-23 23:00:28; 396.00; 2.34; 12.88
2018-08-23 23:00:40; 396.00; 2.34; 12.88
2018-08-23 23:00:52; 396.00; 2.34; 12.88
2018-08-23 23:15:07; 396.00; 2.34; 12.69
2018-08-23 23:15:20; 395.00; 2.34; 12.69
2018-08-23 23:15:32; 396.00; 2.34; 12.69
2018-08-23 23:15:44; 395.00; 2.34; 12.69
2018-08-23 23:15:57; 395.00; 2.35; 12.69
2018-08-23 23:30:12; 394.00; 2.36; 12.38
2018-08-23 23:30:24; 395.00; 2.35; 12.44
2018-08-23 23:30:36; 395.00; 2.35; 12.38
2018-08-23 23:30:49; 394.00; 2.36; 12.38
2018-08-23 23:45:04; 395.00; 2.35; 12.31
2018-08-23 23:45:16; 394.00; 2.36; 12.31
2018-08-23 23:45:28; 395.00; 2.35; 12.31
2018-08-23 23:45:41; 395.00; 2.35; 12.31
2018-08-23 23:45:53; 395.00; 2.35; 12.25
