2018-07-31 00:00:08; 759.00; -1.29; 8.25
2018-07-31 00:00:20; 761.00; -1.31; 8.25
2018-07-31 00:00:33; 755.00; -1.25; 8.25
2018-07-31 00:00:45; 755.00; -1.25; 8.25
2018-07-31 00:00:57; 755.00; -1.25; 8.25
2018-07-31 00:15:02; 412.00; 2.18; 8.19
2018-07-31 00:15:14; 412.00; 2.18; 8.19
2018-07-31 00:15:26; 412.00; 2.18; 8.13
2018-07-31 00:15:39; 412.00; 2.18; 8.13
2018-07-31 00:15:51; 412.00; 2.18; 8.19
2018-07-31 00:30:06; 412.00; 2.18; 8.06
2018-07-31 00:30:18; 412.00; 2.18; 8.06
2018-07-31 00:30:30; 414.00; 2.16; 8.06
2018-07-31 00:30:43; 414.00; 2.16; 8.06
2018-07-31 00:30:55; 414.00; 2.16; 8.06
2018-07-31 00:45:11; 413.00; 2.17; 7.63
2018-07-31 00:45:23; 413.00; 2.17; 7.63
2018-07-31 00:45:35; 414.00; 2.16; 7.63
2018-07-31 00:45:48; 414.00; 2.16; 7.63
2018-07-31 00:46:00; 414.00; 2.16; 7.63
2018-07-31 01:00:05; 409.00; 2.21; 7.19
2018-07-31 01:00:17; 409.00; 2.21; 7.19
2018-07-31 01:00:30; 409.00; 2.21; 7.19
2018-07-31 01:00:42; 409.00; 2.21; 7.19
2018-07-31 01:00:54; 409.00; 2.21; 7.19
2018-07-31 01:15:11; 414.00; 2.16; 7.19
2018-07-31 01:15:23; 414.00; 2.16; 7.19
2018-07-31 01:15:35; 414.00; 2.16; 7.19
2018-07-31 01:15:48; 414.00; 2.16; 7.19
2018-07-31 01:16:00; 414.00; 2.16; 7.19
2018-07-31 01:30:05; 413.00; 2.17; 7.13
2018-07-31 01:30:17; 413.00; 2.17; 7.13
2018-07-31 01:30:29; 413.00; 2.17; 7.13
2018-07-31 01:30:42; 413.00; 2.17; 7.13
2018-07-31 01:30:54; 414.00; 2.16; 7.13
2018-07-31 01:45:10; 412.00; 2.18; 6.94
2018-07-31 01:45:23; 412.00; 2.18; 6.94
2018-07-31 01:45:35; 412.00; 2.18; 6.94
2018-07-31 01:45:47; 412.00; 2.18; 6.94
2018-07-31 01:46:00; 412.00; 2.18; 6.94
2018-07-31 02:00:04; 412.00; 2.18; 6.75
2018-07-31 02:00:17; 412.00; 2.18; 6.75
2018-07-31 02:00:29; 412.00; 2.18; 6.75
2018-07-31 02:00:41; 412.00; 2.18; 6.75
2018-07-31 02:00:54; 412.00; 2.18; 6.75
2018-07-31 02:15:10; 413.00; 2.17; 6.88
2018-07-31 02:15:22; 413.00; 2.17; 6.88
2018-07-31 02:15:35; 413.00; 2.17; 6.88
2018-07-31 02:15:47; 413.00; 2.17; 6.88
2018-07-31 02:15:59; 413.00; 2.17; 6.88
2018-07-31 02:30:04; 414.00; 2.16; 7.19
2018-07-31 02:30:16; 414.00; 2.16; 7.25
2018-07-31 02:30:29; 414.00; 2.16; 7.25
2018-07-31 02:30:41; 414.00; 2.16; 7.25
2018-07-31 02:30:53; 414.00; 2.16; 7.25
2018-07-31 02:45:09; 415.00; 2.15; 7.13
2018-07-31 02:45:22; 415.00; 2.15; 7.13
2018-07-31 02:45:34; 415.00; 2.15; 7.06
2018-07-31 02:45:47; 415.00; 2.15; 7.06
2018-07-31 02:45:59; 415.00; 2.15; 7.06
2018-07-31 03:00:03; 413.00; 2.17; 6.75
2018-07-31 03:00:16; 413.00; 2.17; 6.75
2018-07-31 03:00:28; 413.00; 2.17; 6.75
2018-07-31 03:00:41; 415.00; 2.15; 6.75
2018-07-31 03:00:53; 415.00; 2.15; 6.75
2018-07-31 03:15:09; 414.00; 2.16; 6.44
2018-07-31 03:15:21; 414.00; 2.16; 6.38
2018-07-31 03:15:34; 414.00; 2.16; 6.38
2018-07-31 03:15:46; 414.00; 2.16; 6.38
2018-07-31 03:15:59; 414.00; 2.16; 6.38
2018-07-31 03:30:03; 415.00; 2.15; 6.13
2018-07-31 03:30:16; 415.00; 2.15; 6.19
2018-07-31 03:30:28; 415.00; 2.15; 6.13
2018-07-31 03:30:40; 415.00; 2.15; 6.13
2018-07-31 03:30:53; 415.00; 2.15; 6.13
2018-07-31 03:45:09; 415.00; 2.15; 6.00
2018-07-31 03:45:21; 415.00; 2.15; 6.00
2018-07-31 03:45:34; 415.00; 2.15; 6.00
2018-07-31 03:45:46; 415.00; 2.15; 6.00
2018-07-31 03:45:59; 415.00; 2.15; 6.00
2018-07-31 04:00:03; 414.00; 2.16; 6.00
2018-07-31 04:00:16; 414.00; 2.16; 6.00
2018-07-31 04:00:28; 414.00; 2.16; 6.00
2018-07-31 04:00:41; 414.00; 2.16; 5.94
2018-07-31 04:00:53; 414.00; 2.16; 6.00
2018-07-31 04:15:09; 415.00; 2.15; 5.75
2018-07-31 04:15:22; 415.00; 2.15; 5.75
2018-07-31 04:15:34; 415.00; 2.15; 5.75
2018-07-31 04:15:47; 415.00; 2.15; 5.75
2018-07-31 04:15:59; 415.00; 2.15; 5.69
2018-07-31 04:30:04; 415.00; 2.15; 5.50
2018-07-31 04:30:16; 415.00; 2.15; 5.50
2018-07-31 04:30:29; 415.00; 2.15; 5.50
2018-07-31 04:30:41; 415.00; 2.15; 5.50
2018-07-31 04:30:53; 415.00; 2.15; 5.50
2018-07-31 04:45:10; 415.00; 2.15; 5.38
2018-07-31 04:45:22; 415.00; 2.15; 5.38
2018-07-31 04:45:34; 415.00; 2.15; 5.38
2018-07-31 04:45:47; 415.00; 2.15; 5.38
2018-07-31 04:45:59; 414.00; 2.16; 5.38
2018-07-31 05:00:04; 416.00; 2.14; 5.31
2018-07-31 05:00:16; 415.00; 2.15; 5.38
2018-07-31 05:00:29; 416.00; 2.14; 5.38
2018-07-31 05:00:41; 415.00; 2.15; 5.31
2018-07-31 05:00:54; 415.00; 2.15; 5.31
2018-07-31 05:15:10; 415.00; 2.15; 5.25
2018-07-31 05:15:22; 415.00; 2.15; 5.25
2018-07-31 05:15:35; 413.00; 2.16; 5.25
2018-07-31 05:15:47; 415.00; 2.15; 5.25
2018-07-31 05:15:59; 415.00; 2.15; 5.25
2018-07-31 05:30:04; 413.00; 2.17; 5.00
2018-07-31 05:30:17; 413.00; 2.17; 5.00
2018-07-31 05:30:29; 413.00; 2.17; 5.00
2018-07-31 05:30:42; 413.00; 2.17; 5.00
2018-07-31 05:30:54; 413.00; 2.17; 5.00
2018-07-31 05:45:10; 416.00; 2.14; 4.56
2018-07-31 05:45:23; 411.00; 2.19; 4.56
2018-07-31 05:45:35; 414.00; 2.16; 4.56
2018-07-31 05:45:47; 414.00; 2.16; 4.56
2018-07-31 05:46:00; 414.00; 2.16; 4.56
2018-07-31 06:00:05; 415.00; 2.15; 4.25
2018-07-31 06:00:17; 416.00; 2.14; 4.25
2018-07-31 06:00:29; 416.00; 2.14; 4.25
2018-07-31 06:00:42; 416.00; 2.14; 4.25
2018-07-31 06:00:54; 413.00; 2.17; 4.25
2018-07-31 06:15:10; 410.00; 2.20; 3.88
2018-07-31 06:15:23; 412.00; 2.18; 3.88
2018-07-31 06:15:35; 412.00; 2.18; 3.88
2018-07-31 06:15:48; 414.00; 2.16; 3.88
2018-07-31 06:16:00; 411.00; 2.18; 3.88
2018-07-31 06:30:05; 415.00; 2.15; 3.69
2018-07-31 06:30:17; 414.00; 2.16; 3.69
2018-07-31 06:30:30; 414.00; 2.16; 3.69
2018-07-31 06:30:42; 414.00; 2.16; 3.69
2018-07-31 06:30:55; 415.00; 2.15; 3.69
2018-07-31 06:45:11; 411.00; 2.19; 3.50
2018-07-31 06:45:23; 414.00; 2.16; 3.50
2018-07-31 06:45:36; 414.00; 2.16; 3.50
2018-07-31 06:45:48; 414.00; 2.16; 3.50
2018-07-31 07:00:05; 413.00; 2.17; 3.44
2018-07-31 07:00:17; 412.00; 2.18; 3.44
2018-07-31 07:00:29; 412.00; 2.18; 3.50
2018-07-31 07:00:42; 415.00; 2.15; 3.50
2018-07-31 07:00:54; 416.00; 2.14; 3.44
2018-07-31 07:15:11; 415.00; 2.15; 3.56
2018-07-31 07:15:23; 412.00; 2.18; 3.56
2018-07-31 07:15:35; 414.00; 2.16; 3.56
2018-07-31 07:15:48; 415.00; 2.15; 3.56
2018-07-31 07:16:00; 414.00; 2.16; 3.56
2018-07-31 07:30:05; 415.00; 2.15; 3.38
2018-07-31 07:30:18; 416.00; 2.14; 3.38
2018-07-31 07:30:30; 414.00; 2.16; 3.38
2018-07-31 07:30:42; 416.00; 2.14; 3.44
2018-07-31 07:30:55; 415.00; 2.15; 3.38
2018-07-31 07:45:11; 416.00; 2.14; 3.44
2018-07-31 07:45:23; 416.00; 2.14; 3.44
2018-07-31 07:45:36; 415.00; 2.15; 3.44
2018-07-31 07:45:48; 416.00; 2.14; 3.44
2018-07-31 08:00:05; 412.00; 2.18; 3.50
2018-07-31 08:00:17; 415.00; 2.15; 3.44
2018-07-31 08:00:29; 414.00; 2.16; 3.44
2018-07-31 08:00:42; 414.00; 2.16; 3.44
2018-07-31 08:00:54; 414.00; 2.16; 3.44
2018-07-31 08:15:10; 415.00; 2.15; 3.75
2018-07-31 08:15:23; 414.00; 2.16; 3.75
2018-07-31 08:15:35; 416.00; 2.14; 3.75
2018-07-31 08:15:48; 415.00; 2.15; 3.75
2018-07-31 08:16:00; 416.00; 2.14; 3.75
2018-07-31 08:30:05; 415.00; 2.15; 3.69
2018-07-31 08:30:17; 415.00; 2.15; 3.69
2018-07-31 08:30:30; 415.00; 2.15; 3.69
2018-07-31 08:30:42; 413.00; 2.16; 3.69
2018-07-31 08:30:55; 413.00; 2.17; 3.69
2018-07-31 08:45:11; 415.00; 2.15; 3.88
2018-07-31 08:45:23; 413.00; 2.17; 3.88
2018-07-31 08:45:36; 415.00; 2.15; 3.88
2018-07-31 08:45:48; 413.00; 2.17; 3.88
2018-07-31 09:00:04; 414.00; 2.16; 4.00
2018-07-31 09:00:17; 414.00; 2.15; 4.00
2018-07-31 09:00:29; 416.00; 2.14; 4.06
2018-07-31 09:00:42; 414.00; 2.16; 4.06
2018-07-31 09:00:54; 414.00; 2.16; 4.06
2018-07-31 09:15:11; 412.00; 2.18; 4.44
2018-07-31 09:15:23; 413.00; 2.17; 4.44
2018-07-31 09:15:35; 413.00; 2.17; 4.50
2018-07-31 09:15:48; 415.00; 2.15; 4.50
2018-07-31 09:16:00; 415.00; 2.15; 4.44
2018-07-31 09:30:05; 413.00; 2.17; 5.25
2018-07-31 09:30:17; 414.00; 2.16; 5.25
2018-07-31 09:30:30; 414.00; 2.16; 5.25
2018-07-31 09:30:42; 414.00; 2.16; 5.25
2018-07-31 09:30:54; 414.00; 2.16; 5.25
2018-07-31 09:45:10; 414.00; 2.17; 6.31
2018-07-31 09:45:23; 414.00; 2.17; 6.31
2018-07-31 09:45:35; 414.00; 2.16; 6.31
2018-07-31 09:45:47; 413.00; 2.17; 6.31
2018-07-31 09:46:00; 414.00; 2.16; 6.38
2018-07-31 10:00:53; 413.00; 2.17; 8.19
2018-07-31 10:15:21; 414.00; 2.16; 9.13
2018-07-31 10:15:34; 415.00; 2.17; 9.25
2018-07-31 10:15:46; 410.00; 2.20; 9.31
2018-07-31 10:15:58; 416.00; 2.15; 9.31
2018-07-31 10:30:27; 412.00; 2.18; 12.25
2018-07-31 10:30:39; 415.00; 2.15; 12.31
2018-07-31 10:30:52; 415.00; 2.15; 12.31
2018-07-31 10:45:07; 412.00; 2.18; 13.63
2018-07-31 10:45:19; 413.00; 2.17; 13.63
2018-07-31 10:45:32; 412.00; 2.18; 13.69
2018-07-31 10:45:44; 411.00; 2.19; 13.69
2018-07-31 10:45:57; 411.00; 2.19; 13.75
2018-07-31 11:00:12; 411.00; 2.19; 13.88
2018-07-31 11:00:24; 412.00; 2.18; 13.94
2018-07-31 11:00:37; 411.00; 2.19; 14.00
2018-07-31 11:00:49; 409.00; 2.21; 14.06
2018-07-31 11:15:04; 412.00; 2.18; 14.13
2018-07-31 11:15:17; 412.00; 2.18; 14.13
2018-07-31 11:15:29; 412.00; 2.18; 14.13
2018-07-31 11:15:41; 412.00; 2.18; 14.25
2018-07-31 11:15:54; 412.00; 2.18; 14.31
2018-07-31 11:30:09; 409.00; 2.21; 14.69
2018-07-31 11:30:22; 409.00; 2.21; 14.75
2018-07-31 11:30:34; 410.00; 2.20; 14.69
2018-07-31 11:30:46; 409.00; 2.21; 14.63
2018-07-31 11:30:59; 411.00; 2.19; 14.69
2018-07-31 11:45:03; 411.00; 2.19; 15.00
2018-07-31 11:45:15; 410.00; 2.20; 14.94
2018-07-31 11:45:27; 410.00; 2.20; 14.94
2018-07-31 11:45:40; 411.00; 2.19; 14.94
2018-07-31 11:45:52; 412.00; 2.18; 14.94
2018-07-31 12:00:08; 409.00; 2.21; 14.38
2018-07-31 12:00:20; 409.00; 2.21; 14.31
2018-07-31 12:00:32; 408.00; 2.22; 14.31
2018-07-31 12:00:45; 411.00; 2.19; 14.31
2018-07-31 12:00:57; 409.00; 2.21; 14.38
2018-07-31 12:15:01; 411.00; 2.19; 15.56
2018-07-31 12:15:14; 407.00; 2.23; 15.63
2018-07-31 12:15:26; 412.00; 2.18; 15.63
2018-07-31 12:15:38; 406.00; 2.24; 15.63
2018-07-31 12:15:51; 410.00; 2.20; 15.63
2018-07-31 12:30:06; 411.00; 2.19; 15.38
2018-07-31 12:30:18; 405.00; 2.25; 15.31
2018-07-31 12:30:31; 409.00; 2.21; 15.25
2018-07-31 12:30:43; 408.00; 2.22; 15.25
2018-07-31 12:30:55; 410.00; 2.20; 15.25
2018-07-31 12:45:11; 409.00; 2.21; 16.00
2018-07-31 12:45:23; 409.00; 2.21; 16.00
2018-07-31 12:45:35; 409.00; 2.21; 16.00
2018-07-31 12:45:48; 410.00; 2.20; 16.00
2018-07-31 12:46:00; 406.00; 2.24; 15.88
2018-07-31 13:00:04; 410.00; 2.20; 16.94
2018-07-31 13:00:16; 409.00; 2.21; 16.88
2018-07-31 13:00:29; 411.00; 2.19; 16.94
2018-07-31 13:00:41; 411.00; 2.19; 16.94
2018-07-31 13:00:53; 410.00; 2.20; 16.94
2018-07-31 13:15:09; 405.00; 2.25; 17.38
2018-07-31 13:15:21; 409.00; 2.21; 17.38
2018-07-31 13:15:33; 406.00; 2.24; 17.38
2018-07-31 13:15:46; 408.00; 2.22; 17.31
2018-07-31 13:15:58; 408.00; 2.20; 17.31
2018-07-31 13:30:02; 409.00; 2.21; 17.75
2018-07-31 13:30:14; 407.00; 2.23; 17.75
2018-07-31 13:30:26; 407.00; 2.23; 17.81
2018-07-31 13:30:39; 410.00; 2.20; 17.81
2018-07-31 13:30:51; 409.00; 2.21; 17.81
2018-07-31 13:45:06; 408.00; 2.21; 17.00
2018-07-31 13:45:19; 405.00; 2.25; 17.06
2018-07-31 13:45:31; 405.00; 2.25; 17.06
2018-07-31 13:45:44; 409.00; 2.21; 17.13
2018-07-31 13:45:56; 405.00; 2.25; 17.19
2018-07-31 14:00:11; 410.00; 2.20; 17.13
2018-07-31 14:00:23; 410.00; 2.20; 17.06
2018-07-31 14:00:36; 410.00; 2.20; 17.06
2018-07-31 14:00:48; 405.00; 2.25; 17.06
2018-07-31 14:01:00; 409.00; 2.21; 17.13
2018-07-31 14:15:04; 408.00; 2.22; 16.81
2018-07-31 14:15:17; 410.00; 2.20; 16.75
2018-07-31 14:15:29; 410.00; 2.20; 16.75
2018-07-31 14:15:41; 405.00; 2.25; 16.81
2018-07-31 14:15:54; 405.00; 2.25; 16.81
2018-07-31 14:30:08; 405.00; 2.25; 16.25
2018-07-31 14:30:21; 410.00; 2.20; 16.31
2018-07-31 14:30:33; 409.00; 2.21; 16.31
2018-07-31 14:30:46; 405.00; 2.25; 16.38
2018-07-31 14:30:58; 407.00; 2.23; 16.44
2018-07-31 14:45:02; 410.00; 2.20; 17.75
2018-07-31 14:45:14; 405.00; 2.25; 17.88
2018-07-31 14:45:26; 405.00; 2.25; 17.94
2018-07-31 14:45:39; 406.00; 2.24; 17.94
2018-07-31 14:45:51; 406.00; 2.24; 17.94
2018-07-31 15:00:06; 405.00; 2.25; 17.19
2018-07-31 15:00:19; 405.00; 2.25; 17.13
2018-07-31 15:00:31; 405.00; 2.25; 17.06
2018-07-31 15:00:43; 405.00; 2.25; 17.06
2018-07-31 15:00:56; 405.00; 2.25; 17.13
2018-07-31 15:15:11; 408.00; 2.22; 17.13
2018-07-31 15:15:23; 404.00; 2.26; 17.06
2018-07-31 15:15:36; 405.00; 2.25; 17.06
2018-07-31 15:15:48; 405.00; 2.25; 17.00
2018-07-31 15:16:00; 404.00; 2.26; 17.06
2018-07-31 15:30:04; 405.00; 2.25; 17.81
2018-07-31 15:30:16; 405.00; 2.25; 17.88
2018-07-31 15:30:29; 404.00; 2.26; 17.88
2018-07-31 15:30:41; 405.00; 2.25; 17.94
2018-07-31 15:30:54; 404.00; 2.26; 18.00
2018-07-31 15:45:09; 405.00; 2.25; 19.44
2018-07-31 15:45:21; 404.00; 2.26; 19.50
2018-07-31 15:45:33; 405.00; 2.25; 19.50
2018-07-31 15:45:46; 405.00; 2.25; 19.50
2018-07-31 15:45:58; 406.00; 2.24; 19.50
2018-07-31 16:00:02; 405.00; 2.25; 19.25
2018-07-31 16:00:14; 405.00; 2.25; 19.38
2018-07-31 16:00:26; 405.00; 2.25; 19.38
2018-07-31 16:00:39; 404.00; 2.26; 19.38
2018-07-31 16:00:51; 404.00; 2.26; 19.31
2018-07-31 16:15:06; 406.00; 2.24; 19.00
2018-07-31 16:15:18; 408.00; 2.22; 19.06
2018-07-31 16:15:31; 405.00; 2.25; 19.06
2018-07-31 16:15:43; 405.00; 2.25; 19.13
2018-07-31 16:15:55; 405.00; 2.25; 19.13
2018-07-31 16:30:09; 404.00; 2.26; 19.13
2018-07-31 16:30:21; 405.00; 2.25; 19.19
2018-07-31 16:30:33; 405.00; 2.25; 19.31
2018-07-31 16:30:46; 404.00; 2.26; 19.38
2018-07-31 16:30:58; 404.00; 2.26; 19.38
2018-07-31 16:45:02; 408.00; 2.22; 20.50
2018-07-31 16:45:14; 412.00; 2.18; 20.44
2018-07-31 16:45:26; 412.00; 2.18; 20.44
2018-07-31 16:45:39; 405.00; 2.25; 20.38
2018-07-31 16:45:51; 406.00; 2.24; 20.38
2018-07-31 17:00:06; 409.00; 2.21; 20.94
2018-07-31 17:00:18; 408.00; 2.22; 21.00
2018-07-31 17:00:31; 408.00; 2.22; 20.94
2018-07-31 17:00:43; 408.00; 2.22; 20.94
2018-07-31 17:00:55; 408.00; 2.22; 20.94
2018-07-31 17:15:10; 405.00; 2.25; 19.13
2018-07-31 17:15:23; 405.00; 2.25; 19.13
2018-07-31 17:15:35; 405.00; 2.25; 19.13
2018-07-31 17:15:47; 405.00; 2.25; 19.25
2018-07-31 17:16:00; 405.00; 2.25; 19.31
2018-07-31 17:30:03; 406.00; 2.24; 19.06
2018-07-31 17:30:16; 406.00; 2.24; 19.06
2018-07-31 17:30:28; 406.00; 2.24; 19.06
2018-07-31 17:30:40; 406.00; 2.24; 19.00
2018-07-31 17:30:53; 406.00; 2.24; 19.00
2018-07-31 17:45:08; 410.00; 2.20; 20.25
2018-07-31 17:45:20; 404.00; 2.26; 20.31
2018-07-31 17:45:33; 409.00; 2.21; 20.31
2018-07-31 17:45:45; 410.00; 2.21; 20.31
2018-07-31 17:45:57; 407.00; 2.23; 20.38
2018-07-31 18:00:01; 410.00; 2.20; 20.25
2018-07-31 18:00:13; 410.00; 2.20; 20.19
2018-07-31 18:00:26; 410.00; 2.20; 20.25
2018-07-31 18:00:38; 410.00; 2.20; 20.19
2018-07-31 18:00:50; 406.00; 2.24; 20.19
2018-07-31 18:15:05; 410.00; 2.20; 19.00
2018-07-31 18:15:18; 410.00; 2.20; 19.00
2018-07-31 18:15:30; 410.00; 2.20; 18.94
2018-07-31 18:15:42; 409.00; 2.21; 18.94
2018-07-31 18:15:55; 409.00; 2.21; 18.88
2018-07-31 18:30:10; 411.00; 2.19; 16.69
2018-07-31 18:30:22; 411.00; 2.19; 16.69
2018-07-31 18:30:35; 410.00; 2.20; 16.63
2018-07-31 18:30:47; 410.00; 2.20; 16.56
2018-07-31 18:30:59; 410.00; 2.20; 16.50
2018-07-31 18:45:03; 409.00; 2.21; 15.13
2018-07-31 18:45:16; 409.00; 2.21; 15.13
2018-07-31 18:45:28; 409.00; 2.21; 15.13
2018-07-31 18:45:40; 409.00; 2.21; 15.13
2018-07-31 18:45:53; 409.00; 2.21; 15.06
2018-07-31 19:00:08; 409.00; 2.21; 12.69
2018-07-31 19:00:21; 409.00; 2.21; 12.63
2018-07-31 19:00:33; 409.00; 2.21; 12.56
2018-07-31 19:00:45; 409.00; 2.21; 12.50
2018-07-31 19:00:58; 409.00; 2.21; 12.50
2018-07-31 19:15:02; 409.00; 2.21; 10.81
2018-07-31 19:15:14; 409.00; 2.21; 10.81
2018-07-31 19:15:27; 409.00; 2.21; 10.75
2018-07-31 19:15:39; 410.00; 2.20; 10.75
2018-07-31 19:15:52; 410.00; 2.20; 10.75
2018-07-31 19:30:07; 409.00; 2.21; 10.00
2018-07-31 19:30:20; 409.00; 2.21; 10.00
2018-07-31 19:30:32; 758.00; -1.28; 10.00
2018-07-31 19:30:45; 409.00; 2.21; 9.94
2018-07-31 19:30:57; 409.00; 2.21; 9.94
2018-07-31 19:45:02; 409.00; 2.21; 9.56
2018-07-31 19:45:14; 409.00; 2.21; 9.56
2018-07-31 19:45:26; 409.00; 2.21; 9.56
2018-07-31 19:45:39; 409.00; 2.21; 9.56
2018-07-31 19:45:51; 409.00; 2.21; 9.56
2018-07-31 20:00:07; 409.00; 2.21; 9.13
2018-07-31 20:00:20; 409.00; 2.21; 9.13
2018-07-31 20:00:32; 409.00; 2.21; 9.06
2018-07-31 20:00:45; 409.00; 2.21; 9.06
2018-07-31 20:00:57; 409.00; 2.21; 9.06
2018-07-31 20:15:02; 410.00; 2.20; 8.56
2018-07-31 20:15:14; 410.00; 2.20; 8.56
2018-07-31 20:15:26; 410.00; 2.20; 8.56
2018-07-31 20:15:39; 410.00; 2.20; 8.56
2018-07-31 20:15:51; 410.00; 2.20; 8.56
2018-07-31 20:30:07; 410.00; 2.20; 8.38
2018-07-31 20:30:20; 410.00; 2.20; 8.38
2018-07-31 20:30:32; 410.00; 2.20; 8.38
2018-07-31 20:30:45; 410.00; 2.20; 8.38
2018-07-31 20:30:57; 410.00; 2.20; 8.38
2018-07-31 20:45:02; 410.00; 2.20; 8.00
2018-07-31 20:45:14; 410.00; 2.20; 8.00
2018-07-31 20:45:26; 410.00; 2.20; 8.00
2018-07-31 20:45:39; 410.00; 2.20; 8.00
2018-07-31 20:45:51; 410.00; 2.20; 8.00
2018-07-31 21:00:07; 412.00; 2.18; 7.44
2018-07-31 21:00:19; 412.00; 2.18; 7.44
2018-07-31 21:00:32; 762.00; -1.32; 7.44
2018-07-31 21:00:44; 759.00; -1.29; 7.44
2018-07-31 21:00:56; 759.00; -1.29; 7.44
2018-07-31 21:15:01; 412.00; 2.18; 7.56
2018-07-31 21:15:14; 411.00; 2.19; 7.56
2018-07-31 21:15:26; 411.00; 2.19; 7.56
2018-07-31 21:15:38; 411.00; 2.19; 7.56
2018-07-31 21:15:51; 411.00; 2.19; 7.56
2018-07-31 21:30:07; 410.00; 2.20; 7.56
2018-07-31 21:30:19; 412.00; 2.18; 7.50
2018-07-31 21:30:31; 412.00; 2.18; 7.56
2018-07-31 21:30:44; 760.00; -1.30; 7.56
2018-07-31 21:30:56; 760.00; -1.30; 7.56
2018-07-31 21:45:11; 412.00; 2.18; 7.63
2018-07-31 21:45:24; 412.00; 2.18; 7.63
2018-07-31 21:45:36; 411.00; 2.19; 7.63
2018-07-31 21:45:48; 411.00; 2.19; 7.63
2018-07-31 22:00:04; 411.00; 2.19; 7.38
2018-07-31 22:00:16; 758.00; -1.28; 7.38
2018-07-31 22:00:29; 414.00; 2.16; 7.38
2018-07-31 22:00:41; 414.00; 2.16; 7.38
2018-07-31 22:00:53; 760.00; -1.30; 7.38
2018-07-31 22:15:09; 411.00; 2.19; 7.13
2018-07-31 22:15:22; 411.00; 2.19; 7.13
2018-07-31 22:15:34; 762.00; -1.32; 7.13
2018-07-31 22:15:47; 762.00; -1.32; 7.13
2018-07-31 22:15:59; 762.00; -1.32; 7.13
2018-07-31 22:30:04; 412.00; 2.18; 7.13
2018-07-31 22:30:16; 412.00; 2.18; 7.13
2018-07-31 22:30:28; 412.00; 2.18; 7.13
2018-07-31 22:30:41; 412.00; 2.18; 7.13
2018-07-31 22:30:53; 412.00; 2.18; 7.13
2018-07-31 22:45:09; 412.00; 2.18; 6.75
2018-07-31 22:45:22; 412.00; 2.18; 6.75
2018-07-31 22:45:34; 413.00; 2.17; 6.75
2018-07-31 22:45:46; 413.00; 2.17; 6.75
2018-07-31 22:45:59; 413.00; 2.17; 6.75
2018-07-31 23:00:03; 412.00; 2.18; 6.75
2018-07-31 23:00:16; 412.00; 2.18; 6.75
2018-07-31 23:00:28; 412.00; 2.18; 6.75
2018-07-31 23:00:40; 413.00; 2.17; 6.75
2018-07-31 23:00:53; 413.00; 2.17; 6.75
2018-07-31 23:15:09; 413.00; 2.17; 6.50
2018-07-31 23:15:21; 413.00; 2.17; 6.50
2018-07-31 23:15:34; 412.00; 2.18; 6.50
2018-07-31 23:15:46; 413.00; 2.17; 6.50
2018-07-31 23:15:58; 411.00; 2.19; 6.50
2018-07-31 23:30:03; 412.00; 2.18; 6.19
2018-07-31 23:30:15; 412.00; 2.18; 6.19
2018-07-31 23:30:28; 412.00; 2.18; 6.19
2018-07-31 23:30:40; 412.00; 2.18; 6.19
2018-07-31 23:30:53; 412.00; 2.18; 6.13
2018-07-31 23:45:09; 413.00; 2.17; 6.00
2018-07-31 23:45:21; 413.00; 2.17; 6.00
2018-07-31 23:45:33; 413.00; 2.17; 6.00
2018-07-31 23:45:46; 413.00; 2.17; 6.00
2018-07-31 23:45:58; 413.00; 2.17; 6.00
