2018-11-14 00:00:03; 216.00; 4.14; 20.19
2018-11-14 00:00:15; 219.00; 4.11; 20.19
2018-11-14 00:00:28; 219.00; 4.11; 20.19
2018-11-14 00:00:40; 218.00; 4.12; 20.19
2018-11-14 00:00:53; 217.00; 4.14; 20.19
2018-11-14 00:15:08; 217.00; 4.13; 20.06
2018-11-14 00:15:21; 218.00; 4.12; 20.06
2018-11-14 00:15:33; 218.00; 4.12; 20.06
2018-11-14 00:15:46; 219.00; 4.11; 20.06
2018-11-14 00:15:58; 218.00; 4.12; 20.06
2018-11-14 00:30:03; 218.00; 4.14; 19.81
2018-11-14 00:30:15; 217.00; 4.13; 19.88
2018-11-14 00:30:28; 219.00; 4.12; 19.81
2018-11-14 00:30:40; 217.00; 4.13; 19.81
2018-11-14 00:30:53; 218.00; 4.12; 19.81
2018-11-14 00:45:08; 217.00; 4.13; 19.63
2018-11-14 00:45:21; 218.00; 4.12; 19.63
2018-11-14 00:45:33; 219.00; 4.12; 19.63
2018-11-14 00:45:46; 218.00; 4.11; 19.63
2018-11-14 00:45:58; 218.00; 4.12; 19.56
2018-11-14 01:00:02; 218.00; 4.12; 19.50
2018-11-14 01:00:15; 217.00; 4.13; 19.50
2018-11-14 01:00:27; 219.00; 4.11; 19.50
2018-11-14 01:00:40; 218.00; 4.12; 19.50
2018-11-14 01:00:52; 218.00; 4.13; 19.50
2018-11-14 01:15:08; 218.00; 4.12; 19.38
2018-11-14 01:15:20; 217.00; 4.13; 19.38
2018-11-14 01:15:33; 219.00; 4.11; 19.38
2018-11-14 01:15:46; 217.00; 4.13; 19.44
2018-11-14 01:15:58; 217.00; 4.13; 19.38
2018-11-14 01:30:03; 218.00; 4.12; 19.31
2018-11-14 01:30:15; 219.00; 4.11; 19.31
2018-11-14 01:30:27; 217.00; 4.13; 19.31
2018-11-14 01:30:40; 217.00; 4.12; 19.31
2018-11-14 01:30:52; 217.00; 4.13; 19.31
2018-11-14 01:45:08; 219.00; 4.11; 19.31
2018-11-14 01:45:21; 218.00; 4.12; 19.31
2018-11-14 01:45:33; 218.00; 4.12; 19.31
2018-11-14 01:45:46; 217.00; 4.13; 19.31
2018-11-14 01:45:58; 218.00; 4.13; 19.25
2018-11-14 02:00:03; 218.00; 4.12; 18.94
2018-11-14 02:00:15; 217.00; 4.13; 18.94
2018-11-14 02:00:28; 216.00; 4.14; 18.94
2018-11-14 02:00:40; 218.00; 4.12; 18.94
2018-11-14 02:00:53; 218.00; 4.11; 18.94
2018-11-14 02:15:08; 217.00; 4.13; 18.69
2018-11-14 02:15:21; 217.00; 4.13; 18.69
2018-11-14 02:15:33; 218.00; 4.12; 18.63
2018-11-14 02:15:46; 219.00; 4.11; 18.69
2018-11-14 02:15:58; 218.00; 4.12; 18.63
2018-11-14 02:30:03; 220.00; 4.11; 18.38
2018-11-14 02:30:15; 220.00; 4.10; 18.31
2018-11-14 02:30:28; 218.00; 4.12; 18.31
2018-11-14 02:30:40; 218.00; 4.13; 18.31
2018-11-14 02:30:53; 218.00; 4.12; 18.31
2018-11-14 02:45:09; 218.00; 4.13; 18.25
2018-11-14 02:45:21; 217.00; 4.13; 18.25
2018-11-14 02:45:34; 217.00; 4.12; 18.25
2018-11-14 02:45:46; 217.00; 4.13; 18.25
2018-11-14 02:45:59; 218.00; 4.12; 18.25
2018-11-14 03:00:03; 217.00; 4.13; 18.00
2018-11-14 03:00:15; 219.00; 4.11; 18.00
2018-11-14 03:00:28; 219.00; 4.11; 18.00
2018-11-14 03:00:40; 219.00; 4.11; 18.00
2018-11-14 03:00:53; 218.00; 4.12; 18.00
2018-11-14 03:15:08; 218.00; 4.12; 17.88
2018-11-14 03:15:21; 218.00; 4.12; 17.88
2018-11-14 03:15:33; 218.00; 4.12; 17.88
2018-11-14 03:15:46; 219.00; 4.11; 17.81
2018-11-14 03:15:58; 219.00; 4.12; 17.81
2018-11-14 03:30:03; 219.00; 4.11; 17.63
2018-11-14 03:30:15; 219.00; 4.11; 17.63
2018-11-14 03:30:28; 218.00; 4.12; 17.63
2018-11-14 03:30:40; 219.00; 4.11; 17.63
2018-11-14 03:30:53; 218.00; 4.12; 17.63
2018-11-14 03:45:09; 219.00; 4.11; 17.19
2018-11-14 03:45:21; 218.00; 4.12; 17.19
2018-11-14 03:45:34; 219.00; 4.11; 17.19
2018-11-14 03:45:46; 220.00; 4.10; 17.19
2018-11-14 03:45:59; 220.00; 4.11; 17.19
2018-11-14 04:00:03; 220.00; 4.10; 16.94
2018-11-14 04:00:15; 220.00; 4.10; 16.94
2018-11-14 04:00:28; 219.00; 4.11; 16.94
2018-11-14 04:00:40; 218.00; 4.12; 16.94
2018-11-14 04:00:53; 219.00; 4.11; 16.94
2018-11-14 04:15:09; 220.00; 4.10; 16.75
2018-11-14 04:15:21; 218.00; 4.12; 16.75
2018-11-14 04:15:34; 219.00; 4.11; 16.75
2018-11-14 04:15:46; 220.00; 4.11; 16.75
2018-11-14 04:15:59; 220.00; 4.10; 16.75
2018-11-14 04:30:03; 218.00; 4.12; 16.50
2018-11-14 04:30:16; 218.00; 4.12; 16.56
2018-11-14 04:30:28; 218.00; 4.12; 16.50
2018-11-14 04:30:41; 218.00; 4.12; 16.56
2018-11-14 04:30:53; 220.00; 4.09; 16.50
2018-11-14 04:45:09; 217.00; 4.13; 16.56
2018-11-14 04:45:22; 215.00; 4.14; 16.56
2018-11-14 04:45:34; 218.00; 4.12; 16.56
2018-11-14 04:45:47; 217.00; 4.13; 16.56
2018-11-14 04:45:59; 220.00; 4.10; 16.56
2018-11-14 05:00:04; 218.00; 4.11; 16.50
2018-11-14 05:00:16; 218.00; 4.11; 16.50
2018-11-14 05:00:29; 220.00; 4.09; 16.50
2018-11-14 05:00:41; 217.00; 4.13; 16.50
2018-11-14 05:00:54; 217.00; 4.14; 16.44
2018-11-14 05:15:09; 219.00; 4.11; 16.38
2018-11-14 05:15:22; 217.00; 4.13; 16.38
2018-11-14 05:15:34; 217.00; 4.12; 16.38
2018-11-14 05:15:47; 217.00; 4.13; 16.38
2018-11-14 05:15:59; 217.00; 4.13; 16.38
2018-11-14 05:30:04; 218.00; 4.13; 16.13
2018-11-14 05:30:16; 219.00; 4.11; 16.13
2018-11-14 05:30:29; 219.00; 4.11; 16.13
2018-11-14 05:30:41; 218.00; 4.12; 16.13
2018-11-14 05:30:54; 218.00; 4.12; 16.13
2018-11-14 05:45:10; 220.00; 4.11; 15.94
2018-11-14 05:45:22; 219.00; 4.11; 15.94
2018-11-14 05:45:35; 218.00; 4.13; 15.88
2018-11-14 05:45:47; 219.00; 4.12; 15.88
2018-11-14 05:46:00; 218.00; 4.12; 15.88
2018-11-14 06:00:04; 219.00; 4.12; 15.81
2018-11-14 06:00:17; 218.00; 4.11; 15.81
2018-11-14 06:00:29; 219.00; 4.12; 15.81
2018-11-14 06:00:42; 219.00; 4.11; 15.81
2018-11-14 06:00:54; 218.00; 4.12; 15.81
2018-11-14 06:15:10; 218.00; 4.13; 15.75
2018-11-14 06:15:23; 218.00; 4.13; 15.75
2018-11-14 06:15:35; 217.00; 4.14; 15.75
2018-11-14 06:15:48; 217.00; 4.13; 15.75
2018-11-14 06:16:00; 217.00; 4.14; 15.75
2018-11-14 06:30:05; 218.00; 4.12; 15.50
2018-11-14 06:30:17; 218.00; 4.12; 15.50
2018-11-14 06:30:30; 219.00; 4.11; 15.50
2018-11-14 06:30:42; 219.00; 4.11; 15.56
2018-11-14 06:30:55; 220.00; 4.10; 15.56
2018-11-14 06:45:11; 218.00; 4.12; 15.13
2018-11-14 06:45:23; 219.00; 4.11; 15.06
2018-11-14 06:45:36; 219.00; 4.11; 15.06
2018-11-14 06:45:48; 219.00; 4.11; 15.06
2018-11-14 07:00:04; 217.00; 4.13; 14.81
2018-11-14 07:00:17; 217.00; 4.13; 14.75
2018-11-14 07:00:29; 217.00; 4.13; 14.75
2018-11-14 07:00:42; 218.00; 4.12; 14.75
2018-11-14 07:00:54; 218.00; 4.12; 14.75
2018-11-14 07:15:10; 218.00; 4.12; 15.19
2018-11-14 07:15:23; 218.00; 4.11; 15.25
2018-11-14 07:15:35; 218.00; 4.12; 15.25
2018-11-14 07:15:48; 217.00; 4.13; 15.25
2018-11-14 07:16:00; 217.00; 4.12; 15.25
2018-11-14 07:30:05; 217.00; 4.13; 15.63
2018-11-14 07:30:17; 217.00; 4.13; 15.63
2018-11-14 07:30:30; 217.00; 4.13; 15.63
2018-11-14 07:30:42; 217.00; 4.14; 15.63
2018-11-14 07:30:55; 218.00; 4.13; 15.63
2018-11-14 07:45:11; 216.00; 4.15; 15.94
2018-11-14 07:45:23; 217.00; 4.14; 15.94
2018-11-14 07:45:36; 216.00; 4.14; 16.00
2018-11-14 07:45:48; 216.00; 4.14; 16.00
2018-11-14 08:00:04; 218.00; 4.13; 18.31
2018-11-14 08:00:17; 216.00; 4.14; 18.31
2018-11-14 08:00:29; 216.00; 4.14; 18.31
2018-11-14 08:00:41; 217.00; 4.13; 18.31
2018-11-14 08:00:54; 217.00; 4.13; 18.38
2018-11-14 08:15:10; 217.00; 4.13; 19.19
2018-11-14 08:15:22; 217.00; 4.13; 19.19
2018-11-14 08:15:34; 217.00; 4.13; 19.13
2018-11-14 08:15:47; 217.00; 4.13; 19.13
2018-11-14 08:16:00; 217.00; 4.13; 19.06
2018-11-14 08:30:04; 217.00; 4.13; 18.88
2018-11-14 08:30:16; 216.00; 4.14; 18.88
2018-11-14 08:30:29; 216.00; 4.14; 18.94
2018-11-14 08:30:41; 217.00; 4.13; 18.94
2018-11-14 08:30:54; 216.00; 4.14; 19.00
2018-11-14 08:45:09; 216.00; 4.14; 19.75
2018-11-14 08:45:22; 217.00; 4.13; 19.75
2018-11-14 08:45:34; 217.00; 4.13; 19.75
2018-11-14 08:45:46; 216.00; 4.14; 19.75
2018-11-14 08:45:59; 217.00; 4.12; 19.75
2018-11-14 09:00:03; 216.00; 4.14; 20.94
2018-11-14 09:00:15; 217.00; 4.13; 21.00
2018-11-14 09:00:28; 216.00; 4.14; 21.00
2018-11-14 09:00:40; 217.00; 4.13; 21.06
2018-11-14 09:00:53; 216.00; 4.14; 21.06
2018-11-14 09:15:08; 217.00; 4.13; 21.75
2018-11-14 09:15:21; 217.00; 4.13; 21.69
2018-11-14 09:15:33; 217.00; 4.14; 21.69
2018-11-14 09:15:46; 216.00; 4.14; 21.63
2018-11-14 09:15:58; 216.00; 4.14; 21.63
2018-11-14 09:30:02; 217.00; 4.14; 21.69
2018-11-14 09:30:15; 216.00; 4.15; 21.69
2018-11-14 09:30:27; 217.00; 4.13; 21.75
2018-11-14 09:30:40; 217.00; 4.12; 21.75
2018-11-14 09:30:52; 216.00; 4.14; 21.75
2018-11-14 09:45:07; 216.00; 4.14; 22.31
2018-11-14 09:45:20; 215.00; 4.15; 22.31
2018-11-14 09:45:32; 216.00; 4.14; 22.31
2018-11-14 09:45:45; 216.00; 4.14; 22.31
2018-11-14 09:45:57; 217.00; 4.13; 22.31
2018-11-14 10:00:01; 216.00; 4.15; 24.19
2018-11-14 10:00:14; 214.00; 4.15; 24.19
2018-11-14 10:00:26; 216.00; 4.14; 24.13
2018-11-14 10:00:39; 215.00; 4.15; 24.13
2018-11-14 10:00:51; 215.00; 4.15; 24.25
2018-11-14 10:15:06; 216.00; 4.14; 25.19
2018-11-14 10:15:19; 215.00; 4.15; 25.25
2018-11-14 10:15:31; 216.00; 4.14; 25.25
2018-11-14 10:15:44; 215.00; 4.15; 25.19
2018-11-14 10:15:56; 216.00; 4.14; 25.19
2018-11-14 10:30:11; 215.00; 4.15; 25.00
2018-11-14 10:30:24; 215.00; 4.15; 25.06
2018-11-14 10:30:36; 216.00; 4.14; 25.00
2018-11-14 10:30:49; 215.00; 4.15; 24.94
2018-11-14 10:45:04; 216.00; 4.15; 25.56
2018-11-14 10:45:16; 214.00; 4.16; 25.63
2018-11-14 10:45:29; 215.00; 4.15; 25.69
2018-11-14 10:45:41; 216.00; 4.14; 25.75
2018-11-14 10:45:54; 214.00; 4.16; 25.75
2018-11-14 11:00:09; 214.00; 4.16; 25.81
2018-11-14 11:00:21; 214.00; 4.16; 25.81
2018-11-14 11:00:34; 215.00; 4.16; 25.88
2018-11-14 11:00:46; 215.00; 4.15; 25.75
2018-11-14 11:00:59; 214.00; 4.15; 25.69
2018-11-14 11:15:02; 214.00; 4.16; 24.94
2018-11-14 11:15:15; 215.00; 4.15; 24.94
2018-11-14 11:15:27; 213.00; 4.16; 24.94
2018-11-14 11:15:40; 216.00; 4.15; 24.88
2018-11-14 11:15:52; 214.00; 4.16; 24.88
2018-11-14 11:30:07; 216.00; 4.14; 26.63
2018-11-14 11:30:20; 213.00; 4.17; 26.69
2018-11-14 11:30:32; 214.00; 4.16; 26.69
2018-11-14 11:30:45; 214.00; 4.15; 26.63
2018-11-14 11:30:57; 214.00; 4.16; 26.56
2018-11-14 11:45:01; 216.00; 4.14; 26.88
2018-11-14 11:45:13; 214.00; 4.16; 26.88
2018-11-14 11:45:26; 215.00; 4.16; 26.88
2018-11-14 11:45:38; 214.00; 4.15; 26.81
2018-11-14 11:45:51; 215.00; 4.15; 26.81
2018-11-14 12:00:06; 214.00; 4.16; 26.69
2018-11-14 12:00:18; 214.00; 4.16; 26.69
2018-11-14 12:00:31; 213.00; 4.17; 26.69
2018-11-14 12:00:43; 214.00; 4.16; 26.69
2018-11-14 12:00:56; 213.00; 4.17; 26.63
2018-11-14 12:15:11; 213.00; 4.17; 27.63
2018-11-14 12:15:23; 215.00; 4.16; 27.69
2018-11-14 12:15:36; 215.00; 4.15; 27.69
2018-11-14 12:15:48; 214.00; 4.16; 27.75
2018-11-14 12:30:03; 215.00; 4.15; 28.13
2018-11-14 12:30:16; 215.00; 4.15; 28.06
2018-11-14 12:30:28; 212.00; 4.17; 28.00
2018-11-14 12:30:41; 215.00; 4.15; 27.94
2018-11-14 12:30:53; 213.00; 4.16; 27.94
2018-11-14 12:45:08; 212.00; 4.18; 27.31
2018-11-14 12:45:21; 213.00; 4.17; 27.31
2018-11-14 12:45:33; 214.00; 4.16; 27.31
2018-11-14 12:45:46; 213.00; 4.17; 27.38
2018-11-14 12:45:58; 214.00; 4.16; 27.38
2018-11-14 13:00:02; 213.00; 4.17; 27.25
2018-11-14 13:00:14; 215.00; 4.15; 27.25
2018-11-14 13:00:27; 214.00; 4.15; 27.38
2018-11-14 13:00:39; 214.00; 4.16; 27.44
2018-11-14 13:00:52; 212.00; 4.18; 27.44
2018-11-14 13:15:07; 212.00; 4.18; 27.81
2018-11-14 13:15:19; 214.00; 4.16; 27.81
2018-11-14 13:15:32; 213.00; 4.17; 27.81
2018-11-14 13:15:44; 214.00; 4.15; 27.81
2018-11-14 13:15:57; 213.00; 4.17; 27.81
2018-11-14 13:30:12; 213.00; 4.17; 28.19
2018-11-14 13:30:24; 215.00; 4.16; 28.19
2018-11-14 13:30:37; 213.00; 4.16; 28.19
2018-11-14 13:30:49; 212.00; 4.17; 28.19
2018-11-14 13:45:04; 215.00; 4.15; 28.94
2018-11-14 13:45:17; 213.00; 4.17; 29.00
2018-11-14 13:45:29; 211.00; 4.18; 28.94
2018-11-14 13:45:41; 211.00; 4.18; 29.00
2018-11-14 13:45:54; 212.00; 4.18; 28.94
2018-11-14 14:00:09; 212.00; 4.18; 29.19
2018-11-14 14:00:21; 213.00; 4.16; 29.19
2018-11-14 14:00:34; 212.00; 4.18; 29.13
2018-11-14 14:00:46; 214.00; 4.16; 29.19
2018-11-14 14:00:59; 212.00; 4.18; 29.19
2018-11-14 14:15:02; 213.00; 4.17; 28.50
2018-11-14 14:15:15; 214.00; 4.16; 28.50
2018-11-14 14:15:27; 211.00; 4.18; 28.44
2018-11-14 14:15:40; 214.00; 4.16; 28.44
2018-11-14 14:15:52; 215.00; 4.15; 28.44
2018-11-14 14:30:07; 214.00; 4.16; 29.56
2018-11-14 14:30:20; 214.00; 4.16; 29.31
2018-11-14 14:30:32; 215.00; 4.15; 29.44
2018-11-14 14:30:44; 214.00; 4.17; 29.50
2018-11-14 14:30:57; 213.00; 4.17; 29.50
2018-11-14 14:45:12; 212.00; 4.18; 29.50
2018-11-14 14:45:24; 212.00; 4.18; 29.50
2018-11-14 14:45:37; 213.00; 4.17; 29.44
2018-11-14 14:45:49; 213.00; 4.18; 29.44
2018-11-14 15:00:04; 212.00; 4.17; 30.13
2018-11-14 15:00:17; 213.00; 4.17; 30.19
2018-11-14 15:00:29; 216.00; 4.14; 30.19
2018-11-14 15:00:41; 212.00; 4.18; 30.13
2018-11-14 15:00:54; 211.00; 4.19; 30.19
2018-11-14 15:15:09; 212.00; 4.18; 31.75
2018-11-14 15:15:21; 212.00; 4.18; 31.81
2018-11-14 15:15:34; 211.00; 4.20; 31.88
2018-11-14 15:15:46; 211.00; 4.19; 31.81
2018-11-14 15:15:59; 213.00; 4.17; 31.69
2018-11-14 15:30:02; 212.00; 4.18; 30.63
2018-11-14 15:30:14; 214.00; 4.17; 30.56
2018-11-14 15:30:27; 213.00; 4.18; 30.50
2018-11-14 15:30:39; 213.00; 4.16; 30.44
2018-11-14 15:30:52; 214.00; 4.16; 30.44
2018-11-14 15:45:07; 215.00; 4.15; 29.63
2018-11-14 15:45:19; 212.00; 4.19; 29.63
2018-11-14 15:45:32; 213.00; 4.17; 29.63
2018-11-14 15:45:44; 213.00; 4.17; 29.63
2018-11-14 15:45:56; 213.00; 4.18; 29.63
2018-11-14 16:00:11; 212.00; 4.18; 30.19
2018-11-14 16:00:24; 211.00; 4.19; 30.13
2018-11-14 16:00:36; 211.00; 4.19; 30.13
2018-11-14 16:00:49; 214.00; 4.16; 30.06
2018-11-14 16:15:03; 214.00; 4.16; 29.25
2018-11-14 16:15:16; 213.00; 4.17; 29.19
2018-11-14 16:15:28; 214.00; 4.16; 29.19
2018-11-14 16:15:41; 213.00; 4.18; 29.19
2018-11-14 16:15:53; 211.00; 4.19; 29.19
2018-11-14 16:30:08; 212.00; 4.18; 29.94
2018-11-14 16:30:21; 213.00; 4.17; 30.00
2018-11-14 16:30:33; 211.00; 4.19; 30.00
2018-11-14 16:30:46; 213.00; 4.17; 30.13
2018-11-14 16:30:58; 213.00; 4.17; 30.25
2018-11-14 16:45:01; 211.00; 4.18; 32.38
2018-11-14 16:45:14; 213.00; 4.17; 32.50
2018-11-14 16:45:26; 209.00; 4.20; 32.31
2018-11-14 16:45:39; 214.00; 4.17; 32.25
2018-11-14 16:45:51; 213.00; 4.17; 32.31
2018-11-14 17:00:06; 213.00; 4.18; 31.31
2018-11-14 17:00:18; 213.00; 4.17; 31.31
2018-11-14 17:00:31; 212.00; 4.18; 31.25
2018-11-14 17:00:43; 210.00; 4.20; 31.25
2018-11-14 17:00:56; 210.00; 4.20; 31.31
2018-11-14 17:15:10; 211.00; 4.19; 31.19
2018-11-14 17:15:23; 214.00; 4.17; 31.19
2018-11-14 17:15:35; 212.00; 4.18; 31.19
2018-11-14 17:15:48; 213.00; 4.17; 31.25
2018-11-14 17:16:00; 212.00; 4.19; 31.31
2018-11-14 17:30:03; 212.00; 4.18; 30.69
2018-11-14 17:30:16; 210.00; 4.20; 30.63
2018-11-14 17:30:28; 214.00; 4.16; 30.63
2018-11-14 17:30:41; 215.00; 4.15; 30.63
2018-11-14 17:30:53; 215.00; 4.15; 30.63
2018-11-14 17:45:07; 213.00; 4.17; 30.00
2018-11-14 17:45:20; 213.00; 4.17; 30.00
2018-11-14 17:45:32; 213.00; 4.17; 30.00
2018-11-14 17:45:45; 211.00; 4.19; 30.00
2018-11-14 17:45:57; 212.00; 4.18; 30.00
2018-11-14 18:00:12; 212.00; 4.17; 30.06
2018-11-14 18:00:24; 212.00; 4.18; 30.19
2018-11-14 18:00:37; 214.00; 4.15; 30.13
2018-11-14 18:00:49; 212.00; 4.18; 30.06
2018-11-14 18:15:04; 212.00; 4.18; 28.88
2018-11-14 18:15:16; 213.00; 4.17; 28.88
2018-11-14 18:15:29; 213.00; 4.17; 28.88
2018-11-14 18:15:41; 210.00; 4.19; 28.88
2018-11-14 18:15:54; 212.00; 4.19; 28.88
2018-11-14 18:30:08; 213.00; 4.18; 27.25
2018-11-14 18:30:21; 214.00; 4.16; 27.19
2018-11-14 18:30:33; 213.00; 4.17; 27.25
2018-11-14 18:30:46; 214.00; 4.16; 27.19
2018-11-14 18:30:58; 212.00; 4.18; 27.19
2018-11-14 18:45:01; 213.00; 4.17; 28.44
2018-11-14 18:45:14; 213.00; 4.17; 28.44
2018-11-14 18:45:26; 210.00; 4.20; 28.44
2018-11-14 18:45:39; 212.00; 4.18; 28.44
2018-11-14 18:45:51; 211.00; 4.18; 28.50
2018-11-14 19:00:06; 212.00; 4.18; 28.25
2018-11-14 19:00:19; 212.00; 4.18; 28.19
2018-11-14 19:00:31; 213.00; 4.17; 28.25
2018-11-14 19:00:43; 211.00; 4.19; 28.25
2018-11-14 19:00:56; 212.00; 4.17; 28.25
2018-11-14 19:15:11; 211.00; 4.19; 29.50
2018-11-14 19:15:23; 213.00; 4.17; 29.44
2018-11-14 19:15:36; 212.00; 4.18; 29.50
2018-11-14 19:15:48; 212.00; 4.18; 29.56
2018-11-14 19:30:03; 212.00; 4.18; 26.75
2018-11-14 19:30:16; 213.00; 4.17; 26.75
2018-11-14 19:30:28; 212.00; 4.18; 26.69
2018-11-14 19:30:41; 212.00; 4.18; 26.69
2018-11-14 19:30:53; 211.00; 4.20; 26.63
2018-11-14 19:45:08; 213.00; 4.17; 25.56
2018-11-14 19:45:21; 212.00; 4.17; 25.50
2018-11-14 19:45:33; 212.00; 4.18; 25.56
2018-11-14 19:45:46; 211.00; 4.19; 25.50
2018-11-14 19:45:58; 212.00; 4.18; 25.50
2018-11-14 20:00:02; 211.00; 4.19; 25.00
2018-11-14 20:00:15; 213.00; 4.17; 25.00
2018-11-14 20:00:27; 212.00; 4.18; 25.00
2018-11-14 20:00:39; 211.00; 4.18; 25.00
2018-11-14 20:00:52; 211.00; 4.19; 25.00
2018-11-14 20:15:04; 211.00; 4.19; 24.56
2018-11-14 20:15:16; 211.00; 4.19; 24.56
2018-11-14 20:15:29; 212.00; 4.18; 24.56
2018-11-14 20:15:41; 211.00; 4.19; 24.56
2018-11-14 20:15:54; 211.00; 4.19; 24.56
2018-11-14 20:30:09; 211.00; 4.19; 24.13
2018-11-14 20:30:21; 211.00; 4.19; 24.13
2018-11-14 20:30:34; 212.00; 4.19; 24.19
2018-11-14 20:30:46; 210.00; 4.20; 24.19
2018-11-14 20:30:59; 211.00; 4.19; 24.19
2018-11-14 20:45:03; 211.00; 4.19; 23.75
2018-11-14 20:45:15; 210.00; 4.20; 23.81
2018-11-14 20:45:28; 211.00; 4.19; 23.81
2018-11-14 20:45:40; 211.00; 4.19; 23.81
2018-11-14 20:45:53; 211.00; 4.19; 23.75
2018-11-14 21:00:08; 211.00; 4.19; 23.75
2018-11-14 21:00:21; 211.00; 4.19; 23.75
2018-11-14 21:00:33; 211.00; 4.19; 23.75
2018-11-14 21:00:46; 211.00; 4.19; 23.75
2018-11-14 21:00:58; 211.00; 4.19; 23.75
2018-11-14 21:15:02; 210.00; 4.19; 23.56
2018-11-14 21:15:15; 211.00; 4.19; 23.56
2018-11-14 21:15:27; 211.00; 4.19; 23.56
2018-11-14 21:15:40; 211.00; 4.19; 23.56
2018-11-14 21:15:52; 210.00; 4.20; 23.63
2018-11-14 21:30:08; 211.00; 4.19; 23.31
2018-11-14 21:30:20; 211.00; 4.19; 23.31
2018-11-14 21:30:33; 211.00; 4.19; 23.31
2018-11-14 21:30:45; 211.00; 4.19; 23.31
2018-11-14 21:30:57; 211.00; 4.19; 23.31
2018-11-14 21:45:01; 211.00; 4.19; 23.25
2018-11-14 21:45:14; 210.00; 4.20; 23.25
2018-11-14 21:45:26; 210.00; 4.20; 23.25
2018-11-14 21:45:39; 210.00; 4.20; 23.31
2018-11-14 21:45:51; 210.00; 4.20; 23.31
2018-11-14 22:00:07; 210.00; 4.20; 23.31
2018-11-14 22:00:19; 210.00; 4.20; 23.31
2018-11-14 22:00:32; 211.00; 4.19; 23.31
2018-11-14 22:00:44; 211.00; 4.19; 23.31
2018-11-14 22:00:57; 210.00; 4.20; 23.31
2018-11-14 22:15:01; 211.00; 4.19; 22.94
2018-11-14 22:15:13; 211.00; 4.19; 22.88
2018-11-14 22:15:26; 211.00; 4.19; 22.88
2018-11-14 22:15:38; 211.00; 4.19; 22.88
2018-11-14 22:15:51; 211.00; 4.19; 22.88
2018-11-14 22:30:06; 212.00; 4.18; 22.50
2018-11-14 22:30:19; 211.00; 4.19; 22.50
2018-11-14 22:30:31; 211.00; 4.19; 22.50
2018-11-14 22:30:44; 211.00; 4.19; 22.50
2018-11-14 22:30:56; 211.00; 4.19; 22.50
2018-11-14 22:45:11; 211.00; 4.20; 22.06
2018-11-14 22:45:24; 210.00; 4.20; 22.00
2018-11-14 22:45:36; 210.00; 4.20; 22.00
2018-11-14 22:45:49; 210.00; 4.20; 22.06
2018-11-14 23:00:04; 211.00; 4.19; 21.88
2018-11-14 23:00:17; 211.00; 4.19; 21.88
2018-11-14 23:00:29; 211.00; 4.19; 21.88
2018-11-14 23:00:42; 212.00; 4.19; 21.88
2018-11-14 23:00:54; 211.00; 4.19; 21.81
2018-11-14 23:15:10; 211.00; 4.19; 21.63
2018-11-14 23:15:22; 211.00; 4.19; 21.63
2018-11-14 23:15:35; 211.00; 4.19; 21.63
2018-11-14 23:15:47; 211.00; 4.19; 21.63
2018-11-14 23:16:00; 211.00; 4.19; 21.63
2018-11-14 23:30:04; 210.00; 4.20; 21.63
2018-11-14 23:30:16; 210.00; 4.20; 21.63
2018-11-14 23:30:29; 210.00; 4.20; 21.63
2018-11-14 23:30:41; 210.00; 4.20; 21.63
2018-11-14 23:30:54; 210.00; 4.20; 21.63
2018-11-14 23:45:09; 213.00; 4.17; 21.75
2018-11-14 23:45:21; 213.00; 4.17; 21.75
2018-11-14 23:45:34; 213.00; 4.17; 21.75
2018-11-14 23:45:46; 214.00; 4.16; 21.69
2018-11-14 23:45:59; 213.00; 4.16; 21.69
