2018-10-21 00:00:03; 328.00; 3.02; 17.81
2018-10-21 00:00:15; 329.00; 3.02; 17.81
2018-10-21 00:00:28; 328.00; 3.03; 17.81
2018-10-21 00:00:40; 328.00; 3.02; 17.81
2018-10-21 00:00:53; 328.00; 3.02; 17.81
2018-10-21 00:15:07; 328.00; 3.02; 18.00
2018-10-21 00:15:20; 329.00; 3.02; 18.00
2018-10-21 00:15:32; 329.00; 3.02; 18.00
2018-10-21 00:15:45; 328.00; 3.02; 18.06
2018-10-21 00:15:57; 329.00; 3.02; 18.00
2018-10-21 00:30:11; 328.00; 3.02; 18.19
2018-10-21 00:30:24; 328.00; 3.02; 18.19
2018-10-21 00:30:37; 328.00; 3.02; 18.19
2018-10-21 00:30:49; 328.00; 3.02; 18.19
2018-10-21 00:45:04; 327.00; 3.03; 18.38
2018-10-21 00:45:16; 328.00; 3.02; 18.38
2018-10-21 00:45:28; 327.00; 3.03; 18.38
2018-10-21 00:45:41; 328.00; 3.02; 18.44
2018-10-21 00:45:53; 327.00; 3.03; 18.44
2018-10-21 01:00:08; 327.00; 3.03; 18.69
2018-10-21 01:00:20; 327.00; 3.03; 18.69
2018-10-21 01:00:33; 327.00; 3.03; 18.69
2018-10-21 01:00:45; 327.00; 3.03; 18.69
2018-10-21 01:00:58; 327.00; 3.03; 18.69
2018-10-21 01:15:01; 327.00; 3.03; 18.44
2018-10-21 01:15:13; 327.00; 3.03; 18.38
2018-10-21 01:15:26; 327.00; 3.03; 18.44
2018-10-21 01:15:38; 327.00; 3.03; 18.38
2018-10-21 01:15:51; 327.00; 3.03; 18.38
2018-10-21 01:30:06; 326.00; 3.04; 18.19
2018-10-21 01:30:18; 328.00; 3.02; 18.19
2018-10-21 01:30:30; 328.00; 3.02; 18.19
2018-10-21 01:30:43; 328.00; 3.02; 18.19
2018-10-21 01:30:55; 328.00; 3.02; 18.19
2018-10-21 01:45:10; 329.00; 3.02; 18.00
2018-10-21 01:45:23; 328.00; 3.02; 18.00
2018-10-21 01:45:35; 330.00; 3.01; 18.00
2018-10-21 01:45:48; 328.00; 3.02; 18.00
2018-10-21 01:46:00; 328.00; 3.02; 18.00
2018-10-21 02:00:04; 327.00; 3.03; 17.69
2018-10-21 02:00:16; 329.00; 3.01; 17.69
2018-10-21 02:00:29; 329.00; 3.01; 17.69
2018-10-21 02:00:41; 329.00; 3.01; 17.69
2018-10-21 02:00:54; 329.00; 3.01; 17.69
2018-10-21 02:15:09; 328.00; 3.02; 17.44
2018-10-21 02:15:21; 328.00; 3.02; 17.44
2018-10-21 02:15:34; 328.00; 3.02; 17.44
2018-10-21 02:15:46; 329.00; 3.01; 17.44
2018-10-21 02:15:59; 328.00; 3.02; 17.44
2018-10-21 02:30:02; 328.00; 3.03; 17.19
2018-10-21 02:30:15; 328.00; 3.02; 17.13
2018-10-21 02:30:27; 328.00; 3.02; 17.13
2018-10-21 02:30:40; 328.00; 3.02; 17.13
2018-10-21 02:30:52; 328.00; 3.02; 17.13
2018-10-21 02:45:07; 329.00; 3.00; 16.13
2018-10-21 02:45:20; 327.00; 3.03; 16.13
2018-10-21 02:45:32; 328.00; 3.02; 16.13
2018-10-21 02:45:44; 327.00; 3.02; 16.13
2018-10-21 02:45:57; 328.00; 3.02; 16.06
2018-10-21 03:00:12; 328.00; 3.02; 16.00
2018-10-21 03:00:24; 327.00; 3.02; 16.00
2018-10-21 03:00:37; 327.00; 3.03; 16.00
2018-10-21 03:00:49; 327.00; 3.02; 16.00
2018-10-21 03:15:04; 329.00; 3.01; 16.50
2018-10-21 03:15:16; 327.00; 3.02; 16.50
2018-10-21 03:15:29; 328.00; 3.02; 16.50
2018-10-21 03:15:41; 327.00; 3.03; 16.50
2018-10-21 03:15:54; 327.00; 3.02; 16.50
2018-10-21 03:30:09; 329.00; 3.02; 16.56
2018-10-21 03:30:21; 329.00; 3.02; 16.56
2018-10-21 03:30:34; 328.00; 3.02; 16.56
2018-10-21 03:30:46; 328.00; 3.02; 16.56
2018-10-21 03:30:59; 329.00; 3.01; 16.56
2018-10-21 03:45:02; 327.00; 3.03; 16.00
2018-10-21 03:45:15; 327.00; 3.03; 16.00
2018-10-21 03:45:27; 327.00; 3.03; 16.00
2018-10-21 03:45:39; 328.00; 3.02; 16.00
2018-10-21 03:45:52; 328.00; 3.02; 16.00
2018-10-21 04:00:06; 328.00; 3.03; 15.63
2018-10-21 04:00:18; 329.00; 3.02; 15.63
2018-10-21 04:00:31; 328.00; 3.02; 15.63
2018-10-21 04:00:43; 328.00; 3.03; 15.63
2018-10-21 04:00:56; 329.00; 3.02; 15.63
2018-10-21 04:15:09; 329.00; 3.02; 15.56
2018-10-21 04:15:22; 328.00; 3.02; 15.56
2018-10-21 04:15:34; 329.00; 3.02; 15.56
2018-10-21 04:15:46; 328.00; 3.02; 15.56
2018-10-21 04:15:59; 328.00; 3.03; 15.56
2018-10-21 04:30:01; 328.00; 3.02; 15.50
2018-10-21 04:30:13; 328.00; 3.03; 15.50
2018-10-21 04:30:26; 328.00; 3.04; 15.50
2018-10-21 04:30:38; 328.00; 3.03; 15.50
2018-10-21 04:30:51; 328.00; 3.03; 15.50
2018-10-21 04:45:04; 329.00; 3.02; 15.75
2018-10-21 04:45:16; 328.00; 3.02; 15.75
2018-10-21 04:45:29; 329.00; 3.02; 15.75
2018-10-21 04:45:41; 328.00; 3.02; 15.75
2018-10-21 04:45:54; 328.00; 3.02; 15.75
2018-10-21 05:00:08; 328.00; 3.02; 15.88
2018-10-21 05:00:20; 328.00; 3.02; 15.88
2018-10-21 05:00:32; 327.00; 3.02; 15.81
2018-10-21 05:00:45; 328.00; 3.02; 15.88
2018-10-21 05:00:57; 327.00; 3.03; 15.88
2018-10-21 05:15:12; 327.00; 3.03; 15.88
2018-10-21 05:15:24; 327.00; 3.03; 15.88
2018-10-21 05:15:37; 327.00; 3.02; 15.88
2018-10-21 05:15:49; 326.00; 3.03; 15.88
2018-10-21 05:30:04; 327.00; 3.03; 15.63
2018-10-21 05:30:16; 327.00; 3.03; 15.63
2018-10-21 05:30:29; 328.00; 3.02; 15.63
2018-10-21 05:30:41; 327.00; 3.02; 15.63
2018-10-21 05:30:54; 327.00; 3.03; 15.63
2018-10-21 05:45:08; 327.00; 3.03; 16.06
2018-10-21 05:45:21; 327.00; 3.03; 16.00
2018-10-21 05:45:33; 326.00; 3.03; 16.00
2018-10-21 05:45:46; 327.00; 3.03; 16.06
2018-10-21 05:45:58; 327.00; 3.03; 16.06
2018-10-21 06:00:02; 329.00; 3.01; 16.25
2018-10-21 06:00:14; 327.00; 3.02; 16.25
2018-10-21 06:00:27; 329.00; 3.01; 16.25
2018-10-21 06:00:39; 327.00; 3.01; 16.25
2018-10-21 06:00:52; 327.00; 3.02; 16.25
2018-10-21 06:15:07; 328.00; 3.02; 16.38
2018-10-21 06:15:19; 327.00; 3.03; 16.38
2018-10-21 06:15:32; 329.00; 3.01; 16.38
2018-10-21 06:15:44; 328.00; 3.01; 16.38
2018-10-21 06:15:57; 327.00; 3.03; 16.38
2018-10-21 06:30:12; 328.00; 3.02; 16.13
2018-10-21 06:30:24; 327.00; 3.03; 16.13
2018-10-21 06:30:36; 326.00; 3.04; 16.13
2018-10-21 06:30:49; 328.00; 3.02; 16.13
2018-10-21 06:45:04; 327.00; 3.02; 16.00
2018-10-21 06:45:16; 327.00; 3.03; 16.00
2018-10-21 06:45:29; 327.00; 3.03; 16.00
2018-10-21 06:45:41; 327.00; 3.02; 16.00
2018-10-21 06:45:54; 328.00; 3.02; 16.00
2018-10-21 07:00:09; 327.00; 3.03; 15.75
2018-10-21 07:00:21; 328.00; 3.02; 15.75
2018-10-21 07:00:34; 327.00; 3.03; 15.75
2018-10-21 07:00:46; 327.00; 3.04; 15.75
2018-10-21 07:00:58; 327.00; 3.03; 15.75
2018-10-21 07:15:01; 328.00; 3.03; 15.63
2018-10-21 07:15:13; 328.00; 3.02; 15.63
2018-10-21 07:15:26; 328.00; 3.02; 15.63
2018-10-21 07:15:38; 328.00; 3.02; 15.63
2018-10-21 07:15:51; 329.00; 3.02; 15.63
2018-10-21 07:30:04; 328.00; 3.02; 15.88
2018-10-21 07:30:17; 329.00; 3.01; 15.88
2018-10-21 07:30:29; 328.00; 3.02; 15.88
2018-10-21 07:30:42; 327.00; 3.03; 15.88
2018-10-21 07:30:54; 327.00; 3.03; 15.88
2018-10-21 07:45:09; 325.00; 3.04; 16.19
2018-10-21 07:45:22; 327.00; 3.03; 16.19
2018-10-21 07:45:34; 326.00; 3.03; 16.19
2018-10-21 07:45:47; 328.00; 3.02; 16.19
2018-10-21 07:45:59; 327.00; 3.02; 16.19
2018-10-21 08:00:03; 328.00; 3.00; 16.19
2018-10-21 08:00:15; 327.00; 3.03; 16.19
2018-10-21 08:00:28; 327.00; 3.02; 16.19
2018-10-21 08:00:40; 327.00; 3.03; 16.19
2018-10-21 08:00:53; 327.00; 3.02; 16.19
2018-10-21 08:15:07; 327.00; 3.03; 18.38
2018-10-21 08:15:20; 329.00; 3.01; 18.44
2018-10-21 08:15:32; 328.00; 3.02; 18.50
2018-10-21 08:15:45; 328.00; 3.02; 18.56
2018-10-21 08:15:57; 329.00; 3.01; 18.56
2018-10-21 08:30:12; 327.00; 3.03; 19.50
2018-10-21 08:30:24; 327.00; 3.03; 19.50
2018-10-21 08:30:37; 328.00; 3.03; 19.56
2018-10-21 08:30:49; 327.00; 3.03; 19.56
2018-10-21 08:45:04; 327.00; 3.03; 20.50
2018-10-21 08:45:16; 327.00; 3.03; 20.63
2018-10-21 08:45:29; 327.00; 3.03; 20.63
2018-10-21 08:45:41; 326.00; 3.04; 20.69
2018-10-21 08:45:54; 326.00; 3.04; 20.69
2018-10-21 09:00:08; 326.00; 3.04; 21.63
2018-10-21 09:00:21; 325.00; 3.04; 21.63
2018-10-21 09:00:33; 325.00; 3.04; 21.69
2018-10-21 09:00:46; 328.00; 3.02; 21.69
2018-10-21 09:00:58; 327.00; 3.03; 21.69
2018-10-21 09:15:01; 326.00; 3.04; 23.06
2018-10-21 09:15:14; 324.00; 3.06; 23.06
2018-10-21 09:15:26; 326.00; 3.04; 23.06
2018-10-21 09:15:39; 326.00; 3.05; 23.06
2018-10-21 09:15:51; 325.00; 3.05; 23.06
2018-10-21 09:30:06; 325.00; 3.06; 21.13
2018-10-21 09:30:18; 327.00; 3.03; 21.06
2018-10-21 09:30:31; 326.00; 3.04; 21.06
2018-10-21 09:30:43; 325.00; 3.05; 21.00
2018-10-21 09:30:56; 326.00; 3.05; 21.00
2018-10-21 09:45:10; 325.00; 3.04; 20.06
2018-10-21 09:45:23; 326.00; 3.04; 20.06
2018-10-21 09:45:35; 327.00; 3.03; 20.06
2018-10-21 09:45:48; 326.00; 3.04; 20.13
2018-10-21 09:46:00; 328.00; 3.02; 20.13
2018-10-21 10:00:04; 328.00; 3.02; 20.88
2018-10-21 10:00:16; 327.00; 3.04; 20.88
2018-10-21 10:00:29; 326.00; 3.04; 20.88
2018-10-21 10:00:41; 326.00; 3.03; 20.88
2018-10-21 10:00:54; 328.00; 3.02; 20.94
2018-10-21 10:15:08; 324.00; 3.06; 23.31
2018-10-21 10:15:21; 326.00; 3.04; 23.38
2018-10-21 10:15:33; 327.00; 3.03; 23.50
2018-10-21 10:15:46; 327.00; 3.03; 23.63
2018-10-21 10:15:58; 327.00; 3.02; 23.75
2018-10-21 10:30:01; 326.00; 3.04; 25.44
2018-10-21 10:30:14; 326.00; 3.05; 25.50
2018-10-21 10:30:26; 326.00; 3.04; 25.50
2018-10-21 10:30:39; 326.00; 3.04; 25.56
2018-10-21 10:30:51; 324.00; 3.05; 25.50
2018-10-21 10:45:06; 325.00; 3.04; 23.81
2018-10-21 10:45:18; 325.00; 3.05; 23.75
2018-10-21 10:45:31; 326.00; 3.04; 23.75
2018-10-21 10:45:43; 325.00; 3.04; 23.75
2018-10-21 10:45:55; 325.00; 3.05; 23.69
2018-10-21 11:00:10; 325.00; 3.05; 23.00
2018-10-21 11:00:22; 325.00; 3.05; 22.94
2018-10-21 11:00:35; 326.00; 3.05; 23.00
2018-10-21 11:00:47; 323.00; 3.07; 23.00
2018-10-21 11:01:00; 325.00; 3.05; 23.00
2018-10-21 11:15:03; 324.00; 3.05; 25.00
2018-10-21 11:15:15; 325.00; 3.06; 25.00
2018-10-21 11:15:28; 326.00; 3.04; 25.06
2018-10-21 11:15:40; 324.00; 3.06; 25.06
2018-10-21 11:15:53; 326.00; 3.04; 25.13
2018-10-21 11:30:07; 326.00; 3.04; 25.31
2018-10-21 11:30:19; 325.00; 3.04; 25.31
2018-10-21 11:30:32; 325.00; 3.05; 25.31
2018-10-21 11:30:44; 326.00; 3.04; 25.31
2018-10-21 11:30:57; 324.00; 3.06; 25.31
2018-10-21 11:45:11; 326.00; 3.04; 23.69
2018-10-21 11:45:24; 324.00; 3.06; 23.63
2018-10-21 11:45:36; 326.00; 3.05; 23.56
2018-10-21 11:45:49; 326.00; 3.04; 23.50
2018-10-21 12:00:03; 326.00; 3.04; 22.94
2018-10-21 12:00:15; 324.00; 3.05; 22.94
2018-10-21 12:00:28; 325.00; 3.05; 23.00
2018-10-21 12:00:40; 325.00; 3.05; 23.00
2018-10-21 12:00:53; 326.00; 3.04; 23.06
2018-10-21 12:15:07; 324.00; 3.06; 26.31
2018-10-21 12:15:20; 325.00; 3.05; 26.38
2018-10-21 12:15:32; 326.00; 3.04; 26.50
2018-10-21 12:15:45; 325.00; 3.05; 26.56
2018-10-21 12:15:57; 325.00; 3.05; 26.63
2018-10-21 12:30:11; 325.00; 3.06; 26.19
2018-10-21 12:30:24; 326.00; 3.04; 26.13
2018-10-21 12:30:36; 325.00; 3.05; 26.13
2018-10-21 12:30:49; 325.00; 3.05; 26.00
2018-10-21 12:45:03; 325.00; 3.05; 24.50
2018-10-21 12:45:15; 326.00; 3.04; 24.50
2018-10-21 12:45:28; 326.00; 3.05; 24.50
2018-10-21 12:45:40; 325.00; 3.06; 24.56
2018-10-21 12:45:53; 326.00; 3.04; 24.56
2018-10-21 13:00:07; 326.00; 3.04; 23.00
2018-10-21 13:00:19; 325.00; 3.04; 22.94
2018-10-21 13:00:32; 325.00; 3.05; 22.94
2018-10-21 13:00:44; 325.00; 3.05; 23.00
2018-10-21 13:00:57; 325.00; 3.05; 23.00
2018-10-21 13:15:11; 325.00; 3.05; 22.56
2018-10-21 13:15:23; 325.00; 3.05; 22.56
2018-10-21 13:15:36; 326.00; 3.04; 22.56
2018-10-21 13:15:48; 325.00; 3.05; 22.56
2018-10-21 13:30:03; 325.00; 3.05; 24.13
2018-10-21 13:30:15; 325.00; 3.05; 24.13
2018-10-21 13:30:28; 325.00; 3.05; 24.19
2018-10-21 13:30:40; 325.00; 3.05; 24.19
2018-10-21 13:30:52; 325.00; 3.05; 24.25
2018-10-21 13:45:06; 324.00; 3.06; 24.94
2018-10-21 13:45:19; 324.00; 3.06; 24.88
2018-10-21 13:45:31; 325.00; 3.05; 24.88
2018-10-21 13:45:44; 325.00; 3.05; 24.94
2018-10-21 13:45:56; 325.00; 3.05; 24.94
2018-10-21 14:00:10; 324.00; 3.06; 26.25
2018-10-21 14:00:23; 324.00; 3.06; 26.38
2018-10-21 14:00:35; 324.00; 3.06; 26.50
2018-10-21 14:00:48; 324.00; 3.06; 26.56
2018-10-21 14:01:00; 324.00; 3.06; 26.69
2018-10-21 14:15:03; 324.00; 3.06; 30.44
2018-10-21 14:15:15; 324.00; 3.06; 30.38
2018-10-21 14:15:27; 324.00; 3.06; 30.31
2018-10-21 14:15:40; 324.00; 3.06; 30.31
2018-10-21 14:15:52; 324.00; 3.06; 30.25
2018-10-21 14:30:06; 324.00; 3.06; 25.88
2018-10-21 14:30:19; 324.00; 3.06; 25.75
2018-10-21 14:30:31; 324.00; 3.06; 25.69
2018-10-21 14:30:43; 324.00; 3.06; 25.69
2018-10-21 14:30:56; 324.00; 3.06; 25.63
2018-10-21 14:45:10; 324.00; 3.06; 25.44
2018-10-21 14:45:22; 324.00; 3.06; 25.44
2018-10-21 14:45:35; 324.00; 3.06; 25.44
2018-10-21 14:45:47; 324.00; 3.06; 25.44
2018-10-21 14:46:00; 324.00; 3.06; 25.44
2018-10-21 15:00:02; 323.00; 3.07; 27.56
2018-10-21 15:00:14; 323.00; 3.07; 27.56
2018-10-21 15:00:27; 323.00; 3.06; 27.56
2018-10-21 15:00:39; 323.00; 3.06; 27.56
2018-10-21 15:00:52; 324.00; 3.06; 27.56
2018-10-21 15:15:05; 324.00; 3.06; 25.56
2018-10-21 15:15:18; 324.00; 3.06; 25.63
2018-10-21 15:15:30; 324.00; 3.06; 25.69
2018-10-21 15:15:43; 324.00; 3.06; 25.75
2018-10-21 15:15:55; 324.00; 3.06; 25.75
2018-10-21 15:30:09; 323.00; 3.07; 27.69
2018-10-21 15:30:22; 324.00; 3.06; 27.69
2018-10-21 15:30:34; 324.00; 3.06; 27.69
2018-10-21 15:30:47; 324.00; 3.06; 27.69
2018-10-21 15:30:59; 324.00; 3.06; 27.69
2018-10-21 15:45:02; 322.00; 3.08; 31.75
2018-10-21 15:45:14; 322.00; 3.08; 32.06
2018-10-21 15:45:26; 322.00; 3.08; 32.19
2018-10-21 15:45:39; 323.00; 3.07; 32.25
2018-10-21 15:45:51; 322.00; 3.08; 32.44
2018-10-21 16:00:05; 322.00; 3.08; 34.56
2018-10-21 16:00:17; 323.00; 3.07; 34.56
2018-10-21 16:00:30; 322.00; 3.08; 34.56
2018-10-21 16:00:42; 322.00; 3.08; 34.56
2018-10-21 16:00:55; 322.00; 3.08; 34.63
2018-10-21 16:15:08; 323.00; 3.07; 33.19
2018-10-21 16:15:21; 322.00; 3.08; 33.13
2018-10-21 16:15:33; 322.00; 3.08; 33.13
2018-10-21 16:15:46; 322.00; 3.08; 33.13
2018-10-21 16:15:58; 323.00; 3.06; 33.00
2018-10-21 16:30:01; 323.00; 3.07; 29.19
2018-10-21 16:30:13; 323.00; 3.07; 29.13
2018-10-21 16:30:26; 324.00; 3.06; 29.00
2018-10-21 16:30:38; 323.00; 3.07; 28.94
2018-10-21 16:30:50; 323.00; 3.07; 28.94
2018-10-21 16:45:04; 323.00; 3.07; 26.13
2018-10-21 16:45:17; 323.00; 3.07; 26.13
2018-10-21 16:45:29; 324.00; 3.07; 26.13
2018-10-21 16:45:42; 323.00; 3.07; 26.13
2018-10-21 16:45:54; 323.00; 3.07; 26.06
2018-10-21 17:00:08; 323.00; 3.07; 25.81
2018-10-21 17:00:21; 324.00; 3.06; 25.88
2018-10-21 17:00:33; 324.00; 3.06; 25.94
2018-10-21 17:00:46; 323.00; 3.07; 26.00
2018-10-21 17:00:58; 323.00; 3.07; 26.00
2018-10-21 17:15:01; 322.00; 3.08; 26.13
2018-10-21 17:15:13; 322.00; 3.07; 26.13
2018-10-21 17:15:26; 323.00; 3.07; 26.06
2018-10-21 17:15:38; 324.00; 3.07; 26.06
2018-10-21 17:15:51; 324.00; 3.06; 26.00
2018-10-21 17:30:05; 323.00; 3.07; 25.25
2018-10-21 17:30:17; 323.00; 3.07; 25.19
2018-10-21 17:30:30; 323.00; 3.07; 25.25
2018-10-21 17:30:42; 323.00; 3.07; 25.19
2018-10-21 17:30:54; 323.00; 3.07; 25.25
2018-10-21 17:45:09; 322.00; 3.08; 26.06
2018-10-21 17:45:21; 322.00; 3.07; 26.13
2018-10-21 17:45:34; 322.00; 3.08; 26.13
2018-10-21 17:45:46; 322.00; 3.08; 26.19
2018-10-21 17:45:59; 322.00; 3.08; 26.19
2018-10-21 18:00:01; 323.00; 3.07; 26.75
2018-10-21 18:00:13; 323.00; 3.07; 26.75
2018-10-21 18:00:26; 323.00; 3.07; 26.75
2018-10-21 18:00:38; 323.00; 3.07; 26.75
2018-10-21 18:00:51; 323.00; 3.07; 26.75
2018-10-21 18:15:05; 322.00; 3.08; 28.06
2018-10-21 18:15:17; 322.00; 3.08; 28.00
2018-10-21 18:15:30; 322.00; 3.08; 28.00
2018-10-21 18:15:42; 322.00; 3.08; 28.00
2018-10-21 18:15:55; 322.00; 3.08; 28.00
2018-10-21 18:30:09; 323.00; 3.08; 25.94
2018-10-21 18:30:21; 323.00; 3.07; 25.94
2018-10-21 18:30:33; 322.00; 3.08; 25.88
2018-10-21 18:30:46; 323.00; 3.07; 25.88
2018-10-21 18:30:58; 323.00; 3.07; 25.88
2018-10-21 18:45:01; 323.00; 3.07; 24.94
2018-10-21 18:45:13; 323.00; 3.07; 24.94
2018-10-21 18:45:26; 323.00; 3.07; 24.94
2018-10-21 18:45:38; 323.00; 3.07; 24.94
2018-10-21 18:45:51; 323.00; 3.07; 24.94
2018-10-21 19:00:05; 323.00; 3.07; 24.13
2018-10-21 19:00:17; 323.00; 3.07; 24.13
2018-10-21 19:00:30; 323.00; 3.07; 24.06
2018-10-21 19:00:42; 322.00; 3.07; 24.06
2018-10-21 19:00:55; 323.00; 3.07; 24.06
2018-10-21 19:15:09; 323.00; 3.07; 23.38
2018-10-21 19:15:21; 323.00; 3.07; 23.38
2018-10-21 19:15:34; 323.00; 3.07; 23.38
2018-10-21 19:15:46; 323.00; 3.07; 23.38
2018-10-21 19:15:59; 323.00; 3.07; 23.38
2018-10-21 19:30:01; 323.00; 3.07; 22.31
2018-10-21 19:30:14; 323.00; 3.07; 22.25
2018-10-21 19:30:26; 323.00; 3.07; 22.25
2018-10-21 19:30:39; 323.00; 3.07; 22.13
2018-10-21 19:30:51; 323.00; 3.07; 22.06
2018-10-21 19:45:05; 324.00; 3.06; 18.38
2018-10-21 19:45:18; 324.00; 3.06; 18.38
2018-10-21 19:45:30; 324.00; 3.06; 18.38
2018-10-21 19:45:43; 324.00; 3.06; 18.38
2018-10-21 19:45:55; 325.00; 3.05; 18.38
2018-10-21 20:00:10; 325.00; 3.05; 18.13
2018-10-21 20:00:22; 326.00; 3.04; 18.19
2018-10-21 20:00:35; 326.00; 3.04; 18.13
2018-10-21 20:00:47; 326.00; 3.04; 18.13
2018-10-21 20:01:00; 326.00; 3.04; 18.13
2018-10-21 20:15:03; 326.00; 3.05; 17.81
2018-10-21 20:15:15; 326.00; 3.04; 17.81
2018-10-21 20:15:28; 326.00; 3.04; 17.81
2018-10-21 20:15:40; 326.00; 3.05; 17.81
2018-10-21 20:15:53; 326.00; 3.05; 17.75
2018-10-21 20:30:07; 325.00; 3.05; 17.25
2018-10-21 20:30:20; 324.00; 3.05; 17.19
2018-10-21 20:30:32; 325.00; 3.05; 17.19
2018-10-21 20:30:45; 324.00; 3.06; 17.19
2018-10-21 20:30:57; 325.00; 3.05; 17.19
2018-10-21 20:45:12; 324.00; 3.06; 17.13
2018-10-21 20:45:24; 324.00; 3.06; 17.13
2018-10-21 20:45:36; 324.00; 3.06; 17.13
2018-10-21 20:45:49; 324.00; 3.06; 17.13
2018-10-21 21:00:03; 325.00; 3.05; 17.13
2018-10-21 21:00:16; 325.00; 3.05; 17.13
2018-10-21 21:00:28; 325.00; 3.05; 17.13
2018-10-21 21:00:41; 324.00; 3.06; 17.13
2018-10-21 21:00:53; 325.00; 3.05; 17.13
2018-10-21 21:15:08; 324.00; 3.05; 17.13
2018-10-21 21:15:20; 325.00; 3.05; 17.13
2018-10-21 21:15:33; 325.00; 3.05; 17.13
2018-10-21 21:15:45; 325.00; 3.05; 17.13
2018-10-21 21:15:58; 324.00; 3.05; 17.13
2018-10-21 21:30:01; 324.00; 3.06; 17.19
2018-10-21 21:30:13; 324.00; 3.05; 17.19
2018-10-21 21:30:26; 325.00; 3.05; 17.19
2018-10-21 21:30:38; 325.00; 3.05; 17.19
2018-10-21 21:30:51; 324.00; 3.05; 17.19
2018-10-21 21:45:05; 324.00; 3.06; 17.13
2018-10-21 21:45:18; 324.00; 3.06; 17.13
2018-10-21 21:45:30; 325.00; 3.05; 17.13
2018-10-21 21:45:42; 324.00; 3.06; 17.13
2018-10-21 21:45:55; 324.00; 3.06; 17.13
2018-10-21 22:00:09; 325.00; 3.05; 17.13
2018-10-21 22:00:22; 325.00; 3.05; 17.06
2018-10-21 22:00:34; 325.00; 3.05; 17.06
2018-10-21 22:00:47; 325.00; 3.05; 17.06
2018-10-21 22:00:59; 325.00; 3.05; 17.06
2018-10-21 22:15:02; 325.00; 3.05; 16.88
2018-10-21 22:15:15; 325.00; 3.05; 16.88
2018-10-21 22:15:27; 325.00; 3.05; 16.88
2018-10-21 22:15:40; 325.00; 3.05; 16.88
2018-10-21 22:15:52; 325.00; 3.05; 16.88
2018-10-21 22:30:06; 324.00; 3.06; 16.81
2018-10-21 22:30:19; 324.00; 3.06; 16.81
2018-10-21 22:30:31; 324.00; 3.06; 16.81
2018-10-21 22:30:44; 324.00; 3.06; 16.81
2018-10-21 22:30:56; 325.00; 3.05; 16.81
2018-10-21 22:45:11; 324.00; 3.06; 16.81
2018-10-21 22:45:23; 324.00; 3.06; 16.81
2018-10-21 22:45:36; 324.00; 3.06; 16.81
2018-10-21 22:45:48; 324.00; 3.06; 16.81
2018-10-21 23:00:02; 324.00; 3.06; 16.81
2018-10-21 23:00:15; 324.00; 3.06; 16.88
2018-10-21 23:00:27; 324.00; 3.06; 16.88
2018-10-21 23:00:40; 324.00; 3.06; 16.88
2018-10-21 23:00:52; 324.00; 3.06; 16.88
2018-10-21 23:15:07; 324.00; 3.06; 16.69
2018-10-21 23:15:19; 324.00; 3.06; 16.69
2018-10-21 23:15:32; 324.00; 3.06; 16.69
2018-10-21 23:15:44; 324.00; 3.06; 16.69
2018-10-21 23:15:57; 324.00; 3.06; 16.69
2018-10-21 23:30:11; 324.00; 3.06; 16.75
2018-10-21 23:30:24; 324.00; 3.06; 16.75
2018-10-21 23:30:36; 325.00; 3.06; 16.75
2018-10-21 23:30:49; 325.00; 3.05; 16.75
2018-10-21 23:45:03; 324.00; 3.06; 16.50
2018-10-21 23:45:15; 324.00; 3.06; 16.50
2018-10-21 23:45:28; 324.00; 3.06; 16.50
2018-10-21 23:45:40; 324.00; 3.06; 16.50
2018-10-21 23:45:53; 324.00; 3.06; 16.50
