2018-05-29 00:00:03; 240.00; 3.90; 20.94
2018-05-29 00:00:15; 241.00; 3.89; 21.00
2018-05-29 00:00:28; 241.00; 3.89; 20.94
2018-05-29 00:00:40; 241.00; 3.89; 20.94
2018-05-29 00:00:52; 241.00; 3.89; 20.94
2018-05-29 00:15:07; 242.00; 3.89; 20.63
2018-05-29 00:15:20; 241.00; 3.89; 20.63
2018-05-29 00:15:32; 241.00; 3.89; 20.63
2018-05-29 00:15:45; 241.00; 3.89; 20.63
2018-05-29 00:15:57; 242.00; 3.88; 20.63
2018-05-29 00:30:01; 241.00; 3.89; 20.31
2018-05-29 00:30:13; 242.00; 3.88; 20.31
2018-05-29 00:30:25; 242.00; 3.88; 20.31
2018-05-29 00:30:38; 242.00; 3.88; 20.31
2018-05-29 00:30:50; 241.00; 3.89; 20.31
2018-05-29 00:45:05; 242.00; 3.88; 20.13
2018-05-29 00:45:18; 242.00; 3.88; 20.06
2018-05-29 00:45:30; 241.00; 3.89; 20.13
2018-05-29 00:45:42; 241.00; 3.89; 20.06
2018-05-29 00:45:55; 241.00; 3.89; 20.06
2018-05-29 01:00:10; 242.00; 3.88; 19.94
2018-05-29 01:00:22; 242.00; 3.88; 19.94
2018-05-29 01:00:34; 242.00; 3.88; 19.94
2018-05-29 01:00:47; 242.00; 3.88; 19.94
2018-05-29 01:00:59; 242.00; 3.88; 19.94
2018-05-29 01:15:03; 241.00; 3.89; 19.81
2018-05-29 01:15:15; 241.00; 3.89; 19.81
2018-05-29 01:15:28; 241.00; 3.89; 19.81
2018-05-29 01:15:40; 241.00; 3.89; 19.81
2018-05-29 01:15:52; 241.00; 3.89; 19.81
2018-05-29 01:30:08; 241.00; 3.89; 20.00
2018-05-29 01:30:20; 241.00; 3.89; 20.00
2018-05-29 01:30:32; 241.00; 3.89; 20.00
2018-05-29 01:30:45; 242.00; 3.88; 20.00
2018-05-29 01:30:57; 242.00; 3.88; 20.00
2018-05-29 01:45:01; 241.00; 3.89; 20.19
2018-05-29 01:45:13; 240.00; 3.90; 20.19
2018-05-29 01:45:26; 240.00; 3.90; 20.19
2018-05-29 01:45:38; 241.00; 3.89; 20.19
2018-05-29 01:45:50; 242.00; 3.88; 20.19
2018-05-29 02:00:05; 241.00; 3.89; 20.38
2018-05-29 02:00:18; 242.00; 3.88; 20.31
2018-05-29 02:00:30; 242.00; 3.88; 20.38
2018-05-29 02:00:42; 242.00; 3.88; 20.38
2018-05-29 02:00:55; 242.00; 3.88; 20.38
2018-05-29 02:15:10; 241.00; 3.89; 20.38
2018-05-29 02:15:22; 241.00; 3.89; 20.38
2018-05-29 02:15:35; 241.00; 3.89; 20.38
2018-05-29 02:15:47; 241.00; 3.89; 20.38
2018-05-29 02:16:00; 241.00; 3.89; 20.38
2018-05-29 02:30:03; 241.00; 3.89; 20.25
2018-05-29 02:30:16; 242.00; 3.88; 20.25
2018-05-29 02:30:28; 242.00; 3.88; 20.25
2018-05-29 02:30:40; 242.00; 3.88; 20.25
2018-05-29 02:30:53; 242.00; 3.88; 20.25
2018-05-29 02:45:08; 242.00; 3.88; 20.06
2018-05-29 02:45:20; 242.00; 3.88; 20.06
2018-05-29 02:45:33; 242.00; 3.88; 20.06
2018-05-29 02:45:45; 241.00; 3.89; 20.06
2018-05-29 02:45:57; 241.00; 3.89; 20.06
2018-05-29 03:00:01; 242.00; 3.88; 19.69
2018-05-29 03:00:13; 242.00; 3.88; 19.69
2018-05-29 03:00:26; 242.00; 3.88; 19.69
2018-05-29 03:00:38; 242.00; 3.88; 19.69
2018-05-29 03:00:51; 242.00; 3.88; 19.69
2018-05-29 03:15:06; 241.00; 3.89; 19.69
2018-05-29 03:15:18; 242.00; 3.88; 19.69
2018-05-29 03:15:30; 241.00; 3.89; 19.69
2018-05-29 03:15:43; 242.00; 3.88; 19.75
2018-05-29 03:15:55; 242.00; 3.88; 19.69
2018-05-29 03:30:10; 242.00; 3.88; 19.63
2018-05-29 03:30:23; 242.00; 3.89; 19.63
2018-05-29 03:30:35; 242.00; 3.88; 19.63
2018-05-29 03:30:48; 242.00; 3.88; 19.63
2018-05-29 03:31:00; 242.00; 3.88; 19.63
2018-05-29 03:45:04; 242.00; 3.88; 19.25
2018-05-29 03:45:16; 242.00; 3.88; 19.25
2018-05-29 03:45:28; 241.00; 3.89; 19.25
2018-05-29 03:45:41; 242.00; 3.88; 19.25
2018-05-29 03:45:53; 242.00; 3.88; 19.25
2018-05-29 04:00:08; 242.00; 3.88; 19.13
2018-05-29 04:00:21; 242.00; 3.88; 19.19
2018-05-29 04:00:33; 243.00; 3.87; 19.19
2018-05-29 04:00:45; 243.00; 3.87; 19.13
2018-05-29 04:00:58; 243.00; 3.87; 19.13
2018-05-29 04:15:02; 242.00; 3.87; 19.13
2018-05-29 04:15:14; 242.00; 3.88; 19.13
2018-05-29 04:15:26; 242.00; 3.88; 19.13
2018-05-29 04:15:39; 242.00; 3.88; 19.13
2018-05-29 04:15:51; 242.00; 3.88; 19.13
2018-05-29 04:30:06; 243.00; 3.88; 19.06
2018-05-29 04:30:19; 242.00; 3.88; 19.06
2018-05-29 04:30:31; 242.00; 3.88; 19.06
2018-05-29 04:30:44; 243.00; 3.87; 19.06
2018-05-29 04:30:56; 242.00; 3.88; 19.06
2018-05-29 04:45:11; 242.00; 3.88; 19.00
2018-05-29 04:45:23; 242.00; 3.88; 19.00
2018-05-29 04:45:36; 242.00; 3.88; 19.00
2018-05-29 04:45:48; 242.00; 3.88; 19.00
2018-05-29 05:00:04; 243.00; 3.88; 18.94
2018-05-29 05:00:16; 243.00; 3.87; 18.94
2018-05-29 05:00:28; 242.00; 3.88; 18.94
2018-05-29 05:00:41; 242.00; 3.88; 18.94
2018-05-29 05:00:53; 242.00; 3.88; 18.94
2018-05-29 05:15:08; 242.00; 3.88; 19.00
2018-05-29 05:15:21; 242.00; 3.88; 19.00
2018-05-29 05:15:33; 242.00; 3.88; 19.00
2018-05-29 05:15:45; 242.00; 3.88; 19.06
2018-05-29 05:15:58; 242.00; 3.88; 19.00
2018-05-29 05:30:02; 242.00; 3.88; 19.06
2018-05-29 05:30:14; 242.00; 3.88; 19.00
2018-05-29 05:30:26; 242.00; 3.88; 19.06
2018-05-29 05:30:39; 242.00; 3.88; 19.00
2018-05-29 05:30:51; 242.00; 3.88; 19.00
2018-05-29 05:45:06; 243.00; 3.87; 18.88
2018-05-29 05:45:19; 242.00; 3.88; 18.88
2018-05-29 05:45:31; 242.00; 3.88; 18.88
2018-05-29 05:45:43; 242.00; 3.88; 18.88
2018-05-29 05:45:56; 242.00; 3.88; 18.88
2018-05-29 06:00:11; 242.00; 3.88; 18.75
2018-05-29 06:00:23; 242.00; 3.88; 18.81
2018-05-29 06:00:36; 242.00; 3.88; 18.81
2018-05-29 06:00:48; 241.00; 3.89; 18.81
2018-05-29 06:15:03; 243.00; 3.87; 18.88
2018-05-29 06:15:16; 242.00; 3.88; 18.88
2018-05-29 06:15:28; 242.00; 3.88; 18.88
2018-05-29 06:15:40; 242.00; 3.88; 18.81
2018-05-29 06:15:53; 242.00; 3.88; 18.88
2018-05-29 06:30:08; 242.00; 3.88; 18.75
2018-05-29 06:30:21; 242.00; 3.88; 18.75
2018-05-29 06:30:33; 243.00; 3.87; 18.75
2018-05-29 06:30:45; 242.00; 3.88; 18.75
2018-05-29 06:30:58; 243.00; 3.87; 18.75
2018-05-29 06:45:02; 242.00; 3.88; 18.75
2018-05-29 06:45:14; 242.00; 3.88; 18.75
2018-05-29 06:45:26; 242.00; 3.88; 18.75
2018-05-29 06:45:39; 242.00; 3.88; 18.75
2018-05-29 06:45:51; 243.00; 3.88; 18.75
2018-05-29 07:00:06; 242.00; 3.88; 18.94
2018-05-29 07:00:19; 243.00; 3.87; 18.94
2018-05-29 07:00:31; 242.00; 3.88; 18.94
2018-05-29 07:00:43; 243.00; 3.87; 18.94
2018-05-29 07:00:56; 241.00; 3.88; 18.94
2018-05-29 07:15:11; 242.00; 3.87; 19.00
2018-05-29 07:15:23; 243.00; 3.87; 19.00
2018-05-29 07:15:36; 243.00; 3.87; 19.00
2018-05-29 07:15:48; 242.00; 3.88; 19.00
2018-05-29 07:30:04; 242.00; 3.88; 19.06
2018-05-29 07:30:16; 242.00; 3.87; 19.06
2018-05-29 07:30:28; 242.00; 3.88; 19.06
2018-05-29 07:30:41; 242.00; 3.88; 19.06
2018-05-29 07:30:53; 241.00; 3.89; 19.06
2018-05-29 07:45:08; 243.00; 3.87; 19.00
2018-05-29 07:45:21; 243.00; 3.87; 19.00
2018-05-29 07:45:33; 243.00; 3.87; 19.00
2018-05-29 07:45:45; 242.00; 3.88; 19.00
2018-05-29 07:45:58; 242.00; 3.88; 19.00
2018-05-29 08:00:02; 242.00; 3.88; 18.88
2018-05-29 08:00:14; 242.00; 3.88; 18.88
2018-05-29 08:00:27; 242.00; 3.88; 18.88
2018-05-29 08:00:39; 243.00; 3.87; 18.88
2018-05-29 08:00:51; 243.00; 3.87; 18.88
2018-05-29 08:15:06; 243.00; 3.88; 18.63
2018-05-29 08:15:19; 243.00; 3.87; 18.63
2018-05-29 08:15:31; 243.00; 3.87; 18.63
2018-05-29 08:15:44; 244.00; 3.86; 18.63
2018-05-29 08:15:56; 243.00; 3.87; 18.63
2018-05-29 08:30:11; 243.00; 3.87; 18.75
2018-05-29 08:30:24; 242.00; 3.88; 18.75
2018-05-29 08:30:36; 243.00; 3.87; 18.75
2018-05-29 08:30:48; 243.00; 3.87; 18.75
2018-05-29 08:45:04; 243.00; 3.87; 18.94
2018-05-29 08:45:16; 242.00; 3.88; 18.94
2018-05-29 08:45:28; 243.00; 3.87; 18.94
2018-05-29 08:45:41; 242.00; 3.88; 18.94
2018-05-29 08:45:53; 243.00; 3.87; 18.94
2018-05-29 09:00:08; 244.00; 3.86; 19.13
2018-05-29 09:00:21; 243.00; 3.87; 19.13
2018-05-29 09:00:33; 242.00; 3.88; 19.13
2018-05-29 09:00:45; 242.00; 3.87; 19.13
2018-05-29 09:00:58; 242.00; 3.88; 19.13
2018-05-29 09:15:02; 243.00; 3.87; 19.50
2018-05-29 09:15:14; 242.00; 3.88; 19.50
2018-05-29 09:15:26; 242.00; 3.88; 19.50
2018-05-29 09:15:39; 242.00; 3.88; 19.50
2018-05-29 09:15:51; 242.00; 3.88; 19.50
2018-05-29 09:30:06; 243.00; 3.87; 19.75
2018-05-29 09:30:19; 243.00; 3.87; 19.75
2018-05-29 09:30:31; 243.00; 3.87; 19.75
2018-05-29 09:30:43; 244.00; 3.86; 19.75
2018-05-29 09:30:56; 243.00; 3.87; 19.75
2018-05-29 09:45:11; 242.00; 3.88; 19.88
2018-05-29 09:45:23; 243.00; 3.87; 19.88
2018-05-29 09:45:36; 242.00; 3.88; 19.88
2018-05-29 09:45:48; 242.00; 3.88; 19.88
2018-05-29 09:46:00; 243.00; 3.87; 19.88
2018-05-29 10:00:04; 243.00; 3.87; 20.38
2018-05-29 10:00:16; 243.00; 3.87; 20.38
2018-05-29 10:00:29; 243.00; 3.87; 20.38
2018-05-29 10:00:41; 243.00; 3.87; 20.38
2018-05-29 10:00:53; 243.00; 3.87; 20.38
2018-05-29 10:15:08; 243.00; 3.87; 21.19
2018-05-29 10:15:21; 242.00; 3.88; 21.25
2018-05-29 10:15:33; 243.00; 3.87; 21.25
2018-05-29 10:15:45; 243.00; 3.87; 21.31
2018-05-29 10:15:58; 243.00; 3.87; 21.31
2018-05-29 10:30:01; 243.00; 3.87; 22.50
2018-05-29 10:30:14; 243.00; 3.87; 22.50
2018-05-29 10:30:26; 243.00; 3.87; 22.50
2018-05-29 10:30:38; 243.00; 3.87; 22.50
2018-05-29 10:30:51; 243.00; 3.87; 22.50
2018-05-29 10:45:05; 243.00; 3.87; 22.19
2018-05-29 10:45:18; 242.00; 3.88; 22.19
2018-05-29 10:45:30; 242.00; 3.88; 22.13
2018-05-29 10:45:43; 242.00; 3.88; 22.13
2018-05-29 10:45:55; 242.00; 3.88; 22.19
2018-05-29 11:00:10; 243.00; 3.87; 22.94
2018-05-29 11:00:22; 243.00; 3.88; 22.94
2018-05-29 11:00:35; 242.00; 3.88; 22.94
2018-05-29 11:00:47; 243.00; 3.87; 22.94
2018-05-29 11:00:59; 243.00; 3.87; 23.00
2018-05-29 11:15:03; 242.00; 3.88; 23.44
2018-05-29 11:15:15; 242.00; 3.87; 23.44
2018-05-29 11:15:28; 242.00; 3.88; 23.44
2018-05-29 11:15:40; 242.00; 3.88; 23.44
2018-05-29 11:15:52; 242.00; 3.88; 23.44
2018-05-29 11:30:07; 242.00; 3.88; 23.25
2018-05-29 11:30:19; 242.00; 3.88; 23.25
2018-05-29 11:30:32; 242.00; 3.88; 23.13
2018-05-29 11:30:44; 243.00; 3.87; 23.19
2018-05-29 11:30:57; 242.00; 3.88; 23.19
2018-05-29 11:45:11; 243.00; 3.87; 23.50
2018-05-29 11:45:24; 242.00; 3.87; 23.50
2018-05-29 11:45:36; 241.00; 3.89; 23.50
2018-05-29 11:45:48; 242.00; 3.87; 23.50
2018-05-29 12:00:03; 242.00; 3.88; 24.38
2018-05-29 12:00:16; 241.00; 3.88; 24.44
2018-05-29 12:00:28; 242.00; 3.88; 24.44
2018-05-29 12:00:40; 242.00; 3.88; 24.50
2018-05-29 12:00:53; 242.00; 3.88; 24.50
2018-05-29 12:15:08; 242.00; 3.88; 24.81
2018-05-29 12:15:20; 243.00; 3.88; 24.81
2018-05-29 12:15:32; 243.00; 3.87; 24.75
2018-05-29 12:15:45; 241.00; 3.89; 24.75
2018-05-29 12:15:57; 242.00; 3.89; 24.75
2018-05-29 12:30:12; 242.00; 3.88; 23.38
2018-05-29 12:30:24; 242.00; 3.88; 23.38
2018-05-29 12:30:37; 242.00; 3.88; 23.31
2018-05-29 12:30:49; 242.00; 3.88; 23.25
2018-05-29 12:45:04; 244.00; 3.86; 23.44
2018-05-29 12:45:16; 244.00; 3.86; 23.44
2018-05-29 12:45:29; 242.00; 3.88; 23.50
2018-05-29 12:45:41; 241.00; 3.89; 23.50
2018-05-29 12:45:53; 241.00; 3.88; 23.50
2018-05-29 13:00:08; 243.00; 3.87; 24.81
2018-05-29 13:00:21; 243.00; 3.87; 24.81
2018-05-29 13:00:33; 242.00; 3.88; 24.75
2018-05-29 13:00:45; 240.00; 3.90; 24.75
2018-05-29 13:00:58; 240.00; 3.90; 24.81
2018-05-29 13:15:01; 243.00; 3.87; 24.50
2018-05-29 13:15:13; 243.00; 3.87; 24.50
2018-05-29 13:15:26; 243.00; 3.87; 24.56
2018-05-29 13:15:38; 242.00; 3.88; 24.56
2018-05-29 13:15:51; 242.00; 3.88; 24.56
2018-05-29 13:30:05; 242.00; 3.88; 24.56
2018-05-29 13:30:18; 242.00; 3.88; 24.56
2018-05-29 13:30:30; 242.00; 3.88; 24.56
2018-05-29 13:30:42; 241.00; 3.88; 24.56
2018-05-29 13:30:55; 242.00; 3.88; 24.56
2018-05-29 13:45:09; 242.00; 3.88; 24.44
2018-05-29 13:45:22; 242.00; 3.88; 24.44
2018-05-29 13:45:34; 242.00; 3.88; 24.44
2018-05-29 13:45:46; 242.00; 3.88; 24.44
2018-05-29 13:45:59; 242.00; 3.87; 24.44
2018-05-29 14:00:02; 242.00; 3.88; 24.75
2018-05-29 14:00:14; 242.00; 3.88; 24.81
2018-05-29 14:00:27; 243.00; 3.87; 24.81
2018-05-29 14:00:39; 241.00; 3.89; 24.81
2018-05-29 14:00:51; 242.00; 3.88; 24.81
2018-05-29 14:15:06; 243.00; 3.87; 24.63
2018-05-29 14:15:18; 243.00; 3.87; 24.63
2018-05-29 14:15:30; 242.00; 3.88; 24.63
2018-05-29 14:15:43; 242.00; 3.88; 24.63
2018-05-29 14:15:55; 243.00; 3.87; 24.63
2018-05-29 14:30:10; 242.00; 3.87; 24.44
2018-05-29 14:30:22; 243.00; 3.87; 24.44
2018-05-29 14:30:35; 242.00; 3.88; 24.44
2018-05-29 14:30:47; 242.00; 3.88; 24.44
2018-05-29 14:30:59; 242.00; 3.88; 24.50
2018-05-29 14:45:03; 242.00; 3.88; 24.44
2018-05-29 14:45:15; 242.00; 3.88; 24.44
2018-05-29 14:45:28; 242.00; 3.88; 24.38
2018-05-29 14:45:40; 242.00; 3.87; 24.38
2018-05-29 14:45:52; 242.00; 3.87; 24.38
2018-05-29 15:00:07; 242.00; 3.88; 25.63
2018-05-29 15:00:19; 242.00; 3.88; 25.63
2018-05-29 15:00:32; 242.00; 3.88; 25.63
2018-05-29 15:00:44; 242.00; 3.88; 25.56
2018-05-29 15:00:56; 242.00; 3.88; 25.63
2018-05-29 15:15:11; 242.00; 3.88; 25.06
2018-05-29 15:15:24; 242.00; 3.88; 25.13
2018-05-29 15:15:36; 242.00; 3.88; 25.13
2018-05-29 15:15:48; 242.00; 3.88; 25.13
2018-05-29 15:30:03; 243.00; 3.87; 25.06
2018-05-29 15:30:15; 243.00; 3.87; 25.06
2018-05-29 15:30:28; 242.00; 3.88; 25.06
2018-05-29 15:30:40; 242.00; 3.88; 25.06
2018-05-29 15:30:52; 242.00; 3.87; 25.06
2018-05-29 15:45:07; 242.00; 3.88; 25.13
2018-05-29 15:45:20; 242.00; 3.88; 25.13
2018-05-29 15:45:32; 242.00; 3.88; 25.13
2018-05-29 15:45:44; 242.00; 3.88; 25.13
2018-05-29 15:45:57; 242.00; 3.88; 25.13
2018-05-29 16:00:11; 243.00; 3.87; 25.13
2018-05-29 16:00:24; 243.00; 3.87; 25.19
2018-05-29 16:00:36; 244.00; 3.86; 25.13
2018-05-29 16:00:49; 243.00; 3.87; 25.13
2018-05-29 16:15:03; 242.00; 3.88; 25.44
2018-05-29 16:15:16; 242.00; 3.88; 25.38
2018-05-29 16:15:28; 242.00; 3.88; 25.44
2018-05-29 16:15:40; 243.00; 3.87; 25.44
2018-05-29 16:15:53; 243.00; 3.87; 25.50
2018-05-29 16:30:07; 243.00; 3.87; 25.75
2018-05-29 16:30:20; 243.00; 3.87; 25.69
2018-05-29 16:30:32; 243.00; 3.87; 25.63
2018-05-29 16:30:45; 243.00; 3.87; 25.63
2018-05-29 16:30:57; 243.00; 3.87; 25.56
2018-05-29 16:45:11; 243.00; 3.87; 24.25
2018-05-29 16:45:24; 243.00; 3.87; 24.19
2018-05-29 16:45:36; 243.00; 3.87; 24.19
2018-05-29 16:45:48; 243.00; 3.87; 24.25
2018-05-29 17:00:03; 243.00; 3.87; 23.94
2018-05-29 17:00:16; 243.00; 3.87; 23.94
2018-05-29 17:00:28; 243.00; 3.87; 23.94
2018-05-29 17:00:40; 243.00; 3.87; 23.94
2018-05-29 17:00:53; 243.00; 3.87; 23.94
2018-05-29 17:15:07; 243.00; 3.87; 23.88
2018-05-29 17:15:20; 243.00; 3.87; 23.88
2018-05-29 17:15:32; 242.00; 3.88; 23.88
2018-05-29 17:15:45; 243.00; 3.87; 23.88
2018-05-29 17:15:57; 243.00; 3.87; 23.88
2018-05-29 17:30:01; 243.00; 3.87; 23.25
2018-05-29 17:30:13; 243.00; 3.87; 23.25
2018-05-29 17:30:25; 243.00; 3.87; 23.25
2018-05-29 17:30:38; 243.00; 3.87; 23.25
2018-05-29 17:30:50; 243.00; 3.87; 23.25
2018-05-29 17:45:05; 242.00; 3.88; 22.81
2018-05-29 17:45:17; 243.00; 3.87; 22.81
2018-05-29 17:45:30; 243.00; 3.87; 22.75
2018-05-29 17:45:42; 242.00; 3.88; 22.75
2018-05-29 17:45:54; 242.00; 3.88; 22.75
2018-05-29 18:00:09; 243.00; 3.87; 22.31
2018-05-29 18:00:22; 243.00; 3.87; 22.31
2018-05-29 18:00:34; 243.00; 3.87; 22.31
2018-05-29 18:00:46; 243.00; 3.87; 22.31
2018-05-29 18:00:59; 243.00; 3.87; 22.31
2018-05-29 18:15:02; 243.00; 3.87; 21.81
2018-05-29 18:15:15; 243.00; 3.87; 21.81
2018-05-29 18:15:27; 243.00; 3.87; 21.81
2018-05-29 18:15:39; 243.00; 3.87; 21.81
2018-05-29 18:15:52; 243.00; 3.88; 21.81
2018-05-29 18:30:06; 244.00; 3.86; 21.50
2018-05-29 18:30:19; 243.00; 3.86; 21.50
2018-05-29 18:30:31; 244.00; 3.86; 21.50
2018-05-29 18:30:44; 243.00; 3.87; 21.50
2018-05-29 18:30:56; 243.00; 3.87; 21.50
2018-05-29 18:45:11; 243.00; 3.87; 21.06
2018-05-29 18:45:23; 242.00; 3.87; 21.06
2018-05-29 18:45:36; 243.00; 3.87; 21.06
2018-05-29 18:45:48; 243.00; 3.87; 21.06
2018-05-29 18:46:00; 243.00; 3.87; 21.06
2018-05-29 19:00:04; 243.00; 3.87; 20.75
2018-05-29 19:00:16; 243.00; 3.87; 20.75
2018-05-29 19:00:29; 244.00; 3.86; 20.75
2018-05-29 19:00:41; 243.00; 3.87; 20.75
2018-05-29 19:00:53; 244.00; 3.86; 20.75
2018-05-29 19:15:08; 243.00; 3.87; 20.50
2018-05-29 19:15:21; 243.00; 3.87; 20.50
2018-05-29 19:15:33; 243.00; 3.87; 20.50
2018-05-29 19:15:46; 243.00; 3.87; 20.50
2018-05-29 19:15:58; 243.00; 3.87; 20.50
2018-05-29 19:30:02; 244.00; 3.86; 20.38
2018-05-29 19:30:14; 244.00; 3.86; 20.31
2018-05-29 19:30:26; 244.00; 3.86; 20.31
2018-05-29 19:30:39; 244.00; 3.86; 20.31
2018-05-29 19:30:51; 244.00; 3.86; 20.31
2018-05-29 19:45:06; 244.00; 3.86; 20.19
2018-05-29 19:45:19; 244.00; 3.86; 20.19
2018-05-29 19:45:31; 244.00; 3.86; 20.13
2018-05-29 19:45:43; 244.00; 3.86; 20.19
2018-05-29 19:45:56; 244.00; 3.86; 20.13
2018-05-29 20:00:11; 244.00; 3.86; 20.13
2018-05-29 20:00:23; 244.00; 3.86; 20.13
2018-05-29 20:00:35; 244.00; 3.86; 20.13
2018-05-29 20:00:48; 244.00; 3.86; 20.13
2018-05-29 20:01:00; 244.00; 3.86; 20.13
2018-05-29 20:15:04; 243.00; 3.87; 20.19
2018-05-29 20:15:16; 244.00; 3.86; 20.19
2018-05-29 20:15:28; 243.00; 3.86; 20.19
2018-05-29 20:15:41; 244.00; 3.86; 20.25
2018-05-29 20:15:53; 243.00; 3.87; 20.25
2018-05-29 20:30:08; 244.00; 3.86; 20.31
2018-05-29 20:30:20; 244.00; 3.86; 20.31
2018-05-29 20:30:33; 244.00; 3.86; 20.31
2018-05-29 20:30:45; 243.00; 3.87; 20.31
2018-05-29 20:30:58; 243.00; 3.87; 20.31
2018-05-29 20:45:01; 244.00; 3.86; 20.31
2018-05-29 20:45:13; 244.00; 3.86; 20.31
2018-05-29 20:45:26; 244.00; 3.86; 20.31
2018-05-29 20:45:38; 244.00; 3.86; 20.31
2018-05-29 20:45:51; 244.00; 3.86; 20.31
2018-05-29 21:00:06; 244.00; 3.86; 20.19
2018-05-29 21:00:18; 244.00; 3.86; 20.19
2018-05-29 21:00:30; 244.00; 3.86; 20.19
2018-05-29 21:00:43; 244.00; 3.86; 20.19
2018-05-29 21:00:55; 244.00; 3.86; 20.19
2018-05-29 21:15:10; 244.00; 3.86; 20.00
2018-05-29 21:15:22; 244.00; 3.86; 20.00
2018-05-29 21:15:35; 244.00; 3.86; 20.00
2018-05-29 21:15:47; 244.00; 3.86; 20.00
2018-05-29 21:15:59; 244.00; 3.86; 20.00
2018-05-29 21:30:03; 244.00; 3.86; 19.69
2018-05-29 21:30:16; 244.00; 3.86; 19.69
2018-05-29 21:30:28; 244.00; 3.86; 19.69
2018-05-29 21:30:40; 244.00; 3.86; 19.69
2018-05-29 21:30:53; 244.00; 3.86; 19.69
2018-05-29 21:45:08; 244.00; 3.86; 19.63
2018-05-29 21:45:20; 245.00; 3.85; 19.63
2018-05-29 21:45:33; 245.00; 3.85; 19.63
2018-05-29 21:45:45; 244.00; 3.86; 19.63
2018-05-29 21:45:57; 244.00; 3.86; 19.63
2018-05-29 22:00:01; 244.00; 3.86; 19.56
2018-05-29 22:00:13; 245.00; 3.85; 19.56
2018-05-29 22:00:26; 245.00; 3.85; 19.56
2018-05-29 22:00:38; 245.00; 3.85; 19.56
2018-05-29 22:00:51; 244.00; 3.86; 19.56
2018-05-29 22:15:05; 244.00; 3.86; 19.56
2018-05-29 22:15:18; 244.00; 3.86; 19.56
2018-05-29 22:15:30; 244.00; 3.86; 19.56
2018-05-29 22:15:43; 244.00; 3.86; 19.56
2018-05-29 22:15:55; 244.00; 3.86; 19.56
2018-05-29 22:30:10; 245.00; 3.85; 19.56
2018-05-29 22:30:22; 245.00; 3.85; 19.63
2018-05-29 22:30:35; 245.00; 3.85; 19.63
2018-05-29 22:30:47; 244.00; 3.86; 19.63
2018-05-29 22:31:00; 244.00; 3.86; 19.56
2018-05-29 22:45:03; 245.00; 3.85; 19.50
2018-05-29 22:45:16; 245.00; 3.85; 19.50
2018-05-29 22:45:28; 245.00; 3.85; 19.50
2018-05-29 22:45:40; 245.00; 3.85; 19.50
2018-05-29 22:45:53; 245.00; 3.85; 19.50
2018-05-29 23:00:08; 245.00; 3.85; 19.31
2018-05-29 23:00:20; 245.00; 3.85; 19.31
2018-05-29 23:00:32; 245.00; 3.85; 19.31
2018-05-29 23:00:45; 245.00; 3.85; 19.31
2018-05-29 23:00:57; 245.00; 3.85; 19.31
2018-05-29 23:15:01; 245.00; 3.85; 19.13
2018-05-29 23:15:13; 245.00; 3.85; 19.13
2018-05-29 23:15:25; 245.00; 3.85; 19.13
2018-05-29 23:15:38; 245.00; 3.85; 19.13
2018-05-29 23:15:50; 245.00; 3.85; 19.13
2018-05-29 23:30:05; 244.00; 3.86; 19.00
2018-05-29 23:30:18; 244.00; 3.86; 19.00
2018-05-29 23:30:30; 245.00; 3.85; 19.00
2018-05-29 23:30:42; 245.00; 3.85; 19.00
2018-05-29 23:30:55; 244.00; 3.86; 19.00
2018-05-29 23:45:10; 245.00; 3.85; 18.88
2018-05-29 23:45:22; 245.00; 3.85; 18.88
2018-05-29 23:45:35; 245.00; 3.85; 18.88
2018-05-29 23:45:47; 245.00; 3.85; 18.88
2018-05-29 23:45:59; 245.00; 3.85; 18.88
