2018-07-28 00:00:03; 762.00; -1.32; 10.13
2018-07-28 00:00:15; 762.00; -1.32; 10.13
2018-07-28 00:00:28; 762.00; -1.32; 10.13
2018-07-28 00:00:40; 762.00; -1.32; 10.13
2018-07-28 00:00:53; 762.00; -1.32; 10.13
2018-07-28 00:15:08; 762.00; -1.32; 9.94
2018-07-28 00:15:21; 762.00; -1.32; 9.94
2018-07-28 00:15:33; 762.00; -1.32; 9.94
2018-07-28 00:15:46; 762.00; -1.32; 9.94
2018-07-28 00:15:58; 762.00; -1.32; 9.94
2018-07-28 00:30:02; 762.00; -1.32; 9.94
2018-07-28 00:30:15; 762.00; -1.32; 9.94
2018-07-28 00:30:27; 762.00; -1.32; 9.94
2018-07-28 00:30:40; 762.00; -1.32; 9.94
2018-07-28 00:30:52; 762.00; -1.32; 9.94
2018-07-28 00:45:08; 762.00; -1.32; 10.00
2018-07-28 00:45:20; 762.00; -1.32; 10.00
2018-07-28 00:45:32; 762.00; -1.32; 10.00
2018-07-28 00:45:45; 762.00; -1.32; 10.00
2018-07-28 00:45:57; 762.00; -1.32; 9.94
2018-07-28 01:00:02; 411.00; 2.19; 9.94
2018-07-28 01:00:14; 411.00; 2.19; 9.94
2018-07-28 01:00:27; 411.00; 2.19; 9.94
2018-07-28 01:00:39; 411.00; 2.19; 9.94
2018-07-28 01:00:51; 411.00; 2.19; 9.94
2018-07-28 01:15:08; 20.00; 6.10; 9.94
2018-07-28 01:15:20; 20.00; 6.10; 9.94
2018-07-28 01:15:32; 20.00; 6.10; 9.94
2018-07-28 01:15:45; 20.00; 6.10; 9.94
2018-07-28 01:15:57; 20.00; 6.10; 9.94
2018-07-28 01:30:02; 20.00; 6.10; 9.94
2018-07-28 01:30:14; 20.00; 6.10; 9.94
2018-07-28 01:30:27; 20.00; 6.10; 9.94
2018-07-28 01:30:39; 20.00; 6.10; 9.94
2018-07-28 01:30:52; 20.00; 6.10; 9.94
2018-07-28 01:45:08; 20.00; 6.10; 9.75
2018-07-28 01:45:20; 20.00; 6.10; 9.75
2018-07-28 01:45:33; 20.00; 6.10; 9.75
2018-07-28 01:45:45; 20.00; 6.10; 9.75
2018-07-28 01:45:58; 20.00; 6.10; 9.75
2018-07-28 02:00:03; 20.00; 6.10; 9.63
2018-07-28 02:00:15; 20.00; 6.10; 9.63
2018-07-28 02:00:27; 20.00; 6.10; 9.63
2018-07-28 02:00:40; 20.00; 6.10; 9.63
2018-07-28 02:00:52; 20.00; 6.10; 9.63
2018-07-28 02:15:08; 411.00; 2.19; 9.63
2018-07-28 02:15:20; 411.00; 2.19; 9.63
2018-07-28 02:15:33; 411.00; 2.19; 9.63
2018-07-28 02:15:45; 411.00; 2.19; 9.63
2018-07-28 02:15:58; 411.00; 2.19; 9.63
2018-07-28 02:30:02; 411.00; 2.19; 9.50
2018-07-28 02:30:15; 411.00; 2.19; 9.50
2018-07-28 02:30:27; 411.00; 2.19; 9.50
2018-07-28 02:30:39; 411.00; 2.19; 9.50
2018-07-28 02:30:52; 411.00; 2.19; 9.50
2018-07-28 02:45:08; 411.00; 2.19; 9.38
2018-07-28 02:45:20; 411.00; 2.19; 9.38
2018-07-28 02:45:32; 411.00; 2.19; 9.38
2018-07-28 02:45:45; 411.00; 2.19; 9.38
2018-07-28 02:45:57; 411.00; 2.19; 9.38
2018-07-28 03:00:02; 411.00; 2.19; 9.38
2018-07-28 03:00:14; 411.00; 2.19; 9.38
2018-07-28 03:00:27; 411.00; 2.19; 9.38
2018-07-28 03:00:39; 411.00; 2.19; 9.38
2018-07-28 03:00:51; 411.00; 2.19; 9.38
2018-07-28 03:15:07; 412.00; 2.18; 9.31
2018-07-28 03:15:20; 412.00; 2.18; 9.38
2018-07-28 03:15:32; 412.00; 2.18; 9.38
2018-07-28 03:15:44; 412.00; 2.18; 9.38
2018-07-28 03:15:57; 412.00; 2.18; 9.38
2018-07-28 03:30:01; 412.00; 2.18; 9.31
2018-07-28 03:30:13; 412.00; 2.18; 9.31
2018-07-28 03:30:26; 412.00; 2.18; 9.31
2018-07-28 03:30:38; 412.00; 2.18; 9.31
2018-07-28 03:30:51; 412.00; 2.18; 9.31
2018-07-28 03:45:07; 22.00; 6.08; 9.31
2018-07-28 03:45:19; 22.00; 6.08; 9.31
2018-07-28 03:45:32; 22.00; 6.08; 9.31
2018-07-28 03:45:44; 22.00; 6.08; 9.31
2018-07-28 03:45:56; 22.00; 6.08; 9.31
2018-07-28 04:00:02; 22.00; 6.08; 9.56
2018-07-28 04:00:14; 22.00; 6.08; 9.56
2018-07-28 04:00:26; 22.00; 6.08; 9.56
2018-07-28 04:00:39; 22.00; 6.08; 9.56
2018-07-28 04:00:51; 22.00; 6.08; 9.56
2018-07-28 04:15:08; 22.00; 6.08; 9.56
2018-07-28 04:15:20; 22.00; 6.08; 9.56
2018-07-28 04:15:32; 22.00; 6.08; 9.56
2018-07-28 04:15:45; 22.00; 6.08; 9.56
2018-07-28 04:15:57; 22.00; 6.08; 9.56
2018-07-28 04:30:02; 22.00; 6.08; 9.44
2018-07-28 04:30:14; 22.00; 6.08; 9.44
2018-07-28 04:30:27; 22.00; 6.08; 9.44
2018-07-28 04:30:39; 22.00; 6.08; 9.44
2018-07-28 04:30:52; 22.00; 6.08; 9.44
2018-07-28 04:45:10; 0.00; 6.30; 9.31
2018-07-28 04:45:22; 0.00; 6.30; 9.31
2018-07-28 04:45:35; 0.00; 6.30; 9.31
2018-07-28 04:45:47; 0.00; 6.30; 9.31
2018-07-28 04:46:00; 0.00; 6.30; 9.31
2018-07-28 05:00:07; 0.00; 6.30; 9.38
2018-07-28 05:00:19; 0.00; 6.30; 9.38
2018-07-28 05:00:32; 0.00; 6.30; 9.38
2018-07-28 05:00:44; 0.00; 6.30; 9.38
2018-07-28 05:00:57; 0.00; 6.30; 9.38
2018-07-28 05:15:04; 0.00; 6.30; 9.38
2018-07-28 05:15:16; 0.00; 6.30; 9.38
2018-07-28 05:15:29; 0.00; 6.30; 9.38
2018-07-28 05:15:41; 0.00; 6.30; 9.38
2018-07-28 05:15:54; 0.00; 6.30; 9.38
2018-07-28 05:30:11; 411.00; 2.19; 9.25
2018-07-28 05:30:24; 411.00; 2.19; 9.25
2018-07-28 05:30:36; 411.00; 2.19; 9.25
2018-07-28 05:30:48; 411.00; 2.19; 9.25
2018-07-28 05:45:04; 410.00; 2.20; 9.13
2018-07-28 05:45:17; 410.00; 2.20; 9.13
2018-07-28 05:45:29; 410.00; 2.20; 9.13
2018-07-28 05:45:41; 410.00; 2.20; 9.13
2018-07-28 05:45:54; 410.00; 2.20; 9.13
2018-07-28 06:00:10; 412.00; 2.19; 9.13
2018-07-28 06:00:22; 411.00; 2.19; 9.13
2018-07-28 06:00:34; 411.00; 2.19; 9.13
2018-07-28 06:00:47; 411.00; 2.19; 9.13
2018-07-28 06:00:59; 412.00; 2.18; 9.13
2018-07-28 06:15:03; 411.00; 2.19; 9.13
2018-07-28 06:15:16; 411.00; 2.19; 9.19
2018-07-28 06:15:28; 410.00; 2.20; 9.19
2018-07-28 06:15:40; 410.00; 2.20; 9.13
2018-07-28 06:15:53; 410.00; 2.20; 9.19
2018-07-28 06:30:08; 411.00; 2.19; 9.19
2018-07-28 06:30:21; 411.00; 2.19; 9.19
2018-07-28 06:30:33; 410.00; 2.20; 9.19
2018-07-28 06:30:45; 411.00; 2.19; 9.19
2018-07-28 06:30:58; 411.00; 2.19; 9.19
2018-07-28 06:45:01; 411.00; 2.19; 9.19
2018-07-28 06:45:14; 411.00; 2.19; 9.19
2018-07-28 06:45:26; 411.00; 2.19; 9.19
2018-07-28 06:45:38; 411.00; 2.19; 9.19
2018-07-28 06:45:51; 410.00; 2.20; 9.19
2018-07-28 07:00:05; 411.00; 2.19; 9.19
2018-07-28 07:00:18; 411.00; 2.19; 9.13
2018-07-28 07:00:30; 411.00; 2.19; 9.13
2018-07-28 07:00:42; 411.00; 2.19; 9.13
2018-07-28 07:00:55; 411.00; 2.19; 9.13
2018-07-28 07:15:09; 411.00; 2.19; 9.06
2018-07-28 07:15:22; 411.00; 2.19; 9.06
2018-07-28 07:15:34; 411.00; 2.19; 9.06
2018-07-28 07:15:47; 410.00; 2.20; 9.06
2018-07-28 07:15:59; 411.00; 2.19; 9.06
2018-07-28 07:30:03; 411.00; 2.19; 9.31
2018-07-28 07:30:15; 412.00; 2.18; 9.31
2018-07-28 07:30:28; 411.00; 2.19; 9.31
2018-07-28 07:30:40; 412.00; 2.18; 9.31
2018-07-28 07:30:52; 411.00; 2.19; 9.31
2018-07-28 07:45:07; 411.00; 2.19; 9.31
2018-07-28 07:45:20; 410.00; 2.20; 9.31
2018-07-28 07:45:32; 411.00; 2.19; 9.31
2018-07-28 07:45:45; 412.00; 2.18; 9.31
2018-07-28 07:45:57; 412.00; 2.19; 9.31
2018-07-28 08:00:01; 411.00; 2.19; 9.25
2018-07-28 08:00:13; 411.00; 2.19; 9.25
2018-07-28 08:00:26; 411.00; 2.19; 9.25
2018-07-28 08:00:38; 411.00; 2.19; 9.25
2018-07-28 08:00:50; 411.00; 2.19; 9.25
2018-07-28 08:15:05; 411.00; 2.19; 9.19
2018-07-28 08:15:18; 411.00; 2.19; 9.19
2018-07-28 08:15:30; 411.00; 2.19; 9.19
2018-07-28 08:15:42; 411.00; 2.19; 9.19
2018-07-28 08:15:55; 411.00; 2.19; 9.19
2018-07-28 08:30:10; 411.00; 2.19; 9.06
2018-07-28 08:30:22; 411.00; 2.19; 9.06
2018-07-28 08:30:35; 411.00; 2.19; 9.06
2018-07-28 08:30:47; 411.00; 2.19; 9.06
2018-07-28 08:30:59; 411.00; 2.19; 9.06
2018-07-28 08:45:03; 411.00; 2.19; 9.19
2018-07-28 08:45:15; 411.00; 2.19; 9.19
2018-07-28 08:45:28; 411.00; 2.20; 9.19
2018-07-28 08:45:40; 411.00; 2.19; 9.19
2018-07-28 08:45:52; 411.00; 2.19; 9.19
2018-07-28 09:00:08; 411.00; 2.19; 9.31
2018-07-28 09:00:20; 411.00; 2.19; 9.31
2018-07-28 09:00:32; 411.00; 2.19; 9.31
2018-07-28 09:00:45; 411.00; 2.19; 9.31
2018-07-28 09:00:57; 411.00; 2.19; 9.31
2018-07-28 09:15:01; 412.00; 2.18; 9.50
2018-07-28 09:15:13; 412.00; 2.18; 9.50
2018-07-28 09:15:26; 412.00; 2.18; 9.50
2018-07-28 09:15:38; 411.00; 2.18; 9.50
2018-07-28 09:15:51; 411.00; 2.19; 9.50
2018-07-28 09:30:06; 412.00; 2.18; 9.63
2018-07-28 09:30:19; 412.00; 2.18; 9.63
2018-07-28 09:30:31; 412.00; 2.18; 9.63
2018-07-28 09:30:44; 412.00; 2.18; 9.69
2018-07-28 09:30:56; 411.00; 2.19; 9.63
2018-07-28 09:45:12; 411.00; 2.19; 9.63
2018-07-28 09:45:24; 412.00; 2.18; 9.69
2018-07-28 09:45:37; 411.00; 2.19; 9.69
2018-07-28 09:45:49; 412.00; 2.18; 9.63
2018-07-28 10:00:05; 411.00; 2.19; 9.75
2018-07-28 10:00:17; 412.00; 2.18; 9.75
2018-07-28 10:00:30; 411.00; 2.19; 9.81
2018-07-28 10:00:42; 412.00; 2.18; 9.81
2018-07-28 10:00:54; 412.00; 2.18; 9.81
2018-07-28 10:15:10; 411.00; 2.19; 10.00
2018-07-28 10:15:22; 412.00; 2.18; 10.00
2018-07-28 10:15:35; 411.00; 2.19; 10.00
2018-07-28 10:15:47; 412.00; 2.18; 10.00
2018-07-28 10:16:00; 411.00; 2.19; 10.00
2018-07-28 10:30:04; 411.00; 2.19; 10.44
2018-07-28 10:30:16; 412.00; 2.18; 10.44
2018-07-28 10:30:29; 411.00; 2.19; 10.44
2018-07-28 10:30:41; 410.00; 2.20; 10.44
2018-07-28 10:30:53; 411.00; 2.19; 10.50
2018-07-28 10:45:09; 410.00; 2.20; 11.31
2018-07-28 10:45:21; 410.00; 2.20; 11.31
2018-07-28 10:45:34; 410.00; 2.20; 11.31
2018-07-28 10:45:46; 410.00; 2.20; 11.31
2018-07-28 10:45:59; 410.00; 2.20; 11.31
2018-07-28 11:00:03; 410.00; 2.20; 11.31
2018-07-28 11:00:15; 410.00; 2.20; 11.31
2018-07-28 11:00:28; 410.00; 2.20; 11.31
2018-07-28 11:00:40; 410.00; 2.20; 11.25
2018-07-28 11:00:52; 410.00; 2.20; 11.25
2018-07-28 11:15:08; 408.00; 2.22; 12.00
2018-07-28 11:15:20; 408.00; 2.22; 12.06
2018-07-28 11:15:33; 408.00; 2.22; 12.06
2018-07-28 11:15:45; 408.00; 2.22; 12.06
2018-07-28 11:15:57; 408.00; 2.22; 12.13
2018-07-28 11:30:02; 410.00; 2.20; 11.81
2018-07-28 11:30:14; 410.00; 2.20; 11.81
2018-07-28 11:30:27; 410.00; 2.20; 11.81
2018-07-28 11:30:39; 410.00; 2.20; 11.81
2018-07-28 11:30:51; 410.00; 2.20; 11.81
2018-07-28 11:45:07; 410.00; 2.20; 11.19
2018-07-28 11:45:19; 410.00; 2.20; 11.19
2018-07-28 11:45:32; 410.00; 2.20; 11.19
2018-07-28 11:45:44; 410.00; 2.20; 11.19
2018-07-28 11:45:57; 410.00; 2.20; 11.19
2018-07-28 12:00:01; 410.00; 2.20; 11.06
2018-07-28 12:00:13; 410.00; 2.20; 11.00
2018-07-28 12:00:26; 410.00; 2.20; 11.00
2018-07-28 12:00:38; 410.00; 2.20; 11.00
2018-07-28 12:00:51; 410.00; 2.20; 11.06
2018-07-28 12:15:06; 410.00; 2.20; 11.13
2018-07-28 12:15:19; 410.00; 2.20; 11.13
2018-07-28 12:15:31; 0.00; 6.30; 11.13
2018-07-28 12:15:43; 0.00; 6.30; 11.13
2018-07-28 12:15:56; 0.00; 6.30; 11.13
2018-07-28 12:30:03; 0.00; 6.30; 11.50
2018-07-28 12:30:16; 0.00; 6.30; 11.50
2018-07-28 12:30:28; 0.00; 6.30; 11.56
2018-07-28 12:30:40; 0.00; 6.30; 11.56
2018-07-28 12:30:53; 0.00; 6.30; 11.56
2018-07-28 12:45:11; 0.00; 6.30; 12.13
2018-07-28 12:45:24; 0.00; 6.30; 12.13
2018-07-28 12:45:36; 0.00; 6.30; 12.13
2018-07-28 12:45:49; 0.00; 6.30; 12.19
2018-07-28 13:00:07; 0.00; 6.30; 12.75
2018-07-28 13:00:20; 0.00; 6.30; 12.75
2018-07-28 13:00:32; 0.00; 6.30; 12.75
2018-07-28 13:00:45; 0.00; 6.30; 12.81
2018-07-28 13:00:57; 0.00; 6.30; 12.75
2018-07-28 13:15:04; 0.00; 6.30; 12.38
2018-07-28 13:15:16; 0.00; 6.30; 12.38
2018-07-28 13:15:29; 0.00; 6.30; 12.31
2018-07-28 13:15:41; 0.00; 6.30; 12.38
2018-07-28 13:15:54; 0.00; 6.30; 12.38
2018-07-28 13:30:01; 0.00; 6.30; 12.56
2018-07-28 13:30:13; 0.00; 6.30; 12.63
2018-07-28 13:30:26; 0.00; 6.30; 12.63
2018-07-28 13:30:38; 0.00; 6.30; 12.69
2018-07-28 13:30:51; 0.00; 6.30; 12.69
2018-07-28 13:45:09; 0.00; 6.30; 12.69
2018-07-28 13:45:21; 0.00; 6.30; 12.69
2018-07-28 13:45:34; 0.00; 6.30; 12.69
2018-07-28 13:45:46; 0.00; 6.30; 12.69
2018-07-28 13:45:59; 0.00; 6.30; 12.69
2018-07-28 14:00:06; 0.00; 6.30; 12.50
2018-07-28 14:00:18; 0.00; 6.30; 12.50
2018-07-28 14:00:31; 0.00; 6.30; 12.50
2018-07-28 14:00:43; 0.00; 6.30; 12.50
2018-07-28 14:00:56; 0.00; 6.30; 12.50
2018-07-28 14:15:03; 0.00; 6.30; 12.50
2018-07-28 14:15:15; 0.00; 6.30; 12.50
2018-07-28 14:15:28; 0.00; 6.30; 12.56
2018-07-28 14:15:40; 0.00; 6.30; 12.56
2018-07-28 14:15:52; 0.00; 6.30; 12.56
2018-07-28 14:30:11; 0.00; 6.30; 12.63
2018-07-28 14:30:23; 0.00; 6.30; 12.63
2018-07-28 14:30:36; 0.00; 6.30; 12.63
2018-07-28 14:30:48; 0.00; 6.30; 12.63
2018-07-28 14:45:07; 0.00; 6.30; 13.00
2018-07-28 14:45:19; 0.00; 6.30; 13.00
2018-07-28 14:45:32; 0.00; 6.30; 13.00
2018-07-28 14:45:44; 0.00; 6.30; 13.00
2018-07-28 14:45:57; 0.00; 6.30; 13.00
2018-07-28 15:00:03; 410.00; 2.20; 13.56
2018-07-28 15:00:16; 410.00; 2.20; 13.56
2018-07-28 15:00:28; 410.00; 2.20; 13.56
2018-07-28 15:00:41; 410.00; 2.20; 13.56
2018-07-28 15:00:53; 410.00; 2.20; 13.63
2018-07-28 15:15:09; 409.00; 2.21; 14.38
2018-07-28 15:15:21; 409.00; 2.21; 14.38
2018-07-28 15:15:33; 409.00; 2.21; 14.38
2018-07-28 15:15:46; 409.00; 2.21; 14.38
2018-07-28 15:15:58; 409.00; 2.21; 14.38
2018-07-28 15:30:02; 409.00; 2.21; 14.81
2018-07-28 15:30:14; 409.00; 2.21; 14.75
2018-07-28 15:30:27; 409.00; 2.21; 14.75
2018-07-28 15:30:39; 409.00; 2.21; 14.81
2018-07-28 15:30:51; 409.00; 2.21; 14.75
2018-07-28 15:45:07; 0.00; 6.30; 14.25
2018-07-28 15:45:20; 0.00; 6.30; 14.19
2018-07-28 15:45:32; 0.00; 6.30; 14.19
2018-07-28 15:45:44; 0.00; 6.30; 14.13
2018-07-28 15:45:57; 0.00; 6.30; 14.13
2018-07-28 16:00:04; 762.00; -1.32; 13.63
2018-07-28 16:00:16; 762.00; -1.32; 13.69
2018-07-28 16:00:28; 762.00; -1.32; 13.69
2018-07-28 16:00:41; 762.00; -1.32; 13.69
2018-07-28 16:00:53; 762.00; -1.32; 13.75
2018-07-28 16:15:09; 762.00; -1.32; 15.38
2018-07-28 16:15:21; 762.00; -1.32; 15.38
2018-07-28 16:15:34; 762.00; -1.32; 15.38
2018-07-28 16:15:46; 762.00; -1.32; 15.44
2018-07-28 16:15:59; 762.00; -1.32; 15.44
2018-07-28 16:30:03; 762.00; -1.32; 15.25
2018-07-28 16:30:15; 762.00; -1.32; 15.25
2018-07-28 16:30:28; 762.00; -1.32; 15.25
2018-07-28 16:30:40; 762.00; -1.32; 15.31
2018-07-28 16:30:52; 762.00; -1.32; 15.31
2018-07-28 16:45:08; 409.00; 2.21; 16.31
2018-07-28 16:45:20; 409.00; 2.21; 16.38
2018-07-28 16:45:32; 409.00; 2.21; 16.38
2018-07-28 16:45:45; 409.00; 2.21; 16.38
2018-07-28 16:45:57; 409.00; 2.21; 16.44
2018-07-28 17:00:01; 404.00; 2.25; 17.25
2018-07-28 17:00:14; 404.00; 2.26; 17.25
2018-07-28 17:00:26; 762.00; -1.32; 17.19
2018-07-28 17:00:38; 762.00; -1.32; 17.19
2018-07-28 17:00:51; 762.00; -1.32; 17.19
2018-07-28 17:15:06; 762.00; -1.32; 18.69
2018-07-28 17:15:18; 762.00; -1.32; 18.69
2018-07-28 17:15:31; 762.00; -1.32; 18.75
2018-07-28 17:15:43; 762.00; -1.32; 18.69
2018-07-28 17:15:55; 762.00; -1.32; 18.75
2018-07-28 17:30:11; 407.00; 2.23; 17.06
2018-07-28 17:30:23; 407.00; 2.23; 17.06
2018-07-28 17:30:35; 407.00; 2.23; 17.13
2018-07-28 17:30:48; 407.00; 2.23; 17.19
2018-07-28 17:31:00; 407.00; 2.23; 17.13
2018-07-28 17:45:04; 407.00; 2.23; 18.19
2018-07-28 17:45:16; 407.00; 2.23; 18.13
2018-07-28 17:45:29; 407.00; 2.23; 18.00
2018-07-28 17:45:41; 407.00; 2.23; 18.00
2018-07-28 17:45:53; 407.00; 2.23; 18.06
2018-07-28 18:00:09; 406.00; 2.24; 18.38
2018-07-28 18:00:21; 406.00; 2.24; 18.31
2018-07-28 18:00:33; 406.00; 2.24; 18.25
2018-07-28 18:00:46; 406.00; 2.24; 18.25
2018-07-28 18:00:58; 406.00; 2.24; 18.19
2018-07-28 18:15:02; 406.00; 2.24; 18.69
2018-07-28 18:15:14; 406.00; 2.24; 18.69
2018-07-28 18:15:27; 406.00; 2.24; 18.69
2018-07-28 18:15:39; 406.00; 2.24; 18.63
2018-07-28 18:15:51; 406.00; 2.24; 18.63
2018-07-28 18:30:07; 762.00; -1.32; 15.88
2018-07-28 18:30:19; 762.00; -1.32; 15.88
2018-07-28 18:30:31; 762.00; -1.32; 15.81
2018-07-28 18:30:44; 762.00; -1.32; 15.75
2018-07-28 18:30:56; 762.00; -1.32; 15.75
2018-07-28 18:45:11; 762.00; -1.32; 14.50
2018-07-28 18:45:24; 762.00; -1.32; 14.50
2018-07-28 18:45:36; 762.00; -1.32; 14.50
2018-07-28 18:45:49; 762.00; -1.32; 14.50
2018-07-28 19:00:04; 762.00; -1.32; 14.19
2018-07-28 19:00:16; 762.00; -1.32; 14.19
2018-07-28 19:00:29; 762.00; -1.32; 14.19
2018-07-28 19:00:41; 762.00; -1.32; 14.19
2018-07-28 19:00:54; 762.00; -1.32; 14.19
2018-07-28 19:15:09; 762.00; -1.32; 13.69
2018-07-28 19:15:22; 762.00; -1.32; 13.69
2018-07-28 19:15:34; 762.00; -1.32; 13.69
2018-07-28 19:15:46; 762.00; -1.32; 13.69
2018-07-28 19:15:59; 762.00; -1.32; 13.69
2018-07-28 19:30:03; 759.00; -1.29; 13.31
2018-07-28 19:30:16; 759.00; -1.29; 13.31
2018-07-28 19:30:28; 759.00; -1.29; 13.31
2018-07-28 19:30:40; 759.00; -1.29; 13.31
2018-07-28 19:30:53; 756.00; -1.26; 13.31
2018-07-28 19:45:08; 760.00; -1.30; 13.31
2018-07-28 19:45:21; 760.00; -1.30; 13.31
2018-07-28 19:45:33; 760.00; -1.30; 13.31
2018-07-28 19:45:46; 760.00; -1.30; 13.31
2018-07-28 19:45:58; 760.00; -1.30; 13.38
2018-07-28 20:00:02; 760.00; -1.30; 13.19
2018-07-28 20:00:15; 760.00; -1.30; 13.19
2018-07-28 20:00:27; 760.00; -1.30; 13.13
2018-07-28 20:00:40; 760.00; -1.30; 13.13
2018-07-28 20:00:52; 760.00; -1.30; 13.13
2018-07-28 20:15:08; 760.00; -1.30; 12.56
2018-07-28 20:15:20; 760.00; -1.30; 12.56
2018-07-28 20:15:33; 760.00; -1.30; 12.56
2018-07-28 20:15:45; 760.00; -1.30; 12.56
2018-07-28 20:15:57; 760.00; -1.30; 12.56
2018-07-28 20:30:02; 760.00; -1.30; 12.06
2018-07-28 20:30:14; 760.00; -1.30; 12.06
2018-07-28 20:30:27; 760.00; -1.30; 12.00
2018-07-28 20:30:39; 760.00; -1.30; 12.00
2018-07-28 20:30:52; 760.00; -1.30; 12.00
2018-07-28 20:45:09; 0.00; 6.30; 11.75
2018-07-28 20:45:21; 0.00; 6.30; 11.75
2018-07-28 20:45:34; 0.00; 6.30; 11.75
2018-07-28 20:45:46; 0.00; 6.30; 11.75
2018-07-28 20:45:59; 0.00; 6.30; 11.69
2018-07-28 21:00:06; 0.00; 6.30; 11.38
2018-07-28 21:00:18; 0.00; 6.30; 11.38
2018-07-28 21:00:31; 0.00; 6.30; 11.38
2018-07-28 21:00:43; 0.00; 6.30; 11.38
2018-07-28 21:00:56; 0.00; 6.30; 11.38
2018-07-28 21:15:03; 0.00; 6.30; 11.25
2018-07-28 21:15:16; 0.00; 6.30; 11.25
2018-07-28 21:15:28; 0.00; 6.30; 11.25
2018-07-28 21:15:40; 0.00; 6.30; 11.25
2018-07-28 21:15:53; 0.00; 6.30; 11.25
2018-07-28 21:30:11; 762.00; -1.32; 11.13
2018-07-28 21:30:23; 762.00; -1.32; 11.13
2018-07-28 21:30:36; 762.00; -1.32; 11.13
2018-07-28 21:30:48; 762.00; -1.32; 11.13
2018-07-28 21:31:00; 762.00; -1.32; 11.13
2018-07-28 21:45:04; 762.00; -1.32; 11.06
2018-07-28 21:45:17; 762.00; -1.32; 11.06
2018-07-28 21:45:29; 762.00; -1.32; 11.06
2018-07-28 21:45:42; 756.00; -1.26; 11.06
2018-07-28 21:45:54; 760.00; -1.30; 11.06
2018-07-28 22:00:10; 760.00; -1.30; 11.00
2018-07-28 22:00:22; 760.00; -1.30; 11.00
2018-07-28 22:00:35; 761.00; -1.31; 11.00
2018-07-28 22:00:47; 761.00; -1.31; 11.00
2018-07-28 22:00:59; 758.00; -1.28; 11.00
2018-07-28 22:15:04; 762.00; -1.32; 11.38
2018-07-28 22:15:16; 762.00; -1.32; 11.38
2018-07-28 22:15:28; 762.00; -1.32; 11.38
2018-07-28 22:15:41; 762.00; -1.32; 11.38
2018-07-28 22:15:53; 762.00; -1.32; 11.31
2018-07-28 22:30:09; 762.00; -1.32; 11.38
2018-07-28 22:30:22; 762.00; -1.32; 11.38
2018-07-28 22:30:34; 762.00; -1.32; 11.38
2018-07-28 22:30:47; 762.00; -1.32; 11.38
2018-07-28 22:30:59; 762.00; -1.32; 11.38
2018-07-28 22:45:03; 762.00; -1.32; 11.38
2018-07-28 22:45:16; 762.00; -1.32; 11.38
2018-07-28 22:45:28; 762.00; -1.32; 11.38
2018-07-28 22:45:41; 762.00; -1.32; 11.38
2018-07-28 22:45:53; 762.00; -1.32; 11.38
2018-07-28 23:00:09; 0.00; 6.30; 11.31
2018-07-28 23:00:21; 0.00; 6.30; 11.31
2018-07-28 23:00:34; 0.00; 6.30; 11.31
2018-07-28 23:00:46; 0.00; 6.30; 11.31
2018-07-28 23:00:59; 0.00; 6.30; 11.31
2018-07-28 23:15:06; 0.00; 6.30; 11.19
2018-07-28 23:15:18; 0.00; 6.30; 11.19
2018-07-28 23:15:31; 0.00; 6.30; 11.19
2018-07-28 23:15:43; 0.00; 6.30; 11.19
2018-07-28 23:15:56; 0.00; 6.30; 11.19
2018-07-28 23:30:03; 0.00; 6.30; 11.06
2018-07-28 23:30:15; 0.00; 6.30; 11.00
2018-07-28 23:30:28; 0.00; 6.30; 11.00
2018-07-28 23:30:40; 0.00; 6.30; 11.00
2018-07-28 23:30:53; 0.00; 6.30; 11.00
2018-07-28 23:45:11; 762.00; -1.32; 10.63
2018-07-28 23:45:24; 762.00; -1.32; 10.63
2018-07-28 23:45:36; 762.00; -1.32; 10.63
2018-07-28 23:45:48; 762.00; -1.32; 10.63
