2018-08-03 00:00:11; 412.00; 2.18; 5.19
2018-08-03 00:00:24; 412.00; 2.18; 5.19
2018-08-03 00:00:36; 412.00; 2.18; 5.19
2018-08-03 00:00:48; 412.00; 2.18; 5.19
2018-08-03 00:15:05; 412.00; 2.18; 4.88
2018-08-03 00:15:17; 412.00; 2.18; 4.88
2018-08-03 00:15:29; 412.00; 2.18; 4.88
2018-08-03 00:15:42; 412.00; 2.18; 4.88
2018-08-03 00:15:54; 412.00; 2.18; 4.88
2018-08-03 00:30:10; 412.00; 2.18; 4.81
2018-08-03 00:30:23; 412.00; 2.18; 4.81
2018-08-03 00:30:35; 412.00; 2.18; 4.81
2018-08-03 00:30:48; 412.00; 2.18; 4.81
2018-08-03 00:31:00; 412.00; 2.18; 4.81
2018-08-03 00:45:05; 412.00; 2.18; 4.94
2018-08-03 00:45:17; 412.00; 2.18; 4.94
2018-08-03 00:45:30; 412.00; 2.18; 4.94
2018-08-03 00:45:42; 412.00; 2.18; 4.94
2018-08-03 00:45:54; 412.00; 2.18; 4.94
2018-08-03 01:00:02; 0.00; 6.30; 4.94
2018-08-03 01:00:14; 0.00; 6.30; 4.94
2018-08-03 01:00:27; 0.00; 6.30; 4.94
2018-08-03 01:00:39; 0.00; 6.30; 4.94
2018-08-03 01:00:52; 0.00; 6.30; 4.94
2018-08-03 01:15:11; 411.00; 2.19; 4.75
2018-08-03 01:15:23; 411.00; 2.19; 4.75
2018-08-03 01:15:36; 411.00; 2.19; 4.75
2018-08-03 01:15:48; 411.00; 2.19; 4.75
2018-08-03 01:30:05; 411.00; 2.19; 4.38
2018-08-03 01:30:17; 411.00; 2.19; 4.38
2018-08-03 01:30:29; 411.00; 2.19; 4.38
2018-08-03 01:30:42; 411.00; 2.19; 4.38
2018-08-03 01:30:54; 411.00; 2.19; 4.38
2018-08-03 01:45:11; 410.00; 2.20; 4.19
2018-08-03 01:45:23; 410.00; 2.20; 4.19
2018-08-03 01:45:36; 410.00; 2.20; 4.19
2018-08-03 01:45:48; 411.00; 2.19; 4.19
2018-08-03 01:46:00; 411.00; 2.19; 4.19
2018-08-03 02:00:05; 410.00; 2.20; 4.06
2018-08-03 02:00:17; 410.00; 2.20; 4.06
2018-08-03 02:00:29; 410.00; 2.20; 4.06
2018-08-03 02:00:42; 410.00; 2.20; 4.06
2018-08-03 02:00:54; 410.00; 2.20; 4.06
2018-08-03 02:15:09; 410.00; 2.20; 4.13
2018-08-03 02:15:21; 410.00; 2.20; 4.13
2018-08-03 02:15:34; 410.00; 2.20; 4.19
2018-08-03 02:15:46; 410.00; 2.20; 4.19
2018-08-03 02:15:58; 410.00; 2.20; 4.13
2018-08-03 02:30:03; 411.00; 2.19; 4.25
2018-08-03 02:30:16; 411.00; 2.19; 4.25
2018-08-03 02:30:28; 411.00; 2.19; 4.25
2018-08-03 02:30:40; 411.00; 2.19; 4.25
2018-08-03 02:30:53; 411.00; 2.19; 4.25
2018-08-03 02:45:09; 411.00; 2.19; 3.88
2018-08-03 02:45:21; 761.00; -1.31; 3.88
2018-08-03 02:45:33; 761.00; -1.31; 3.88
2018-08-03 02:45:46; 761.00; -1.31; 3.88
2018-08-03 02:45:58; 411.00; 2.19; 3.88
2018-08-03 03:00:03; 762.00; -1.32; 3.69
2018-08-03 03:00:16; 762.00; -1.32; 3.69
2018-08-03 03:00:28; 762.00; -1.32; 3.69
2018-08-03 03:00:40; 762.00; -1.32; 3.69
2018-08-03 03:00:53; 411.00; 2.19; 3.69
2018-08-03 03:15:09; 413.00; 2.17; 3.63
2018-08-03 03:15:22; 413.00; 2.17; 3.63
2018-08-03 03:15:34; 413.00; 2.17; 3.63
2018-08-03 03:15:47; 413.00; 2.17; 3.63
2018-08-03 03:15:59; 412.00; 2.18; 3.63
2018-08-03 03:30:04; 412.00; 2.18; 4.00
2018-08-03 03:30:16; 762.00; -1.32; 4.00
2018-08-03 03:30:29; 762.00; -1.32; 4.00
2018-08-03 03:30:41; 762.00; -1.32; 4.00
2018-08-03 03:30:54; 762.00; -1.32; 4.00
2018-08-03 03:45:09; 412.00; 2.18; 3.88
2018-08-03 03:45:22; 762.00; -1.32; 3.88
2018-08-03 03:45:34; 762.00; -1.32; 3.88
2018-08-03 03:45:47; 762.00; -1.32; 3.88
2018-08-03 03:45:59; 412.00; 2.18; 3.88
2018-08-03 04:00:04; 412.00; 2.18; 3.44
2018-08-03 04:00:16; 412.00; 2.18; 3.44
2018-08-03 04:00:29; 412.00; 2.18; 3.44
2018-08-03 04:00:41; 411.00; 2.18; 3.44
2018-08-03 04:00:53; 412.00; 2.18; 3.38
2018-08-03 04:15:10; 412.00; 2.18; 3.31
2018-08-03 04:15:22; 412.00; 2.18; 3.31
2018-08-03 04:15:34; 762.00; -1.32; 3.31
2018-08-03 04:15:47; 762.00; -1.32; 3.31
2018-08-03 04:15:59; 411.00; 2.19; 3.31
2018-08-03 04:30:04; 413.00; 2.17; 3.19
2018-08-03 04:30:17; 412.00; 2.18; 3.19
2018-08-03 04:30:29; 412.00; 2.18; 3.19
2018-08-03 04:30:41; 413.00; 2.17; 3.19
2018-08-03 04:30:54; 412.00; 2.18; 3.19
2018-08-03 04:45:10; 413.00; 2.17; 2.94
2018-08-03 04:45:23; 413.00; 2.17; 2.94
2018-08-03 04:45:35; 413.00; 2.17; 2.94
2018-08-03 04:45:47; 412.00; 2.18; 2.94
2018-08-03 04:46:00; 412.00; 2.18; 2.94
2018-08-03 05:00:05; 412.00; 2.18; 3.13
2018-08-03 05:00:17; 412.00; 2.18; 3.13
2018-08-03 05:00:29; 413.00; 2.17; 3.13
2018-08-03 05:00:42; 413.00; 2.17; 3.13
2018-08-03 05:00:54; 413.00; 2.17; 3.13
2018-08-03 05:15:11; 413.00; 2.17; 3.19
2018-08-03 05:15:23; 413.00; 2.17; 3.19
2018-08-03 05:15:35; 412.00; 2.18; 3.19
2018-08-03 05:15:48; 412.00; 2.18; 3.19
2018-08-03 05:16:00; 412.00; 2.18; 3.19
2018-08-03 05:30:05; 413.00; 2.17; 3.19
2018-08-03 05:30:18; 413.00; 2.17; 3.19
2018-08-03 05:30:30; 413.00; 2.17; 3.19
2018-08-03 05:30:42; 412.00; 2.18; 3.19
2018-08-03 05:30:55; 412.00; 2.18; 3.19
2018-08-03 05:45:11; 412.00; 2.18; 3.06
2018-08-03 05:45:23; 413.00; 2.17; 3.06
2018-08-03 05:45:36; 413.00; 2.17; 3.06
2018-08-03 05:45:48; 413.00; 2.17; 3.06
2018-08-03 06:00:05; 412.00; 2.18; 2.88
2018-08-03 06:00:17; 411.00; 2.19; 2.88
2018-08-03 06:00:29; 412.00; 2.18; 2.88
2018-08-03 06:00:42; 412.00; 2.18; 2.88
2018-08-03 06:00:54; 412.00; 2.18; 2.88
2018-08-03 06:15:11; 412.00; 2.18; 2.88
2018-08-03 06:15:23; 412.00; 2.18; 2.88
2018-08-03 06:15:35; 412.00; 2.18; 2.88
2018-08-03 06:15:48; 412.00; 2.18; 2.88
2018-08-03 06:16:00; 412.00; 2.18; 2.88
2018-08-03 06:30:05; 413.00; 2.17; 3.00
2018-08-03 06:30:17; 412.00; 2.18; 3.00
2018-08-03 06:30:30; 412.00; 2.18; 3.00
2018-08-03 06:30:42; 412.00; 2.18; 3.00
2018-08-03 06:30:55; 412.00; 2.18; 3.00
2018-08-03 06:45:11; 412.00; 2.18; 3.00
2018-08-03 06:45:23; 412.00; 2.18; 3.06
2018-08-03 06:45:36; 412.00; 2.18; 3.06
2018-08-03 06:45:48; 412.00; 2.18; 3.06
2018-08-03 07:00:04; 412.00; 2.18; 2.88
2018-08-03 07:00:17; 412.00; 2.18; 2.88
2018-08-03 07:00:29; 412.00; 2.18; 2.81
2018-08-03 07:00:42; 412.00; 2.18; 2.81
2018-08-03 07:00:54; 412.00; 2.18; 2.81
2018-08-03 07:15:10; 412.00; 2.18; 2.75
2018-08-03 07:15:23; 413.00; 2.17; 2.75
2018-08-03 07:15:35; 412.00; 2.18; 2.75
2018-08-03 07:15:48; 412.00; 2.18; 2.75
2018-08-03 07:16:00; 412.00; 2.18; 2.75
2018-08-03 07:30:05; 412.00; 2.17; 2.44
2018-08-03 07:30:17; 412.00; 2.18; 2.50
2018-08-03 07:30:30; 412.00; 2.18; 2.50
2018-08-03 07:30:42; 412.00; 2.18; 2.50
2018-08-03 07:30:55; 413.00; 2.17; 2.50
2018-08-03 07:45:11; 412.00; 2.18; 2.69
2018-08-03 07:45:23; 412.00; 2.18; 2.69
2018-08-03 07:45:36; 412.00; 2.18; 2.69
2018-08-03 07:45:48; 412.00; 2.18; 2.63
2018-08-03 08:00:05; 413.00; 2.17; 2.81
2018-08-03 08:00:17; 412.00; 2.18; 2.81
2018-08-03 08:00:29; 412.00; 2.18; 2.75
2018-08-03 08:00:42; 412.00; 2.18; 2.75
2018-08-03 08:00:54; 413.00; 2.17; 2.75
2018-08-03 08:15:11; 413.00; 2.17; 2.38
2018-08-03 08:15:23; 413.00; 2.17; 2.38
2018-08-03 08:15:35; 413.00; 2.17; 2.38
2018-08-03 08:15:48; 413.00; 2.17; 2.38
2018-08-03 08:16:00; 413.00; 2.17; 2.38
2018-08-03 08:30:05; 414.00; 2.16; 2.44
2018-08-03 08:30:18; 414.00; 2.16; 2.44
2018-08-03 08:30:30; 414.00; 2.16; 2.44
2018-08-03 08:30:42; 414.00; 2.16; 2.44
2018-08-03 08:30:55; 414.00; 2.16; 2.44
2018-08-03 08:45:11; 413.00; 2.17; 2.69
2018-08-03 08:45:24; 413.00; 2.17; 2.69
2018-08-03 08:45:36; 413.00; 2.17; 2.75
2018-08-03 08:45:48; 411.00; 2.19; 2.75
2018-08-03 09:00:05; 413.00; 2.17; 3.19
2018-08-03 09:00:17; 413.00; 2.17; 3.19
2018-08-03 09:00:30; 413.00; 2.17; 3.19
2018-08-03 09:00:42; 413.00; 2.17; 3.19
2018-08-03 09:00:54; 413.00; 2.17; 3.25
2018-08-03 09:15:11; 411.00; 2.19; 3.75
2018-08-03 09:15:23; 411.00; 2.19; 3.75
2018-08-03 09:15:35; 756.00; -1.26; 3.75
2018-08-03 09:15:48; 415.00; 2.15; 3.81
2018-08-03 09:16:00; 415.00; 2.15; 3.81
2018-08-03 09:30:05; 412.00; 2.18; 4.50
2018-08-03 09:30:17; 413.00; 2.17; 4.50
2018-08-03 09:30:30; 413.00; 2.17; 4.50
2018-08-03 09:30:42; 413.00; 2.17; 4.50
2018-08-03 09:30:54; 413.00; 2.17; 4.50
2018-08-03 09:45:11; 414.00; 2.16; 4.94
2018-08-03 09:45:23; 414.00; 2.16; 4.94
2018-08-03 09:45:35; 414.00; 2.16; 4.94
2018-08-03 09:45:48; 414.00; 2.16; 4.94
2018-08-03 09:46:00; 412.00; 2.18; 4.94
2018-08-03 10:00:04; 412.00; 2.18; 5.94
2018-08-03 10:00:17; 413.00; 2.17; 5.94
2018-08-03 10:00:29; 414.00; 2.16; 5.94
2018-08-03 10:00:42; 412.00; 2.18; 5.94
2018-08-03 10:00:54; 412.00; 2.18; 6.00
2018-08-03 10:15:10; 411.00; 2.19; 6.69
2018-08-03 10:15:22; 411.00; 2.19; 6.69
2018-08-03 10:15:35; 411.00; 2.19; 6.69
2018-08-03 10:15:47; 412.00; 2.18; 6.69
2018-08-03 10:15:59; 412.00; 2.18; 6.75
2018-08-03 10:30:04; 413.00; 2.17; 8.75
2018-08-03 10:30:16; 412.00; 2.18; 8.75
2018-08-03 10:30:29; 411.00; 2.19; 8.75
2018-08-03 10:30:41; 412.00; 2.18; 8.81
2018-08-03 10:30:53; 412.00; 2.18; 8.81
2018-08-03 10:45:09; 412.00; 2.19; 11.44
2018-08-03 10:45:21; 410.00; 2.20; 11.50
2018-08-03 10:45:34; 408.00; 2.22; 11.56
2018-08-03 10:45:46; 409.00; 2.21; 11.63
2018-08-03 10:45:58; 413.00; 2.17; 11.69
2018-08-03 11:00:02; 411.00; 2.19; 13.38
2018-08-03 11:00:15; 410.00; 2.20; 13.31
2018-08-03 11:00:27; 411.00; 2.19; 13.38
2018-08-03 11:00:40; 408.00; 2.22; 13.38
2018-08-03 11:00:52; 409.00; 2.21; 13.38
2018-08-03 11:15:07; 408.00; 2.22; 14.50
2018-08-03 11:15:20; 408.00; 2.22; 14.44
2018-08-03 11:15:32; 411.00; 2.19; 14.38
2018-08-03 11:15:44; 411.00; 2.19; 14.31
2018-08-03 11:15:57; 411.00; 2.20; 14.31
2018-08-03 11:30:12; 407.00; 2.23; 15.88
2018-08-03 11:30:24; 410.00; 2.20; 15.75
2018-08-03 11:30:37; 411.00; 2.19; 15.75
2018-08-03 11:30:49; 411.00; 2.19; 15.94
2018-08-03 11:45:04; 409.00; 2.21; 16.63
2018-08-03 11:45:16; 408.00; 2.22; 16.56
2018-08-03 11:45:29; 410.00; 2.20; 16.44
2018-08-03 11:45:41; 410.00; 2.20; 16.31
2018-08-03 11:45:54; 409.00; 2.22; 16.31
2018-08-03 12:00:09; 409.00; 2.21; 14.50
2018-08-03 12:00:21; 409.00; 2.21; 14.50
2018-08-03 12:00:33; 408.00; 2.22; 14.50
2018-08-03 12:00:46; 411.00; 2.19; 14.44
2018-08-03 12:00:58; 408.00; 2.22; 14.50
2018-08-03 12:15:02; 408.00; 2.22; 13.75
2018-08-03 12:15:15; 410.00; 2.20; 13.75
2018-08-03 12:15:27; 410.00; 2.20; 13.81
2018-08-03 12:15:39; 408.00; 2.22; 13.81
2018-08-03 12:15:52; 407.00; 2.23; 13.81
2018-08-03 12:30:07; 411.00; 2.19; 13.75
2018-08-03 12:30:19; 408.00; 2.22; 13.75
2018-08-03 12:30:32; 411.00; 2.19; 13.75
2018-08-03 12:30:44; 409.00; 2.21; 13.75
2018-08-03 12:30:57; 407.00; 2.23; 13.69
2018-08-03 12:45:01; 409.00; 2.21; 16.25
2018-08-03 12:45:13; 409.00; 2.21; 16.31
2018-08-03 12:45:25; 406.00; 2.24; 16.25
2018-08-03 12:45:38; 408.00; 2.22; 16.25
2018-08-03 12:45:50; 408.00; 2.22; 16.31
2018-08-03 13:00:05; 408.00; 2.22; 16.50
2018-08-03 13:00:18; 408.00; 2.22; 16.63
2018-08-03 13:00:30; 411.00; 2.19; 16.75
2018-08-03 13:00:42; 410.00; 2.20; 16.88
2018-08-03 13:00:55; 408.00; 2.22; 16.94
2018-08-03 13:15:10; 407.00; 2.23; 17.75
2018-08-03 13:15:22; 405.00; 2.25; 17.81
2018-08-03 13:15:34; 406.00; 2.24; 17.81
2018-08-03 13:15:47; 410.00; 2.20; 17.94
2018-08-03 13:15:59; 410.00; 2.20; 18.06
2018-08-03 13:30:02; 408.00; 2.23; 19.00
2018-08-03 13:30:15; 408.00; 2.22; 19.06
2018-08-03 13:30:27; 408.00; 2.22; 19.00
2018-08-03 13:30:40; 410.00; 2.20; 18.94
2018-08-03 13:30:52; 407.00; 2.23; 19.00
2018-08-03 13:45:07; 408.00; 2.22; 18.88
2018-08-03 13:45:19; 408.00; 2.22; 18.88
2018-08-03 13:45:32; 406.00; 2.24; 18.88
2018-08-03 13:45:44; 410.00; 2.22; 18.63
2018-08-03 13:45:56; 406.00; 2.24; 18.56
2018-08-03 14:00:11; 410.00; 2.20; 18.31
2018-08-03 14:00:24; 408.00; 2.22; 18.25
2018-08-03 14:00:36; 408.00; 2.22; 18.38
2018-08-03 14:00:48; 409.00; 2.21; 18.44
2018-08-03 14:15:03; 409.00; 2.21; 17.25
2018-08-03 14:15:15; 409.00; 2.21; 17.19
2018-08-03 14:15:28; 409.00; 2.21; 17.25
2018-08-03 14:15:40; 409.00; 2.21; 17.31
2018-08-03 14:15:53; 409.00; 2.21; 17.31
2018-08-03 14:30:07; 409.00; 2.21; 19.44
2018-08-03 14:30:20; 409.00; 2.21; 19.50
2018-08-03 14:30:32; 409.00; 2.21; 19.56
2018-08-03 14:30:44; 409.00; 2.21; 19.56
2018-08-03 14:30:57; 410.00; 2.20; 19.63
2018-08-03 14:45:12; 410.00; 2.20; 19.81
2018-08-03 14:45:24; 409.00; 2.21; 19.81
2018-08-03 14:45:36; 406.00; 2.24; 19.81
2018-08-03 14:45:49; 411.00; 2.19; 19.88
2018-08-03 15:00:04; 405.00; 2.25; 19.06
2018-08-03 15:00:16; 407.00; 2.23; 18.94
2018-08-03 15:00:28; 406.00; 2.24; 18.94
2018-08-03 15:00:41; 409.00; 2.21; 18.88
2018-08-03 15:00:53; 405.00; 2.25; 18.69
2018-08-03 15:15:08; 406.00; 2.24; 21.63
2018-08-03 15:15:20; 406.00; 2.24; 21.63
2018-08-03 15:15:33; 406.00; 2.24; 21.69
2018-08-03 15:15:45; 405.00; 2.25; 21.38
2018-08-03 15:15:57; 407.00; 2.24; 21.25
2018-08-03 15:30:01; 409.00; 2.22; 22.06
2018-08-03 15:30:13; 409.00; 2.21; 22.13
2018-08-03 15:30:25; 408.00; 2.22; 21.94
2018-08-03 15:30:38; 408.00; 2.22; 21.88
2018-08-03 15:30:50; 408.00; 2.22; 22.00
2018-08-03 15:45:05; 407.00; 2.23; 21.88
2018-08-03 15:45:17; 406.00; 2.24; 21.81
2018-08-03 15:45:29; 406.00; 2.24; 21.81
2018-08-03 15:45:42; 406.00; 2.24; 21.81
2018-08-03 15:45:54; 406.00; 2.24; 21.69
2018-08-03 16:00:09; 407.00; 2.23; 22.19
2018-08-03 16:00:21; 409.00; 2.21; 22.19
2018-08-03 16:00:34; 409.00; 2.21; 22.31
2018-08-03 16:00:46; 409.00; 2.21; 22.31
2018-08-03 16:00:59; 409.00; 2.21; 22.19
2018-08-03 16:15:01; 407.00; 2.23; 21.56
2018-08-03 16:15:13; 761.00; -1.31; 21.56
2018-08-03 16:15:26; 761.00; -1.31; 21.50
2018-08-03 16:15:38; 409.00; 2.21; 21.50
2018-08-03 16:15:51; 409.00; 2.21; 21.56
2018-08-03 16:30:05; 406.00; 2.24; 21.06
2018-08-03 16:30:18; 406.00; 2.24; 21.00
2018-08-03 16:30:30; 406.00; 2.24; 21.00
2018-08-03 16:30:42; 406.00; 2.24; 20.88
2018-08-03 16:30:55; 406.00; 2.24; 20.81
2018-08-03 16:45:10; 404.00; 2.26; 18.31
2018-08-03 16:45:22; 404.00; 2.26; 18.25
2018-08-03 16:45:34; 404.00; 2.26; 18.25
2018-08-03 16:45:47; 404.00; 2.26; 18.25
2018-08-03 16:45:59; 409.00; 2.21; 18.31
2018-08-03 17:00:02; 406.00; 2.24; 18.00
2018-08-03 17:00:15; 406.00; 2.24; 18.06
2018-08-03 17:00:27; 408.00; 2.22; 18.13
2018-08-03 17:00:40; 408.00; 2.22; 18.13
2018-08-03 17:00:52; 405.00; 2.25; 18.19
2018-08-03 17:15:07; 405.00; 2.25; 16.50
2018-08-03 17:15:19; 405.00; 2.25; 16.50
2018-08-03 17:15:32; 405.00; 2.25; 16.50
2018-08-03 17:15:44; 405.00; 2.25; 16.50
2018-08-03 17:15:56; 405.00; 2.25; 16.50
2018-08-03 17:30:11; 409.00; 2.21; 18.06
2018-08-03 17:30:24; 407.00; 2.23; 18.06
2018-08-03 17:30:36; 405.00; 2.25; 18.13
2018-08-03 17:30:48; 405.00; 2.25; 18.06
2018-08-03 17:45:03; 406.00; 2.24; 18.19
2018-08-03 17:45:16; 409.00; 2.21; 18.25
2018-08-03 17:45:28; 406.00; 2.24; 18.25
2018-08-03 17:45:41; 408.00; 2.22; 18.25
2018-08-03 17:45:53; 408.00; 2.22; 18.19
2018-08-03 18:00:08; 406.00; 2.24; 17.19
2018-08-03 18:00:20; 409.00; 2.21; 17.25
2018-08-03 18:00:33; 409.00; 2.21; 17.25
2018-08-03 18:00:45; 405.00; 2.25; 17.19
2018-08-03 18:00:58; 406.00; 2.24; 17.19
2018-08-03 18:15:01; 406.00; 2.24; 16.81
2018-08-03 18:15:14; 408.00; 2.22; 16.81
2018-08-03 18:15:26; 406.00; 2.24; 16.69
2018-08-03 18:15:38; 407.00; 2.23; 16.75
2018-08-03 18:15:51; 407.00; 2.23; 16.69
2018-08-03 18:30:06; 409.00; 2.21; 15.13
2018-08-03 18:30:18; 407.00; 2.23; 15.19
2018-08-03 18:30:31; 407.00; 2.23; 15.25
2018-08-03 18:30:43; 409.00; 2.21; 15.31
2018-08-03 18:30:55; 406.00; 2.24; 15.25
2018-08-03 18:45:11; 408.00; 2.22; 14.88
2018-08-03 18:45:23; 408.00; 2.22; 14.81
2018-08-03 18:45:35; 408.00; 2.22; 14.75
2018-08-03 18:45:48; 408.00; 2.22; 14.75
2018-08-03 18:46:00; 408.00; 2.22; 14.75
2018-08-03 19:00:04; 408.00; 2.22; 12.25
2018-08-03 19:00:17; 408.00; 2.22; 12.19
2018-08-03 19:00:29; 408.00; 2.22; 12.19
2018-08-03 19:00:41; 408.00; 2.22; 12.13
2018-08-03 19:00:54; 408.00; 2.22; 12.13
2018-08-03 19:15:09; 761.00; -1.31; 10.88
2018-08-03 19:15:22; 761.00; -1.31; 10.88
2018-08-03 19:15:34; 762.00; -1.32; 10.81
2018-08-03 19:15:47; 762.00; -1.32; 10.81
2018-08-03 19:15:59; 760.00; -1.30; 10.81
2018-08-03 19:30:03; 762.00; -1.32; 10.13
2018-08-03 19:30:16; 762.00; -1.32; 10.13
2018-08-03 19:30:28; 762.00; -1.32; 10.13
2018-08-03 19:30:41; 762.00; -1.32; 10.13
2018-08-03 19:30:53; 762.00; -1.32; 10.13
2018-08-03 19:45:09; 762.00; -1.32; 9.81
2018-08-03 19:45:21; 762.00; -1.32; 9.81
2018-08-03 19:45:34; 762.00; -1.32; 9.81
2018-08-03 19:45:46; 762.00; -1.32; 9.81
2018-08-03 19:45:59; 762.00; -1.32; 9.81
2018-08-03 20:00:03; 762.00; -1.32; 9.56
2018-08-03 20:00:15; 762.00; -1.32; 9.50
2018-08-03 20:00:28; 762.00; -1.32; 9.50
2018-08-03 20:00:40; 762.00; -1.32; 9.50
2018-08-03 20:00:53; 762.00; -1.32; 9.50
2018-08-03 20:15:09; 762.00; -1.32; 9.31
2018-08-03 20:15:21; 762.00; -1.32; 9.25
2018-08-03 20:15:34; 762.00; -1.32; 9.25
2018-08-03 20:15:46; 762.00; -1.32; 9.25
2018-08-03 20:15:58; 762.00; -1.32; 9.25
2018-08-03 20:30:05; 0.00; 6.30; 9.00
2018-08-03 20:30:17; 0.00; 6.30; 9.00
2018-08-03 20:30:29; 0.00; 6.30; 9.00
2018-08-03 20:30:42; 0.00; 6.30; 9.00
2018-08-03 20:30:54; 0.00; 6.30; 9.00
2018-08-03 20:45:02; 0.00; 6.30; 8.88
2018-08-03 20:45:14; 0.00; 6.30; 8.88
2018-08-03 20:45:26; 0.00; 6.30; 8.88
2018-08-03 20:45:39; 0.00; 6.30; 8.88
2018-08-03 20:45:51; 0.00; 6.30; 8.88
2018-08-03 21:00:10; 0.00; 6.30; 8.75
2018-08-03 21:00:23; 0.00; 6.30; 8.75
2018-08-03 21:00:35; 0.00; 6.30; 8.75
2018-08-03 21:00:48; 0.00; 6.30; 8.75
2018-08-03 21:01:00; 0.00; 6.30; 8.75
2018-08-03 21:15:07; 0.00; 6.30; 8.38
2018-08-03 21:15:20; 0.00; 6.30; 8.38
2018-08-03 21:15:32; 0.00; 6.30; 8.38
2018-08-03 21:15:45; 0.00; 6.30; 8.38
2018-08-03 21:15:57; 0.00; 6.30; 8.31
2018-08-03 21:30:05; 0.00; 6.30; 8.25
2018-08-03 21:30:17; 0.00; 6.30; 8.25
2018-08-03 21:30:30; 0.00; 6.30; 8.25
2018-08-03 21:30:42; 0.00; 6.30; 8.25
2018-08-03 21:30:54; 0.00; 6.30; 8.25
2018-08-03 21:45:02; 0.00; 6.30; 8.00
2018-08-03 21:45:14; 0.00; 6.30; 8.00
2018-08-03 21:45:27; 0.00; 6.30; 8.00
2018-08-03 21:45:39; 0.00; 6.30; 8.00
2018-08-03 21:45:52; 0.00; 6.30; 8.00
2018-08-03 22:00:08; 758.00; -1.28; 7.63
2018-08-03 22:00:20; 756.00; -1.26; 7.63
2018-08-03 22:00:32; 761.00; -1.31; 7.63
2018-08-03 22:00:45; 761.00; -1.31; 7.63
2018-08-03 22:00:57; 758.00; -1.28; 7.63
2018-08-03 22:15:01; 411.00; 2.19; 7.38
2018-08-03 22:15:14; 411.00; 2.19; 7.38
2018-08-03 22:15:26; 411.00; 2.19; 7.38
2018-08-03 22:15:39; 411.00; 2.19; 7.38
2018-08-03 22:15:51; 411.00; 2.19; 7.38
2018-08-03 22:30:07; 413.00; 2.17; 6.88
2018-08-03 22:30:20; 413.00; 2.17; 6.88
2018-08-03 22:30:32; 413.00; 2.17; 6.88
2018-08-03 22:30:44; 413.00; 2.17; 6.88
2018-08-03 22:30:57; 413.00; 2.17; 6.94
2018-08-03 22:45:01; 411.00; 2.19; 7.31
2018-08-03 22:45:14; 411.00; 2.19; 7.31
2018-08-03 22:45:26; 411.00; 2.19; 7.31
2018-08-03 22:45:38; 411.00; 2.19; 7.31
2018-08-03 22:45:51; 411.00; 2.19; 7.31
2018-08-03 23:00:07; 762.00; -1.32; 7.25
2018-08-03 23:00:19; 762.00; -1.32; 7.31
2018-08-03 23:00:32; 762.00; -1.32; 7.31
2018-08-03 23:00:44; 762.00; -1.32; 7.31
2018-08-03 23:00:56; 762.00; -1.32; 7.31
2018-08-03 23:15:01; 762.00; -1.32; 7.25
2018-08-03 23:15:14; 762.00; -1.32; 7.25
2018-08-03 23:15:26; 762.00; -1.32; 7.25
2018-08-03 23:15:38; 762.00; -1.32; 7.31
2018-08-03 23:15:51; 762.00; -1.32; 7.25
2018-08-03 23:30:07; 762.00; -1.32; 7.50
2018-08-03 23:30:19; 762.00; -1.32; 7.44
2018-08-03 23:30:32; 762.00; -1.32; 7.50
2018-08-03 23:30:44; 762.00; -1.32; 7.44
2018-08-03 23:30:56; 762.00; -1.32; 7.50
2018-08-03 23:45:01; 762.00; -1.32; 7.63
2018-08-03 23:45:14; 762.00; -1.32; 7.63
2018-08-03 23:45:26; 762.00; -1.32; 7.63
2018-08-03 23:45:38; 762.00; -1.32; 7.63
2018-08-03 23:45:51; 762.00; -1.32; 7.63
