2018-08-14 00:00:11; 408.00; 2.22; 15.94
2018-08-14 00:00:23; 408.00; 2.22; 15.94
2018-08-14 00:00:36; 408.00; 2.22; 15.94
2018-08-14 00:00:48; 409.00; 2.21; 15.94
2018-08-14 00:01:00; 408.00; 2.22; 15.94
2018-08-14 00:15:04; 414.00; 2.16; 15.81
2018-08-14 00:15:17; 414.00; 2.16; 15.81
2018-08-14 00:15:29; 414.00; 2.16; 15.81
2018-08-14 00:15:41; 414.00; 2.16; 15.81
2018-08-14 00:15:54; 412.00; 2.18; 15.81
2018-08-14 00:30:09; 411.00; 2.19; 15.81
2018-08-14 00:30:22; 411.00; 2.19; 15.81
2018-08-14 00:30:34; 411.00; 2.19; 15.81
2018-08-14 00:30:46; 411.00; 2.19; 15.81
2018-08-14 00:30:59; 410.00; 2.20; 15.81
2018-08-14 00:45:03; 412.00; 2.18; 15.63
2018-08-14 00:45:15; 411.00; 2.19; 15.63
2018-08-14 00:45:27; 412.00; 2.18; 15.56
2018-08-14 00:45:40; 411.00; 2.19; 15.63
2018-08-14 00:45:52; 411.00; 2.19; 15.56
2018-08-14 01:00:08; 413.00; 2.17; 15.44
2018-08-14 01:00:20; 413.00; 2.17; 15.44
2018-08-14 01:00:32; 413.00; 2.17; 15.38
2018-08-14 01:00:45; 413.00; 2.17; 15.38
2018-08-14 01:00:57; 413.00; 2.17; 15.38
2018-08-14 01:15:01; 412.00; 2.18; 15.25
2018-08-14 01:15:13; 412.00; 2.18; 15.25
2018-08-14 01:15:26; 412.00; 2.18; 15.25
2018-08-14 01:15:38; 411.00; 2.19; 15.25
2018-08-14 01:15:51; 412.00; 2.18; 15.25
2018-08-14 01:30:06; 410.00; 2.19; 15.13
2018-08-14 01:30:19; 410.00; 2.20; 15.19
2018-08-14 01:30:31; 412.00; 2.18; 15.13
2018-08-14 01:30:43; 411.00; 2.19; 15.13
2018-08-14 01:30:56; 410.00; 2.20; 15.13
2018-08-14 01:45:11; 408.00; 2.22; 14.88
2018-08-14 01:45:24; 409.00; 2.21; 14.88
2018-08-14 01:45:36; 409.00; 2.21; 14.94
2018-08-14 01:45:48; 409.00; 2.21; 14.88
2018-08-14 02:00:04; 408.00; 2.22; 15.00
2018-08-14 02:00:16; 408.00; 2.22; 15.00
2018-08-14 02:00:28; 408.00; 2.22; 15.00
2018-08-14 02:00:41; 408.00; 2.22; 15.00
2018-08-14 02:00:53; 408.00; 2.22; 15.00
2018-08-14 02:15:08; 408.00; 2.23; 15.00
2018-08-14 02:15:21; 408.00; 2.23; 15.00
2018-08-14 02:15:33; 409.00; 2.21; 15.00
2018-08-14 02:15:45; 407.00; 2.23; 15.00
2018-08-14 02:15:58; 408.00; 2.23; 15.00
2018-08-14 02:30:01; 409.00; 2.21; 14.69
2018-08-14 02:30:14; 408.00; 2.22; 14.69
2018-08-14 02:30:26; 408.00; 2.22; 14.69
2018-08-14 02:30:38; 411.00; 2.19; 14.69
2018-08-14 02:30:51; 409.00; 2.21; 14.69
2018-08-14 02:45:06; 410.00; 2.20; 14.31
2018-08-14 02:45:19; 411.00; 2.19; 14.31
2018-08-14 02:45:31; 412.00; 2.18; 14.31
2018-08-14 02:45:43; 411.00; 2.19; 14.31
2018-08-14 02:45:56; 411.00; 2.19; 14.31
2018-08-14 03:00:11; 410.00; 2.20; 13.88
2018-08-14 03:00:24; 410.00; 2.20; 13.88
2018-08-14 03:00:36; 410.00; 2.20; 13.88
2018-08-14 03:00:48; 410.00; 2.20; 13.88
2018-08-14 03:15:04; 409.00; 2.21; 13.56
2018-08-14 03:15:16; 409.00; 2.21; 13.56
2018-08-14 03:15:29; 408.00; 2.22; 13.56
2018-08-14 03:15:41; 408.00; 2.22; 13.56
2018-08-14 03:15:53; 409.00; 2.21; 13.56
2018-08-14 03:30:09; 409.00; 2.21; 13.19
2018-08-14 03:30:21; 409.00; 2.21; 13.19
2018-08-14 03:30:34; 410.00; 2.21; 13.19
2018-08-14 03:30:46; 409.00; 2.21; 13.19
2018-08-14 03:30:58; 410.00; 2.20; 13.19
2018-08-14 03:45:03; 408.00; 2.22; 13.00
2018-08-14 03:45:15; 409.00; 2.21; 13.00
2018-08-14 03:45:27; 408.00; 2.22; 13.00
2018-08-14 03:45:40; 409.00; 2.21; 13.00
2018-08-14 03:45:52; 408.00; 2.22; 12.94
2018-08-14 04:00:08; 410.00; 2.20; 12.75
2018-08-14 04:00:20; 411.00; 2.19; 12.69
2018-08-14 04:00:33; 410.00; 2.20; 12.69
2018-08-14 04:00:45; 408.00; 2.21; 12.69
2018-08-14 04:00:57; 409.00; 2.21; 12.69
2018-08-14 04:15:02; 409.00; 2.21; 12.50
2018-08-14 04:15:14; 409.00; 2.21; 12.50
2018-08-14 04:15:26; 409.00; 2.21; 12.50
2018-08-14 04:15:39; 410.00; 2.20; 12.50
2018-08-14 04:15:51; 411.00; 2.20; 12.50
2018-08-14 04:30:07; 409.00; 2.19; 12.38
2018-08-14 04:30:19; 409.00; 2.20; 12.38
2018-08-14 04:30:32; 409.00; 2.21; 12.38
2018-08-14 04:30:44; 410.00; 2.20; 12.38
2018-08-14 04:30:56; 410.00; 2.20; 12.31
2018-08-14 04:45:01; 410.00; 2.20; 12.13
2018-08-14 04:45:13; 410.00; 2.20; 12.13
2018-08-14 04:45:26; 410.00; 2.20; 12.13
2018-08-14 04:45:38; 413.00; 2.17; 12.13
2018-08-14 04:45:50; 409.00; 2.21; 12.13
2018-08-14 05:00:06; 410.00; 2.20; 11.69
2018-08-14 05:00:18; 410.00; 2.21; 11.69
2018-08-14 05:00:31; 409.00; 2.21; 11.69
2018-08-14 05:00:43; 410.00; 2.20; 11.63
2018-08-14 05:00:56; 409.00; 2.21; 11.63
2018-08-14 05:15:11; 411.00; 2.19; 11.19
2018-08-14 05:15:24; 411.00; 2.19; 11.19
2018-08-14 05:15:36; 412.00; 2.18; 11.19
2018-08-14 05:15:48; 410.00; 2.20; 11.19
2018-08-14 05:30:04; 412.00; 2.18; 10.88
2018-08-14 05:30:16; 411.00; 2.19; 10.88
2018-08-14 05:30:29; 410.00; 2.20; 10.88
2018-08-14 05:30:41; 410.00; 2.20; 10.81
2018-08-14 05:30:54; 410.00; 2.19; 10.88
2018-08-14 05:45:10; 410.00; 2.20; 10.56
2018-08-14 05:45:22; 410.00; 2.20; 10.56
2018-08-14 05:45:34; 410.00; 2.20; 10.56
2018-08-14 05:45:47; 410.00; 2.20; 10.56
2018-08-14 05:45:59; 410.00; 2.20; 10.56
2018-08-14 06:00:04; 410.00; 2.20; 10.38
2018-08-14 06:00:16; 410.00; 2.20; 10.38
2018-08-14 06:00:28; 410.00; 2.20; 10.38
2018-08-14 06:00:41; 411.00; 2.19; 10.38
2018-08-14 06:00:53; 409.00; 2.21; 10.38
2018-08-14 06:15:09; 414.00; 2.16; 10.19
2018-08-14 06:15:21; 414.00; 2.16; 10.19
2018-08-14 06:15:34; 410.00; 2.20; 10.19
2018-08-14 06:15:46; 410.00; 2.20; 10.19
2018-08-14 06:15:59; 411.00; 2.19; 10.19
2018-08-14 06:30:03; 410.00; 2.20; 10.00
2018-08-14 06:30:15; 411.00; 2.18; 10.00
2018-08-14 06:30:28; 411.00; 2.19; 10.00
2018-08-14 06:30:40; 411.00; 2.19; 10.00
2018-08-14 06:30:52; 410.00; 2.20; 10.00
2018-08-14 06:45:08; 411.00; 2.19; 9.88
2018-08-14 06:45:21; 411.00; 2.19; 9.88
2018-08-14 06:45:33; 410.00; 2.20; 9.88
2018-08-14 06:45:45; 411.00; 2.19; 9.88
2018-08-14 06:45:58; 410.00; 2.19; 9.88
2018-08-14 07:00:02; 411.00; 2.19; 9.75
2018-08-14 07:00:15; 410.00; 2.20; 9.75
2018-08-14 07:00:27; 409.00; 2.21; 9.75
2018-08-14 07:00:40; 411.00; 2.19; 9.75
2018-08-14 07:00:52; 410.00; 2.20; 9.75
2018-08-14 07:15:08; 409.00; 2.20; 9.50
2018-08-14 07:15:20; 412.00; 2.17; 9.50
2018-08-14 07:15:33; 411.00; 2.19; 9.50
2018-08-14 07:15:45; 410.00; 2.20; 9.50
2018-08-14 07:15:57; 410.00; 2.20; 9.50
2018-08-14 07:30:02; 413.00; 2.17; 9.19
2018-08-14 07:30:14; 412.00; 2.18; 9.19
2018-08-14 07:30:27; 411.00; 2.19; 9.19
2018-08-14 07:30:39; 411.00; 2.19; 9.19
2018-08-14 07:30:51; 411.00; 2.19; 9.19
2018-08-14 07:45:07; 411.00; 2.19; 9.00
2018-08-14 07:45:20; 411.00; 2.19; 9.00
2018-08-14 07:45:32; 410.00; 2.20; 9.00
2018-08-14 07:45:44; 410.00; 2.20; 9.00
2018-08-14 07:45:57; 411.00; 2.19; 9.00
2018-08-14 08:00:01; 411.00; 2.19; 9.25
2018-08-14 08:00:13; 411.00; 2.19; 9.31
2018-08-14 08:00:26; 410.00; 2.20; 9.31
2018-08-14 08:00:38; 409.00; 2.21; 9.31
2018-08-14 08:00:51; 411.00; 2.18; 9.31
2018-08-14 08:15:06; 410.00; 2.20; 9.25
2018-08-14 08:15:18; 414.00; 2.18; 9.25
2018-08-14 08:15:31; 413.00; 2.17; 9.25
2018-08-14 08:15:43; 414.00; 2.16; 9.19
2018-08-14 08:15:56; 414.00; 2.16; 9.25
2018-08-14 08:30:11; 414.00; 2.16; 8.69
2018-08-14 08:30:23; 411.00; 2.19; 8.69
2018-08-14 08:30:36; 411.00; 2.19; 8.69
2018-08-14 08:30:48; 411.00; 2.19; 8.69
2018-08-14 08:45:04; 410.00; 2.20; 8.50
2018-08-14 08:45:16; 410.00; 2.20; 8.50
2018-08-14 08:45:29; 413.00; 2.17; 8.50
2018-08-14 08:45:41; 415.00; 2.15; 8.50
2018-08-14 08:45:53; 413.00; 2.17; 8.50
2018-08-14 09:00:09; 413.00; 2.17; 8.75
2018-08-14 09:00:21; 413.00; 2.16; 8.75
2018-08-14 09:00:34; 413.00; 2.17; 8.75
2018-08-14 09:00:46; 413.00; 2.17; 8.75
2018-08-14 09:00:59; 412.00; 2.18; 8.75
2018-08-14 09:15:03; 412.00; 2.18; 9.63
2018-08-14 09:15:15; 414.00; 2.16; 9.63
2018-08-14 09:15:28; 413.00; 2.17; 9.69
2018-08-14 09:15:40; 412.00; 2.18; 9.69
2018-08-14 09:15:53; 413.00; 2.17; 9.69
2018-08-14 09:30:08; 413.00; 2.17; 10.63
2018-08-14 09:30:21; 412.00; 2.18; 10.63
2018-08-14 09:30:33; 411.00; 2.19; 10.69
2018-08-14 09:30:45; 413.00; 2.17; 10.69
2018-08-14 09:30:58; 412.00; 2.18; 10.75
2018-08-14 09:45:02; 410.00; 2.20; 11.06
2018-08-14 09:45:14; 412.00; 2.18; 11.06
2018-08-14 09:45:27; 410.00; 2.19; 11.13
2018-08-14 09:45:39; 411.00; 2.19; 11.13
2018-08-14 09:45:51; 411.00; 2.19; 11.13
2018-08-14 10:00:07; 409.00; 2.21; 12.13
2018-08-14 10:00:19; 410.00; 2.20; 12.13
2018-08-14 10:00:32; 411.00; 2.19; 12.19
2018-08-14 10:00:44; 410.00; 2.20; 12.19
2018-08-14 10:00:57; 409.00; 2.21; 12.25
2018-08-14 10:15:12; 413.00; 2.17; 14.06
2018-08-14 10:15:24; 406.00; 2.24; 14.06
2018-08-14 10:15:37; 407.00; 2.23; 14.13
2018-08-14 10:15:49; 409.00; 2.21; 14.19
2018-08-14 10:30:04; 412.00; 2.18; 14.44
2018-08-14 10:30:16; 412.00; 2.18; 14.38
2018-08-14 10:30:29; 408.00; 2.22; 14.38
2018-08-14 10:30:41; 408.00; 2.22; 14.38
2018-08-14 10:30:54; 411.00; 2.19; 14.44
2018-08-14 10:45:09; 407.00; 2.24; 15.19
2018-08-14 10:45:21; 411.00; 2.19; 15.19
2018-08-14 10:45:33; 412.00; 2.18; 15.19
2018-08-14 10:45:46; 412.00; 2.18; 15.31
2018-08-14 10:45:58; 414.00; 2.16; 15.25
2018-08-14 11:00:02; 411.00; 2.19; 15.63
2018-08-14 11:00:14; 412.00; 2.18; 15.56
2018-08-14 11:00:27; 407.00; 2.23; 15.56
2018-08-14 11:00:39; 412.00; 2.18; 15.63
2018-08-14 11:00:51; 410.00; 2.19; 15.69
2018-08-14 11:15:07; 412.00; 2.22; 16.44
2018-08-14 11:15:19; 412.00; 2.18; 16.56
2018-08-14 11:15:31; 407.00; 2.23; 16.63
2018-08-14 11:15:44; 410.00; 2.20; 16.63
2018-08-14 11:15:56; 411.00; 2.19; 16.63
2018-08-14 11:30:11; 410.00; 2.20; 16.94
2018-08-14 11:30:23; 407.00; 2.19; 16.94
2018-08-14 11:30:36; 407.00; 2.23; 17.00
2018-08-14 11:30:48; 405.00; 2.25; 17.00
2018-08-14 11:45:03; 410.00; 2.20; 16.94
2018-08-14 11:45:15; 407.00; 2.23; 17.00
2018-08-14 11:45:28; 407.00; 2.23; 17.06
2018-08-14 11:45:40; 405.00; 2.25; 17.00
2018-08-14 11:45:53; 406.00; 2.24; 17.13
2018-08-14 12:00:07; 412.00; 2.18; 17.56
2018-08-14 12:00:20; 408.00; 2.21; 17.69
2018-08-14 12:00:32; 411.00; 2.19; 17.69
2018-08-14 12:00:45; 407.00; 2.22; 17.81
2018-08-14 12:00:57; 406.00; 2.24; 17.81
2018-08-14 12:15:12; 409.00; 2.22; 17.94
2018-08-14 12:15:24; 408.00; 2.22; 18.00
2018-08-14 12:15:36; 405.00; 2.25; 18.06
2018-08-14 12:15:49; 409.00; 2.21; 18.00
2018-08-14 12:30:04; 410.00; 2.20; 18.63
2018-08-14 12:30:16; 405.00; 2.25; 18.63
2018-08-14 12:30:29; 410.00; 2.20; 18.63
2018-08-14 12:30:41; 409.00; 2.21; 18.50
2018-08-14 12:30:53; 407.00; 2.23; 18.50
2018-08-14 12:45:08; 404.00; 2.26; 19.00
2018-08-14 12:45:21; 406.00; 2.24; 18.94
2018-08-14 12:45:33; 406.00; 2.24; 18.88
2018-08-14 12:45:46; 409.00; 2.21; 18.94
2018-08-14 12:45:58; 410.00; 2.20; 19.06
2018-08-14 13:00:01; 407.00; 2.21; 19.63
2018-08-14 13:00:14; 404.00; 2.26; 19.75
2018-08-14 13:00:26; 406.00; 2.24; 19.75
2018-08-14 13:00:39; 407.00; 2.23; 19.81
2018-08-14 13:00:51; 406.00; 2.24; 19.75
2018-08-14 13:15:06; 409.00; 2.21; 19.13
2018-08-14 13:15:18; 409.00; 2.21; 19.13
2018-08-14 13:15:31; 404.00; 2.25; 19.06
2018-08-14 13:15:43; 407.00; 2.23; 19.00
2018-08-14 13:15:55; 405.00; 2.25; 18.94
2018-08-14 13:30:10; 406.00; 2.24; 19.88
2018-08-14 13:30:23; 407.00; 2.23; 19.81
2018-08-14 13:30:35; 407.00; 2.23; 19.63
2018-08-14 13:30:47; 406.00; 2.24; 19.69
2018-08-14 13:31:00; 408.00; 2.22; 19.88
2018-08-14 13:45:03; 407.00; 2.24; 20.69
2018-08-14 13:45:15; 409.00; 2.21; 20.69
2018-08-14 13:45:28; 407.00; 2.23; 20.63
2018-08-14 13:45:40; 404.00; 2.26; 20.50
2018-08-14 13:45:53; 408.00; 2.22; 20.44
2018-08-14 14:00:07; 403.00; 2.27; 20.69
2018-08-14 14:00:20; 409.00; 2.21; 20.75
2018-08-14 14:00:32; 405.00; 2.24; 20.75
2018-08-14 14:00:45; 407.00; 2.23; 20.69
2018-08-14 14:00:57; 402.00; 2.28; 20.63
2018-08-14 14:15:01; 406.00; 2.24; 21.75
2018-08-14 14:15:13; 406.00; 2.25; 21.69
2018-08-14 14:15:25; 406.00; 2.24; 21.69
2018-08-14 14:15:38; 406.00; 2.24; 21.56
2018-08-14 14:15:50; 405.00; 2.24; 21.56
2018-08-14 14:30:04; 405.00; 2.25; 22.13
2018-08-14 14:30:17; 406.00; 2.24; 22.19
2018-08-14 14:30:29; 405.00; 2.25; 22.31
2018-08-14 14:30:42; 406.00; 2.23; 22.25
2018-08-14 14:30:54; 406.00; 2.24; 22.25
2018-08-14 14:45:08; 406.00; 2.25; 22.38
2018-08-14 14:45:21; 407.00; 2.25; 22.38
2018-08-14 14:45:33; 404.00; 2.26; 22.38
2018-08-14 14:45:46; 406.00; 2.24; 22.38
2018-08-14 14:45:58; 406.00; 2.24; 22.44
2018-08-14 15:00:01; 404.00; 2.26; 23.56
2018-08-14 15:00:13; 407.00; 2.23; 23.56
2018-08-14 15:00:26; 405.00; 2.26; 23.50
2018-08-14 15:00:38; 408.00; 2.23; 23.38
2018-08-14 15:00:50; 405.00; 2.25; 23.31
2018-08-14 15:15:05; 406.00; 2.24; 23.38
2018-08-14 15:15:17; 405.00; 2.25; 23.38
2018-08-14 15:15:30; 406.00; 2.24; 23.44
2018-08-14 15:15:42; 405.00; 2.25; 23.38
2018-08-14 15:15:54; 407.00; 2.23; 23.44
2018-08-14 15:30:09; 407.00; 2.23; 23.75
2018-08-14 15:30:21; 405.00; 2.25; 23.75
2018-08-14 15:30:34; 405.00; 2.25; 23.69
2018-08-14 15:30:46; 405.00; 2.25; 23.63
2018-08-14 15:30:59; 406.00; 2.24; 23.63
2018-08-14 15:45:02; 406.00; 2.24; 24.63
2018-08-14 15:45:14; 400.00; 2.28; 24.44
2018-08-14 15:45:26; 406.00; 2.24; 24.50
2018-08-14 15:45:39; 403.00; 2.26; 24.50
2018-08-14 15:45:51; 404.00; 2.26; 24.50
2018-08-14 16:00:06; 406.00; 2.24; 23.75
2018-08-14 16:00:18; 406.00; 2.24; 23.69
2018-08-14 16:00:31; 406.00; 2.24; 23.63
2018-08-14 16:00:43; 407.00; 2.23; 23.69
2018-08-14 16:00:55; 406.00; 2.24; 23.69
2018-08-14 16:15:10; 404.00; 2.26; 23.69
2018-08-14 16:15:22; 403.00; 2.28; 23.81
2018-08-14 16:15:35; 406.00; 2.24; 23.81
2018-08-14 16:15:47; 406.00; 2.24; 23.75
2018-08-14 16:15:59; 404.00; 2.26; 23.81
2018-08-14 16:30:03; 406.00; 2.25; 24.00
2018-08-14 16:30:15; 406.00; 2.24; 24.00
2018-08-14 16:30:27; 404.00; 2.26; 23.88
2018-08-14 16:30:40; 407.00; 2.23; 23.94
2018-08-14 16:30:52; 407.00; 2.23; 24.06
2018-08-14 16:45:07; 407.00; 2.24; 24.25
2018-08-14 16:45:19; 405.00; 2.25; 24.25
2018-08-14 16:45:31; 405.00; 2.25; 24.19
2018-08-14 16:45:44; 407.00; 2.24; 24.13
2018-08-14 16:45:56; 406.00; 2.24; 24.06
2018-08-14 17:00:11; 406.00; 2.26; 23.75
2018-08-14 17:00:23; 405.00; 2.25; 23.88
2018-08-14 17:00:36; 405.00; 2.25; 23.88
2018-08-14 17:00:48; 407.00; 2.23; 23.69
2018-08-14 17:01:00; 407.00; 2.24; 23.75
2018-08-14 17:15:04; 403.00; 2.24; 23.88
2018-08-14 17:15:16; 403.00; 2.28; 23.88
2018-08-14 17:15:28; 407.00; 2.24; 23.81
2018-08-14 17:15:41; 406.00; 2.24; 23.75
2018-08-14 17:15:53; 405.00; 2.26; 23.75
2018-08-14 17:30:08; 406.00; 2.24; 23.88
2018-08-14 17:30:20; 407.00; 2.24; 23.94
2018-08-14 17:30:32; 405.00; 2.25; 23.94
2018-08-14 17:30:45; 405.00; 2.25; 23.75
2018-08-14 17:30:57; 405.00; 2.26; 23.81
2018-08-14 17:45:12; 404.00; 2.26; 23.69
2018-08-14 17:45:24; 408.00; 2.22; 23.63
2018-08-14 17:45:37; 408.00; 2.23; 23.50
2018-08-14 17:45:49; 404.00; 2.26; 23.44
2018-08-14 18:00:04; 404.00; 2.26; 23.13
2018-08-14 18:00:16; 408.00; 2.23; 23.31
2018-08-14 18:00:28; 403.00; 2.28; 23.19
2018-08-14 18:00:41; 405.00; 2.25; 23.19
2018-08-14 18:00:53; 407.00; 2.26; 23.25
2018-08-14 18:15:08; 408.00; 2.21; 21.94
2018-08-14 18:15:20; 406.00; 2.24; 21.94
2018-08-14 18:15:32; 407.00; 2.22; 21.94
2018-08-14 18:15:45; 409.00; 2.21; 21.81
2018-08-14 18:15:57; 408.00; 2.22; 21.81
2018-08-14 18:30:01; 406.00; 2.24; 21.25
2018-08-14 18:30:13; 408.00; 2.22; 21.25
2018-08-14 18:30:25; 406.00; 2.24; 21.25
2018-08-14 18:30:38; 410.00; 2.21; 21.25
2018-08-14 18:30:50; 407.00; 2.23; 21.25
2018-08-14 18:45:05; 405.00; 2.25; 21.00
2018-08-14 18:45:17; 408.00; 2.22; 20.94
2018-08-14 18:45:30; 406.00; 2.24; 20.88
2018-08-14 18:45:42; 406.00; 2.23; 20.88
2018-08-14 18:45:54; 407.00; 2.23; 20.94
2018-08-14 19:00:09; 410.00; 2.20; 17.25
2018-08-14 19:00:22; 408.00; 2.22; 17.25
2018-08-14 19:00:34; 409.00; 2.21; 17.19
2018-08-14 19:00:47; 411.00; 2.19; 17.13
2018-08-14 19:00:59; 410.00; 2.20; 17.06
2018-08-14 19:15:02; 410.00; 2.20; 14.94
2018-08-14 19:15:14; 409.00; 2.21; 14.88
2018-08-14 19:15:27; 408.00; 2.22; 14.88
2018-08-14 19:15:39; 410.00; 2.20; 14.88
2018-08-14 19:15:51; 410.00; 2.20; 14.81
2018-08-14 19:30:06; 410.00; 2.20; 13.56
2018-08-14 19:30:19; 410.00; 2.20; 13.56
2018-08-14 19:30:31; 410.00; 2.20; 13.56
2018-08-14 19:30:44; 410.00; 2.20; 13.56
2018-08-14 19:30:56; 410.00; 2.20; 13.56
2018-08-14 19:45:11; 410.00; 2.20; 12.56
2018-08-14 19:45:23; 410.00; 2.19; 12.56
2018-08-14 19:45:36; 411.00; 2.19; 12.56
2018-08-14 19:45:48; 410.00; 2.20; 12.56
2018-08-14 20:00:03; 411.00; 2.19; 12.00
2018-08-14 20:00:16; 410.00; 2.20; 12.06
2018-08-14 20:00:28; 411.00; 2.20; 12.00
2018-08-14 20:00:40; 411.00; 2.19; 12.00
2018-08-14 20:00:53; 410.00; 2.20; 12.00
2018-08-14 20:15:08; 411.00; 2.19; 11.63
2018-08-14 20:15:20; 410.00; 2.20; 11.63
2018-08-14 20:15:32; 412.00; 2.18; 11.63
2018-08-14 20:15:45; 412.00; 2.18; 11.63
2018-08-14 20:15:57; 413.00; 2.17; 11.56
2018-08-14 20:30:02; 413.00; 2.17; 11.25
2018-08-14 20:30:14; 413.00; 2.17; 11.25
2018-08-14 20:30:27; 413.00; 2.17; 11.25
2018-08-14 20:30:39; 413.00; 2.17; 11.25
2018-08-14 20:30:51; 411.00; 2.19; 11.25
2018-08-14 20:45:07; 412.00; 2.18; 10.88
2018-08-14 20:45:20; 411.00; 2.19; 10.88
2018-08-14 20:45:32; 411.00; 2.19; 10.88
2018-08-14 20:45:45; 409.00; 2.21; 10.88
2018-08-14 20:45:57; 410.00; 2.20; 10.81
2018-08-14 21:00:01; 412.00; 2.18; 10.56
2018-08-14 21:00:14; 411.00; 2.19; 10.56
2018-08-14 21:00:26; 410.00; 2.20; 10.56
2018-08-14 21:00:38; 411.00; 2.18; 10.56
2018-08-14 21:00:51; 411.00; 2.19; 10.56
2018-08-14 21:15:06; 412.00; 2.18; 10.31
2018-08-14 21:15:18; 412.00; 2.18; 10.31
2018-08-14 21:15:31; 411.00; 2.19; 10.31
2018-08-14 21:15:43; 412.00; 2.18; 10.31
2018-08-14 21:15:55; 411.00; 2.19; 10.31
2018-08-14 21:30:11; 409.00; 2.20; 10.00
2018-08-14 21:30:23; 411.00; 2.20; 10.00
2018-08-14 21:30:35; 413.00; 2.17; 10.00
2018-08-14 21:30:48; 413.00; 2.17; 10.00
2018-08-14 21:31:00; 412.00; 2.18; 10.00
2018-08-14 21:45:04; 414.00; 2.16; 9.81
2018-08-14 21:45:17; 414.00; 2.16; 9.81
2018-08-14 21:45:29; 414.00; 2.16; 9.81
2018-08-14 21:45:41; 411.00; 2.19; 9.81
2018-08-14 21:45:54; 412.00; 2.17; 9.81
2018-08-14 22:00:10; 412.00; 2.17; 9.56
2018-08-14 22:00:22; 411.00; 2.19; 9.56
2018-08-14 22:00:35; 412.00; 2.17; 9.56
2018-08-14 22:00:47; 414.00; 2.16; 9.56
2018-08-14 22:00:59; 411.00; 2.19; 9.56
2018-08-14 22:15:03; 410.00; 2.20; 9.44
2018-08-14 22:15:16; 410.00; 2.20; 9.44
2018-08-14 22:15:28; 411.00; 2.19; 9.44
2018-08-14 22:15:40; 412.00; 2.19; 9.44
2018-08-14 22:15:53; 410.00; 2.20; 9.44
2018-08-14 22:30:08; 410.00; 2.20; 9.50
2018-08-14 22:30:21; 410.00; 2.20; 9.50
2018-08-14 22:30:33; 411.00; 2.19; 9.50
2018-08-14 22:30:46; 410.00; 2.20; 9.50
2018-08-14 22:30:58; 411.00; 2.19; 9.50
2018-08-14 22:45:02; 410.00; 2.20; 9.19
2018-08-14 22:45:15; 410.00; 2.20; 9.19
2018-08-14 22:45:27; 410.00; 2.20; 9.19
2018-08-14 22:45:40; 409.00; 2.21; 9.19
2018-08-14 22:45:52; 409.00; 2.21; 9.19
2018-08-14 23:00:08; 410.00; 2.20; 9.00
2018-08-14 23:00:20; 410.00; 2.20; 8.94
2018-08-14 23:00:33; 411.00; 2.19; 8.94
2018-08-14 23:00:45; 411.00; 2.19; 8.94
2018-08-14 23:00:58; 411.00; 2.19; 8.94
2018-08-14 23:15:02; 412.00; 2.18; 8.69
2018-08-14 23:15:15; 410.00; 2.20; 8.69
2018-08-14 23:15:27; 410.00; 2.20; 8.69
2018-08-14 23:15:39; 410.00; 2.20; 8.69
2018-08-14 23:15:52; 410.00; 2.20; 8.69
2018-08-14 23:30:08; 412.00; 2.18; 8.63
2018-08-14 23:30:20; 411.00; 2.19; 8.63
2018-08-14 23:30:33; 410.00; 2.20; 8.63
2018-08-14 23:30:45; 410.00; 2.20; 8.63
2018-08-14 23:30:57; 410.00; 2.20; 8.63
2018-08-14 23:45:02; 410.00; 2.20; 8.38
2018-08-14 23:45:14; 409.00; 2.21; 8.38
2018-08-14 23:45:27; 409.00; 2.21; 8.38
2018-08-14 23:45:39; 411.00; 2.20; 8.38
2018-08-14 23:45:51; 412.00; 2.18; 8.38
