2019-01-21 00:00:03; 146.00; 4.84; 23.19
2019-01-21 00:00:16; 146.00; 4.84; 23.19
2019-01-21 00:00:28; 146.00; 4.84; 23.19
2019-01-21 00:00:41; 145.00; 4.85; 23.19
2019-01-21 00:00:53; 146.00; 4.85; 23.19
2019-01-21 00:15:08; 146.00; 4.84; 22.81
2019-01-21 00:15:21; 145.00; 4.85; 22.81
2019-01-21 00:15:33; 145.00; 4.85; 22.81
2019-01-21 00:15:46; 146.00; 4.84; 22.81
2019-01-21 00:15:58; 145.00; 4.85; 22.81
2019-01-21 00:30:02; 146.00; 4.84; 22.69
2019-01-21 00:30:14; 146.00; 4.84; 22.69
2019-01-21 00:30:27; 146.00; 4.84; 22.69
2019-01-21 00:30:39; 146.00; 4.84; 22.69
2019-01-21 00:30:52; 146.00; 4.84; 22.69
2019-01-21 00:45:06; 146.00; 4.84; 22.56
2019-01-21 00:45:19; 146.00; 4.84; 22.50
2019-01-21 00:45:31; 146.00; 4.84; 22.56
2019-01-21 00:45:44; 145.00; 4.85; 22.50
2019-01-21 00:45:56; 145.00; 4.85; 22.50
2019-01-21 01:00:11; 145.00; 4.85; 22.44
2019-01-21 01:00:24; 145.00; 4.85; 22.44
2019-01-21 01:00:36; 145.00; 4.85; 22.44
2019-01-21 01:00:49; 145.00; 4.85; 22.44
2019-01-21 01:15:04; 146.00; 4.84; 22.25
2019-01-21 01:15:16; 146.00; 4.84; 22.19
2019-01-21 01:15:29; 146.00; 4.84; 22.19
2019-01-21 01:15:41; 146.00; 4.84; 22.19
2019-01-21 01:15:54; 145.00; 4.85; 22.19
2019-01-21 01:30:09; 146.00; 4.84; 21.94
2019-01-21 01:30:21; 145.00; 4.85; 21.94
2019-01-21 01:30:33; 146.00; 4.84; 21.94
2019-01-21 01:30:46; 146.00; 4.84; 21.94
2019-01-21 01:30:58; 146.00; 4.84; 21.94
2019-01-21 01:45:02; 145.00; 4.85; 21.94
2019-01-21 01:45:14; 145.00; 4.85; 21.94
2019-01-21 01:45:27; 145.00; 4.85; 21.94
2019-01-21 01:45:39; 145.00; 4.85; 21.94
2019-01-21 01:45:52; 145.00; 4.85; 21.94
2019-01-21 02:00:07; 145.00; 4.85; 21.75
2019-01-21 02:00:19; 145.00; 4.85; 21.75
2019-01-21 02:00:32; 145.00; 4.85; 21.75
2019-01-21 02:00:44; 145.00; 4.85; 21.75
2019-01-21 02:00:57; 145.00; 4.85; 21.69
2019-01-21 02:15:12; 145.00; 4.85; 21.38
2019-01-21 02:15:24; 146.00; 4.85; 21.38
2019-01-21 02:15:36; 145.00; 4.85; 21.38
2019-01-21 02:15:49; 146.00; 4.85; 21.38
2019-01-21 02:30:04; 145.00; 4.85; 21.06
2019-01-21 02:30:16; 145.00; 4.85; 21.06
2019-01-21 02:30:29; 145.00; 4.85; 21.06
2019-01-21 02:30:41; 145.00; 4.85; 21.06
2019-01-21 02:30:54; 145.00; 4.85; 21.06
2019-01-21 02:45:09; 145.00; 4.85; 21.19
2019-01-21 02:45:21; 145.00; 4.85; 21.19
2019-01-21 02:45:34; 145.00; 4.85; 21.19
2019-01-21 02:45:46; 145.00; 4.85; 21.19
2019-01-21 02:45:59; 145.00; 4.85; 21.19
2019-01-21 03:00:02; 145.00; 4.85; 21.19
2019-01-21 03:00:15; 145.00; 4.85; 21.19
2019-01-21 03:00:27; 145.00; 4.85; 21.19
2019-01-21 03:00:40; 145.00; 4.85; 21.19
2019-01-21 03:00:52; 145.00; 4.85; 21.19
2019-01-21 03:15:07; 145.00; 4.85; 21.31
2019-01-21 03:15:20; 145.00; 4.85; 21.31
2019-01-21 03:15:32; 145.00; 4.85; 21.38
2019-01-21 03:15:45; 145.00; 4.85; 21.38
2019-01-21 03:15:57; 145.00; 4.85; 21.31
2019-01-21 03:30:01; 145.00; 4.85; 21.25
2019-01-21 03:30:13; 145.00; 4.85; 21.25
2019-01-21 03:30:26; 145.00; 4.85; 21.19
2019-01-21 03:30:38; 145.00; 4.85; 21.19
2019-01-21 03:30:51; 145.00; 4.85; 21.19
2019-01-21 03:45:06; 145.00; 4.85; 21.00
2019-01-21 03:45:18; 145.00; 4.85; 21.00
2019-01-21 03:45:31; 145.00; 4.85; 21.00
2019-01-21 03:45:43; 145.00; 4.85; 21.00
2019-01-21 03:45:56; 145.00; 4.85; 21.00
2019-01-21 04:00:11; 145.00; 4.85; 20.81
2019-01-21 04:00:23; 145.00; 4.85; 20.81
2019-01-21 04:00:36; 145.00; 4.85; 20.81
2019-01-21 04:00:48; 145.00; 4.85; 20.81
2019-01-21 04:15:03; 145.00; 4.85; 21.00
2019-01-21 04:15:16; 145.00; 4.85; 21.00
2019-01-21 04:15:28; 145.00; 4.85; 21.06
2019-01-21 04:15:41; 145.00; 4.85; 21.00
2019-01-21 04:15:53; 145.00; 4.85; 21.06
2019-01-21 04:30:08; 144.00; 4.86; 20.94
2019-01-21 04:30:21; 145.00; 4.85; 20.94
2019-01-21 04:30:33; 145.00; 4.85; 20.94
2019-01-21 04:30:46; 145.00; 4.85; 20.94
2019-01-21 04:30:58; 145.00; 4.85; 20.94
2019-01-21 04:45:02; 145.00; 4.85; 21.00
2019-01-21 04:45:14; 145.00; 4.85; 21.00
2019-01-21 04:45:27; 145.00; 4.85; 21.00
2019-01-21 04:45:39; 145.00; 4.85; 21.00
2019-01-21 04:45:52; 145.00; 4.85; 21.00
2019-01-21 05:00:07; 144.00; 4.86; 20.81
2019-01-21 05:00:19; 145.00; 4.85; 20.81
2019-01-21 05:00:32; 145.00; 4.85; 20.81
2019-01-21 05:00:44; 145.00; 4.85; 20.81
2019-01-21 05:00:57; 145.00; 4.85; 20.81
2019-01-21 05:15:12; 145.00; 4.85; 20.56
2019-01-21 05:15:24; 145.00; 4.85; 20.50
2019-01-21 05:15:37; 145.00; 4.85; 20.56
2019-01-21 05:15:49; 145.00; 4.85; 20.50
2019-01-21 05:30:04; 145.00; 4.85; 20.38
2019-01-21 05:30:16; 145.00; 4.85; 20.38
2019-01-21 05:30:29; 145.00; 4.85; 20.38
2019-01-21 05:30:41; 145.00; 4.85; 20.38
2019-01-21 05:30:54; 145.00; 4.85; 20.38
2019-01-21 05:45:09; 145.00; 4.85; 20.50
2019-01-21 05:45:21; 144.00; 4.86; 20.50
2019-01-21 05:45:34; 145.00; 4.85; 20.50
2019-01-21 05:45:46; 145.00; 4.85; 20.50
2019-01-21 05:45:59; 145.00; 4.85; 20.50
2019-01-21 06:00:03; 145.00; 4.85; 20.31
2019-01-21 06:00:15; 145.00; 4.85; 20.31
2019-01-21 06:00:28; 144.00; 4.85; 20.31
2019-01-21 06:00:40; 145.00; 4.85; 20.31
2019-01-21 06:00:52; 144.00; 4.86; 20.31
2019-01-21 06:15:08; 145.00; 4.85; 20.19
2019-01-21 06:15:20; 145.00; 4.85; 20.19
2019-01-21 06:15:32; 144.00; 4.86; 20.19
2019-01-21 06:15:45; 144.00; 4.86; 20.19
2019-01-21 06:15:57; 145.00; 4.85; 20.13
2019-01-21 06:30:01; 145.00; 4.85; 20.00
2019-01-21 06:30:14; 145.00; 4.85; 19.94
2019-01-21 06:30:26; 145.00; 4.85; 20.00
2019-01-21 06:30:39; 145.00; 4.85; 19.94
2019-01-21 06:30:51; 145.00; 4.85; 19.94
2019-01-21 06:45:06; 145.00; 4.85; 20.00
2019-01-21 06:45:19; 145.00; 4.85; 20.00
2019-01-21 06:45:31; 145.00; 4.85; 20.00
2019-01-21 06:45:44; 145.00; 4.85; 20.00
2019-01-21 06:45:56; 145.00; 4.85; 20.00
2019-01-21 07:00:11; 145.00; 4.85; 20.00
2019-01-21 07:00:24; 145.00; 4.85; 20.00
2019-01-21 07:00:36; 145.00; 4.85; 20.00
2019-01-21 07:00:48; 145.00; 4.85; 20.00
2019-01-21 07:15:04; 144.00; 4.86; 19.88
2019-01-21 07:15:16; 144.00; 4.86; 19.94
2019-01-21 07:15:29; 144.00; 4.86; 19.88
2019-01-21 07:15:41; 144.00; 4.86; 19.88
2019-01-21 07:15:54; 144.00; 4.86; 19.94
2019-01-21 07:30:09; 144.00; 4.86; 20.00
2019-01-21 07:30:21; 144.00; 4.86; 20.00
2019-01-21 07:30:33; 145.00; 4.85; 20.00
2019-01-21 07:30:46; 144.00; 4.86; 20.00
2019-01-21 07:30:58; 145.00; 4.85; 20.06
2019-01-21 07:45:02; 144.00; 4.86; 20.56
2019-01-21 07:45:15; 144.00; 4.86; 20.56
2019-01-21 07:45:27; 144.00; 4.86; 20.56
2019-01-21 07:45:39; 145.00; 4.85; 20.63
2019-01-21 07:45:52; 145.00; 4.85; 20.63
2019-01-21 08:00:07; 145.00; 4.85; 21.44
2019-01-21 08:00:19; 144.00; 4.86; 21.44
2019-01-21 08:00:32; 143.00; 4.87; 21.44
2019-01-21 08:00:44; 144.00; 4.86; 21.44
2019-01-21 08:00:57; 145.00; 4.86; 21.50
2019-01-21 08:15:01; 144.00; 4.86; 22.81
2019-01-21 08:15:13; 144.00; 4.86; 22.81
2019-01-21 08:15:26; 144.00; 4.86; 22.88
2019-01-21 08:15:38; 144.00; 4.86; 22.94
2019-01-21 08:15:50; 143.00; 4.87; 23.00
2019-01-21 08:30:05; 144.00; 4.86; 25.94
2019-01-21 08:30:18; 144.00; 4.86; 26.00
2019-01-21 08:30:30; 144.00; 4.86; 26.06
2019-01-21 08:30:43; 143.00; 4.87; 26.13
2019-01-21 08:30:55; 144.00; 4.86; 26.19
2019-01-21 08:45:10; 144.00; 4.86; 28.81
2019-01-21 08:45:22; 144.00; 4.86; 28.81
2019-01-21 08:45:35; 144.00; 4.86; 28.81
2019-01-21 08:45:47; 144.00; 4.86; 28.81
2019-01-21 08:45:59; 144.00; 4.86; 28.81
2019-01-21 09:00:02; 143.00; 4.87; 29.75
2019-01-21 09:00:15; 144.00; 4.86; 29.75
2019-01-21 09:00:27; 143.00; 4.87; 29.69
2019-01-21 09:00:40; 143.00; 4.86; 29.69
2019-01-21 09:00:52; 143.00; 4.87; 29.69
2019-01-21 09:15:06; 143.00; 4.87; 30.44
2019-01-21 09:15:19; 143.00; 4.87; 30.50
2019-01-21 09:15:31; 143.00; 4.87; 30.50
2019-01-21 09:15:44; 143.00; 4.87; 30.56
2019-01-21 09:15:56; 143.00; 4.87; 30.56
2019-01-21 09:30:10; 143.00; 4.87; 31.88
2019-01-21 09:30:23; 143.00; 4.87; 31.88
2019-01-21 09:30:35; 143.00; 4.87; 31.81
2019-01-21 09:30:48; 143.00; 4.87; 31.81
2019-01-21 09:31:00; 143.00; 4.87; 31.81
2019-01-21 09:45:03; 143.00; 4.87; 31.31
2019-01-21 09:45:16; 143.00; 4.87; 31.31
2019-01-21 09:45:28; 143.00; 4.87; 31.31
2019-01-21 09:45:40; 143.00; 4.87; 31.38
2019-01-21 09:45:53; 143.00; 4.87; 31.31
2019-01-21 10:00:07; 142.00; 4.88; 31.88
2019-01-21 10:00:19; 142.00; 4.88; 31.81
2019-01-21 10:00:32; 142.00; 4.88; 31.81
2019-01-21 10:00:44; 142.00; 4.88; 31.81
2019-01-21 10:00:57; 142.00; 4.88; 31.81
2019-01-21 10:15:11; 143.00; 4.87; 32.56
2019-01-21 10:15:23; 143.00; 4.87; 32.56
2019-01-21 10:15:36; 143.00; 4.87; 32.63
2019-01-21 10:15:48; 143.00; 4.87; 32.63
2019-01-21 10:30:02; 143.00; 4.88; 34.06
2019-01-21 10:30:15; 142.00; 4.88; 34.06
2019-01-21 10:30:27; 142.00; 4.88; 33.94
2019-01-21 10:30:40; 142.00; 4.88; 33.94
2019-01-21 10:30:52; 142.00; 4.88; 34.00
2019-01-21 10:45:06; 143.00; 4.87; 34.88
2019-01-21 10:45:19; 143.00; 4.87; 34.81
2019-01-21 10:45:31; 142.00; 4.88; 34.81
2019-01-21 10:45:44; 143.00; 4.87; 34.75
2019-01-21 10:45:56; 143.00; 4.87; 34.63
2019-01-21 11:00:10; 142.00; 4.88; 33.13
2019-01-21 11:00:23; 142.00; 4.88; 33.19
2019-01-21 11:00:35; 142.00; 4.88; 33.25
2019-01-21 11:00:48; 142.00; 4.88; 33.31
2019-01-21 11:01:00; 142.00; 4.88; 33.31
2019-01-21 11:15:03; 142.00; 4.88; 34.81
2019-01-21 11:15:15; 142.00; 4.88; 34.75
2019-01-21 11:15:28; 142.00; 4.88; 34.81
2019-01-21 11:15:40; 142.00; 4.88; 34.88
2019-01-21 11:15:53; 142.00; 4.88; 34.94
2019-01-21 11:30:06; 142.00; 4.88; 33.94
2019-01-21 11:30:19; 142.00; 4.88; 34.06
2019-01-21 11:30:31; 142.00; 4.88; 34.06
2019-01-21 11:30:44; 142.00; 4.88; 34.06
2019-01-21 11:30:56; 142.00; 4.88; 34.19
2019-01-21 11:45:10; 142.00; 4.88; 35.56
2019-01-21 11:45:23; 142.00; 4.88; 35.69
2019-01-21 11:45:35; 141.00; 4.89; 35.69
2019-01-21 11:45:48; 141.00; 4.89; 35.69
2019-01-21 11:46:00; 142.00; 4.88; 35.88
2019-01-21 12:00:03; 142.00; 4.88; 32.81
2019-01-21 12:00:15; 142.00; 4.88; 33.00
2019-01-21 12:00:28; 142.00; 4.88; 33.13
2019-01-21 12:00:40; 142.00; 4.88; 33.19
2019-01-21 12:00:53; 142.00; 4.88; 33.25
2019-01-21 12:15:07; 142.00; 4.88; 34.31
2019-01-21 12:15:19; 142.00; 4.88; 34.38
2019-01-21 12:15:31; 142.00; 4.88; 34.38
2019-01-21 12:15:44; 142.00; 4.88; 34.38
2019-01-21 12:15:56; 142.00; 4.88; 34.44
2019-01-21 12:30:10; 142.00; 4.87; 34.56
2019-01-21 12:30:23; 142.00; 4.88; 34.69
2019-01-21 12:30:35; 142.00; 4.88; 34.75
2019-01-21 12:30:48; 142.00; 4.88; 34.81
2019-01-21 12:31:00; 142.00; 4.88; 34.81
2019-01-21 12:45:03; 141.00; 4.89; 33.44
2019-01-21 12:45:16; 141.00; 4.89; 33.50
2019-01-21 12:45:28; 141.00; 4.89; 33.50
2019-01-21 12:45:40; 142.00; 4.88; 33.44
2019-01-21 12:45:53; 141.00; 4.89; 33.50
2019-01-21 13:00:07; 141.00; 4.89; 37.31
2019-01-21 13:00:19; 141.00; 4.89; 37.25
2019-01-21 13:00:32; 141.00; 4.89; 37.13
2019-01-21 13:00:44; 141.00; 4.89; 36.88
2019-01-21 13:00:57; 141.00; 4.89; 36.88
2019-01-21 13:15:11; 141.00; 4.89; 38.13
2019-01-21 13:15:23; 141.00; 4.89; 38.06
2019-01-21 13:15:36; 141.00; 4.89; 38.00
2019-01-21 13:15:48; 141.00; 4.89; 38.06
2019-01-21 13:30:02; 142.00; 4.88; 38.38
2019-01-21 13:30:15; 142.00; 4.88; 38.31
2019-01-21 13:30:27; 141.00; 4.89; 38.31
2019-01-21 13:30:39; 142.00; 4.88; 38.25
2019-01-21 13:30:52; 141.00; 4.89; 38.25
2019-01-21 13:45:06; 141.00; 4.89; 36.50
2019-01-21 13:45:18; 141.00; 4.89; 36.56
2019-01-21 13:45:31; 141.00; 4.89; 36.56
2019-01-21 13:45:43; 141.00; 4.89; 36.56
2019-01-21 13:45:56; 140.00; 4.90; 36.50
2019-01-21 14:00:10; 141.00; 4.89; 36.25
2019-01-21 14:00:22; 141.00; 4.89; 36.25
2019-01-21 14:00:35; 141.00; 4.89; 36.25
2019-01-21 14:00:47; 141.00; 4.89; 36.31
2019-01-21 14:01:00; 141.00; 4.89; 36.38
2019-01-21 14:15:02; 140.00; 4.90; 37.63
2019-01-21 14:15:15; 141.00; 4.89; 37.75
2019-01-21 14:15:27; 141.00; 4.89; 37.81
2019-01-21 14:15:40; 141.00; 4.89; 37.88
2019-01-21 14:15:52; 141.00; 4.89; 37.88
2019-01-21 14:30:06; 141.00; 4.89; 38.31
2019-01-21 14:30:18; 141.00; 4.89; 38.25
2019-01-21 14:30:31; 141.00; 4.89; 38.38
2019-01-21 14:30:43; 141.00; 4.89; 38.44
2019-01-21 14:30:56; 141.00; 4.89; 38.50
2019-01-21 14:45:10; 140.00; 4.90; 39.44
2019-01-21 14:45:22; 140.00; 4.90; 39.44
2019-01-21 14:45:35; 141.00; 4.89; 39.50
2019-01-21 14:45:47; 140.00; 4.90; 39.56
2019-01-21 14:46:00; 141.00; 4.89; 39.50
2019-01-21 15:00:02; 141.00; 4.89; 38.50
2019-01-21 15:00:15; 140.00; 4.90; 38.56
2019-01-21 15:00:27; 140.00; 4.90; 38.63
2019-01-21 15:00:39; 140.00; 4.90; 38.69
2019-01-21 15:00:52; 140.00; 4.90; 38.75
2019-01-21 15:15:06; 141.00; 4.89; 39.13
2019-01-21 15:15:18; 140.00; 4.90; 39.06
2019-01-21 15:15:31; 141.00; 4.89; 39.19
2019-01-21 15:15:43; 141.00; 4.89; 39.25
2019-01-21 15:15:56; 141.00; 4.89; 39.25
2019-01-21 15:30:09; 141.00; 4.89; 37.94
2019-01-21 15:30:22; 141.00; 4.89; 37.81
2019-01-21 15:30:34; 142.00; 4.88; 37.63
2019-01-21 15:30:47; 142.00; 4.88; 37.50
2019-01-21 15:30:59; 141.00; 4.89; 37.38
2019-01-21 15:45:02; 141.00; 4.89; 38.06
2019-01-21 15:45:14; 140.00; 4.90; 38.06
2019-01-21 15:45:27; 141.00; 4.89; 38.06
2019-01-21 15:45:39; 140.00; 4.90; 38.19
2019-01-21 15:45:52; 140.00; 4.90; 38.25
2019-01-21 16:00:06; 141.00; 4.89; 39.31
2019-01-21 16:00:18; 141.00; 4.89; 39.38
2019-01-21 16:00:31; 140.00; 4.89; 39.25
2019-01-21 16:00:43; 141.00; 4.89; 39.25
2019-01-21 16:00:55; 140.00; 4.90; 39.25
2019-01-21 16:15:09; 140.00; 4.90; 39.88
2019-01-21 16:15:22; 140.00; 4.90; 40.00
2019-01-21 16:15:34; 140.00; 4.90; 40.00
2019-01-21 16:15:47; 140.00; 4.90; 39.94
2019-01-21 16:15:59; 140.00; 4.89; 39.88
2019-01-21 16:30:02; 140.00; 4.89; 38.81
2019-01-21 16:30:14; 141.00; 4.89; 38.81
2019-01-21 16:30:27; 141.00; 4.89; 38.81
2019-01-21 16:30:39; 141.00; 4.89; 38.81
2019-01-21 16:30:52; 141.00; 4.89; 38.88
2019-01-21 16:45:06; 141.00; 4.89; 39.75
2019-01-21 16:45:18; 140.00; 4.90; 39.69
2019-01-21 16:45:30; 140.00; 4.90; 39.75
2019-01-21 16:45:43; 141.00; 4.89; 39.75
2019-01-21 16:45:55; 141.00; 4.88; 39.81
2019-01-21 17:00:09; 141.00; 4.89; 40.56
2019-01-21 17:00:22; 141.00; 4.89; 40.69
2019-01-21 17:00:34; 141.00; 4.89; 40.56
2019-01-21 17:00:47; 140.00; 4.90; 40.56
2019-01-21 17:00:59; 142.00; 4.89; 40.44
2019-01-21 17:15:02; 140.00; 4.90; 39.94
2019-01-21 17:15:14; 140.00; 4.90; 39.94
2019-01-21 17:15:26; 140.00; 4.90; 40.00
2019-01-21 17:15:39; 141.00; 4.89; 40.06
2019-01-21 17:15:51; 140.00; 4.90; 40.13
2019-01-21 17:30:05; 141.00; 4.89; 40.94
2019-01-21 17:30:18; 140.00; 4.89; 40.94
2019-01-21 17:30:30; 140.00; 4.90; 41.00
2019-01-21 17:30:43; 140.00; 4.90; 41.06
2019-01-21 17:30:55; 140.00; 4.90; 41.06
2019-01-21 17:45:09; 140.00; 4.90; 40.50
2019-01-21 17:45:21; 140.00; 4.90; 40.56
2019-01-21 17:45:34; 141.00; 4.89; 40.56
2019-01-21 17:45:46; 140.00; 4.90; 40.63
2019-01-21 17:45:59; 140.00; 4.90; 40.75
2019-01-21 18:00:01; 140.00; 4.90; 40.94
2019-01-21 18:00:13; 140.00; 4.90; 40.88
2019-01-21 18:00:26; 141.00; 4.89; 40.69
2019-01-21 18:00:38; 141.00; 4.89; 40.75
2019-01-21 18:00:51; 141.00; 4.89; 40.81
2019-01-21 18:15:04; 141.00; 4.89; 40.63
2019-01-21 18:15:17; 141.00; 4.89; 40.56
2019-01-21 18:15:29; 141.00; 4.89; 40.50
2019-01-21 18:15:42; 141.00; 4.89; 40.56
2019-01-21 18:15:54; 140.00; 4.90; 40.69
2019-01-21 18:30:08; 140.00; 4.90; 38.38
2019-01-21 18:30:20; 141.00; 4.89; 38.19
2019-01-21 18:30:33; 140.00; 4.89; 38.19
2019-01-21 18:30:45; 141.00; 4.89; 38.13
2019-01-21 18:30:58; 140.00; 4.90; 38.13
2019-01-21 18:45:12; 140.00; 4.90; 33.88
2019-01-21 18:45:24; 141.00; 4.89; 33.88
2019-01-21 18:45:37; 140.00; 4.91; 33.88
2019-01-21 18:45:49; 140.00; 4.90; 33.81
2019-01-21 19:00:03; 141.00; 4.89; 31.88
2019-01-21 19:00:15; 140.00; 4.90; 31.88
2019-01-21 19:00:28; 141.00; 4.89; 31.88
2019-01-21 19:00:40; 141.00; 4.89; 31.81
2019-01-21 19:00:52; 142.00; 4.88; 31.81
2019-01-21 19:15:07; 141.00; 4.89; 33.19
2019-01-21 19:15:19; 140.00; 4.90; 33.00
2019-01-21 19:15:31; 141.00; 4.89; 33.00
2019-01-21 19:15:44; 140.00; 4.90; 33.00
2019-01-21 19:15:56; 141.00; 4.89; 33.00
2019-01-21 19:30:10; 142.00; 4.88; 34.75
2019-01-21 19:30:23; 141.00; 4.89; 34.75
2019-01-21 19:30:35; 142.00; 4.88; 34.63
2019-01-21 19:30:48; 141.00; 4.89; 34.56
2019-01-21 19:31:00; 141.00; 4.89; 34.44
2019-01-21 19:45:03; 141.00; 4.89; 30.81
2019-01-21 19:45:15; 141.00; 4.89; 30.81
2019-01-21 19:45:28; 142.00; 4.88; 30.75
2019-01-21 19:45:40; 141.00; 4.89; 30.75
2019-01-21 19:45:53; 141.00; 4.89; 30.69
2019-01-21 20:00:07; 141.00; 4.89; 29.25
2019-01-21 20:00:19; 141.00; 4.89; 29.25
2019-01-21 20:00:32; 141.00; 4.89; 29.25
2019-01-21 20:00:44; 141.00; 4.89; 29.25
2019-01-21 20:00:57; 141.00; 4.89; 29.25
2019-01-21 20:15:11; 141.00; 4.89; 28.75
2019-01-21 20:15:23; 141.00; 4.89; 28.75
2019-01-21 20:15:36; 141.00; 4.89; 28.69
2019-01-21 20:15:48; 142.00; 4.89; 28.69
2019-01-21 20:30:03; 140.00; 4.90; 28.19
2019-01-21 20:30:15; 141.00; 4.89; 28.19
2019-01-21 20:30:28; 141.00; 4.89; 28.19
2019-01-21 20:30:40; 142.00; 4.88; 28.19
2019-01-21 20:30:53; 141.00; 4.89; 28.19
2019-01-21 20:45:07; 140.00; 4.91; 27.75
2019-01-21 20:45:20; 141.00; 4.90; 27.75
2019-01-21 20:45:32; 140.00; 4.90; 27.75
2019-01-21 20:45:44; 141.00; 4.90; 27.69
2019-01-21 20:45:57; 139.00; 4.91; 27.69
2019-01-21 21:00:11; 140.00; 4.90; 27.31
2019-01-21 21:00:24; 139.00; 4.91; 27.31
2019-01-21 21:00:36; 140.00; 4.90; 27.31
2019-01-21 21:00:49; 140.00; 4.90; 27.31
2019-01-21 21:15:03; 141.00; 4.89; 26.88
2019-01-21 21:15:16; 140.00; 4.90; 26.88
2019-01-21 21:15:28; 141.00; 4.89; 26.88
2019-01-21 21:15:41; 140.00; 4.90; 26.88
2019-01-21 21:15:53; 140.00; 4.90; 26.88
2019-01-21 21:30:08; 140.00; 4.90; 26.63
2019-01-21 21:30:20; 140.00; 4.90; 26.63
2019-01-21 21:30:33; 140.00; 4.90; 26.63
2019-01-21 21:30:45; 140.00; 4.89; 26.63
2019-01-21 21:30:58; 140.00; 4.90; 26.63
2019-01-21 21:45:01; 141.00; 4.89; 26.44
2019-01-21 21:45:13; 139.00; 4.91; 26.44
2019-01-21 21:45:26; 141.00; 4.89; 26.44
2019-01-21 21:45:38; 141.00; 4.89; 26.44
2019-01-21 21:45:51; 141.00; 4.89; 26.44
2019-01-21 22:00:05; 141.00; 4.89; 26.25
2019-01-21 22:00:18; 141.00; 4.89; 26.25
2019-01-21 22:00:30; 140.00; 4.90; 26.19
2019-01-21 22:00:43; 140.00; 4.90; 26.19
2019-01-21 22:00:55; 139.00; 4.91; 26.19
2019-01-21 22:15:10; 140.00; 4.90; 26.19
2019-01-21 22:15:22; 141.00; 4.89; 26.19
2019-01-21 22:15:34; 141.00; 4.89; 26.19
2019-01-21 22:15:47; 140.00; 4.90; 26.19
2019-01-21 22:15:59; 141.00; 4.89; 26.19
2019-01-21 22:30:03; 140.00; 4.90; 26.00
2019-01-21 22:30:15; 140.00; 4.90; 26.00
2019-01-21 22:30:28; 141.00; 4.89; 26.00
2019-01-21 22:30:40; 140.00; 4.90; 26.00
2019-01-21 22:30:52; 141.00; 4.89; 26.00
2019-01-21 22:45:07; 141.00; 4.89; 25.88
2019-01-21 22:45:19; 141.00; 4.89; 25.94
2019-01-21 22:45:32; 141.00; 4.89; 25.88
2019-01-21 22:45:44; 141.00; 4.89; 25.88
2019-01-21 22:45:57; 141.00; 4.89; 25.88
2019-01-21 23:00:11; 141.00; 4.89; 25.75
2019-01-21 23:00:24; 140.00; 4.90; 25.75
2019-01-21 23:00:36; 141.00; 4.89; 25.75
2019-01-21 23:00:49; 140.00; 4.90; 25.75
2019-01-21 23:15:03; 141.00; 4.89; 25.63
2019-01-21 23:15:16; 140.00; 4.90; 25.63
2019-01-21 23:15:28; 141.00; 4.89; 25.63
2019-01-21 23:15:41; 140.00; 4.90; 25.63
2019-01-21 23:15:53; 141.00; 4.89; 25.63
2019-01-21 23:30:08; 140.00; 4.90; 25.63
2019-01-21 23:30:20; 141.00; 4.89; 25.63
2019-01-21 23:30:33; 141.00; 4.89; 25.63
2019-01-21 23:30:45; 141.00; 4.89; 25.63
2019-01-21 23:30:58; 141.00; 4.89; 25.63
2019-01-21 23:45:01; 141.00; 4.89; 25.75
2019-01-21 23:45:13; 140.00; 4.90; 25.75
2019-01-21 23:45:26; 140.00; 4.90; 25.75
2019-01-21 23:45:38; 140.00; 4.90; 25.75
2019-01-21 23:45:51; 141.00; 4.89; 25.75
