2019-02-09 00:00:07; 107.00; 5.23; 27.13
2019-02-09 00:00:20; 107.00; 5.23; 27.13
2019-02-09 00:00:32; 107.00; 5.23; 27.13
2019-02-09 00:00:45; 107.00; 5.23; 27.13
2019-02-09 00:00:57; 107.00; 5.23; 27.13
2019-02-09 00:15:11; 107.00; 5.23; 27.00
2019-02-09 00:15:24; 107.00; 5.23; 27.06
2019-02-09 00:15:36; 108.00; 5.22; 27.06
2019-02-09 00:15:49; 108.00; 5.22; 27.00
2019-02-09 00:30:03; 108.00; 5.22; 26.88
2019-02-09 00:30:16; 108.00; 5.22; 26.88
2019-02-09 00:30:28; 108.00; 5.22; 26.88
2019-02-09 00:30:40; 108.00; 5.22; 26.88
2019-02-09 00:30:53; 108.00; 5.22; 26.88
2019-02-09 00:45:07; 107.00; 5.23; 26.94
2019-02-09 00:45:20; 107.00; 5.23; 26.88
2019-02-09 00:45:32; 107.00; 5.23; 26.94
2019-02-09 00:45:44; 107.00; 5.23; 26.88
2019-02-09 00:45:57; 107.00; 5.22; 26.88
2019-02-09 01:00:11; 108.00; 5.22; 26.81
2019-02-09 01:00:24; 108.00; 5.22; 26.81
2019-02-09 01:00:36; 108.00; 5.22; 26.81
2019-02-09 01:00:49; 108.00; 5.22; 26.81
2019-02-09 01:15:03; 108.00; 5.22; 26.75
2019-02-09 01:15:15; 108.00; 5.23; 26.75
2019-02-09 01:15:28; 107.00; 5.23; 26.75
2019-02-09 01:15:40; 107.00; 5.23; 26.75
2019-02-09 01:15:53; 107.00; 5.23; 26.75
2019-02-09 01:30:07; 108.00; 5.22; 26.19
2019-02-09 01:30:19; 108.00; 5.22; 26.19
2019-02-09 01:30:32; 108.00; 5.22; 26.19
2019-02-09 01:30:44; 108.00; 5.22; 26.19
2019-02-09 01:30:57; 108.00; 5.22; 26.19
2019-02-09 01:45:11; 108.00; 5.22; 25.75
2019-02-09 01:45:23; 108.00; 5.22; 25.75
2019-02-09 01:45:36; 108.00; 5.22; 25.75
2019-02-09 01:45:48; 108.00; 5.22; 25.75
2019-02-09 02:00:03; 108.00; 5.22; 25.63
2019-02-09 02:00:15; 108.00; 5.22; 25.63
2019-02-09 02:00:27; 108.00; 5.22; 25.63
2019-02-09 02:00:40; 108.00; 5.22; 25.63
2019-02-09 02:00:52; 108.00; 5.22; 25.63
2019-02-09 02:15:07; 108.00; 5.22; 25.44
2019-02-09 02:15:19; 108.00; 5.22; 25.44
2019-02-09 02:15:32; 108.00; 5.22; 25.44
2019-02-09 02:15:44; 108.00; 5.22; 25.44
2019-02-09 02:15:56; 108.00; 5.22; 25.50
2019-02-09 02:30:11; 108.00; 5.22; 25.50
2019-02-09 02:30:23; 108.00; 5.22; 25.50
2019-02-09 02:30:36; 108.00; 5.22; 25.50
2019-02-09 02:30:48; 108.00; 5.22; 25.50
2019-02-09 02:45:03; 108.00; 5.22; 25.19
2019-02-09 02:45:15; 108.00; 5.22; 25.19
2019-02-09 02:45:27; 109.00; 5.21; 25.19
2019-02-09 02:45:40; 108.00; 5.22; 25.19
2019-02-09 02:45:52; 108.00; 5.22; 25.19
2019-02-09 03:00:07; 108.00; 5.22; 25.25
2019-02-09 03:00:19; 108.00; 5.22; 25.25
2019-02-09 03:00:32; 108.00; 5.22; 25.25
2019-02-09 03:00:44; 108.00; 5.22; 25.25
2019-02-09 03:00:56; 108.00; 5.22; 25.25
2019-02-09 03:15:11; 108.00; 5.22; 25.19
2019-02-09 03:15:23; 108.00; 5.22; 25.25
2019-02-09 03:15:36; 109.00; 5.21; 25.19
2019-02-09 03:15:48; 109.00; 5.21; 25.19
2019-02-09 03:30:02; 108.00; 5.22; 25.00
2019-02-09 03:30:15; 108.00; 5.22; 25.00
2019-02-09 03:30:27; 108.00; 5.22; 25.00
2019-02-09 03:30:40; 109.00; 5.21; 25.00
2019-02-09 03:30:52; 109.00; 5.21; 25.00
2019-02-09 03:45:07; 109.00; 5.21; 24.88
2019-02-09 03:45:19; 108.00; 5.22; 24.88
2019-02-09 03:45:32; 109.00; 5.22; 24.88
2019-02-09 03:45:44; 109.00; 5.21; 24.88
2019-02-09 03:45:56; 109.00; 5.21; 24.88
2019-02-09 04:00:11; 109.00; 5.21; 24.56
2019-02-09 04:00:23; 109.00; 5.21; 24.56
2019-02-09 04:00:36; 109.00; 5.21; 24.56
2019-02-09 04:00:48; 109.00; 5.21; 24.56
2019-02-09 04:15:03; 109.00; 5.21; 24.63
2019-02-09 04:15:15; 109.00; 5.21; 24.63
2019-02-09 04:15:27; 109.00; 5.21; 24.63
2019-02-09 04:15:40; 109.00; 5.21; 24.63
2019-02-09 04:15:52; 109.00; 5.21; 24.63
2019-02-09 04:30:07; 109.00; 5.21; 24.56
2019-02-09 04:30:19; 109.00; 5.21; 24.56
2019-02-09 04:30:32; 109.00; 5.21; 24.63
2019-02-09 04:30:44; 108.00; 5.22; 24.56
2019-02-09 04:30:56; 108.00; 5.22; 24.63
2019-02-09 04:45:11; 109.00; 5.21; 24.56
2019-02-09 04:45:23; 109.00; 5.21; 24.56
2019-02-09 04:45:36; 109.00; 5.21; 24.56
2019-02-09 04:45:48; 109.00; 5.21; 24.56
2019-02-09 05:00:03; 109.00; 5.21; 24.69
2019-02-09 05:00:15; 109.00; 5.21; 24.69
2019-02-09 05:00:28; 109.00; 5.21; 24.69
2019-02-09 05:00:40; 109.00; 5.21; 24.69
2019-02-09 05:00:53; 109.00; 5.21; 24.69
2019-02-09 05:15:07; 110.00; 5.20; 24.69
2019-02-09 05:15:19; 110.00; 5.21; 24.69
2019-02-09 05:15:32; 110.00; 5.21; 24.69
2019-02-09 05:15:44; 109.00; 5.21; 24.69
2019-02-09 05:15:57; 109.00; 5.21; 24.69
2019-02-09 05:30:11; 109.00; 5.21; 24.69
2019-02-09 05:30:23; 109.00; 5.21; 24.69
2019-02-09 05:30:36; 109.00; 5.21; 24.69
2019-02-09 05:30:48; 109.00; 5.21; 24.69
2019-02-09 05:45:03; 109.00; 5.21; 24.38
2019-02-09 05:45:15; 109.00; 5.21; 24.38
2019-02-09 05:45:28; 109.00; 5.21; 24.38
2019-02-09 05:45:40; 109.00; 5.21; 24.38
2019-02-09 05:45:53; 109.00; 5.21; 24.38
2019-02-09 06:00:07; 109.00; 5.21; 24.19
2019-02-09 06:00:19; 110.00; 5.20; 24.13
2019-02-09 06:00:32; 110.00; 5.20; 24.13
2019-02-09 06:00:44; 109.00; 5.21; 24.13
2019-02-09 06:00:57; 110.00; 5.20; 24.13
2019-02-09 06:15:11; 109.00; 5.21; 24.06
2019-02-09 06:15:23; 109.00; 5.21; 24.06
2019-02-09 06:15:36; 109.00; 5.21; 24.06
2019-02-09 06:15:48; 109.00; 5.21; 24.06
2019-02-09 06:30:03; 109.00; 5.21; 24.31
2019-02-09 06:30:15; 109.00; 5.21; 24.31
2019-02-09 06:30:28; 109.00; 5.21; 24.31
2019-02-09 06:30:40; 109.00; 5.21; 24.31
2019-02-09 06:30:53; 110.00; 5.20; 24.31
2019-02-09 06:45:07; 109.00; 5.21; 24.50
2019-02-09 06:45:19; 109.00; 5.21; 24.50
2019-02-09 06:45:32; 109.00; 5.21; 24.50
2019-02-09 06:45:44; 109.00; 5.21; 24.50
2019-02-09 06:45:57; 109.00; 5.21; 24.56
2019-02-09 07:00:11; 109.00; 5.21; 24.81
2019-02-09 07:00:24; 109.00; 5.21; 24.81
2019-02-09 07:00:36; 109.00; 5.21; 24.81
2019-02-09 07:00:49; 109.00; 5.21; 24.81
2019-02-09 07:15:03; 109.00; 5.21; 25.00
2019-02-09 07:15:15; 109.00; 5.21; 25.00
2019-02-09 07:15:28; 109.00; 5.21; 25.00
2019-02-09 07:15:40; 109.00; 5.21; 25.00
2019-02-09 07:15:53; 109.00; 5.21; 25.00
2019-02-09 07:30:07; 109.00; 5.21; 24.88
2019-02-09 07:30:19; 109.00; 5.21; 24.88
2019-02-09 07:30:32; 109.00; 5.21; 24.88
2019-02-09 07:30:44; 109.00; 5.21; 24.88
2019-02-09 07:30:57; 109.00; 5.21; 24.88
2019-02-09 07:45:11; 110.00; 5.20; 24.31
2019-02-09 07:45:23; 110.00; 5.20; 24.38
2019-02-09 07:45:36; 110.00; 5.20; 24.38
2019-02-09 07:45:48; 110.00; 5.20; 24.31
2019-02-09 08:00:03; 109.00; 5.21; 24.44
2019-02-09 08:00:15; 110.00; 5.20; 24.44
2019-02-09 08:00:28; 109.00; 5.21; 24.44
2019-02-09 08:00:40; 109.00; 5.21; 24.44
2019-02-09 08:00:53; 109.00; 5.21; 24.44
2019-02-09 08:15:07; 110.00; 5.20; 25.06
2019-02-09 08:15:19; 110.00; 5.20; 25.06
2019-02-09 08:15:32; 110.00; 5.20; 25.06
2019-02-09 08:15:44; 110.00; 5.20; 25.06
2019-02-09 08:15:57; 109.00; 5.21; 25.06
2019-02-09 08:30:11; 109.00; 5.21; 25.75
2019-02-09 08:30:23; 110.00; 5.20; 25.75
2019-02-09 08:30:36; 110.00; 5.20; 25.75
2019-02-09 08:30:48; 110.00; 5.20; 25.75
2019-02-09 08:45:03; 110.00; 5.20; 26.88
2019-02-09 08:45:15; 110.00; 5.20; 26.88
2019-02-09 08:45:27; 110.00; 5.20; 26.94
2019-02-09 08:45:40; 110.00; 5.20; 26.94
2019-02-09 08:45:52; 110.00; 5.20; 26.94
2019-02-09 09:00:06; 109.00; 5.21; 28.75
2019-02-09 09:00:19; 109.00; 5.21; 28.81
2019-02-09 09:00:31; 109.00; 5.21; 28.88
2019-02-09 09:00:44; 109.00; 5.21; 28.88
2019-02-09 09:00:56; 109.00; 5.21; 28.88
2019-02-09 09:15:10; 110.00; 5.20; 29.75
2019-02-09 09:15:23; 110.00; 5.20; 29.69
2019-02-09 09:15:35; 110.00; 5.20; 29.69
2019-02-09 09:15:48; 110.00; 5.21; 29.69
2019-02-09 09:16:00; 110.00; 5.20; 29.75
2019-02-09 09:30:03; 109.00; 5.21; 30.69
2019-02-09 09:30:15; 109.00; 5.21; 30.69
2019-02-09 09:30:28; 109.00; 5.21; 30.75
2019-02-09 09:30:40; 109.00; 5.21; 30.75
2019-02-09 09:30:53; 110.00; 5.20; 30.75
2019-02-09 09:45:06; 109.00; 5.21; 34.56
2019-02-09 09:45:19; 110.00; 5.20; 34.56
2019-02-09 09:45:31; 109.00; 5.21; 34.50
2019-02-09 09:45:44; 110.00; 5.20; 34.50
2019-02-09 09:45:56; 109.00; 5.21; 34.56
2019-02-09 10:00:10; 109.00; 5.21; 34.63
2019-02-09 10:00:22; 110.00; 5.20; 34.63
2019-02-09 10:00:35; 109.00; 5.21; 34.63
2019-02-09 10:00:47; 110.00; 5.20; 34.63
2019-02-09 10:01:00; 110.00; 5.20; 34.56
2019-02-09 10:15:02; 109.00; 5.21; 36.44
2019-02-09 10:15:14; 110.00; 5.20; 36.50
2019-02-09 10:15:27; 110.00; 5.20; 36.56
2019-02-09 10:15:39; 109.00; 5.21; 36.56
2019-02-09 10:15:52; 109.00; 5.21; 36.56
2019-02-09 10:30:05; 110.00; 5.20; 36.88
2019-02-09 10:30:18; 109.00; 5.21; 36.75
2019-02-09 10:30:30; 110.00; 5.20; 36.75
2019-02-09 10:30:43; 110.00; 5.20; 36.75
2019-02-09 10:30:55; 110.00; 5.20; 36.75
2019-02-09 10:45:09; 110.00; 5.20; 34.13
2019-02-09 10:45:21; 110.00; 5.20; 34.13
2019-02-09 10:45:34; 110.00; 5.20; 34.13
2019-02-09 10:45:46; 110.00; 5.20; 34.13
2019-02-09 10:45:59; 109.00; 5.21; 34.13
2019-02-09 11:00:01; 110.00; 5.20; 33.69
2019-02-09 11:00:13; 108.00; 5.22; 33.63
2019-02-09 11:00:26; 110.00; 5.20; 33.56
2019-02-09 11:00:38; 109.00; 5.21; 33.56
2019-02-09 11:00:51; 110.00; 5.20; 33.56
2019-02-09 11:15:05; 109.00; 5.21; 32.31
2019-02-09 11:15:17; 110.00; 5.20; 32.31
2019-02-09 11:15:30; 110.00; 5.20; 32.25
2019-02-09 11:15:42; 110.00; 5.20; 32.25
2019-02-09 11:15:55; 110.00; 5.20; 32.25
2019-02-09 11:30:09; 109.00; 5.21; 32.88
2019-02-09 11:30:21; 109.00; 5.21; 32.81
2019-02-09 11:30:33; 109.00; 5.21; 32.81
2019-02-09 11:30:46; 110.00; 5.20; 32.81
2019-02-09 11:30:58; 109.00; 5.21; 32.81
2019-02-09 11:45:01; 110.00; 5.20; 33.06
2019-02-09 11:45:13; 110.00; 5.20; 33.00
2019-02-09 11:45:26; 110.00; 5.20; 33.06
2019-02-09 11:45:38; 110.00; 5.20; 33.06
2019-02-09 11:45:51; 110.00; 5.20; 33.06
2019-02-09 12:00:05; 110.00; 5.20; 33.75
2019-02-09 12:00:17; 110.00; 5.20; 33.75
2019-02-09 12:00:30; 110.00; 5.20; 33.75
2019-02-09 12:00:42; 110.00; 5.20; 33.81
2019-02-09 12:00:54; 110.00; 5.20; 33.81
2019-02-09 12:15:08; 109.00; 5.21; 34.81
2019-02-09 12:15:21; 110.00; 5.20; 34.81
2019-02-09 12:15:33; 110.00; 5.20; 34.88
2019-02-09 12:15:45; 110.00; 5.20; 34.81
2019-02-09 12:15:58; 110.00; 5.20; 34.81
2019-02-09 12:30:12; 110.00; 5.20; 36.06
2019-02-09 12:30:24; 110.00; 5.20; 36.06
2019-02-09 12:30:36; 111.00; 5.20; 36.00
2019-02-09 12:30:49; 110.00; 5.20; 36.00
2019-02-09 12:45:02; 110.00; 5.20; 34.56
2019-02-09 12:45:15; 110.00; 5.20; 34.56
2019-02-09 12:45:27; 110.00; 5.20; 34.56
2019-02-09 12:45:40; 110.00; 5.20; 34.56
2019-02-09 12:45:52; 110.00; 5.20; 34.50
2019-02-09 13:00:06; 110.00; 5.20; 33.81
2019-02-09 13:00:18; 110.00; 5.20; 33.88
2019-02-09 13:00:31; 110.00; 5.19; 33.81
2019-02-09 13:00:43; 110.00; 5.20; 33.81
2019-02-09 13:00:56; 110.00; 5.20; 33.75
2019-02-09 13:15:09; 111.00; 5.19; 33.25
2019-02-09 13:15:22; 110.00; 5.20; 33.31
2019-02-09 13:15:34; 111.00; 5.19; 33.31
2019-02-09 13:15:47; 110.00; 5.20; 33.31
2019-02-09 13:15:59; 110.00; 5.20; 33.31
2019-02-09 13:30:02; 110.00; 5.20; 33.56
2019-02-09 13:30:14; 110.00; 5.20; 33.56
2019-02-09 13:30:27; 110.00; 5.20; 33.63
2019-02-09 13:30:39; 110.00; 5.20; 33.56
2019-02-09 13:30:51; 110.00; 5.20; 33.63
2019-02-09 13:45:05; 109.00; 5.21; 34.75
2019-02-09 13:45:18; 110.00; 5.20; 34.69
2019-02-09 13:45:30; 110.00; 5.20; 34.63
2019-02-09 13:45:42; 111.00; 5.19; 34.69
2019-02-09 13:45:55; 109.00; 5.21; 34.69
2019-02-09 14:00:09; 110.00; 5.20; 35.44
2019-02-09 14:00:21; 110.00; 5.20; 35.44
2019-02-09 14:00:34; 110.00; 5.20; 35.50
2019-02-09 14:00:46; 110.00; 5.20; 35.50
2019-02-09 14:00:59; 110.00; 5.20; 35.50
2019-02-09 14:15:01; 110.00; 5.19; 35.13
2019-02-09 14:15:13; 110.00; 5.20; 35.19
2019-02-09 14:15:26; 110.00; 5.20; 35.13
2019-02-09 14:15:38; 110.00; 5.20; 35.13
2019-02-09 14:15:51; 110.00; 5.20; 35.13
2019-02-09 14:30:04; 111.00; 5.19; 35.56
2019-02-09 14:30:17; 110.00; 5.20; 35.56
2019-02-09 14:30:29; 110.00; 5.20; 35.63
2019-02-09 14:30:42; 110.00; 5.20; 35.56
2019-02-09 14:30:54; 111.00; 5.20; 35.56
2019-02-09 14:45:08; 111.00; 5.19; 35.63
2019-02-09 14:45:20; 111.00; 5.19; 35.56
2019-02-09 14:45:33; 110.00; 5.20; 35.56
2019-02-09 14:45:45; 111.00; 5.19; 35.56
2019-02-09 14:45:58; 111.00; 5.19; 35.56
2019-02-09 15:00:11; 111.00; 5.19; 34.19
2019-02-09 15:00:24; 111.00; 5.19; 34.19
2019-02-09 15:00:36; 111.00; 5.19; 34.13
2019-02-09 15:00:49; 111.00; 5.19; 34.13
2019-02-09 15:15:03; 111.00; 5.19; 34.00
2019-02-09 15:15:15; 111.00; 5.19; 34.06
2019-02-09 15:15:28; 111.00; 5.19; 34.06
2019-02-09 15:15:40; 111.00; 5.19; 34.06
2019-02-09 15:15:52; 111.00; 5.19; 34.06
2019-02-09 15:30:06; 110.00; 5.20; 35.31
2019-02-09 15:30:19; 111.00; 5.19; 35.31
2019-02-09 15:30:31; 110.00; 5.20; 35.31
2019-02-09 15:30:43; 111.00; 5.19; 35.38
2019-02-09 15:30:56; 110.00; 5.20; 35.44
2019-02-09 15:45:10; 111.00; 5.19; 35.06
2019-02-09 15:45:22; 111.00; 5.19; 35.06
2019-02-09 15:45:35; 111.00; 5.19; 35.00
2019-02-09 15:45:47; 111.00; 5.19; 34.94
2019-02-09 15:46:00; 111.00; 5.19; 34.94
2019-02-09 16:00:02; 111.00; 5.19; 34.00
2019-02-09 16:00:14; 113.00; 5.17; 34.06
2019-02-09 16:00:27; 113.00; 5.17; 34.06
2019-02-09 16:00:39; 112.00; 5.18; 34.00
2019-02-09 16:00:52; 110.00; 5.20; 33.94
2019-02-09 16:15:06; 110.00; 5.20; 32.31
2019-02-09 16:15:18; 110.00; 5.20; 32.31
2019-02-09 16:15:31; 111.00; 5.18; 32.25
2019-02-09 16:15:43; 111.00; 5.19; 32.25
2019-02-09 16:15:55; 112.00; 5.18; 32.25
2019-02-09 16:30:09; 112.00; 5.18; 31.88
2019-02-09 16:30:22; 113.00; 5.17; 31.88
2019-02-09 16:30:34; 110.00; 5.20; 31.94
2019-02-09 16:30:47; 111.00; 5.20; 31.94
2019-02-09 16:30:59; 111.00; 5.19; 31.94
2019-02-09 16:45:02; 112.00; 5.18; 32.19
2019-02-09 16:45:14; 111.00; 5.19; 32.19
2019-02-09 16:45:27; 111.00; 5.19; 32.19
2019-02-09 16:45:39; 112.00; 5.18; 32.13
2019-02-09 16:45:52; 110.00; 5.20; 32.13
2019-02-09 17:00:06; 112.00; 5.18; 33.00
2019-02-09 17:00:18; 111.00; 5.19; 33.06
2019-02-09 17:00:31; 113.00; 5.17; 33.13
2019-02-09 17:00:43; 111.00; 5.19; 33.19
2019-02-09 17:00:56; 110.00; 5.20; 33.25
2019-02-09 17:15:10; 113.00; 5.17; 35.31
2019-02-09 17:15:22; 112.00; 5.18; 35.31
2019-02-09 17:15:35; 113.00; 5.17; 35.25
2019-02-09 17:15:47; 108.00; 5.22; 35.19
2019-02-09 17:16:00; 110.00; 5.21; 35.19
2019-02-09 17:30:02; 112.00; 5.18; 35.63
2019-02-09 17:30:14; 112.00; 5.18; 35.63
2019-02-09 17:30:27; 112.00; 5.18; 35.63
2019-02-09 17:30:39; 112.00; 5.18; 35.56
2019-02-09 17:30:52; 112.00; 5.18; 35.50
2019-02-09 17:45:06; 112.00; 5.18; 34.75
2019-02-09 17:45:18; 112.00; 5.18; 34.75
2019-02-09 17:45:31; 111.00; 5.19; 34.69
2019-02-09 17:45:43; 112.00; 5.18; 34.75
2019-02-09 17:45:56; 112.00; 5.18; 34.81
2019-02-09 18:00:09; 112.00; 5.19; 37.38
2019-02-09 18:00:22; 112.00; 5.18; 37.38
2019-02-09 18:00:34; 111.00; 5.19; 37.44
2019-02-09 18:00:47; 111.00; 5.19; 37.50
2019-02-09 18:00:59; 111.00; 5.19; 37.50
2019-02-09 18:15:02; 111.00; 5.19; 40.88
2019-02-09 18:15:14; 112.00; 5.18; 40.88
2019-02-09 18:15:26; 111.00; 5.19; 40.88
2019-02-09 18:15:39; 112.00; 5.18; 40.88
2019-02-09 18:15:51; 112.00; 5.18; 40.94
2019-02-09 18:30:05; 112.00; 5.18; 43.19
2019-02-09 18:30:17; 111.00; 5.19; 43.19
2019-02-09 18:30:30; 112.00; 5.18; 43.25
2019-02-09 18:30:42; 111.00; 5.19; 43.31
2019-02-09 18:30:55; 111.00; 5.19; 43.31
2019-02-09 18:45:08; 112.00; 5.18; 40.69
2019-02-09 18:45:20; 112.00; 5.18; 40.56
2019-02-09 18:45:33; 111.00; 5.19; 40.50
2019-02-09 18:45:45; 112.00; 5.18; 40.50
2019-02-09 18:45:58; 112.00; 5.18; 40.50
2019-02-09 19:00:11; 112.00; 5.18; 39.38
2019-02-09 19:00:24; 112.00; 5.18; 39.19
2019-02-09 19:00:36; 113.00; 5.17; 39.19
2019-02-09 19:00:49; 112.00; 5.18; 39.38
2019-02-09 19:15:02; 112.00; 5.18; 34.69
2019-02-09 19:15:15; 112.00; 5.18; 34.63
2019-02-09 19:15:27; 112.00; 5.18; 34.63
2019-02-09 19:15:40; 113.00; 5.17; 34.50
2019-02-09 19:15:52; 113.00; 5.17; 34.44
2019-02-09 19:30:06; 112.00; 5.18; 32.69
2019-02-09 19:30:18; 115.00; 5.16; 32.69
2019-02-09 19:30:31; 113.00; 5.18; 32.63
2019-02-09 19:30:43; 114.00; 5.16; 32.63
2019-02-09 19:30:56; 111.00; 5.19; 32.63
2019-02-09 19:45:10; 113.00; 5.17; 33.00
2019-02-09 19:45:22; 114.00; 5.16; 33.06
2019-02-09 19:45:35; 114.00; 5.16; 33.13
2019-02-09 19:45:47; 112.00; 5.18; 33.19
2019-02-09 19:46:00; 114.00; 5.16; 33.25
2019-02-09 20:00:02; 113.00; 5.17; 34.69
2019-02-09 20:00:15; 112.00; 5.18; 34.63
2019-02-09 20:00:27; 112.00; 5.18; 34.63
2019-02-09 20:00:39; 113.00; 5.17; 34.63
2019-02-09 20:00:52; 113.00; 5.17; 34.56
2019-02-09 20:15:06; 113.00; 5.17; 31.69
2019-02-09 20:15:18; 114.00; 5.17; 31.69
2019-02-09 20:15:31; 113.00; 5.17; 31.63
2019-02-09 20:15:43; 113.00; 5.17; 31.63
2019-02-09 20:15:56; 113.00; 5.17; 31.56
2019-02-09 20:30:10; 114.00; 5.16; 30.19
2019-02-09 20:30:22; 115.00; 5.16; 30.19
2019-02-09 20:30:35; 113.00; 5.17; 30.19
2019-02-09 20:30:47; 110.00; 5.20; 30.19
2019-02-09 20:31:00; 112.00; 5.18; 30.19
2019-02-09 20:45:02; 113.00; 5.17; 29.50
2019-02-09 20:45:15; 113.00; 5.18; 29.44
2019-02-09 20:45:27; 114.00; 5.16; 29.44
2019-02-09 20:45:40; 112.00; 5.18; 29.44
2019-02-09 20:45:52; 113.00; 5.17; 29.44
2019-02-09 21:00:06; 113.00; 5.17; 28.69
2019-02-09 21:00:19; 112.00; 5.17; 28.63
2019-02-09 21:00:31; 112.00; 5.18; 28.63
2019-02-09 21:00:44; 113.00; 5.17; 28.63
2019-02-09 21:00:56; 113.00; 5.17; 28.63
2019-02-09 21:15:11; 115.00; 5.15; 27.88
2019-02-09 21:15:23; 112.00; 5.18; 27.81
2019-02-09 21:15:36; 114.00; 5.16; 27.81
2019-02-09 21:15:48; 115.00; 5.15; 27.81
2019-02-09 21:16:00; 113.00; 5.17; 27.81
2019-02-09 21:30:03; 113.00; 5.17; 27.19
2019-02-09 21:30:16; 114.00; 5.16; 27.19
2019-02-09 21:30:28; 114.00; 5.16; 27.19
2019-02-09 21:30:41; 113.00; 5.17; 27.19
2019-02-09 21:30:53; 115.00; 5.15; 27.19
2019-02-09 21:45:08; 113.00; 5.17; 27.25
2019-02-09 21:45:20; 113.00; 5.17; 27.25
2019-02-09 21:45:32; 114.00; 5.16; 27.25
2019-02-09 21:45:45; 114.00; 5.16; 27.25
2019-02-09 21:45:57; 113.00; 5.16; 27.25
2019-02-09 22:00:12; 115.00; 5.15; 27.19
2019-02-09 22:00:24; 113.00; 5.17; 27.19
2019-02-09 22:00:37; 113.00; 5.17; 27.19
2019-02-09 22:00:49; 112.00; 5.18; 27.19
2019-02-09 22:15:03; 114.00; 5.16; 27.06
2019-02-09 22:15:16; 114.00; 5.16; 27.06
2019-02-09 22:15:28; 113.00; 5.17; 27.06
2019-02-09 22:15:41; 113.00; 5.17; 27.06
2019-02-09 22:15:53; 114.00; 5.16; 27.06
2019-02-09 22:30:08; 114.00; 5.16; 26.94
2019-02-09 22:30:20; 114.00; 5.16; 26.94
2019-02-09 22:30:32; 114.00; 5.16; 26.94
2019-02-09 22:30:45; 114.00; 5.16; 26.94
2019-02-09 22:30:57; 114.00; 5.16; 26.94
2019-02-09 22:45:12; 114.00; 5.16; 26.88
2019-02-09 22:45:24; 114.00; 5.16; 26.88
2019-02-09 22:45:37; 114.00; 5.16; 26.81
2019-02-09 22:45:49; 114.00; 5.16; 26.81
2019-02-09 23:00:03; 114.00; 5.16; 26.69
2019-02-09 23:00:16; 114.00; 5.16; 26.69
2019-02-09 23:00:28; 114.00; 5.16; 26.69
2019-02-09 23:00:41; 114.00; 5.16; 26.75
2019-02-09 23:00:53; 114.00; 5.16; 26.69
2019-02-09 23:15:07; 114.00; 5.16; 26.75
2019-02-09 23:15:20; 114.00; 5.16; 26.75
2019-02-09 23:15:32; 114.00; 5.16; 26.75
2019-02-09 23:15:45; 113.00; 5.17; 26.75
2019-02-09 23:15:57; 115.00; 5.15; 26.75
2019-02-09 23:30:11; 114.00; 5.16; 26.75
2019-02-09 23:30:24; 114.00; 5.16; 26.75
2019-02-09 23:30:36; 115.00; 5.16; 26.75
2019-02-09 23:30:49; 114.00; 5.16; 26.75
2019-02-09 23:45:03; 114.00; 5.16; 26.75
2019-02-09 23:45:16; 114.00; 5.16; 26.75
2019-02-09 23:45:28; 115.00; 5.15; 26.75
2019-02-09 23:45:41; 115.00; 5.15; 26.75
2019-02-09 23:45:53; 115.00; 5.15; 26.75
