2019-08-26 00:00:07; 409.00; 2.21; 14.81
2019-08-26 00:00:20; 419.00; 2.11; 14.75
2019-08-26 00:00:32; 418.00; 2.12; 14.81
2019-08-26 00:00:45; 418.00; 2.12; 14.75
2019-08-26 00:00:57; 419.00; 2.11; 14.81
2019-08-26 00:30:08; 408.00; 2.22; 14.81
2019-08-26 00:30:21; 408.00; 2.23; 14.88
2019-08-26 00:30:33; 407.00; 2.23; 14.88
2019-08-26 00:30:46; 406.00; 2.24; 14.88
2019-08-26 00:30:58; 407.00; 2.23; 14.88
2019-08-26 00:45:02; 407.00; 2.23; 15.00
2019-08-26 00:45:14; 407.00; 2.23; 15.00
2019-08-26 00:45:27; 407.00; 2.23; 15.00
2019-08-26 00:45:39; 407.00; 2.23; 15.00
2019-08-26 00:45:51; 409.00; 2.21; 15.00
2019-08-26 01:00:06; 407.00; 2.23; 15.13
2019-08-26 01:00:19; 407.00; 2.23; 15.13
2019-08-26 01:00:31; 408.00; 2.22; 15.13
2019-08-26 01:00:43; 407.00; 2.23; 15.13
2019-08-26 01:00:56; 415.00; 2.15; 15.13
2019-08-26 01:15:10; 407.00; 2.24; 15.00
2019-08-26 01:15:23; 407.00; 2.23; 15.00
2019-08-26 01:15:35; 407.00; 2.23; 15.00
2019-08-26 01:15:48; 407.00; 2.23; 15.00
2019-08-26 01:16:00; 408.00; 2.22; 15.00
2019-08-26 01:30:04; 405.00; 2.25; 14.94
2019-08-26 01:30:16; 405.00; 2.25; 14.88
2019-08-26 01:30:29; 405.00; 2.25; 14.88
2019-08-26 01:30:41; 406.00; 2.25; 14.94
2019-08-26 01:30:53; 405.00; 2.25; 14.94
2019-08-26 01:45:08; 406.00; 2.24; 14.94
2019-08-26 01:45:20; 406.00; 2.24; 14.94
2019-08-26 01:45:33; 406.00; 2.24; 14.94
2019-08-26 01:45:45; 406.00; 2.24; 14.94
2019-08-26 01:45:58; 407.00; 2.23; 14.94
2019-08-26 02:00:01; 407.00; 2.23; 15.00
2019-08-26 02:00:13; 407.00; 2.23; 15.00
2019-08-26 02:00:26; 406.00; 2.24; 15.00
2019-08-26 02:00:38; 407.00; 2.23; 15.00
2019-08-26 02:00:51; 407.00; 2.23; 15.00
2019-08-26 02:15:05; 406.00; 2.24; 15.06
2019-08-26 02:15:17; 407.00; 2.24; 15.06
2019-08-26 02:15:30; 406.00; 2.24; 15.06
2019-08-26 02:15:42; 406.00; 2.25; 15.06
2019-08-26 02:15:55; 406.00; 2.24; 15.06
2019-08-26 02:30:09; 406.00; 2.24; 15.00
2019-08-26 02:30:21; 406.00; 2.24; 15.00
2019-08-26 02:30:34; 406.00; 2.24; 15.00
2019-08-26 02:30:46; 406.00; 2.24; 15.00
2019-08-26 02:30:59; 406.00; 2.24; 15.00
2019-08-26 02:45:02; 407.00; 2.24; 15.00
2019-08-26 02:45:14; 406.00; 2.24; 15.00
2019-08-26 02:45:27; 407.00; 2.23; 15.00
2019-08-26 02:45:39; 406.00; 2.24; 15.00
2019-08-26 02:45:52; 405.00; 2.25; 15.00
2019-08-26 03:00:06; 406.00; 2.24; 15.00
2019-08-26 03:00:19; 406.00; 2.24; 15.00
2019-08-26 03:00:31; 406.00; 2.23; 15.00
2019-08-26 03:00:44; 406.00; 2.24; 15.00
2019-08-26 03:00:56; 406.00; 2.24; 15.00
2019-08-26 03:15:11; 407.00; 2.24; 15.00
2019-08-26 03:15:23; 406.00; 2.24; 15.00
2019-08-26 03:15:36; 407.00; 2.24; 15.00
2019-08-26 03:15:48; 406.00; 2.24; 15.00
2019-08-26 03:30:03; 407.00; 2.23; 14.94
2019-08-26 03:30:15; 407.00; 2.23; 14.94
2019-08-26 03:30:28; 406.00; 2.24; 14.94
2019-08-26 03:30:40; 406.00; 2.24; 14.94
2019-08-26 03:30:53; 406.00; 2.23; 14.94
2019-08-26 03:45:08; 407.00; 2.23; 15.00
2019-08-26 03:45:20; 407.00; 2.23; 15.00
2019-08-26 03:45:33; 406.00; 2.24; 15.00
2019-08-26 03:45:45; 406.00; 2.24; 15.00
2019-08-26 03:45:58; 407.00; 2.23; 15.00
2019-08-26 04:00:01; 406.00; 2.24; 15.00
2019-08-26 04:00:14; 406.00; 2.24; 15.00
2019-08-26 04:00:26; 406.00; 2.24; 15.00
2019-08-26 04:00:39; 407.00; 2.23; 15.00
2019-08-26 04:00:51; 406.00; 2.24; 15.00
2019-08-26 04:15:06; 407.00; 2.23; 14.94
2019-08-26 04:15:19; 406.00; 2.24; 14.94
2019-08-26 04:15:31; 407.00; 2.23; 14.94
2019-08-26 04:15:44; 407.00; 2.23; 14.94
2019-08-26 04:15:56; 406.00; 2.24; 14.94
2019-08-26 04:30:11; 407.00; 2.23; 15.00
2019-08-26 04:30:24; 406.00; 2.24; 15.00
2019-08-26 04:30:37; 406.00; 2.24; 15.00
2019-08-26 04:30:49; 407.00; 2.23; 14.94
2019-08-26 04:45:04; 407.00; 2.23; 14.88
2019-08-26 04:45:17; 407.00; 2.23; 14.88
2019-08-26 04:45:29; 407.00; 2.23; 14.88
2019-08-26 04:45:42; 407.00; 2.23; 14.88
2019-08-26 04:45:54; 407.00; 2.23; 14.88
2019-08-26 05:00:09; 407.00; 2.23; 14.75
2019-08-26 05:00:22; 407.00; 2.23; 14.75
2019-08-26 05:00:34; 406.00; 2.24; 14.75
2019-08-26 05:00:47; 407.00; 2.23; 14.75
2019-08-26 05:00:59; 407.00; 2.23; 14.75
2019-08-26 05:15:03; 407.00; 2.23; 14.75
2019-08-26 05:15:15; 407.00; 2.23; 14.75
2019-08-26 05:15:28; 407.00; 2.23; 14.75
2019-08-26 05:15:40; 407.00; 2.23; 14.75
2019-08-26 05:15:53; 407.00; 2.23; 14.75
2019-08-26 05:30:08; 407.00; 2.23; 14.63
2019-08-26 05:30:21; 407.00; 2.23; 14.56
2019-08-26 05:30:33; 407.00; 2.23; 14.63
2019-08-26 05:30:45; 407.00; 2.23; 14.63
2019-08-26 05:30:58; 407.00; 2.23; 14.63
2019-08-26 05:45:02; 407.00; 2.23; 14.50
2019-08-26 05:45:14; 407.00; 2.23; 14.50
2019-08-26 05:45:27; 407.00; 2.23; 14.50
2019-08-26 05:45:39; 406.00; 2.23; 14.50
2019-08-26 05:45:52; 407.00; 2.23; 14.50
2019-08-26 06:00:07; 407.00; 2.23; 14.38
2019-08-26 06:00:19; 407.00; 2.23; 14.38
2019-08-26 06:00:32; 407.00; 2.23; 14.38
2019-08-26 06:00:44; 407.00; 2.23; 14.38
2019-08-26 06:00:57; 407.00; 2.23; 14.38
2019-08-26 06:15:12; 407.00; 2.23; 14.31
2019-08-26 06:15:24; 407.00; 2.23; 14.31
2019-08-26 06:15:37; 407.00; 2.23; 14.31
2019-08-26 06:15:49; 407.00; 2.23; 14.31
2019-08-26 06:30:04; 407.00; 2.23; 14.25
2019-08-26 06:30:17; 407.00; 2.23; 14.25
2019-08-26 06:30:29; 407.00; 2.23; 14.25
2019-08-26 06:30:42; 407.00; 2.23; 14.25
2019-08-26 06:30:54; 407.00; 2.23; 14.25
2019-08-26 06:45:08; 407.00; 2.23; 14.13
2019-08-26 06:45:21; 407.00; 2.23; 14.13
2019-08-26 06:45:33; 407.00; 2.23; 14.13
2019-08-26 06:45:46; 407.00; 2.23; 14.13
2019-08-26 06:45:58; 407.00; 2.23; 14.13
2019-08-26 07:00:12; 407.00; 2.23; 14.06
2019-08-26 07:00:24; 407.00; 2.23; 14.06
2019-08-26 07:00:37; 407.00; 2.23; 14.06
2019-08-26 07:00:49; 407.00; 2.23; 14.06
2019-08-26 07:15:04; 407.00; 2.23; 14.06
2019-08-26 07:15:16; 407.00; 2.23; 14.06
2019-08-26 07:15:29; 407.00; 2.23; 14.06
2019-08-26 07:15:41; 407.00; 2.23; 14.06
2019-08-26 07:15:54; 407.00; 2.23; 14.06
2019-08-26 07:30:08; 407.00; 2.23; 14.13
2019-08-26 07:30:20; 407.00; 2.23; 14.13
2019-08-26 07:30:33; 407.00; 2.23; 14.13
2019-08-26 07:30:45; 407.00; 2.23; 14.13
2019-08-26 07:30:57; 407.00; 2.23; 14.13
2019-08-26 07:45:12; 407.00; 2.23; 14.00
2019-08-26 07:45:24; 407.00; 2.23; 14.00
2019-08-26 07:45:37; 407.00; 2.23; 14.00
2019-08-26 07:45:49; 407.00; 2.23; 14.00
2019-08-26 08:00:04; 407.00; 2.23; 14.00
2019-08-26 08:00:17; 407.00; 2.23; 13.94
2019-08-26 08:00:29; 407.00; 2.23; 13.94
2019-08-26 08:00:42; 407.00; 2.23; 13.94
2019-08-26 08:00:54; 407.00; 2.23; 13.94
2019-08-26 08:15:09; 407.00; 2.23; 14.00
2019-08-26 08:15:21; 407.00; 2.23; 14.00
2019-08-26 08:15:34; 407.00; 2.23; 14.00
2019-08-26 08:15:46; 407.00; 2.23; 14.00
2019-08-26 08:15:59; 407.00; 2.23; 14.00
2019-08-26 08:30:02; 407.00; 2.23; 13.94
2019-08-26 08:30:15; 407.00; 2.23; 13.94
2019-08-26 08:30:27; 407.00; 2.23; 14.00
2019-08-26 08:30:40; 407.00; 2.23; 14.00
2019-08-26 08:30:52; 407.00; 2.23; 14.00
2019-08-26 08:45:07; 408.00; 2.22; 13.94
2019-08-26 08:45:19; 408.00; 2.22; 13.94
2019-08-26 08:45:32; 408.00; 2.22; 13.94
2019-08-26 08:45:44; 408.00; 2.22; 13.94
2019-08-26 08:45:57; 762.00; -1.32; 13.94
2019-08-26 09:00:01; 761.00; -1.31; 13.81
2019-08-26 09:00:14; 761.00; -1.31; 13.81
2019-08-26 09:00:26; 761.00; -1.31; 13.81
2019-08-26 09:00:39; 762.00; -1.32; 13.81
2019-08-26 09:00:51; 762.00; -1.32; 13.81
2019-08-26 09:15:07; 762.00; -1.32; 13.81
2019-08-26 09:15:20; 760.00; -1.30; 13.81
2019-08-26 09:15:32; 760.00; -1.30; 13.81
2019-08-26 09:15:44; 760.00; -1.30; 13.81
2019-08-26 09:15:57; 760.00; -1.30; 13.81
2019-08-26 09:30:01; 762.00; -1.32; 14.06
2019-08-26 09:30:14; 762.00; -1.32; 14.06
2019-08-26 09:30:26; 762.00; -1.32; 14.06
2019-08-26 09:30:39; 762.00; -1.32; 14.06
2019-08-26 09:30:51; 762.00; -1.32; 14.06
2019-08-26 09:45:06; 762.00; -1.32; 14.38
2019-08-26 09:45:18; 762.00; -1.32; 14.38
2019-08-26 09:45:31; 762.00; -1.32; 14.38
2019-08-26 09:45:43; 762.00; -1.32; 14.38
2019-08-26 09:45:56; 762.00; -1.32; 14.38
2019-08-26 10:00:11; 762.00; -1.32; 15.00
2019-08-26 10:00:24; 762.00; -1.32; 15.00
2019-08-26 10:00:36; 762.00; -1.32; 15.06
2019-08-26 10:00:49; 762.00; -1.32; 15.06
2019-08-26 10:15:03; 762.00; -1.32; 17.06
2019-08-26 10:15:16; 762.00; -1.32; 17.06
2019-08-26 10:15:28; 762.00; -1.32; 17.19
2019-08-26 10:15:41; 762.00; -1.32; 17.19
2019-08-26 10:15:53; 762.00; -1.32; 17.13
2019-08-26 10:30:08; 762.00; -1.32; 18.13
2019-08-26 10:30:21; 762.00; -1.32; 18.06
2019-08-26 10:30:33; 762.00; -1.32; 18.13
2019-08-26 10:30:46; 762.00; -1.32; 18.13
2019-08-26 10:30:58; 762.00; -1.32; 18.13
2019-08-26 10:45:02; 762.00; -1.32; 19.06
2019-08-26 10:45:14; 762.00; -1.32; 19.13
2019-08-26 10:45:27; 762.00; -1.32; 19.13
2019-08-26 10:45:39; 762.00; -1.32; 19.19
2019-08-26 10:45:52; 762.00; -1.32; 19.25
2019-08-26 11:00:07; 762.00; -1.32; 19.13
2019-08-26 11:00:19; 762.00; -1.32; 19.13
2019-08-26 11:00:32; 762.00; -1.32; 19.06
2019-08-26 11:00:44; 762.00; -1.32; 19.00
2019-08-26 11:00:57; 762.00; -1.32; 19.00
2019-08-26 11:15:12; 762.00; -1.32; 18.00
2019-08-26 11:15:24; 762.00; -1.32; 18.06
2019-08-26 11:15:37; 762.00; -1.32; 18.06
2019-08-26 11:15:49; 762.00; -1.32; 18.06
2019-08-26 11:30:05; 405.00; 2.25; 18.38
2019-08-26 11:30:17; 405.00; 2.25; 18.38
2019-08-26 11:30:30; 405.00; 2.25; 18.38
2019-08-26 11:30:42; 405.00; 2.25; 18.38
2019-08-26 11:30:55; 405.00; 2.25; 18.38
2019-08-26 11:45:10; 405.00; 2.25; 19.13
2019-08-26 11:45:22; 405.00; 2.25; 19.13
2019-08-26 11:45:34; 405.00; 2.25; 19.13
2019-08-26 11:45:47; 405.00; 2.25; 19.13
2019-08-26 11:45:59; 405.00; 2.25; 19.13
2019-08-26 12:00:03; 404.00; 2.26; 19.75
2019-08-26 12:00:15; 404.00; 2.26; 19.81
2019-08-26 12:00:28; 404.00; 2.26; 19.88
2019-08-26 12:00:40; 404.00; 2.26; 20.00
2019-08-26 12:00:53; 404.00; 2.26; 20.13
2019-08-26 12:15:07; 404.00; 2.26; 21.31
2019-08-26 12:15:20; 404.00; 2.26; 21.31
2019-08-26 12:15:32; 404.00; 2.26; 21.38
2019-08-26 12:15:45; 404.00; 2.26; 21.44
2019-08-26 12:15:57; 404.00; 2.26; 21.50
2019-08-26 12:30:12; 404.00; 2.26; 22.56
2019-08-26 12:30:24; 404.00; 2.26; 22.63
2019-08-26 12:30:37; 404.00; 2.26; 22.69
2019-08-26 12:30:49; 404.00; 2.26; 22.75
2019-08-26 12:45:03; 404.00; 2.26; 24.38
2019-08-26 12:45:16; 404.00; 2.26; 24.44
2019-08-26 12:45:28; 404.00; 2.26; 24.44
2019-08-26 12:45:41; 404.00; 2.26; 24.44
2019-08-26 12:45:53; 404.00; 2.26; 24.44
2019-08-26 13:00:08; 407.00; 2.23; 22.25
2019-08-26 13:00:20; 407.00; 2.23; 22.25
2019-08-26 13:00:33; 407.00; 2.23; 22.19
2019-08-26 13:00:45; 407.00; 2.23; 22.19
2019-08-26 13:00:57; 407.00; 2.23; 22.19
2019-08-26 13:15:01; 404.00; 2.26; 21.44
2019-08-26 13:15:13; 404.00; 2.26; 21.44
2019-08-26 13:15:26; 404.00; 2.26; 21.44
2019-08-26 13:15:38; 404.00; 2.26; 21.38
2019-08-26 13:15:51; 404.00; 2.26; 21.44
2019-08-26 13:30:05; 404.00; 2.26; 22.50
2019-08-26 13:30:18; 404.00; 2.26; 22.50
2019-08-26 13:30:30; 404.00; 2.26; 22.56
2019-08-26 13:30:43; 403.00; 2.27; 22.56
2019-08-26 13:30:55; 403.00; 2.27; 22.63
2019-08-26 13:45:10; 403.00; 2.27; 22.94
2019-08-26 13:45:22; 403.00; 2.27; 22.94
2019-08-26 13:45:35; 403.00; 2.27; 23.00
2019-08-26 13:45:47; 403.00; 2.27; 23.00
2019-08-26 13:46:00; 403.00; 2.27; 23.00
2019-08-26 14:00:03; 403.00; 2.27; 22.63
2019-08-26 14:00:15; 403.00; 2.27; 22.69
2019-08-26 14:00:28; 403.00; 2.27; 22.69
2019-08-26 14:00:40; 403.00; 2.27; 22.69
2019-08-26 14:00:53; 403.00; 2.27; 22.75
2019-08-26 14:15:07; 403.00; 2.27; 23.31
2019-08-26 14:15:20; 403.00; 2.27; 23.31
2019-08-26 14:15:32; 403.00; 2.27; 23.38
2019-08-26 14:15:45; 403.00; 2.27; 23.44
2019-08-26 14:15:57; 403.00; 2.27; 23.44
2019-08-26 14:30:11; 402.00; 2.28; 25.94
2019-08-26 14:30:24; 402.00; 2.28; 26.00
2019-08-26 14:30:36; 402.00; 2.28; 26.00
2019-08-26 14:30:49; 403.00; 2.27; 26.00
2019-08-26 14:45:03; 403.00; 2.27; 26.00
2019-08-26 14:45:16; 403.00; 2.27; 26.00
2019-08-26 14:45:28; 402.00; 2.28; 26.00
2019-08-26 14:45:41; 402.00; 2.28; 26.00
2019-08-26 14:45:53; 402.00; 2.28; 26.06
2019-08-26 15:00:07; 402.00; 2.28; 27.50
2019-08-26 15:00:20; 403.00; 2.27; 27.44
2019-08-26 15:00:32; 402.00; 2.28; 27.44
2019-08-26 15:00:45; 403.00; 2.27; 27.44
2019-08-26 15:00:57; 402.00; 2.28; 27.56
2019-08-26 15:15:11; 403.00; 2.27; 26.69
2019-08-26 15:15:24; 403.00; 2.27; 26.69
2019-08-26 15:15:36; 403.00; 2.27; 26.63
2019-08-26 15:15:49; 403.00; 2.27; 26.44
2019-08-26 15:30:03; 402.00; 2.28; 25.75
2019-08-26 15:30:15; 403.00; 2.27; 25.69
2019-08-26 15:30:27; 402.00; 2.28; 25.69
2019-08-26 15:30:40; 402.00; 2.28; 25.69
2019-08-26 15:30:52; 402.00; 2.28; 25.69
2019-08-26 15:45:07; 401.00; 2.29; 27.13
2019-08-26 15:45:19; 402.00; 2.28; 27.19
2019-08-26 15:45:32; 402.00; 2.28; 27.19
2019-08-26 15:45:44; 401.00; 2.29; 27.13
2019-08-26 15:45:57; 401.00; 2.29; 27.25
2019-08-26 16:00:11; 401.00; 2.29; 28.25
2019-08-26 16:00:23; 404.00; 2.26; 28.38
2019-08-26 16:00:36; 402.00; 2.28; 28.44
2019-08-26 16:00:48; 402.00; 2.28; 28.56
2019-08-26 16:15:02; 402.00; 2.29; 28.75
2019-08-26 16:15:15; 402.00; 2.28; 28.88
2019-08-26 16:15:27; 401.00; 2.29; 28.94
2019-08-26 16:15:40; 401.00; 2.29; 28.88
2019-08-26 16:15:52; 401.00; 2.29; 28.81
2019-08-26 16:30:06; 401.00; 2.29; 29.94
2019-08-26 16:30:19; 401.00; 2.29; 30.00
2019-08-26 16:30:31; 402.00; 2.28; 30.00
2019-08-26 16:30:43; 402.00; 2.28; 30.00
2019-08-26 16:30:56; 401.00; 2.29; 30.00
2019-08-26 16:45:10; 401.00; 2.29; 30.63
2019-08-26 16:45:22; 401.00; 2.29; 30.69
2019-08-26 16:45:35; 401.00; 2.29; 30.69
2019-08-26 16:45:47; 762.00; -1.32; 30.63
2019-08-26 16:46:00; 402.00; 2.28; 30.50
2019-08-26 17:00:02; 402.00; 2.28; 30.00
2019-08-26 17:00:14; 402.00; 2.28; 29.88
2019-08-26 17:00:27; 402.00; 2.28; 29.81
2019-08-26 17:00:39; 402.00; 2.28; 29.75
2019-08-26 17:00:52; 402.00; 2.28; 29.75
2019-08-26 17:15:06; 402.00; 2.28; 29.63
2019-08-26 17:15:18; 402.00; 2.28; 29.50
2019-08-26 17:15:31; 402.00; 2.28; 29.44
2019-08-26 17:15:43; 402.00; 2.28; 29.38
2019-08-26 17:15:55; 402.00; 2.28; 29.38
2019-08-26 17:30:10; 762.00; -1.32; 26.25
2019-08-26 17:30:22; 762.00; -1.32; 26.19
2019-08-26 17:30:34; 762.00; -1.32; 26.19
2019-08-26 17:30:47; 762.00; -1.32; 26.19
2019-08-26 17:30:59; 762.00; -1.32; 26.06
2019-08-26 17:45:02; 401.00; 2.29; 29.69
2019-08-26 17:45:15; 401.00; 2.29; 29.81
2019-08-26 17:45:27; 401.00; 2.29; 29.94
2019-08-26 17:45:40; 401.00; 2.29; 30.00
2019-08-26 17:45:52; 401.00; 2.29; 30.00
2019-08-26 18:00:06; 401.00; 2.29; 30.06
2019-08-26 18:00:18; 401.00; 2.29; 30.06
2019-08-26 18:00:31; 401.00; 2.29; 30.06
2019-08-26 18:00:43; 401.00; 2.29; 30.00
2019-08-26 18:00:56; 401.00; 2.29; 30.00
2019-08-26 18:15:10; 402.00; 2.28; 30.56
2019-08-26 18:15:22; 402.00; 2.28; 30.56
2019-08-26 18:15:35; 402.00; 2.28; 30.56
2019-08-26 18:15:47; 401.00; 2.29; 30.44
2019-08-26 18:15:59; 402.00; 2.28; 30.38
2019-08-26 18:30:02; 402.00; 2.28; 30.00
2019-08-26 18:30:14; 401.00; 2.29; 30.06
2019-08-26 18:30:27; 401.00; 2.29; 30.00
2019-08-26 18:30:39; 401.00; 2.29; 29.94
2019-08-26 18:30:52; 401.00; 2.29; 30.00
2019-08-26 18:45:06; 402.00; 2.28; 29.69
2019-08-26 18:45:19; 402.00; 2.28; 29.69
2019-08-26 18:45:31; 402.00; 2.28; 29.69
2019-08-26 18:45:44; 401.00; 2.29; 29.63
2019-08-26 18:45:56; 401.00; 2.29; 29.56
2019-08-26 19:00:10; 402.00; 2.28; 28.13
2019-08-26 19:00:22; 402.00; 2.28; 28.06
2019-08-26 19:00:35; 402.00; 2.28; 28.13
2019-08-26 19:00:47; 402.00; 2.28; 28.19
2019-08-26 19:01:00; 402.00; 2.28; 28.13
2019-08-26 19:15:02; 762.00; -1.32; 25.81
2019-08-26 19:15:15; 762.00; -1.32; 25.69
2019-08-26 19:15:27; 762.00; -1.32; 25.63
2019-08-26 19:15:40; 762.00; -1.32; 25.56
2019-08-26 19:15:52; 762.00; -1.32; 25.50
2019-08-26 19:30:07; 762.00; -1.32; 22.50
2019-08-26 19:30:19; 762.00; -1.32; 22.44
2019-08-26 19:30:32; 762.00; -1.32; 22.44
2019-08-26 19:30:44; 762.00; -1.32; 22.44
2019-08-26 19:30:56; 762.00; -1.32; 22.44
2019-08-26 19:45:11; 762.00; -1.32; 22.38
2019-08-26 19:45:24; 762.00; -1.32; 22.38
2019-08-26 19:45:36; 762.00; -1.32; 22.38
2019-08-26 19:45:49; 762.00; -1.32; 22.38
2019-08-26 20:00:03; 762.00; -1.32; 21.38
2019-08-26 20:00:16; 762.00; -1.32; 21.38
2019-08-26 20:00:28; 762.00; -1.32; 21.38
2019-08-26 20:00:41; 762.00; -1.32; 21.38
2019-08-26 20:00:53; 762.00; -1.32; 21.38
2019-08-26 20:15:08; 762.00; -1.32; 20.69
2019-08-26 20:15:20; 762.00; -1.32; 20.69
2019-08-26 20:15:33; 762.00; -1.32; 20.69
2019-08-26 20:15:45; 762.00; -1.32; 20.69
2019-08-26 20:15:58; 762.00; -1.32; 20.69
2019-08-26 20:30:01; 762.00; -1.32; 20.13
2019-08-26 20:30:14; 762.00; -1.32; 20.13
2019-08-26 20:30:26; 762.00; -1.32; 20.13
2019-08-26 20:30:39; 762.00; -1.32; 20.13
2019-08-26 20:30:51; 762.00; -1.32; 20.06
2019-08-26 20:45:06; 406.00; 2.24; 19.81
2019-08-26 20:45:18; 406.00; 2.24; 19.88
2019-08-26 20:45:31; 406.00; 2.24; 19.88
2019-08-26 20:45:43; 406.00; 2.24; 19.81
2019-08-26 20:45:56; 406.00; 2.24; 19.81
2019-08-26 21:00:11; 406.00; 2.24; 19.81
2019-08-26 21:00:23; 406.00; 2.24; 19.81
2019-08-26 21:00:36; 406.00; 2.24; 19.81
2019-08-26 21:00:48; 406.00; 2.24; 19.81
2019-08-26 21:01:00; 406.00; 2.24; 19.81
2019-08-26 21:15:04; 406.00; 2.24; 19.88
2019-08-26 21:15:16; 406.00; 2.24; 19.88
2019-08-26 21:15:29; 406.00; 2.24; 19.88
2019-08-26 21:15:41; 406.00; 2.24; 19.88
2019-08-26 21:15:54; 406.00; 2.24; 19.88
2019-08-26 21:30:08; 406.00; 2.24; 19.88
2019-08-26 21:30:21; 406.00; 2.24; 19.88
2019-08-26 21:30:33; 406.00; 2.24; 19.88
2019-08-26 21:30:46; 406.00; 2.24; 19.88
2019-08-26 21:30:58; 406.00; 2.24; 19.88
2019-08-26 21:45:02; 406.00; 2.24; 19.88
2019-08-26 21:45:14; 406.00; 2.24; 19.88
2019-08-26 21:45:27; 406.00; 2.24; 19.88
2019-08-26 21:45:39; 406.00; 2.24; 19.88
2019-08-26 21:45:52; 406.00; 2.24; 19.88
2019-08-26 22:00:06; 406.00; 2.24; 19.69
2019-08-26 22:00:19; 406.00; 2.24; 19.69
2019-08-26 22:00:31; 406.00; 2.24; 19.69
2019-08-26 22:00:44; 406.00; 2.24; 19.69
2019-08-26 22:00:56; 406.00; 2.24; 19.69
2019-08-26 22:15:02; 0.00; 6.30; 18.81
2019-08-26 22:15:15; 0.00; 6.30; 18.81
2019-08-26 22:15:27; 0.00; 6.30; 18.81
2019-08-26 22:15:40; 0.00; 6.30; 18.75
2019-08-26 22:15:52; 0.00; 6.30; 18.75
2019-08-26 22:30:10; 0.00; 6.30; 17.75
2019-08-26 22:30:22; 0.00; 6.30; 17.69
2019-08-26 22:30:35; 0.00; 6.30; 17.69
2019-08-26 22:30:47; 0.00; 6.30; 17.69
2019-08-26 22:31:00; 0.00; 6.30; 17.69
2019-08-26 22:45:05; 762.00; -1.32; 17.06
2019-08-26 22:45:17; 762.00; -1.32; 17.06
2019-08-26 22:45:30; 762.00; -1.32; 17.06
2019-08-26 22:45:42; 762.00; -1.32; 17.06
2019-08-26 22:45:55; 762.00; -1.32; 17.00
2019-08-26 23:00:10; 762.00; -1.32; 16.81
2019-08-26 23:00:22; 762.00; -1.32; 16.81
2019-08-26 23:00:35; 762.00; -1.32; 16.81
2019-08-26 23:00:47; 762.00; -1.32; 16.88
2019-08-26 23:01:00; 762.00; -1.32; 16.88
2019-08-26 23:15:03; 762.00; -1.32; 16.63
2019-08-26 23:15:16; 762.00; -1.32; 16.63
2019-08-26 23:15:28; 762.00; -1.32; 16.63
2019-08-26 23:15:41; 762.00; -1.32; 16.63
2019-08-26 23:15:53; 762.00; -1.32; 16.63
2019-08-26 23:30:08; 762.00; -1.32; 16.63
2019-08-26 23:30:21; 762.00; -1.32; 16.63
2019-08-26 23:30:33; 762.00; -1.32; 16.63
2019-08-26 23:30:46; 762.00; -1.32; 16.63
2019-08-26 23:30:58; 762.00; -1.32; 16.69
2019-08-26 23:45:03; 0.00; 6.30; 16.63
2019-08-26 23:45:15; 0.00; 6.30; 16.63
2019-08-26 23:45:28; 0.00; 6.30; 16.56
2019-08-26 23:45:40; 0.00; 6.30; 16.56
2019-08-26 23:45:53; 0.00; 6.30; 16.63
