2019-02-26 00:00:08; 244.00; 3.90; 20.13
2019-02-26 00:00:20; 239.00; 3.88; 20.13
2019-02-26 00:00:33; 244.00; 3.86; 20.13
2019-02-26 00:00:45; 234.00; 3.96; 20.13
2019-02-26 00:00:58; 244.00; 3.86; 20.13
2019-02-26 00:15:01; 234.00; 3.96; 19.81
2019-02-26 00:15:14; 234.00; 3.96; 19.81
2019-02-26 00:15:26; 234.00; 3.96; 19.81
2019-02-26 00:15:39; 235.00; 3.95; 19.81
2019-02-26 00:15:51; 234.00; 3.90; 19.81
2019-02-26 00:30:06; 236.00; 3.94; 19.63
2019-02-26 00:30:18; 242.00; 3.88; 19.63
2019-02-26 00:30:31; 234.00; 3.95; 19.63
2019-02-26 00:30:43; 243.00; 3.87; 19.56
2019-02-26 00:30:56; 236.00; 3.91; 19.63
2019-02-26 00:45:10; 234.00; 3.96; 19.31
2019-02-26 00:45:23; 234.00; 3.96; 19.31
2019-02-26 00:45:35; 234.00; 3.96; 19.31
2019-02-26 00:45:48; 234.00; 3.96; 19.31
2019-02-26 00:46:00; 234.00; 3.93; 19.31
2019-02-26 01:00:04; 238.00; 3.92; 19.06
2019-02-26 01:00:16; 245.00; 3.85; 19.06
2019-02-26 01:00:29; 234.00; 3.96; 19.06
2019-02-26 01:00:41; 235.00; 3.95; 19.00
2019-02-26 01:00:53; 245.00; 3.85; 19.00
2019-02-26 01:15:08; 255.00; 3.76; 19.13
2019-02-26 01:15:21; 245.00; 3.85; 19.13
2019-02-26 01:15:33; 235.00; 3.94; 19.13
2019-02-26 01:15:45; 242.00; 3.89; 19.13
2019-02-26 01:15:58; 245.00; 3.83; 19.13
2019-02-26 01:30:01; 236.00; 3.94; 19.13
2019-02-26 01:30:14; 252.00; 3.78; 19.13
2019-02-26 01:30:26; 243.00; 3.87; 19.13
2019-02-26 01:30:39; 251.00; 3.79; 19.13
2019-02-26 01:30:51; 246.00; 3.84; 19.06
2019-02-26 01:45:06; 244.00; 3.86; 19.00
2019-02-26 01:45:18; 245.00; 3.85; 19.00
2019-02-26 01:45:31; 239.00; 3.91; 19.00
2019-02-26 01:45:43; 242.00; 3.88; 19.00
2019-02-26 01:45:56; 245.00; 3.85; 18.94
2019-02-26 02:00:10; 236.00; 3.94; 18.75
2019-02-26 02:00:23; 262.00; 3.68; 18.75
2019-02-26 02:00:35; 237.00; 3.93; 18.75
2019-02-26 02:00:48; 262.00; 3.70; 18.75
2019-02-26 02:01:00; 237.00; 3.93; 18.75
2019-02-26 02:15:03; 245.00; 3.85; 18.81
2019-02-26 02:15:16; 245.00; 3.85; 18.75
2019-02-26 02:15:28; 245.00; 3.85; 18.81
2019-02-26 02:15:41; 262.00; 3.68; 18.81
2019-02-26 02:15:53; 261.00; 3.69; 18.81
2019-02-26 02:30:08; 242.00; 3.86; 18.94
2019-02-26 02:30:20; 245.00; 3.85; 18.94
2019-02-26 02:30:33; 245.00; 3.85; 18.94
2019-02-26 02:30:45; 247.00; 3.82; 18.94
2019-02-26 02:30:58; 262.00; 3.68; 18.94
2019-02-26 02:45:01; 244.00; 3.86; 19.00
2019-02-26 02:45:13; 245.00; 3.85; 19.00
2019-02-26 02:45:26; 242.00; 3.87; 19.00
2019-02-26 02:45:38; 242.00; 3.88; 19.00
2019-02-26 02:45:51; 243.00; 3.87; 19.00
2019-02-26 03:00:05; 245.00; 3.85; 19.00
2019-02-26 03:00:18; 239.00; 3.93; 19.00
2019-02-26 03:00:30; 245.00; 3.85; 19.00
2019-02-26 03:00:42; 240.00; 3.89; 19.00
2019-02-26 03:00:55; 243.00; 3.86; 19.00
2019-02-26 03:15:10; 240.00; 3.90; 18.88
2019-02-26 03:15:23; 243.00; 3.87; 18.88
2019-02-26 03:15:35; 243.00; 3.87; 18.88
2019-02-26 03:15:47; 242.00; 3.89; 18.88
2019-02-26 03:16:00; 243.00; 3.87; 18.88
2019-02-26 03:30:04; 243.00; 3.87; 18.94
2019-02-26 03:30:16; 242.00; 3.88; 18.94
2019-02-26 03:30:29; 241.00; 3.90; 18.94
2019-02-26 03:30:41; 242.00; 3.88; 18.94
2019-02-26 03:30:53; 242.00; 3.89; 18.94
2019-02-26 03:45:09; 245.00; 3.86; 19.13
2019-02-26 03:45:21; 246.00; 3.84; 19.13
2019-02-26 03:45:33; 246.00; 3.83; 19.13
2019-02-26 03:45:46; 244.00; 3.86; 19.13
2019-02-26 03:45:58; 243.00; 3.87; 19.13
2019-02-26 04:00:02; 243.00; 3.87; 19.00
2019-02-26 04:00:14; 246.00; 3.84; 19.00
2019-02-26 04:00:27; 244.00; 3.86; 19.00
2019-02-26 04:00:39; 245.00; 3.85; 19.00
2019-02-26 04:00:52; 246.00; 3.84; 19.00
2019-02-26 04:15:06; 246.00; 3.84; 18.69
2019-02-26 04:15:19; 246.00; 3.84; 18.69
2019-02-26 04:15:31; 246.00; 3.84; 18.69
2019-02-26 04:15:44; 245.00; 3.85; 18.69
2019-02-26 04:15:56; 246.00; 3.84; 18.69
2019-02-26 04:30:11; 246.00; 3.85; 18.50
2019-02-26 04:30:24; 247.00; 3.85; 18.50
2019-02-26 04:30:36; 246.00; 3.84; 18.44
2019-02-26 04:30:49; 247.00; 3.84; 18.50
2019-02-26 04:45:03; 245.00; 3.86; 18.19
2019-02-26 04:45:16; 240.00; 3.90; 18.19
2019-02-26 04:45:28; 244.00; 3.85; 18.19
2019-02-26 04:45:41; 246.00; 3.85; 18.19
2019-02-26 04:45:53; 245.00; 3.85; 18.19
2019-02-26 05:00:08; 246.00; 3.84; 18.13
2019-02-26 05:00:20; 246.00; 3.84; 18.13
2019-02-26 05:00:33; 237.00; 3.93; 18.13
2019-02-26 05:00:45; 238.00; 3.92; 18.13
2019-02-26 05:00:58; 242.00; 3.88; 18.13
2019-02-26 05:15:01; 245.00; 3.84; 18.00
2019-02-26 05:15:13; 243.00; 3.87; 18.00
2019-02-26 05:15:26; 247.00; 3.83; 18.00
2019-02-26 05:15:38; 247.00; 3.83; 18.00
2019-02-26 05:15:51; 246.00; 3.84; 18.00
2019-02-26 05:30:05; 241.00; 3.89; 17.81
2019-02-26 05:30:18; 244.00; 3.84; 17.81
2019-02-26 05:30:30; 245.00; 3.83; 17.81
2019-02-26 05:30:43; 241.00; 3.90; 17.81
2019-02-26 05:30:55; 240.00; 3.90; 17.81
2019-02-26 05:45:10; 242.00; 3.88; 17.56
2019-02-26 05:45:22; 242.00; 3.85; 17.56
2019-02-26 05:45:35; 244.00; 3.85; 17.56
2019-02-26 05:45:47; 239.00; 3.90; 17.56
2019-02-26 05:46:00; 239.00; 3.91; 17.56
2019-02-26 06:00:03; 241.00; 3.90; 17.56
2019-02-26 06:00:15; 240.00; 3.89; 17.56
2019-02-26 06:00:28; 240.00; 3.92; 17.63
2019-02-26 06:00:40; 239.00; 3.91; 17.63
2019-02-26 06:00:53; 239.00; 3.91; 17.56
2019-02-26 06:15:08; 241.00; 3.89; 17.56
2019-02-26 06:15:20; 244.00; 3.86; 17.56
2019-02-26 06:15:33; 237.00; 3.93; 17.56
2019-02-26 06:15:45; 242.00; 3.90; 17.56
2019-02-26 06:15:57; 241.00; 3.94; 17.56
2019-02-26 06:30:01; 249.00; 3.81; 17.69
2019-02-26 06:30:13; 244.00; 3.86; 17.69
2019-02-26 06:30:26; 258.00; 3.76; 17.63
2019-02-26 06:30:38; 238.00; 3.92; 17.69
2019-02-26 06:30:50; 237.00; 3.93; 17.69
2019-02-26 06:45:05; 239.00; 3.70; 17.50
2019-02-26 06:45:18; 256.00; 3.79; 17.50
2019-02-26 06:45:30; 246.00; 3.84; 17.50
2019-02-26 06:45:43; 248.00; 3.81; 17.50
2019-02-26 06:45:55; 247.00; 3.82; 17.50
2019-02-26 07:00:10; 239.00; 3.91; 17.25
2019-02-26 07:00:22; 241.00; 3.90; 17.25
2019-02-26 07:00:35; 239.00; 3.91; 17.25
2019-02-26 07:00:47; 239.00; 3.91; 17.25
2019-02-26 07:01:00; 245.00; 3.88; 17.25
2019-02-26 07:15:03; 239.00; 3.90; 17.06
2019-02-26 07:15:16; 239.00; 3.90; 17.06
2019-02-26 07:15:28; 239.00; 3.90; 17.06
2019-02-26 07:15:40; 239.00; 3.91; 17.06
2019-02-26 07:15:53; 239.00; 3.91; 17.06
2019-02-26 07:30:08; 242.00; 3.87; 16.88
2019-02-26 07:30:20; 244.00; 3.86; 16.88
2019-02-26 07:30:33; 245.00; 3.85; 16.81
2019-02-26 07:30:45; 245.00; 3.85; 16.81
2019-02-26 07:30:58; 244.00; 3.86; 16.81
2019-02-26 07:45:02; 244.00; 3.86; 16.69
2019-02-26 07:45:14; 243.00; 3.87; 16.69
2019-02-26 07:45:26; 245.00; 3.85; 16.69
2019-02-26 07:45:39; 245.00; 3.85; 16.69
2019-02-26 07:45:51; 246.00; 3.84; 16.69
2019-02-26 08:00:06; 246.00; 3.84; 16.44
2019-02-26 08:00:19; 244.00; 3.85; 16.44
2019-02-26 08:00:31; 246.00; 3.84; 16.44
2019-02-26 08:00:44; 246.00; 3.84; 16.44
2019-02-26 08:00:56; 246.00; 3.84; 16.44
2019-02-26 08:15:11; 247.00; 3.84; 16.50
2019-02-26 08:15:23; 246.00; 3.84; 16.50
2019-02-26 08:15:36; 245.00; 3.87; 16.44
2019-02-26 08:15:48; 246.00; 3.84; 16.50
2019-02-26 08:16:01; 240.00; 3.92; 16.50
2019-02-26 08:30:04; 245.00; 3.85; 16.69
2019-02-26 08:30:16; 246.00; 3.84; 16.69
2019-02-26 08:30:29; 246.00; 3.84; 16.69
2019-02-26 08:30:41; 246.00; 3.84; 16.69
2019-02-26 08:30:54; 246.00; 3.84; 16.69
2019-02-26 08:45:08; 242.00; 3.87; 17.00
2019-02-26 08:45:21; 246.00; 3.84; 17.00
2019-02-26 08:45:33; 246.00; 3.84; 17.00
2019-02-26 08:45:46; 246.00; 3.84; 17.00
2019-02-26 08:45:58; 246.00; 3.84; 17.00
2019-02-26 09:00:02; 246.00; 3.84; 18.56
2019-02-26 09:00:14; 245.00; 3.84; 18.56
2019-02-26 09:00:27; 246.00; 3.84; 18.63
2019-02-26 09:00:39; 246.00; 3.84; 18.69
2019-02-26 09:00:51; 246.00; 3.84; 18.69
2019-02-26 09:15:06; 244.00; 3.86; 20.25
2019-02-26 09:15:19; 245.00; 3.85; 20.31
2019-02-26 09:15:31; 246.00; 3.84; 20.25
2019-02-26 09:15:43; 245.00; 3.84; 20.31
2019-02-26 09:15:56; 246.00; 3.84; 20.31
2019-02-26 09:30:11; 244.00; 3.86; 20.19
2019-02-26 09:30:23; 244.00; 3.86; 20.19
2019-02-26 09:30:35; 245.00; 3.85; 20.19
2019-02-26 09:30:48; 244.00; 3.86; 20.25
2019-02-26 09:31:00; 245.00; 3.85; 20.25
2019-02-26 09:45:04; 245.00; 3.85; 21.19
2019-02-26 09:45:16; 245.00; 3.85; 21.19
2019-02-26 09:45:29; 246.00; 3.84; 21.19
2019-02-26 09:45:41; 246.00; 3.84; 21.25
2019-02-26 09:45:54; 245.00; 3.85; 21.31
2019-02-26 10:00:08; 245.00; 3.85; 21.50
2019-02-26 10:00:21; 246.00; 3.84; 21.50
2019-02-26 10:00:33; 243.00; 3.87; 21.50
2019-02-26 10:00:46; 244.00; 3.88; 21.44
2019-02-26 10:00:58; 243.00; 3.87; 21.50
2019-02-26 10:15:01; 244.00; 3.86; 21.56
2019-02-26 10:15:14; 245.00; 3.85; 21.56
2019-02-26 10:15:26; 244.00; 3.86; 21.56
2019-02-26 10:15:38; 244.00; 3.86; 21.50
2019-02-26 10:15:51; 244.00; 3.86; 21.56
2019-02-26 10:30:06; 243.00; 3.87; 21.56
2019-02-26 10:30:18; 243.00; 3.86; 21.56
2019-02-26 10:30:31; 244.00; 3.86; 21.50
2019-02-26 10:30:43; 242.00; 3.88; 21.50
2019-02-26 10:30:55; 243.00; 3.87; 21.50
2019-02-26 10:45:10; 243.00; 3.87; 22.31
2019-02-26 10:45:23; 242.00; 3.88; 22.31
2019-02-26 10:45:35; 245.00; 3.85; 22.25
2019-02-26 10:45:48; 245.00; 3.85; 22.25
2019-02-26 10:46:00; 245.00; 3.85; 22.25
2019-02-26 11:00:03; 239.00; 3.90; 23.25
2019-02-26 11:00:16; 241.00; 3.89; 23.25
2019-02-26 11:00:28; 245.00; 3.86; 23.25
2019-02-26 11:00:40; 242.00; 3.88; 23.19
2019-02-26 11:00:53; 242.00; 3.87; 23.25
2019-02-26 11:15:07; 245.00; 3.85; 22.88
2019-02-26 11:15:20; 241.00; 3.88; 23.00
2019-02-26 11:15:32; 250.00; 3.80; 23.00
2019-02-26 11:15:45; 243.00; 3.85; 23.00
2019-02-26 11:15:57; 242.00; 3.89; 23.06
2019-02-26 11:30:11; 246.00; 3.84; 23.38
2019-02-26 11:30:24; 243.00; 3.87; 23.44
2019-02-26 11:30:36; 246.00; 3.84; 23.44
2019-02-26 11:30:49; 241.00; 3.88; 23.38
2019-02-26 11:45:03; 248.00; 3.82; 23.25
2019-02-26 11:45:15; 242.00; 3.88; 23.13
2019-02-26 11:45:28; 242.00; 3.88; 23.13
2019-02-26 11:45:40; 241.00; 3.88; 23.19
2019-02-26 11:45:53; 245.00; 3.86; 23.19
2019-02-26 12:00:07; 246.00; 3.85; 23.25
2019-02-26 12:00:19; 242.00; 3.86; 23.19
2019-02-26 12:00:32; 244.00; 3.89; 23.13
2019-02-26 12:00:44; 244.00; 3.86; 23.13
2019-02-26 12:00:57; 247.00; 3.84; 23.06
2019-02-26 12:15:11; 241.00; 3.88; 23.75
2019-02-26 12:15:24; 242.00; 3.88; 23.75
2019-02-26 12:15:36; 241.00; 3.89; 23.75
2019-02-26 12:15:48; 241.00; 3.80; 23.75
2019-02-26 12:30:03; 243.00; 3.88; 24.44
2019-02-26 12:30:15; 240.00; 3.89; 24.50
2019-02-26 12:30:28; 241.00; 3.89; 24.56
2019-02-26 12:30:40; 242.00; 3.88; 24.56
2019-02-26 12:30:53; 243.00; 3.88; 24.63
2019-02-26 12:45:07; 245.00; 3.86; 24.88
2019-02-26 12:45:19; 243.00; 3.87; 24.81
2019-02-26 12:45:32; 241.00; 3.89; 24.75
2019-02-26 12:45:44; 244.00; 3.87; 24.75
2019-02-26 12:45:57; 238.00; 3.88; 24.81
2019-02-26 13:00:11; 242.00; 3.88; 24.25
2019-02-26 13:00:23; 244.00; 3.87; 24.31
2019-02-26 13:00:36; 242.00; 3.88; 24.25
2019-02-26 13:00:48; 242.00; 3.89; 24.31
2019-02-26 13:15:03; 244.00; 3.85; 24.69
2019-02-26 13:15:15; 243.00; 3.86; 24.69
2019-02-26 13:15:28; 244.00; 3.87; 24.63
2019-02-26 13:15:40; 244.00; 3.86; 24.63
2019-02-26 13:15:53; 243.00; 3.87; 24.63
2019-02-26 13:30:07; 242.00; 3.88; 24.56
2019-02-26 13:30:20; 240.00; 3.90; 24.63
2019-02-26 13:30:32; 244.00; 3.86; 24.69
2019-02-26 13:30:44; 243.00; 3.87; 24.63
2019-02-26 13:30:57; 240.00; 3.90; 24.69
2019-02-26 13:45:11; 243.00; 3.87; 25.88
2019-02-26 13:45:24; 241.00; 3.88; 25.88
2019-02-26 13:45:36; 241.00; 3.89; 25.94
2019-02-26 13:45:49; 243.00; 3.87; 25.88
2019-02-26 14:00:03; 248.00; 3.83; 24.56
2019-02-26 14:00:15; 242.00; 3.87; 24.56
2019-02-26 14:00:28; 242.00; 3.88; 24.50
2019-02-26 14:00:40; 242.00; 3.88; 24.50
2019-02-26 14:00:52; 246.00; 3.85; 24.56
2019-02-26 14:15:07; 244.00; 3.87; 24.94
2019-02-26 14:15:19; 242.00; 3.88; 25.06
2019-02-26 14:15:32; 242.00; 3.88; 25.00
2019-02-26 14:15:44; 243.00; 3.87; 25.06
2019-02-26 14:15:56; 242.00; 3.88; 25.13
2019-02-26 14:30:11; 243.00; 3.68; 25.06
2019-02-26 14:30:23; 245.00; 3.85; 25.00
2019-02-26 14:30:36; 240.00; 3.89; 24.94
2019-02-26 14:30:48; 241.00; 3.90; 24.94
2019-02-26 14:45:02; 243.00; 3.87; 25.25
2019-02-26 14:45:15; 243.00; 3.86; 25.44
2019-02-26 14:45:27; 243.00; 3.87; 25.56
2019-02-26 14:45:40; 243.00; 3.87; 25.63
2019-02-26 14:45:52; 244.00; 3.87; 25.63
2019-02-26 15:00:06; 244.00; 3.85; 25.50
2019-02-26 15:00:19; 240.00; 3.92; 25.50
2019-02-26 15:00:31; 242.00; 3.88; 25.50
2019-02-26 15:00:44; 244.00; 3.86; 25.56
2019-02-26 15:00:56; 240.00; 3.90; 25.63
2019-02-26 15:15:10; 241.00; 3.91; 25.75
2019-02-26 15:15:23; 245.00; 3.85; 25.75
2019-02-26 15:15:35; 243.00; 3.86; 25.81
2019-02-26 15:15:48; 243.00; 3.87; 25.75
2019-02-26 15:16:00; 242.00; 3.88; 25.75
2019-02-26 15:30:03; 244.00; 3.83; 25.94
2019-02-26 15:30:15; 240.00; 3.88; 26.00
2019-02-26 15:30:28; 245.00; 3.83; 26.00
2019-02-26 15:30:40; 243.00; 3.93; 26.00
2019-02-26 15:30:53; 247.00; 3.84; 26.00
2019-02-26 15:45:07; 246.00; 3.84; 25.75
2019-02-26 15:45:19; 243.00; 3.89; 25.75
2019-02-26 15:45:32; 240.00; 3.88; 25.69
2019-02-26 15:45:44; 245.00; 3.85; 25.75
2019-02-26 15:45:57; 243.00; 3.87; 25.75
2019-02-26 16:00:11; 246.00; 3.84; 26.63
2019-02-26 16:00:23; 244.00; 3.87; 26.69
2019-02-26 16:00:36; 238.00; 3.91; 26.75
2019-02-26 16:00:48; 246.00; 3.85; 26.81
2019-02-26 16:15:02; 242.00; 3.88; 27.13
2019-02-26 16:15:15; 241.00; 3.91; 27.13
2019-02-26 16:15:27; 244.00; 3.89; 27.06
2019-02-26 16:15:40; 239.00; 3.91; 27.06
2019-02-26 16:15:52; 243.00; 3.86; 27.06
2019-02-26 16:30:06; 244.00; 3.86; 27.25
2019-02-26 16:30:19; 243.00; 3.86; 27.25
2019-02-26 16:30:31; 245.00; 3.88; 27.19
2019-02-26 16:30:44; 246.00; 3.83; 27.19
2019-02-26 16:30:56; 244.00; 3.88; 27.25
2019-02-26 16:45:10; 249.00; 3.81; 27.06
2019-02-26 16:45:22; 245.00; 3.88; 27.00
2019-02-26 16:45:35; 242.00; 3.83; 27.00
2019-02-26 16:45:47; 245.00; 3.84; 27.06
2019-02-26 16:46:00; 246.00; 3.84; 27.06
2019-02-26 17:00:02; 243.00; 3.87; 28.38
2019-02-26 17:00:15; 240.00; 3.90; 28.50
2019-02-26 17:00:27; 242.00; 3.91; 28.63
2019-02-26 17:00:40; 248.00; 3.82; 28.63
2019-02-26 17:00:52; 246.00; 3.85; 28.56
2019-02-26 17:15:06; 244.00; 3.86; 27.06
2019-02-26 17:15:19; 245.00; 3.90; 27.00
2019-02-26 17:15:31; 242.00; 3.88; 27.00
2019-02-26 17:15:44; 243.00; 3.89; 27.00
2019-02-26 17:15:56; 244.00; 3.85; 27.00
2019-02-26 17:30:10; 244.00; 3.86; 27.44
2019-02-26 17:30:22; 245.00; 3.85; 27.44
2019-02-26 17:30:35; 243.00; 3.87; 27.44
2019-02-26 17:30:47; 243.00; 3.87; 27.50
2019-02-26 17:30:59; 249.00; 3.81; 27.44
2019-02-26 17:45:02; 245.00; 3.85; 27.25
2019-02-26 17:45:14; 246.00; 3.84; 27.13
2019-02-26 17:45:27; 247.00; 3.85; 27.06
2019-02-26 17:45:39; 245.00; 3.84; 27.13
2019-02-26 17:45:52; 246.00; 3.85; 27.13
2019-02-26 18:00:06; 246.00; 3.84; 27.31
2019-02-26 18:00:18; 246.00; 3.84; 27.19
2019-02-26 18:00:30; 244.00; 3.88; 27.25
2019-02-26 18:00:43; 242.00; 3.87; 27.19
2019-02-26 18:00:55; 246.00; 3.83; 27.13
2019-02-26 18:15:09; 245.00; 3.84; 26.94
2019-02-26 18:15:22; 246.00; 3.86; 27.00
2019-02-26 18:15:34; 242.00; 3.88; 26.94
2019-02-26 18:15:47; 242.00; 3.88; 26.81
2019-02-26 18:15:59; 244.00; 3.86; 26.81
2019-02-26 18:30:02; 249.00; 3.88; 26.56
2019-02-26 18:30:14; 244.00; 3.86; 26.56
2019-02-26 18:30:27; 242.00; 3.87; 26.50
2019-02-26 18:30:39; 244.00; 3.86; 26.50
2019-02-26 18:30:52; 245.00; 3.87; 26.44
2019-02-26 18:45:06; 247.00; 3.83; 26.19
2019-02-26 18:45:18; 245.00; 3.86; 26.19
2019-02-26 18:45:31; 244.00; 3.86; 26.00
2019-02-26 18:45:43; 247.00; 3.81; 26.00
2019-02-26 18:45:55; 242.00; 3.88; 26.00
2019-02-26 19:00:09; 246.00; 3.84; 26.38
2019-02-26 19:00:22; 246.00; 3.86; 26.38
2019-02-26 19:00:34; 242.00; 3.88; 26.44
2019-02-26 19:00:47; 246.00; 3.86; 26.50
2019-02-26 19:00:59; 244.00; 3.88; 26.63
2019-02-26 19:15:02; 241.00; 3.89; 26.13
2019-02-26 19:15:14; 241.00; 3.89; 26.13
2019-02-26 19:15:27; 246.00; 3.84; 26.25
2019-02-26 19:15:39; 245.00; 3.86; 26.31
2019-02-26 19:15:52; 242.00; 3.88; 26.31
2019-02-26 19:30:06; 245.00; 3.87; 26.06
2019-02-26 19:30:18; 251.00; 3.80; 26.13
2019-02-26 19:30:31; 249.00; 3.80; 26.19
2019-02-26 19:30:43; 246.00; 3.81; 26.25
2019-02-26 19:30:55; 260.00; 3.70; 26.25
2019-02-26 19:45:10; 247.00; 3.84; 25.00
2019-02-26 19:45:22; 247.00; 3.81; 25.00
2019-02-26 19:45:35; 246.00; 3.83; 24.88
2019-02-26 19:45:47; 248.00; 3.82; 25.00
2019-02-26 19:45:59; 247.00; 3.82; 24.94
2019-02-26 20:00:02; 250.00; 3.80; 23.81
2019-02-26 20:00:15; 250.00; 3.79; 23.75
2019-02-26 20:00:27; 250.00; 3.80; 23.75
2019-02-26 20:00:40; 250.00; 3.80; 23.69
2019-02-26 20:00:52; 251.00; 3.79; 23.69
2019-02-26 20:15:06; 252.00; 3.79; 21.44
2019-02-26 20:15:19; 252.00; 3.78; 21.44
2019-02-26 20:15:31; 250.00; 3.80; 21.38
2019-02-26 20:15:44; 251.00; 3.79; 21.38
2019-02-26 20:15:56; 251.00; 3.78; 21.31
2019-02-26 20:30:10; 249.00; 3.81; 20.75
2019-02-26 20:30:23; 248.00; 3.81; 20.69
2019-02-26 20:30:35; 250.00; 3.80; 20.69
2019-02-26 20:30:48; 250.00; 3.80; 20.69
2019-02-26 20:31:00; 251.00; 3.78; 20.69
2019-02-26 20:45:03; 252.00; 3.81; 19.31
2019-02-26 20:45:16; 246.00; 3.86; 19.31
2019-02-26 20:45:28; 242.00; 3.85; 19.25
2019-02-26 20:45:41; 245.00; 3.88; 19.25
2019-02-26 20:45:53; 251.00; 3.79; 19.25
2019-02-26 21:00:08; 245.00; 3.87; 18.38
2019-02-26 21:00:20; 248.00; 3.82; 18.38
2019-02-26 21:00:33; 247.00; 3.84; 18.38
2019-02-26 21:00:45; 245.00; 3.85; 18.38
2019-02-26 21:00:58; 247.00; 3.85; 18.38
2019-02-26 21:15:01; 249.00; 3.82; 17.88
2019-02-26 21:15:13; 248.00; 3.81; 17.88
2019-02-26 21:15:26; 249.00; 3.82; 17.88
2019-02-26 21:15:38; 251.00; 3.79; 17.88
2019-02-26 21:15:51; 247.00; 3.85; 17.88
2019-02-26 21:30:05; 246.00; 3.82; 17.50
2019-02-26 21:30:18; 251.00; 3.78; 17.50
2019-02-26 21:30:30; 246.00; 3.82; 17.50
2019-02-26 21:30:43; 253.00; 3.74; 17.44
2019-02-26 21:30:55; 248.00; 3.81; 17.44
2019-02-26 21:45:10; 251.00; 3.80; 16.81
2019-02-26 21:45:22; 252.00; 3.77; 16.81
2019-02-26 21:45:35; 252.00; 3.78; 16.81
2019-02-26 21:45:47; 263.00; 3.66; 16.81
2019-02-26 21:46:00; 249.00; 3.79; 16.75
2019-02-26 22:00:03; 240.00; 3.88; 16.50
2019-02-26 22:00:16; 266.00; 3.75; 16.50
2019-02-26 22:00:28; 251.00; 3.79; 16.44
2019-02-26 22:00:41; 252.00; 3.79; 16.44
2019-02-26 22:00:53; 251.00; 3.83; 16.44
2019-02-26 22:15:08; 252.00; 3.77; 16.25
2019-02-26 22:15:20; 253.00; 3.77; 16.25
2019-02-26 22:15:33; 252.00; 3.79; 16.25
2019-02-26 22:15:45; 263.00; 3.67; 16.25
2019-02-26 22:15:58; 241.00; 3.89; 16.25
2019-02-26 22:30:01; 258.00; 3.72; 16.06
2019-02-26 22:30:13; 243.00; 3.86; 16.06
2019-02-26 22:30:26; 251.00; 3.79; 16.06
2019-02-26 22:30:38; 251.00; 3.79; 16.06
2019-02-26 22:30:51; 249.00; 3.83; 16.06
2019-02-26 22:45:05; 249.00; 3.82; 16.06
2019-02-26 22:45:18; 249.00; 3.81; 16.06
2019-02-26 22:45:30; 253.00; 3.77; 16.06
2019-02-26 22:45:43; 251.00; 3.79; 16.06
2019-02-26 22:45:55; 244.00; 3.84; 16.06
2019-02-26 23:00:10; 248.00; 3.84; 16.13
2019-02-26 23:00:22; 246.00; 3.85; 16.13
2019-02-26 23:00:35; 251.00; 3.79; 16.13
2019-02-26 23:00:47; 248.00; 3.81; 16.13
2019-02-26 23:01:00; 249.00; 3.80; 16.13
2019-02-26 23:15:02; 252.00; 3.78; 16.25
2019-02-26 23:15:15; 252.00; 3.78; 16.25
2019-02-26 23:15:27; 252.00; 3.78; 16.25
2019-02-26 23:15:40; 252.00; 3.78; 16.25
2019-02-26 23:15:52; 252.00; 3.78; 16.31
2019-02-26 23:30:07; 251.00; 3.80; 16.50
2019-02-26 23:30:19; 253.00; 3.77; 16.50
2019-02-26 23:30:32; 253.00; 3.77; 16.50
2019-02-26 23:30:44; 250.00; 3.80; 16.50
2019-02-26 23:30:56; 250.00; 3.80; 16.50
2019-02-26 23:45:11; 250.00; 3.80; 16.44
2019-02-26 23:45:24; 247.00; 3.85; 16.44
2019-02-26 23:45:36; 250.00; 3.80; 16.44
2019-02-26 23:45:49; 247.00; 3.83; 16.44
