2019-08-27 00:00:10; 0.00; 6.30; 16.25
2019-08-27 00:00:23; 0.00; 6.30; 16.25
2019-08-27 00:00:35; 0.00; 6.30; 16.25
2019-08-27 00:00:48; 0.00; 6.30; 16.25
2019-08-27 00:01:00; 0.00; 6.30; 16.25
2019-08-27 00:15:07; 0.00; 6.30; 16.13
2019-08-27 00:15:19; 0.00; 6.30; 16.13
2019-08-27 00:15:32; 0.00; 6.30; 16.13
2019-08-27 00:15:44; 0.00; 6.30; 16.13
2019-08-27 00:15:57; 0.00; 6.30; 16.13
2019-08-27 00:30:03; 0.00; 6.30; 16.19
2019-08-27 00:30:16; 0.00; 6.30; 16.19
2019-08-27 00:30:28; 0.00; 6.30; 16.19
2019-08-27 00:30:41; 0.00; 6.30; 16.25
2019-08-27 00:30:53; 0.00; 6.30; 16.25
2019-08-27 00:45:09; 408.00; 2.22; 16.69
2019-08-27 00:45:22; 408.00; 2.22; 16.69
2019-08-27 00:45:34; 408.00; 2.22; 16.75
2019-08-27 00:45:47; 408.00; 2.22; 16.75
2019-08-27 00:45:59; 408.00; 2.22; 16.75
2019-08-27 01:00:03; 408.00; 2.22; 17.06
2019-08-27 01:00:15; 408.00; 2.22; 17.06
2019-08-27 01:00:28; 408.00; 2.22; 17.06
2019-08-27 01:00:40; 408.00; 2.22; 17.06
2019-08-27 01:00:53; 408.00; 2.22; 17.06
2019-08-27 01:15:08; 408.00; 2.22; 17.06
2019-08-27 01:15:20; 408.00; 2.22; 17.06
2019-08-27 01:15:33; 408.00; 2.22; 17.06
2019-08-27 01:15:45; 408.00; 2.22; 17.06
2019-08-27 01:15:58; 408.00; 2.22; 17.06
2019-08-27 01:30:01; 408.00; 2.22; 17.19
2019-08-27 01:30:14; 408.00; 2.22; 17.19
2019-08-27 01:30:26; 408.00; 2.22; 17.19
2019-08-27 01:30:39; 408.00; 2.22; 17.19
2019-08-27 01:30:51; 408.00; 2.22; 17.19
2019-08-27 01:45:08; 0.00; 6.30; 17.44
2019-08-27 01:45:20; 0.00; 6.30; 17.44
2019-08-27 01:45:33; 0.00; 6.30; 17.44
2019-08-27 01:45:45; 0.00; 6.30; 17.44
2019-08-27 01:45:58; 0.00; 6.30; 17.44
2019-08-27 02:00:02; 762.00; -1.32; 17.56
2019-08-27 02:00:15; 762.00; -1.32; 17.56
2019-08-27 02:00:27; 762.00; -1.32; 17.56
2019-08-27 02:00:40; 762.00; -1.32; 17.63
2019-08-27 02:00:52; 762.00; -1.32; 17.63
2019-08-27 02:15:07; 762.00; -1.32; 17.56
2019-08-27 02:15:20; 762.00; -1.32; 17.56
2019-08-27 02:15:32; 762.00; -1.32; 17.56
2019-08-27 02:15:45; 762.00; -1.32; 17.56
2019-08-27 02:15:57; 762.00; -1.32; 17.56
2019-08-27 02:30:01; 762.00; -1.32; 17.56
2019-08-27 02:30:14; 762.00; -1.32; 17.56
2019-08-27 02:30:26; 762.00; -1.32; 17.56
2019-08-27 02:30:39; 762.00; -1.32; 17.56
2019-08-27 02:30:51; 762.00; -1.32; 17.56
2019-08-27 02:45:07; 762.00; -1.32; 17.38
2019-08-27 02:45:19; 762.00; -1.32; 17.38
2019-08-27 02:45:32; 762.00; -1.32; 17.38
2019-08-27 02:45:44; 762.00; -1.32; 17.38
2019-08-27 02:45:57; 762.00; -1.32; 17.44
2019-08-27 03:00:12; 762.00; -1.32; 17.19
2019-08-27 03:00:24; 762.00; -1.32; 17.19
2019-08-27 03:00:36; 762.00; -1.32; 17.19
2019-08-27 03:00:49; 762.00; -1.32; 17.19
2019-08-27 03:15:04; 762.00; -1.32; 16.88
2019-08-27 03:15:17; 762.00; -1.32; 16.88
2019-08-27 03:15:29; 762.00; -1.32; 16.81
2019-08-27 03:15:42; 762.00; -1.32; 16.81
2019-08-27 03:15:54; 762.00; -1.32; 16.81
2019-08-27 03:30:09; 762.00; -1.32; 16.38
2019-08-27 03:30:21; 762.00; -1.32; 16.38
2019-08-27 03:30:34; 762.00; -1.32; 16.38
2019-08-27 03:30:46; 762.00; -1.32; 16.38
2019-08-27 03:30:59; 762.00; -1.32; 16.38
2019-08-27 03:45:03; 762.00; -1.32; 16.06
2019-08-27 03:45:15; 762.00; -1.32; 16.13
2019-08-27 03:45:27; 762.00; -1.32; 16.06
2019-08-27 03:45:40; 762.00; -1.32; 16.13
2019-08-27 03:45:52; 762.00; -1.32; 16.06
2019-08-27 04:00:08; 0.00; 6.30; 15.88
2019-08-27 04:00:21; 0.00; 6.30; 15.88
2019-08-27 04:00:33; 0.00; 6.30; 15.88
2019-08-27 04:00:46; 0.00; 6.30; 15.88
2019-08-27 04:00:58; 0.00; 6.30; 15.88
2019-08-27 04:15:05; 0.00; 6.30; 15.69
2019-08-27 04:15:17; 0.00; 6.30; 15.69
2019-08-27 04:15:30; 0.00; 6.30; 15.69
2019-08-27 04:15:42; 0.00; 6.30; 15.69
2019-08-27 04:15:55; 0.00; 6.30; 15.69
2019-08-27 04:30:01; 0.00; 6.30; 15.69
2019-08-27 04:30:14; 0.00; 6.30; 15.69
2019-08-27 04:30:26; 0.00; 6.30; 15.69
2019-08-27 04:30:39; 0.00; 6.30; 15.69
2019-08-27 04:30:51; 0.00; 6.30; 15.63
2019-08-27 04:45:09; 0.00; 6.30; 15.69
2019-08-27 04:45:22; 0.00; 6.30; 15.69
2019-08-27 04:45:34; 0.00; 6.30; 15.69
2019-08-27 04:45:47; 0.00; 6.30; 15.69
2019-08-27 04:45:59; 0.00; 6.30; 15.69
2019-08-27 05:00:05; 0.00; 6.30; 15.69
2019-08-27 05:00:18; 0.00; 6.30; 15.69
2019-08-27 05:00:30; 0.00; 6.30; 15.69
2019-08-27 05:00:43; 0.00; 6.30; 15.69
2019-08-27 05:00:55; 0.00; 6.30; 15.69
2019-08-27 05:15:02; 0.00; 6.30; 15.69
2019-08-27 05:15:14; 0.00; 6.30; 15.63
2019-08-27 05:15:27; 0.00; 6.30; 15.69
2019-08-27 05:15:40; 0.00; 6.30; 15.69
2019-08-27 05:15:52; 0.00; 6.30; 15.69
2019-08-27 05:30:10; 0.00; 6.30; 15.63
2019-08-27 05:30:22; 0.00; 6.30; 15.63
2019-08-27 05:30:35; 0.00; 6.30; 15.63
2019-08-27 05:30:47; 0.00; 6.30; 15.63
2019-08-27 05:31:00; 0.00; 6.30; 15.63
2019-08-27 05:45:06; 0.00; 6.30; 15.50
2019-08-27 05:45:19; 0.00; 6.30; 15.50
2019-08-27 05:45:31; 0.00; 6.30; 15.50
2019-08-27 05:45:44; 0.00; 6.30; 15.50
2019-08-27 05:45:56; 0.00; 6.30; 15.50
2019-08-27 06:00:02; 0.00; 6.30; 15.38
2019-08-27 06:00:15; 0.00; 6.30; 15.38
2019-08-27 06:00:27; 0.00; 6.30; 15.38
2019-08-27 06:00:40; 0.00; 6.30; 15.38
2019-08-27 06:00:52; 0.00; 6.30; 15.38
2019-08-27 06:15:10; 0.00; 6.30; 15.31
2019-08-27 06:15:23; 0.00; 6.30; 15.31
2019-08-27 06:15:35; 0.00; 6.30; 15.31
2019-08-27 06:15:48; 0.00; 6.30; 15.31
2019-08-27 06:16:00; 0.00; 6.30; 15.31
2019-08-27 06:30:06; 0.00; 6.30; 15.25
2019-08-27 06:30:19; 0.00; 6.30; 15.25
2019-08-27 06:30:31; 0.00; 6.30; 15.25
2019-08-27 06:30:44; 0.00; 6.30; 15.25
2019-08-27 06:30:56; 0.00; 6.30; 15.25
2019-08-27 06:45:03; 0.00; 6.30; 15.25
2019-08-27 06:45:15; 0.00; 6.30; 15.25
2019-08-27 06:45:28; 0.00; 6.30; 15.25
2019-08-27 06:45:40; 0.00; 6.30; 15.25
2019-08-27 06:45:53; 0.00; 6.30; 15.25
2019-08-27 07:00:10; 0.00; 6.30; 15.25
2019-08-27 07:00:23; 0.00; 6.30; 15.31
2019-08-27 07:00:35; 0.00; 6.30; 15.31
2019-08-27 07:00:48; 0.00; 6.30; 15.31
2019-08-27 07:01:00; 0.00; 6.30; 15.31
2019-08-27 07:15:07; 0.00; 6.30; 15.31
2019-08-27 07:15:19; 0.00; 6.30; 15.31
2019-08-27 07:15:32; 0.00; 6.30; 15.31
2019-08-27 07:15:44; 0.00; 6.30; 15.31
2019-08-27 07:15:57; 0.00; 6.30; 15.31
2019-08-27 07:30:03; 0.00; 6.30; 15.38
2019-08-27 07:30:15; 0.00; 6.30; 15.38
2019-08-27 07:30:28; 0.00; 6.30; 15.38
2019-08-27 07:30:40; 0.00; 6.30; 15.44
2019-08-27 07:30:53; 0.00; 6.30; 15.38
2019-08-27 07:45:11; 0.00; 6.30; 15.38
2019-08-27 07:45:23; 0.00; 6.30; 15.38
2019-08-27 07:45:36; 0.00; 6.30; 15.38
2019-08-27 07:45:48; 0.00; 6.30; 15.38
2019-08-27 08:00:06; 0.00; 6.30; 15.38
2019-08-27 08:00:18; 0.00; 6.30; 15.38
2019-08-27 08:00:31; 0.00; 6.30; 15.38
2019-08-27 08:00:43; 0.00; 6.30; 15.38
2019-08-27 08:00:56; 0.00; 6.30; 15.38
2019-08-27 08:15:02; 0.00; 6.30; 15.50
2019-08-27 08:15:15; 0.00; 6.30; 15.50
2019-08-27 08:15:27; 0.00; 6.30; 15.56
2019-08-27 08:15:40; 0.00; 6.30; 15.56
2019-08-27 08:15:52; 0.00; 6.30; 15.56
2019-08-27 08:30:10; 0.00; 6.30; 15.56
2019-08-27 08:30:22; 0.00; 6.30; 15.56
2019-08-27 08:30:35; 0.00; 6.30; 15.56
2019-08-27 08:30:47; 0.00; 6.30; 15.56
2019-08-27 08:31:00; 0.00; 6.30; 15.56
2019-08-27 08:45:06; 0.00; 6.30; 15.19
2019-08-27 08:45:19; 0.00; 6.30; 15.19
2019-08-27 08:45:31; 0.00; 6.30; 15.19
2019-08-27 08:45:44; 0.00; 6.30; 15.19
2019-08-27 08:45:56; 0.00; 6.30; 15.19
2019-08-27 09:00:02; 0.00; 6.30; 15.13
2019-08-27 09:00:15; 0.00; 6.30; 15.13
2019-08-27 09:00:27; 0.00; 6.30; 15.13
2019-08-27 09:00:40; 0.00; 6.30; 15.13
2019-08-27 09:00:52; 0.00; 6.30; 15.13
2019-08-27 09:15:10; 0.00; 6.30; 15.38
2019-08-27 09:15:23; 0.00; 6.30; 15.44
2019-08-27 09:15:35; 0.00; 6.30; 15.44
2019-08-27 09:15:48; 0.00; 6.30; 15.44
2019-08-27 09:16:00; 0.00; 6.30; 15.44
2019-08-27 09:30:06; 0.00; 6.30; 15.69
2019-08-27 09:30:19; 0.00; 6.30; 15.69
2019-08-27 09:30:31; 0.00; 6.30; 15.69
2019-08-27 09:30:44; 0.00; 6.30; 15.69
2019-08-27 09:30:56; 0.00; 6.30; 15.69
2019-08-27 09:45:07; 0.00; 6.30; 16.06
2019-08-27 09:45:20; 0.00; 6.30; 16.06
2019-08-27 09:45:32; 0.00; 6.30; 16.06
2019-08-27 09:45:45; 0.00; 6.30; 16.06
2019-08-27 09:45:57; 0.00; 6.30; 16.13
2019-08-27 10:00:04; 0.00; 6.30; 17.00
2019-08-27 10:00:16; 0.00; 6.30; 17.06
2019-08-27 10:00:29; 0.00; 6.30; 17.13
2019-08-27 10:00:41; 0.00; 6.30; 17.13
2019-08-27 10:00:54; 0.00; 6.30; 17.19
2019-08-27 10:15:09; 762.00; -1.32; 18.88
2019-08-27 10:15:22; 762.00; -1.32; 18.88
2019-08-27 10:15:34; 762.00; -1.32; 18.94
2019-08-27 10:15:47; 762.00; -1.32; 18.94
2019-08-27 10:15:59; 762.00; -1.32; 19.00
2019-08-27 10:30:03; 762.00; -1.32; 20.88
2019-08-27 10:30:15; 762.00; -1.32; 20.94
2019-08-27 10:30:28; 762.00; -1.32; 21.00
2019-08-27 10:30:40; 762.00; -1.32; 21.06
2019-08-27 10:30:53; 762.00; -1.32; 21.06
2019-08-27 10:45:07; 762.00; -1.32; 22.19
2019-08-27 10:45:20; 762.00; -1.32; 22.25
2019-08-27 10:45:32; 762.00; -1.32; 22.31
2019-08-27 10:45:45; 762.00; -1.32; 22.31
2019-08-27 10:45:57; 762.00; -1.32; 22.38
2019-08-27 11:00:01; 406.00; 2.24; 23.38
2019-08-27 11:00:13; 406.00; 2.24; 23.38
2019-08-27 11:00:26; 406.00; 2.24; 23.38
2019-08-27 11:00:38; 406.00; 2.24; 23.44
2019-08-27 11:00:51; 407.00; 2.23; 23.50
2019-08-27 11:15:05; 408.00; 2.22; 24.00
2019-08-27 11:15:17; 408.00; 2.22; 24.06
2019-08-27 11:15:30; 408.00; 2.22; 24.13
2019-08-27 11:15:42; 408.00; 2.22; 24.19
2019-08-27 11:15:55; 408.00; 2.22; 24.25
2019-08-27 11:30:09; 408.00; 2.22; 24.25
2019-08-27 11:30:21; 406.00; 2.24; 24.25
2019-08-27 11:30:34; 406.00; 2.24; 24.25
2019-08-27 11:30:46; 406.00; 2.24; 24.25
2019-08-27 11:30:59; 406.00; 2.23; 24.31
2019-08-27 11:45:02; 407.00; 2.23; 24.31
2019-08-27 11:45:14; 404.00; 2.26; 24.31
2019-08-27 11:45:27; 404.00; 2.26; 24.13
2019-08-27 11:45:39; 404.00; 2.26; 24.19
2019-08-27 11:45:52; 404.00; 2.26; 24.25
2019-08-27 12:00:06; 406.00; 2.24; 24.31
2019-08-27 12:00:19; 406.00; 2.24; 24.38
2019-08-27 12:00:31; 405.00; 2.25; 24.44
2019-08-27 12:00:44; 405.00; 2.25; 24.44
2019-08-27 12:00:56; 405.00; 2.25; 24.38
2019-08-27 12:15:11; 407.00; 2.23; 25.06
2019-08-27 12:15:23; 405.00; 2.25; 25.00
2019-08-27 12:15:36; 405.00; 2.25; 25.00
2019-08-27 12:15:48; 404.00; 2.26; 25.00
2019-08-27 12:16:00; 405.00; 2.25; 25.00
2019-08-27 12:30:04; 405.00; 2.25; 26.00
2019-08-27 12:30:16; 403.00; 2.27; 26.06
2019-08-27 12:30:28; 406.00; 2.24; 26.06
2019-08-27 12:30:41; 405.00; 2.25; 26.06
2019-08-27 12:30:53; 405.00; 2.25; 26.13
2019-08-27 12:45:07; 403.00; 2.27; 26.31
2019-08-27 12:45:20; 403.00; 2.27; 26.38
2019-08-27 12:45:32; 403.00; 2.27; 26.38
2019-08-27 12:45:45; 403.00; 2.27; 26.31
2019-08-27 12:45:57; 404.00; 2.26; 26.31
2019-08-27 13:00:11; 404.00; 2.27; 25.75
2019-08-27 13:00:24; 403.00; 2.27; 25.75
2019-08-27 13:00:36; 403.00; 2.27; 25.88
2019-08-27 13:00:48; 403.00; 2.27; 25.81
2019-08-27 13:15:03; 403.00; 2.27; 26.25
2019-08-27 13:15:15; 402.00; 2.28; 26.19
2019-08-27 13:15:28; 403.00; 2.27; 26.19
2019-08-27 13:15:40; 405.00; 2.25; 26.13
2019-08-27 13:15:53; 405.00; 2.25; 26.19
2019-08-27 13:30:05; 405.00; 2.25; 27.44
2019-08-27 13:30:17; 403.00; 2.27; 27.50
2019-08-27 13:30:30; 404.00; 2.26; 27.44
2019-08-27 13:30:42; 405.00; 2.25; 27.50
2019-08-27 13:30:54; 405.00; 2.25; 27.50
2019-08-27 13:45:09; 403.00; 2.27; 26.94
2019-08-27 13:45:21; 404.00; 2.26; 26.94
2019-08-27 13:45:34; 404.00; 2.26; 26.94
2019-08-27 13:45:46; 402.00; 2.28; 26.88
2019-08-27 13:45:59; 402.00; 2.28; 26.94
2019-08-27 14:00:01; 402.00; 2.28; 28.00
2019-08-27 14:00:14; 402.00; 2.28; 28.00
2019-08-27 14:00:26; 401.00; 2.29; 28.06
2019-08-27 14:00:39; 403.00; 2.27; 28.06
2019-08-27 14:00:51; 402.00; 2.28; 28.06
2019-08-27 14:15:05; 402.00; 2.28; 28.88
2019-08-27 14:15:18; 402.00; 2.28; 28.81
2019-08-27 14:15:30; 401.00; 2.29; 28.75
2019-08-27 14:15:42; 401.00; 2.29; 28.69
2019-08-27 14:15:55; 401.00; 2.29; 28.69
2019-08-27 14:30:09; 401.00; 2.29; 27.81
2019-08-27 14:30:22; 401.00; 2.29; 27.81
2019-08-27 14:30:34; 401.00; 2.29; 27.88
2019-08-27 14:30:47; 402.00; 2.28; 27.88
2019-08-27 14:30:59; 403.00; 2.27; 27.81
2019-08-27 14:45:02; 401.00; 2.29; 29.56
2019-08-27 14:45:14; 401.00; 2.29; 29.63
2019-08-27 14:45:27; 401.00; 2.29; 29.69
2019-08-27 14:45:39; 401.00; 2.29; 29.69
2019-08-27 14:45:52; 402.00; 2.28; 29.69
2019-08-27 15:00:06; 403.00; 2.27; 29.38
2019-08-27 15:00:18; 401.00; 2.29; 29.38
2019-08-27 15:00:31; 406.00; 2.24; 29.38
2019-08-27 15:00:43; 402.00; 2.28; 29.38
2019-08-27 15:00:56; 403.00; 2.27; 29.38
2019-08-27 15:15:10; 401.00; 2.29; 30.19
2019-08-27 15:15:22; 402.00; 2.28; 30.13
2019-08-27 15:15:35; 401.00; 2.29; 30.19
2019-08-27 15:15:47; 401.00; 2.29; 30.13
2019-08-27 15:16:00; 762.00; -1.32; 30.13
2019-08-27 15:30:02; 399.00; 2.30; 30.44
2019-08-27 15:30:15; 400.00; 2.30; 30.44
2019-08-27 15:30:27; 762.00; -1.32; 30.50
2019-08-27 15:30:39; 400.00; 2.30; 30.50
2019-08-27 15:30:52; 400.00; 2.30; 30.56
2019-08-27 15:45:06; 401.00; 2.29; 31.19
2019-08-27 15:45:18; 401.00; 2.29; 31.19
2019-08-27 15:45:30; 401.00; 2.29; 31.06
2019-08-27 15:45:43; 401.00; 2.29; 31.00
2019-08-27 15:45:55; 401.00; 2.29; 31.00
2019-08-27 16:00:09; 400.00; 2.30; 31.88
2019-08-27 16:00:22; 400.00; 2.30; 31.94
2019-08-27 16:00:34; 403.00; 2.27; 31.88
2019-08-27 16:00:47; 401.00; 2.29; 31.88
2019-08-27 16:00:59; 400.00; 2.30; 31.88
2019-08-27 16:15:02; 401.00; 2.29; 32.13
2019-08-27 16:15:14; 401.00; 2.29; 32.19
2019-08-27 16:15:26; 401.00; 2.29; 32.19
2019-08-27 16:15:39; 400.00; 2.30; 32.13
2019-08-27 16:15:51; 400.00; 2.30; 32.13
2019-08-27 16:30:05; 400.00; 2.30; 31.56
2019-08-27 16:30:18; 400.00; 2.30; 31.50
2019-08-27 16:30:30; 400.00; 2.30; 31.56
2019-08-27 16:30:43; 401.00; 2.29; 31.56
2019-08-27 16:30:55; 401.00; 2.29; 31.63
2019-08-27 16:45:09; 400.00; 2.30; 32.13
2019-08-27 16:45:21; 400.00; 2.30; 32.19
2019-08-27 16:45:34; 400.00; 2.30; 32.25
2019-08-27 16:45:46; 401.00; 2.29; 32.25
2019-08-27 16:45:59; 401.00; 2.29; 32.31
2019-08-27 17:00:01; 400.00; 2.30; 32.94
2019-08-27 17:00:14; 400.00; 2.30; 32.94
2019-08-27 17:00:26; 400.00; 2.30; 32.94
2019-08-27 17:00:39; 400.00; 2.30; 32.94
2019-08-27 17:00:51; 400.00; 2.30; 32.88
2019-08-27 17:15:05; 400.00; 2.30; 32.56
2019-08-27 17:15:17; 400.00; 2.30; 32.63
2019-08-27 17:15:30; 400.00; 2.30; 32.63
2019-08-27 17:15:42; 402.00; 2.28; 32.63
2019-08-27 17:15:55; 400.00; 2.30; 32.69
2019-08-27 17:30:09; 400.00; 2.30; 32.81
2019-08-27 17:30:21; 400.00; 2.30; 32.75
2019-08-27 17:30:33; 400.00; 2.30; 32.75
2019-08-27 17:30:46; 400.00; 2.30; 32.69
2019-08-27 17:30:58; 400.00; 2.30; 32.75
2019-08-27 17:45:01; 401.00; 2.29; 33.06
2019-08-27 17:45:13; 401.00; 2.29; 33.06
2019-08-27 17:45:26; 400.00; 2.30; 33.13
2019-08-27 17:45:38; 400.00; 2.30; 33.13
2019-08-27 17:45:51; 400.00; 2.30; 33.19
2019-08-27 18:00:04; 400.00; 2.30; 33.00
2019-08-27 18:00:17; 400.00; 2.30; 33.00
2019-08-27 18:00:29; 400.00; 2.30; 32.94
2019-08-27 18:00:42; 400.00; 2.30; 32.94
2019-08-27 18:00:54; 400.00; 2.30; 32.94
2019-08-27 18:15:08; 401.00; 2.29; 32.13
2019-08-27 18:15:20; 401.00; 2.29; 32.13
2019-08-27 18:15:33; 401.00; 2.29; 32.13
2019-08-27 18:15:45; 401.00; 2.29; 32.19
2019-08-27 18:15:58; 401.00; 2.29; 32.19
2019-08-27 18:30:11; 401.00; 2.29; 31.75
2019-08-27 18:30:24; 401.00; 2.29; 31.75
2019-08-27 18:30:36; 401.00; 2.29; 31.75
2019-08-27 18:30:48; 401.00; 2.29; 31.69
2019-08-27 18:45:02; 402.00; 2.28; 31.38
2019-08-27 18:45:15; 402.00; 2.28; 31.38
2019-08-27 18:45:27; 762.00; -1.32; 31.31
2019-08-27 18:45:40; 762.00; -1.32; 31.31
2019-08-27 18:45:52; 401.00; 2.29; 31.31
2019-08-27 19:00:06; 401.00; 2.29; 30.31
2019-08-27 19:00:18; 401.00; 2.29; 30.31
2019-08-27 19:00:31; 401.00; 2.29; 30.25
2019-08-27 19:00:43; 401.00; 2.29; 30.25
2019-08-27 19:00:56; 401.00; 2.29; 30.25
2019-08-27 19:15:10; 402.00; 2.28; 29.06
2019-08-27 19:15:22; 402.00; 2.28; 29.00
2019-08-27 19:15:35; 402.00; 2.28; 29.00
2019-08-27 19:15:47; 402.00; 2.28; 28.94
2019-08-27 19:16:00; 402.00; 2.28; 28.88
2019-08-27 19:30:03; 762.00; -1.32; 27.38
2019-08-27 19:30:15; 762.00; -1.32; 27.31
2019-08-27 19:30:28; 762.00; -1.32; 27.31
2019-08-27 19:30:40; 762.00; -1.32; 27.31
2019-08-27 19:30:53; 762.00; -1.32; 27.31
2019-08-27 19:45:07; 762.00; -1.32; 25.94
2019-08-27 19:45:19; 762.00; -1.32; 25.94
2019-08-27 19:45:32; 762.00; -1.32; 25.94
2019-08-27 19:45:44; 762.00; -1.32; 25.94
2019-08-27 19:45:57; 762.00; -1.32; 25.94
2019-08-27 20:00:11; 762.00; -1.32; 24.06
2019-08-27 20:00:24; 404.00; 2.26; 24.06
2019-08-27 20:00:36; 404.00; 2.26; 24.00
2019-08-27 20:00:49; 404.00; 2.26; 24.00
2019-08-27 20:15:03; 403.00; 2.27; 22.81
2019-08-27 20:15:16; 403.00; 2.27; 22.81
2019-08-27 20:15:28; 403.00; 2.27; 22.81
2019-08-27 20:15:41; 403.00; 2.27; 22.81
2019-08-27 20:15:53; 403.00; 2.27; 22.81
2019-08-27 20:30:08; 403.00; 2.27; 22.25
2019-08-27 20:30:20; 403.00; 2.27; 22.25
2019-08-27 20:30:33; 403.00; 2.27; 22.25
2019-08-27 20:30:45; 403.00; 2.27; 22.25
2019-08-27 20:30:58; 403.00; 2.27; 22.25
2019-08-27 20:45:01; 404.00; 2.26; 21.94
2019-08-27 20:45:13; 404.00; 2.26; 21.94
2019-08-27 20:45:26; 404.00; 2.26; 21.94
2019-08-27 20:45:38; 404.00; 2.26; 21.94
2019-08-27 20:45:51; 404.00; 2.26; 21.94
2019-08-27 21:00:05; 406.00; 2.24; 20.75
2019-08-27 21:00:18; 406.00; 2.24; 20.75
2019-08-27 21:00:30; 406.00; 2.24; 20.75
2019-08-27 21:00:43; 406.00; 2.24; 20.75
2019-08-27 21:00:55; 406.00; 2.24; 20.75
2019-08-27 21:15:10; 762.00; -1.32; 21.31
2019-08-27 21:15:22; 762.00; -1.32; 21.31
2019-08-27 21:15:35; 762.00; -1.32; 21.31
2019-08-27 21:15:47; 762.00; -1.32; 21.31
2019-08-27 21:16:00; 405.00; 2.25; 21.38
2019-08-27 21:30:02; 404.00; 2.26; 21.81
2019-08-27 21:30:15; 404.00; 2.26; 21.81
2019-08-27 21:30:27; 404.00; 2.26; 21.81
2019-08-27 21:30:40; 404.00; 2.26; 21.81
2019-08-27 21:30:52; 404.00; 2.26; 21.81
2019-08-27 21:45:07; 404.00; 2.26; 21.50
2019-08-27 21:45:19; 404.00; 2.26; 21.50
2019-08-27 21:45:32; 404.00; 2.26; 21.44
2019-08-27 21:45:44; 404.00; 2.26; 21.44
2019-08-27 21:45:57; 404.00; 2.26; 21.44
2019-08-27 22:00:11; 404.00; 2.26; 20.94
2019-08-27 22:00:23; 762.00; -1.32; 20.94
2019-08-27 22:00:36; 762.00; -1.32; 20.94
2019-08-27 22:00:48; 762.00; -1.32; 20.94
2019-08-27 22:01:01; 405.00; 2.25; 20.94
2019-08-27 22:15:04; 761.00; -1.31; 20.81
2019-08-27 22:15:16; 761.00; -1.31; 20.81
2019-08-27 22:15:29; 761.00; -1.31; 20.81
2019-08-27 22:15:41; 761.00; -1.31; 20.81
2019-08-27 22:15:54; 762.00; -1.32; 20.81
2019-08-27 22:30:09; 762.00; -1.32; 20.63
2019-08-27 22:30:21; 762.00; -1.32; 20.69
2019-08-27 22:30:34; 762.00; -1.32; 20.69
2019-08-27 22:30:46; 762.00; -1.32; 20.69
2019-08-27 22:30:58; 762.00; -1.32; 20.69
2019-08-27 22:45:02; 762.00; -1.32; 20.56
2019-08-27 22:45:14; 762.00; -1.32; 20.56
2019-08-27 22:45:27; 762.00; -1.32; 20.63
2019-08-27 22:45:39; 762.00; -1.32; 20.56
2019-08-27 22:45:52; 762.00; -1.32; 20.56
2019-08-27 23:00:07; 762.00; -1.32; 20.38
2019-08-27 23:00:19; 762.00; -1.32; 20.38
2019-08-27 23:00:32; 762.00; -1.32; 20.38
2019-08-27 23:00:44; 762.00; -1.32; 20.38
2019-08-27 23:00:57; 762.00; -1.32; 20.38
2019-08-27 23:15:11; 762.00; -1.32; 20.19
2019-08-27 23:15:24; 762.00; -1.32; 20.19
2019-08-27 23:15:36; 762.00; -1.32; 20.19
2019-08-27 23:15:49; 762.00; -1.32; 20.19
2019-08-27 23:30:05; 0.00; 6.30; 20.13
2019-08-27 23:30:18; 0.00; 6.30; 20.13
2019-08-27 23:30:30; 0.00; 6.30; 20.13
2019-08-27 23:30:43; 0.00; 6.30; 20.13
2019-08-27 23:30:55; 0.00; 6.30; 20.13
2019-08-27 23:45:02; 0.00; 6.30; 20.06
2019-08-27 23:45:14; 0.00; 6.30; 20.06
2019-08-27 23:45:27; 0.00; 6.30; 20.06
2019-08-27 23:45:39; 0.00; 6.30; 20.06
2019-08-27 23:45:52; 0.00; 6.30; 20.06
