2019-05-10 00:00:09; 221.00; 4.09; 17.69
2019-05-10 00:00:21; 221.00; 4.09; 17.69
2019-05-10 00:00:34; 221.00; 4.09; 17.69
2019-05-10 00:00:46; 222.00; 4.08; 17.69
2019-05-10 00:00:59; 221.00; 4.09; 17.69
2019-05-10 00:15:03; 222.00; 4.09; 17.75
2019-05-10 00:15:15; 222.00; 4.09; 17.75
2019-05-10 00:15:28; 222.00; 4.09; 17.75
2019-05-10 00:15:40; 222.00; 4.09; 17.75
2019-05-10 00:15:53; 222.00; 4.09; 17.75
2019-05-10 00:30:08; 222.00; 4.09; 17.75
2019-05-10 00:30:21; 221.00; 4.09; 17.75
2019-05-10 00:30:33; 221.00; 4.09; 17.75
2019-05-10 00:30:46; 221.00; 4.09; 17.75
2019-05-10 00:30:58; 222.00; 4.09; 17.75
2019-05-10 00:45:03; 221.00; 4.09; 17.69
2019-05-10 00:45:15; 221.00; 4.09; 17.69
2019-05-10 00:45:28; 221.00; 4.09; 17.69
2019-05-10 00:45:40; 221.00; 4.09; 17.69
2019-05-10 00:45:52; 221.00; 4.09; 17.69
2019-05-10 01:00:08; 221.00; 4.09; 17.69
2019-05-10 01:00:21; 221.00; 4.09; 17.75
2019-05-10 01:00:33; 221.00; 4.09; 17.75
2019-05-10 01:00:46; 221.00; 4.10; 17.69
2019-05-10 01:00:58; 221.00; 4.09; 17.69
2019-05-10 01:15:02; 221.00; 4.09; 17.50
2019-05-10 01:15:15; 221.00; 4.09; 17.50
2019-05-10 01:15:27; 221.00; 4.09; 17.44
2019-05-10 01:15:40; 221.00; 4.09; 17.44
2019-05-10 01:15:52; 221.00; 4.09; 17.44
2019-05-10 01:30:08; 221.00; 4.09; 17.25
2019-05-10 01:30:20; 221.00; 4.09; 17.25
2019-05-10 01:30:32; 221.00; 4.08; 17.25
2019-05-10 01:30:45; 221.00; 4.09; 17.25
2019-05-10 01:30:57; 221.00; 4.09; 17.25
2019-05-10 01:45:02; 221.00; 4.09; 17.19
2019-05-10 01:45:14; 221.00; 4.09; 17.19
2019-05-10 01:45:27; 221.00; 4.09; 17.19
2019-05-10 01:45:39; 220.00; 4.10; 17.19
2019-05-10 01:45:52; 221.00; 4.09; 17.19
2019-05-10 02:15:55; 221.00; 4.09; 17.00
2019-05-10 02:30:09; 221.00; 4.09; 17.00
2019-05-10 02:30:22; 221.00; 4.09; 17.00
2019-05-10 02:30:34; 221.00; 4.09; 17.00
2019-05-10 02:30:47; 221.00; 4.08; 17.00
2019-05-10 02:30:59; 221.00; 4.09; 17.00
2019-05-10 02:45:04; 221.00; 4.09; 16.94
2019-05-10 02:45:16; 222.00; 4.08; 16.94
2019-05-10 02:45:29; 221.00; 4.09; 16.94
2019-05-10 02:45:41; 222.00; 4.08; 16.94
2019-05-10 02:45:54; 222.00; 4.08; 16.94
2019-05-10 03:00:09; 221.00; 4.09; 16.94
2019-05-10 03:00:22; 222.00; 4.08; 16.94
2019-05-10 03:00:34; 222.00; 4.08; 16.94
2019-05-10 03:00:47; 222.00; 4.08; 16.94
2019-05-10 03:00:59; 222.00; 4.08; 16.94
2019-05-10 03:15:04; 222.00; 4.08; 16.75
2019-05-10 03:15:16; 223.00; 4.07; 16.69
2019-05-10 03:15:28; 223.00; 4.07; 16.69
2019-05-10 03:15:41; 223.00; 4.07; 16.69
2019-05-10 03:15:53; 224.00; 4.06; 16.69
2019-05-10 03:30:09; 223.00; 4.07; 16.50
2019-05-10 03:30:22; 223.00; 4.07; 16.50
2019-05-10 03:30:34; 225.00; 4.06; 16.44
2019-05-10 03:30:47; 223.00; 4.07; 16.44
2019-05-10 03:30:59; 224.00; 4.06; 16.44
2019-05-10 03:45:03; 224.00; 4.06; 16.44
2019-05-10 03:45:16; 223.00; 4.07; 16.44
2019-05-10 03:45:28; 225.00; 4.06; 16.44
2019-05-10 03:45:41; 223.00; 4.07; 16.44
2019-05-10 03:45:53; 225.00; 4.04; 16.44
2019-05-10 04:00:09; 223.00; 4.08; 16.31
2019-05-10 04:00:22; 223.00; 4.07; 16.31
2019-05-10 04:00:34; 223.00; 4.08; 16.31
2019-05-10 04:00:47; 223.00; 4.07; 16.25
2019-05-10 04:00:59; 221.00; 4.09; 16.31
2019-05-10 04:15:03; 225.00; 4.05; 16.38
2019-05-10 04:15:16; 223.00; 4.07; 16.38
2019-05-10 04:15:28; 222.00; 4.08; 16.38
2019-05-10 04:15:41; 225.00; 4.05; 16.38
2019-05-10 04:15:53; 224.00; 4.05; 16.38
2019-05-10 04:30:09; 223.00; 4.07; 16.19
2019-05-10 04:30:21; 223.00; 4.07; 16.13
2019-05-10 04:30:34; 224.00; 4.06; 16.13
2019-05-10 04:30:46; 223.00; 4.08; 16.13
2019-05-10 04:30:59; 223.00; 4.07; 16.13
2019-05-10 04:45:03; 225.00; 4.06; 16.00
2019-05-10 04:45:16; 223.00; 4.07; 16.00
2019-05-10 04:45:28; 221.00; 4.10; 16.00
2019-05-10 04:45:40; 224.00; 4.06; 16.00
2019-05-10 04:45:53; 226.00; 4.03; 16.00
2019-05-10 05:00:09; 222.00; 4.09; 15.88
2019-05-10 05:00:21; 225.00; 4.05; 15.81
2019-05-10 05:00:33; 225.00; 4.05; 15.81
2019-05-10 05:00:46; 226.00; 4.05; 15.81
2019-05-10 05:00:58; 223.00; 4.07; 15.81
2019-05-10 05:15:03; 226.00; 4.05; 15.69
2019-05-10 05:15:15; 226.00; 4.03; 15.69
2019-05-10 05:15:28; 225.00; 4.06; 15.69
2019-05-10 05:15:40; 226.00; 4.04; 15.69
2019-05-10 05:15:53; 226.00; 4.05; 15.69
2019-05-10 05:30:08; 227.00; 4.02; 15.56
2019-05-10 05:30:21; 227.00; 4.03; 15.63
2019-05-10 05:30:33; 224.00; 4.06; 15.63
2019-05-10 05:30:46; 222.00; 4.08; 15.63
2019-05-10 05:30:58; 223.00; 4.07; 15.63
2019-05-10 05:45:02; 221.00; 4.09; 15.63
2019-05-10 05:45:15; 222.00; 4.08; 15.63
2019-05-10 05:45:27; 224.00; 4.07; 15.63
2019-05-10 05:45:40; 231.00; 3.98; 15.63
2019-05-10 05:45:52; 225.00; 4.04; 15.63
2019-05-10 06:00:08; 221.00; 4.09; 15.69
2019-05-10 06:00:20; 224.00; 4.05; 15.69
2019-05-10 06:00:33; 222.00; 4.07; 15.69
2019-05-10 06:00:45; 226.00; 4.04; 15.69
2019-05-10 06:00:58; 224.00; 4.06; 15.69
2019-05-10 06:15:02; 224.00; 4.06; 15.75
2019-05-10 06:15:15; 224.00; 4.06; 15.75
2019-05-10 06:15:27; 224.00; 4.07; 15.75
2019-05-10 06:15:40; 225.00; 4.04; 15.75
2019-05-10 06:15:52; 222.00; 4.08; 15.75
2019-05-10 06:30:08; 219.00; 4.10; 15.75
2019-05-10 06:30:20; 223.00; 4.07; 15.75
2019-05-10 06:30:33; 223.00; 4.07; 15.81
2019-05-10 06:30:45; 219.00; 4.11; 15.81
2019-05-10 06:30:58; 221.00; 4.08; 15.81
2019-05-10 06:45:02; 221.00; 4.09; 15.94
2019-05-10 06:45:14; 222.00; 4.09; 15.88
2019-05-10 06:45:27; 222.00; 4.07; 15.88
2019-05-10 06:45:39; 224.00; 4.07; 15.94
2019-05-10 06:45:52; 218.00; 4.11; 15.94
2019-05-10 07:00:07; 224.00; 4.06; 15.88
2019-05-10 07:00:20; 223.00; 4.07; 15.88
2019-05-10 07:00:33; 224.00; 4.07; 15.88
2019-05-10 07:00:45; 222.00; 4.08; 15.88
2019-05-10 07:00:57; 223.00; 4.08; 15.94
2019-05-10 07:15:02; 222.00; 4.08; 15.88
2019-05-10 07:15:14; 224.00; 4.06; 15.88
2019-05-10 07:15:27; 223.00; 4.07; 15.88
2019-05-10 07:15:39; 222.00; 4.08; 15.88
2019-05-10 07:15:52; 224.00; 4.07; 15.88
2019-05-10 07:30:07; 223.00; 4.06; 15.69
2019-05-10 07:30:20; 219.00; 4.11; 15.69
2019-05-10 07:30:32; 219.00; 4.11; 15.69
2019-05-10 07:30:45; 222.00; 4.07; 15.69
2019-05-10 07:30:57; 218.00; 4.12; 15.69
2019-05-10 07:45:01; 221.00; 4.10; 15.63
2019-05-10 07:45:14; 222.00; 4.08; 15.63
2019-05-10 07:45:27; 224.00; 4.06; 15.63
2019-05-10 07:45:39; 222.00; 4.08; 15.63
2019-05-10 07:45:52; 221.00; 4.09; 15.63
2019-05-10 08:00:07; 222.00; 4.07; 15.63
2019-05-10 08:00:20; 221.00; 4.10; 15.63
2019-05-10 08:00:32; 219.00; 4.10; 15.63
2019-05-10 08:00:45; 223.00; 4.07; 15.63
2019-05-10 08:00:57; 221.00; 4.08; 15.63
2019-05-10 08:15:02; 223.00; 4.06; 15.50
2019-05-10 08:15:14; 222.00; 4.07; 15.50
2019-05-10 08:15:27; 221.00; 4.08; 15.50
2019-05-10 08:15:39; 220.00; 4.09; 15.50
2019-05-10 08:15:52; 223.00; 4.07; 15.50
2019-05-10 08:30:07; 223.00; 4.07; 15.19
2019-05-10 08:30:20; 223.00; 4.07; 15.19
2019-05-10 08:30:32; 221.00; 4.08; 15.19
2019-05-10 08:30:45; 223.00; 4.07; 15.13
2019-05-10 08:30:57; 226.00; 4.04; 15.19
2019-05-10 08:45:02; 223.00; 4.06; 15.19
2019-05-10 08:45:14; 224.00; 4.06; 15.19
2019-05-10 08:45:27; 224.00; 4.06; 15.19
2019-05-10 08:45:39; 221.00; 4.08; 15.19
2019-05-10 08:45:52; 219.00; 4.10; 15.25
2019-05-10 09:00:08; 221.00; 4.10; 15.25
2019-05-10 09:00:20; 224.00; 4.06; 15.25
2019-05-10 09:00:32; 226.00; 4.04; 15.25
2019-05-10 09:00:45; 223.00; 4.08; 15.25
2019-05-10 09:00:58; 222.00; 4.09; 15.25
2019-05-10 09:15:02; 225.00; 4.04; 15.06
2019-05-10 09:15:15; 221.00; 4.09; 15.00
2019-05-10 09:15:27; 226.00; 4.05; 15.00
2019-05-10 09:15:39; 226.00; 4.05; 15.00
2019-05-10 09:15:52; 222.00; 4.09; 15.00
2019-05-10 09:30:08; 225.00; 4.06; 15.00
2019-05-10 09:30:20; 228.00; 4.02; 15.00
2019-05-10 09:30:33; 222.00; 4.09; 15.00
2019-05-10 09:30:45; 227.00; 4.04; 15.00
2019-05-10 09:30:58; 223.00; 4.07; 15.00
2019-05-10 09:45:02; 226.00; 4.04; 15.13
2019-05-10 09:45:15; 223.00; 4.07; 15.06
2019-05-10 09:45:27; 224.00; 4.07; 15.13
2019-05-10 09:45:40; 225.00; 4.06; 15.06
2019-05-10 09:45:52; 224.00; 4.05; 15.13
2019-05-10 11:15:10; 221.00; 4.08; 15.63
2019-05-10 11:15:22; 224.00; 4.07; 15.63
2019-05-10 11:15:35; 223.00; 4.07; 15.63
2019-05-10 11:15:47; 223.00; 4.07; 15.63
2019-05-10 11:16:00; 222.00; 4.08; 15.69
2019-05-10 11:30:04; 222.00; 4.08; 17.50
2019-05-10 11:30:16; 223.00; 4.07; 17.50
2019-05-10 11:30:29; 222.00; 4.07; 17.56
2019-05-10 11:30:41; 222.00; 4.09; 17.56
2019-05-10 11:30:54; 221.00; 4.10; 17.56
2019-05-10 11:45:09; 222.00; 4.08; 17.81
2019-05-10 11:45:22; 221.00; 4.09; 17.88
2019-05-10 11:45:34; 221.00; 4.08; 17.88
2019-05-10 11:45:47; 220.00; 4.11; 17.94
2019-05-10 11:45:59; 221.00; 4.10; 18.00
2019-05-10 12:00:02; 219.00; 4.11; 17.81
2019-05-10 12:00:14; 223.00; 4.07; 17.81
2019-05-10 12:00:27; 222.00; 4.09; 17.75
2019-05-10 12:00:39; 224.00; 4.06; 17.69
2019-05-10 12:00:52; 222.00; 4.08; 17.69
2019-05-10 12:15:07; 222.00; 4.08; 18.38
2019-05-10 12:15:20; 220.00; 4.10; 18.38
2019-05-10 12:15:32; 221.00; 4.08; 18.38
2019-05-10 12:15:44; 221.00; 4.09; 18.44
2019-05-10 12:15:57; 221.00; 4.09; 18.50
2019-05-10 12:30:01; 220.00; 4.10; 18.06
2019-05-10 12:30:13; 223.00; 4.07; 18.00
2019-05-10 12:30:26; 224.00; 4.06; 17.94
2019-05-10 12:30:38; 223.00; 4.07; 18.00
2019-05-10 12:30:51; 223.00; 4.07; 18.00
2019-05-10 12:45:06; 221.00; 4.09; 18.25
2019-05-10 12:45:18; 220.00; 4.10; 18.31
2019-05-10 12:45:31; 221.00; 4.09; 18.31
2019-05-10 12:45:43; 222.00; 4.08; 18.38
2019-05-10 12:45:56; 222.00; 4.08; 18.38
2019-05-10 13:00:11; 224.00; 4.07; 18.56
2019-05-10 13:00:23; 224.00; 4.07; 18.56
2019-05-10 13:00:36; 222.00; 4.08; 18.63
2019-05-10 13:00:48; 223.00; 4.08; 18.56
2019-05-10 13:15:04; 222.00; 4.08; 18.56
2019-05-10 13:15:16; 225.00; 4.05; 18.56
2019-05-10 13:15:29; 224.00; 4.06; 18.50
2019-05-10 13:15:41; 223.00; 4.07; 18.50
2019-05-10 13:15:54; 222.00; 4.08; 18.44
2019-05-10 13:30:09; 224.00; 4.07; 18.75
2019-05-10 13:30:21; 224.00; 4.06; 18.81
2019-05-10 13:30:34; 222.00; 4.09; 18.81
2019-05-10 13:30:46; 222.00; 4.08; 18.81
2019-05-10 13:30:59; 222.00; 4.07; 18.81
2019-05-10 13:45:02; 220.00; 4.09; 19.19
2019-05-10 13:45:15; 224.00; 4.06; 19.19
2019-05-10 13:45:27; 222.00; 4.08; 19.19
2019-05-10 13:45:40; 225.00; 4.05; 19.19
2019-05-10 13:45:52; 224.00; 4.06; 19.13
2019-05-10 14:00:08; 221.00; 4.08; 19.19
2019-05-10 14:00:20; 220.00; 4.10; 19.19
2019-05-10 14:00:33; 220.00; 4.09; 19.25
2019-05-10 14:00:45; 221.00; 4.09; 19.25
2019-05-10 14:00:57; 225.00; 4.05; 19.31
2019-05-10 14:15:01; 220.00; 4.10; 19.63
2019-05-10 14:15:14; 218.00; 4.12; 19.63
2019-05-10 14:15:26; 222.00; 4.08; 19.63
2019-05-10 14:15:39; 222.00; 4.08; 19.63
2019-05-10 14:15:51; 219.00; 4.11; 19.63
2019-05-10 14:30:06; 225.00; 4.05; 20.00
2019-05-10 14:30:19; 220.00; 4.11; 20.00
2019-05-10 14:30:31; 222.00; 4.08; 20.00
2019-05-10 14:30:44; 220.00; 4.10; 20.00
2019-05-10 14:30:56; 221.00; 4.08; 20.06
2019-05-10 14:45:11; 220.00; 4.10; 20.19
2019-05-10 14:45:24; 220.00; 4.10; 20.19
2019-05-10 14:45:36; 220.00; 4.10; 20.19
2019-05-10 14:45:49; 220.00; 4.10; 20.19
2019-05-10 15:00:04; 220.00; 4.09; 20.63
2019-05-10 15:00:16; 221.00; 4.09; 20.69
2019-05-10 15:00:29; 221.00; 4.09; 20.69
2019-05-10 15:00:41; 223.00; 4.08; 20.69
2019-05-10 15:00:54; 222.00; 4.09; 20.63
2019-05-10 15:15:09; 222.00; 4.07; 20.94
2019-05-10 15:15:21; 219.00; 4.11; 20.88
2019-05-10 15:15:34; 225.00; 4.05; 20.94
2019-05-10 15:15:46; 221.00; 4.09; 20.88
2019-05-10 15:15:59; 222.00; 4.08; 20.94
2019-05-10 15:30:03; 221.00; 4.08; 21.13
2019-05-10 15:30:15; 221.00; 4.09; 21.13
2019-05-10 15:30:27; 222.00; 4.07; 21.13
2019-05-10 15:30:40; 220.00; 4.10; 21.13
2019-05-10 15:30:52; 224.00; 4.06; 21.19
2019-05-10 15:45:07; 220.00; 4.11; 21.19
2019-05-10 15:45:20; 224.00; 4.06; 21.19
2019-05-10 15:45:32; 221.00; 4.08; 21.19
2019-05-10 15:45:45; 223.00; 4.08; 21.19
2019-05-10 15:45:57; 221.00; 4.09; 21.13
2019-05-10 16:00:02; 222.00; 4.08; 21.44
2019-05-10 16:00:15; 222.00; 4.08; 21.38
2019-05-10 16:00:27; 224.00; 4.07; 21.38
2019-05-10 16:00:40; 220.00; 4.09; 21.38
2019-05-10 16:00:52; 220.00; 4.09; 21.38
2019-05-10 16:15:08; 221.00; 4.09; 21.75
2019-05-10 16:15:20; 223.00; 4.06; 21.75
2019-05-10 16:15:33; 221.00; 4.09; 21.69
2019-05-10 16:15:45; 223.00; 4.07; 21.69
2019-05-10 16:15:57; 221.00; 4.10; 21.75
2019-05-10 16:30:01; 219.00; 4.11; 22.25
2019-05-10 16:30:13; 221.00; 4.09; 22.31
2019-05-10 16:30:26; 221.00; 4.09; 22.31
2019-05-10 16:30:38; 222.00; 4.09; 22.38
2019-05-10 16:30:51; 222.00; 4.09; 22.38
2019-05-10 16:45:06; 221.00; 4.09; 22.25
2019-05-10 16:45:18; 218.00; 4.12; 22.31
2019-05-10 16:45:31; 220.00; 4.10; 22.31
2019-05-10 16:45:43; 220.00; 4.10; 22.25
2019-05-10 16:45:56; 221.00; 4.10; 22.25
2019-05-10 17:00:11; 218.00; 4.12; 22.56
2019-05-10 17:00:24; 219.00; 4.10; 22.63
2019-05-10 17:00:36; 220.00; 4.10; 22.69
2019-05-10 17:00:48; 220.00; 4.10; 22.63
2019-05-10 17:15:04; 219.00; 4.11; 22.75
2019-05-10 17:15:16; 221.00; 4.09; 22.75
2019-05-10 17:15:29; 219.00; 4.11; 22.81
2019-05-10 17:15:41; 220.00; 4.10; 22.81
2019-05-10 17:15:53; 220.00; 4.11; 22.75
2019-05-10 17:30:09; 221.00; 4.10; 21.38
2019-05-10 17:30:21; 219.00; 4.12; 21.44
2019-05-10 17:30:34; 220.00; 4.10; 21.44
2019-05-10 17:30:46; 221.00; 4.09; 21.44
2019-05-10 17:30:59; 222.00; 4.09; 21.50
2019-05-10 17:45:02; 219.00; 4.11; 22.88
2019-05-10 17:45:15; 219.00; 4.11; 22.88
2019-05-10 17:45:27; 219.00; 4.12; 22.88
2019-05-10 17:45:40; 220.00; 4.10; 22.88
2019-05-10 17:45:52; 219.00; 4.11; 22.88
2019-05-10 18:00:08; 220.00; 4.10; 22.94
2019-05-10 18:00:20; 219.00; 4.12; 22.94
2019-05-10 18:00:32; 219.00; 4.11; 22.94
2019-05-10 18:00:45; 219.00; 4.11; 22.94
2019-05-10 18:00:57; 220.00; 4.10; 22.94
2019-05-10 18:15:01; 218.00; 4.12; 23.31
2019-05-10 18:15:14; 219.00; 4.11; 23.31
2019-05-10 18:15:26; 219.00; 4.11; 23.31
2019-05-10 18:15:39; 219.00; 4.12; 23.38
2019-05-10 18:15:51; 219.00; 4.12; 23.38
2019-05-10 18:30:09; 218.00; 4.12; 23.44
2019-05-10 18:30:22; 218.00; 4.12; 23.44
2019-05-10 18:30:34; 219.00; 4.11; 23.38
2019-05-10 18:30:47; 219.00; 4.12; 23.38
2019-05-10 18:30:59; 219.00; 4.11; 23.31
2019-05-10 18:45:03; 218.00; 4.12; 22.13
2019-05-10 18:45:15; 218.00; 4.12; 22.06
2019-05-10 18:45:28; 218.00; 4.12; 22.06
2019-05-10 18:45:40; 218.00; 4.12; 22.00
2019-05-10 18:45:53; 219.00; 4.11; 21.94
2019-05-10 19:00:08; 219.00; 4.11; 21.50
2019-05-10 19:00:20; 218.00; 4.12; 21.50
2019-05-10 19:00:33; 219.00; 4.11; 21.50
2019-05-10 19:00:45; 219.00; 4.10; 21.50
2019-05-10 19:00:58; 219.00; 4.11; 21.50
2019-05-10 19:15:02; 219.00; 4.11; 20.00
2019-05-10 19:15:14; 219.00; 4.11; 19.94
2019-05-10 19:15:27; 219.00; 4.11; 19.94
2019-05-10 19:15:39; 219.00; 4.11; 19.88
2019-05-10 19:15:52; 218.00; 4.11; 19.81
2019-05-10 19:30:07; 219.00; 4.11; 17.88
2019-05-10 19:30:20; 219.00; 4.11; 17.88
2019-05-10 19:30:32; 219.00; 4.11; 17.88
2019-05-10 19:30:45; 219.00; 4.11; 17.88
2019-05-10 19:30:57; 218.00; 4.12; 17.88
2019-05-10 19:45:02; 218.00; 4.12; 17.00
2019-05-10 19:45:14; 219.00; 4.11; 17.00
2019-05-10 19:45:27; 219.00; 4.11; 17.00
2019-05-10 19:45:39; 219.00; 4.11; 16.94
2019-05-10 19:45:52; 219.00; 4.11; 17.00
2019-05-10 20:00:07; 219.00; 4.11; 16.56
2019-05-10 20:00:20; 219.00; 4.11; 16.56
2019-05-10 20:00:32; 219.00; 4.11; 16.56
2019-05-10 20:00:45; 219.00; 4.11; 16.56
2019-05-10 20:00:57; 219.00; 4.11; 16.56
2019-05-10 20:15:02; 220.00; 4.11; 16.25
2019-05-10 20:15:14; 219.00; 4.11; 16.25
2019-05-10 20:15:27; 218.00; 4.11; 16.25
2019-05-10 20:15:39; 219.00; 4.11; 16.25
2019-05-10 20:15:52; 219.00; 4.11; 16.19
2019-05-10 20:30:07; 218.00; 4.12; 15.94
2019-05-10 20:30:20; 218.00; 4.12; 15.94
2019-05-10 20:30:32; 219.00; 4.11; 15.94
2019-05-10 20:30:45; 218.00; 4.12; 15.94
2019-05-10 20:30:57; 218.00; 4.12; 15.94
2019-05-10 20:45:02; 219.00; 4.11; 15.88
2019-05-10 20:45:14; 219.00; 4.11; 15.88
2019-05-10 20:45:27; 219.00; 4.11; 15.88
2019-05-10 20:45:39; 218.00; 4.12; 15.88
2019-05-10 20:45:52; 218.00; 4.12; 15.88
2019-05-10 21:00:07; 219.00; 4.11; 15.56
2019-05-10 21:00:20; 219.00; 4.11; 15.56
2019-05-10 21:00:32; 220.00; 4.11; 15.56
2019-05-10 21:00:45; 219.00; 4.11; 15.56
2019-05-10 21:00:57; 218.00; 4.12; 15.56
2019-05-10 21:15:02; 220.00; 4.11; 15.25
2019-05-10 21:15:14; 220.00; 4.11; 15.25
2019-05-10 21:15:27; 220.00; 4.11; 15.25
2019-05-10 21:15:39; 220.00; 4.10; 15.25
2019-05-10 21:15:52; 220.00; 4.11; 15.25
2019-05-10 21:30:07; 220.00; 4.10; 15.13
2019-05-10 21:30:20; 220.00; 4.10; 15.13
2019-05-10 21:30:32; 220.00; 4.10; 15.13
2019-05-10 21:30:45; 220.00; 4.10; 15.13
2019-05-10 21:30:57; 220.00; 4.10; 15.13
2019-05-10 21:45:02; 220.00; 4.10; 14.94
2019-05-10 21:45:14; 220.00; 4.10; 15.00
2019-05-10 21:45:27; 220.00; 4.10; 15.00
2019-05-10 21:45:39; 220.00; 4.10; 15.00
2019-05-10 21:45:52; 220.00; 4.10; 15.00
2019-05-10 22:00:08; 220.00; 4.10; 14.88
2019-05-10 22:00:20; 220.00; 4.10; 14.88
2019-05-10 22:00:33; 220.00; 4.10; 14.88
2019-05-10 22:00:45; 220.00; 4.10; 14.94
2019-05-10 22:00:58; 220.00; 4.10; 14.88
2019-05-10 22:15:02; 220.00; 4.10; 14.88
2019-05-10 22:15:14; 220.00; 4.10; 14.88
2019-05-10 22:15:27; 220.00; 4.10; 14.88
2019-05-10 22:15:39; 220.00; 4.10; 14.88
2019-05-10 22:15:52; 220.00; 4.10; 14.88
2019-05-10 22:30:08; 219.00; 4.11; 15.44
2019-05-10 22:30:20; 220.00; 4.10; 15.50
2019-05-10 22:30:33; 219.00; 4.11; 15.50
2019-05-10 22:30:45; 219.00; 4.11; 15.50
2019-05-10 22:30:58; 219.00; 4.11; 15.50
2019-05-10 22:45:02; 218.00; 4.12; 15.75
2019-05-10 22:45:15; 219.00; 4.11; 15.75
2019-05-10 22:45:27; 219.00; 4.11; 15.75
2019-05-10 22:45:40; 219.00; 4.11; 15.75
2019-05-10 22:45:52; 220.00; 4.11; 15.75
2019-05-10 23:00:08; 219.00; 4.11; 15.75
2019-05-10 23:00:20; 219.00; 4.11; 15.75
2019-05-10 23:00:33; 219.00; 4.11; 15.75
2019-05-10 23:00:45; 219.00; 4.11; 15.75
2019-05-10 23:00:58; 219.00; 4.11; 15.75
2019-05-10 23:15:02; 220.00; 4.11; 15.56
2019-05-10 23:15:15; 220.00; 4.11; 15.50
2019-05-10 23:15:27; 220.00; 4.11; 15.50
2019-05-10 23:15:40; 220.00; 4.11; 15.50
2019-05-10 23:15:52; 220.00; 4.11; 15.50
2019-05-10 23:30:08; 220.00; 4.11; 15.31
2019-05-10 23:30:20; 220.00; 4.11; 15.31
2019-05-10 23:30:33; 219.00; 4.11; 15.31
2019-05-10 23:30:45; 220.00; 4.11; 15.31
2019-05-10 23:30:58; 220.00; 4.10; 15.31
2019-05-10 23:45:02; 220.00; 4.10; 15.06
2019-05-10 23:45:15; 220.00; 4.10; 15.06
2019-05-10 23:45:27; 220.00; 4.10; 15.06
2019-05-10 23:45:40; 220.00; 4.10; 15.06
2019-05-10 23:45:52; 220.00; 4.10; 15.06
