2019-01-04 00:00:10; 184.00; 4.45; 20.94
2019-01-04 00:00:22; 185.00; 4.46; 20.94
2019-01-04 00:00:34; 185.00; 4.45; 20.94
2019-01-04 00:00:47; 184.00; 4.45; 20.94
2019-01-04 00:01:00; 184.00; 4.46; 20.94
2019-01-04 00:15:03; 183.00; 4.47; 21.06
2019-01-04 00:15:16; 184.00; 4.46; 21.06
2019-01-04 00:15:28; 184.00; 4.46; 21.06
2019-01-04 00:15:41; 184.00; 4.46; 21.06
2019-01-04 00:15:53; 184.00; 4.46; 21.06
2019-01-04 00:30:09; 185.00; 4.45; 21.00
2019-01-04 00:30:21; 184.00; 4.46; 21.00
2019-01-04 00:30:34; 184.00; 4.46; 21.00
2019-01-04 00:30:46; 184.00; 4.46; 21.00
2019-01-04 00:30:59; 184.00; 4.46; 21.00
2019-01-04 00:45:02; 185.00; 4.45; 20.88
2019-01-04 00:45:15; 184.00; 4.46; 20.88
2019-01-04 00:45:27; 185.00; 4.45; 20.88
2019-01-04 00:45:40; 184.00; 4.46; 20.88
2019-01-04 00:45:52; 185.00; 4.45; 20.94
2019-01-04 01:00:08; 184.00; 4.46; 20.94
2019-01-04 01:00:20; 184.00; 4.46; 20.94
2019-01-04 01:00:33; 185.00; 4.45; 20.94
2019-01-04 01:00:45; 184.00; 4.46; 20.94
2019-01-04 01:00:58; 185.00; 4.45; 20.94
2019-01-04 01:15:02; 184.00; 4.46; 20.88
2019-01-04 01:15:14; 184.00; 4.46; 20.88
2019-01-04 01:15:27; 184.00; 4.46; 20.88
2019-01-04 01:15:39; 185.00; 4.45; 20.88
2019-01-04 01:15:52; 184.00; 4.46; 20.88
2019-01-04 01:30:07; 185.00; 4.45; 20.94
2019-01-04 01:30:19; 184.00; 4.46; 20.94
2019-01-04 01:30:32; 184.00; 4.46; 20.94
2019-01-04 01:30:44; 184.00; 4.46; 21.00
2019-01-04 01:30:57; 184.00; 4.46; 20.94
2019-01-04 01:45:01; 184.00; 4.46; 20.81
2019-01-04 01:45:13; 184.00; 4.46; 20.81
2019-01-04 01:45:26; 183.00; 4.47; 20.81
2019-01-04 01:45:38; 184.00; 4.35; 20.81
2019-01-04 01:45:51; 184.00; 4.46; 20.81
2019-01-04 02:00:06; 186.00; 4.43; 20.75
2019-01-04 02:00:18; 187.00; 4.43; 20.75
2019-01-04 02:00:31; 185.00; 4.45; 20.75
2019-01-04 02:00:43; 186.00; 4.44; 20.75
2019-01-04 02:00:56; 186.00; 4.44; 20.75
2019-01-04 02:15:11; 185.00; 4.42; 20.56
2019-01-04 02:15:23; 185.00; 4.45; 20.56
2019-01-04 02:15:36; 185.00; 4.45; 20.56
2019-01-04 02:15:48; 185.00; 4.45; 20.56
2019-01-04 02:30:03; 198.00; 4.32; 20.56
2019-01-04 02:30:16; 182.00; 4.48; 20.56
2019-01-04 02:30:28; 184.00; 4.46; 20.56
2019-01-04 02:30:41; 184.00; 4.46; 20.56
2019-01-04 02:30:53; 184.00; 4.46; 20.56
2019-01-04 02:45:09; 184.00; 4.46; 20.56
2019-01-04 02:45:21; 184.00; 4.46; 20.56
2019-01-04 02:45:34; 183.00; 4.46; 20.56
2019-01-04 02:45:46; 184.00; 4.46; 20.56
2019-01-04 02:45:58; 184.00; 4.46; 20.56
2019-01-04 03:00:02; 195.00; 4.35; 20.50
2019-01-04 03:00:15; 184.00; 4.47; 20.50
2019-01-04 03:00:27; 197.00; 4.33; 20.44
2019-01-04 03:00:40; 184.00; 4.46; 20.44
2019-01-04 03:00:52; 184.00; 4.46; 20.44
2019-01-04 03:15:08; 184.00; 4.46; 20.38
2019-01-04 03:15:20; 184.00; 4.46; 20.38
2019-01-04 03:15:32; 184.00; 4.46; 20.44
2019-01-04 03:15:45; 184.00; 4.46; 20.44
2019-01-04 03:15:57; 184.00; 4.46; 20.44
2019-01-04 03:30:01; 204.00; 4.26; 20.44
2019-01-04 03:30:13; 197.00; 4.33; 20.44
2019-01-04 03:30:26; 185.00; 4.45; 20.44
2019-01-04 03:30:38; 193.00; 4.37; 20.44
2019-01-04 03:30:51; 196.00; 4.34; 20.44
2019-01-04 03:45:06; 184.00; 4.46; 20.31
2019-01-04 03:45:18; 185.00; 4.46; 20.31
2019-01-04 03:45:31; 184.00; 4.46; 20.31
2019-01-04 03:45:43; 185.00; 4.45; 20.31
2019-01-04 03:45:56; 191.00; 4.39; 20.31
2019-01-04 04:00:11; 185.00; 4.45; 20.13
2019-01-04 04:00:23; 185.00; 4.45; 20.13
2019-01-04 04:00:36; 185.00; 4.45; 20.13
2019-01-04 04:00:48; 184.00; 4.45; 20.13
2019-01-04 04:15:03; 185.00; 4.45; 20.00
2019-01-04 04:15:16; 185.00; 4.45; 20.00
2019-01-04 04:15:28; 213.00; 4.17; 20.00
2019-01-04 04:15:41; 197.00; 4.33; 20.00
2019-01-04 04:15:53; 185.00; 4.45; 20.00
2019-01-04 04:30:09; 185.00; 4.45; 19.94
2019-01-04 04:30:21; 185.00; 4.45; 19.94
2019-01-04 04:30:34; 185.00; 4.45; 19.94
2019-01-04 04:30:46; 184.00; 4.46; 19.94
2019-01-04 04:30:58; 185.00; 4.45; 19.94
2019-01-04 04:45:02; 185.00; 4.45; 19.94
2019-01-04 04:45:15; 185.00; 4.45; 19.94
2019-01-04 04:45:28; 206.00; 4.23; 19.94
2019-01-04 04:45:40; 185.00; 4.45; 19.94
2019-01-04 04:45:52; 184.00; 4.46; 19.94
2019-01-04 05:00:08; 186.00; 4.44; 19.94
2019-01-04 05:00:20; 185.00; 4.45; 19.94
2019-01-04 05:00:33; 186.00; 4.44; 20.00
2019-01-04 05:00:45; 185.00; 4.45; 19.94
2019-01-04 05:00:58; 185.00; 4.45; 19.94
2019-01-04 05:15:02; 185.00; 4.44; 19.81
2019-01-04 05:15:14; 185.00; 4.45; 19.81
2019-01-04 05:15:27; 185.00; 4.45; 19.81
2019-01-04 05:15:39; 185.00; 4.45; 19.81
2019-01-04 05:15:51; 185.00; 4.45; 19.81
2019-01-04 05:30:07; 186.00; 4.44; 19.81
2019-01-04 05:30:19; 187.00; 4.43; 19.81
2019-01-04 05:30:32; 186.00; 4.44; 19.81
2019-01-04 05:30:44; 186.00; 4.44; 19.81
2019-01-04 05:30:57; 186.00; 4.44; 19.81
2019-01-04 05:45:01; 185.00; 4.45; 19.56
2019-01-04 05:45:13; 185.00; 4.45; 19.56
2019-01-04 05:45:26; 185.00; 4.45; 19.56
2019-01-04 05:45:38; 186.00; 4.44; 19.56
2019-01-04 05:45:51; 185.00; 4.45; 19.56
2019-01-04 06:00:06; 185.00; 4.45; 19.31
2019-01-04 06:00:18; 185.00; 4.45; 19.31
2019-01-04 06:00:31; 185.00; 4.45; 19.31
2019-01-04 06:00:43; 185.00; 4.45; 19.25
2019-01-04 06:00:56; 185.00; 4.45; 19.25
2019-01-04 06:15:11; 185.00; 4.45; 19.06
2019-01-04 06:15:24; 186.00; 4.45; 19.06
2019-01-04 06:15:36; 186.00; 4.44; 19.06
2019-01-04 06:15:49; 185.00; 4.45; 19.06
2019-01-04 06:30:04; 185.00; 4.45; 19.06
2019-01-04 06:30:17; 186.00; 4.45; 19.06
2019-01-04 06:30:29; 185.00; 4.45; 19.06
2019-01-04 06:30:42; 185.00; 4.45; 19.06
2019-01-04 06:30:54; 184.00; 4.46; 19.06
2019-01-04 06:45:09; 185.00; 4.45; 18.94
2019-01-04 06:45:22; 184.00; 4.46; 18.94
2019-01-04 06:45:34; 185.00; 4.45; 18.94
2019-01-04 06:45:47; 184.00; 4.46; 18.94
2019-01-04 06:45:59; 185.00; 4.45; 18.94
2019-01-04 07:00:03; 186.00; 4.44; 18.69
2019-01-04 07:00:16; 185.00; 4.45; 18.69
2019-01-04 07:00:28; 185.00; 4.45; 18.69
2019-01-04 07:00:41; 185.00; 4.45; 18.69
2019-01-04 07:00:53; 186.00; 4.44; 18.69
2019-01-04 07:15:09; 186.00; 4.44; 18.69
2019-01-04 07:15:21; 186.00; 4.44; 18.69
2019-01-04 07:15:34; 186.00; 4.44; 18.69
2019-01-04 07:15:46; 186.00; 4.44; 18.69
2019-01-04 07:15:59; 187.00; 4.43; 18.69
2019-01-04 07:30:03; 186.00; 4.44; 18.88
2019-01-04 07:30:15; 202.00; 4.44; 18.88
2019-01-04 07:30:28; 187.00; 4.43; 18.88
2019-01-04 07:30:40; 186.00; 4.44; 18.88
2019-01-04 07:30:53; 186.00; 4.43; 18.88
2019-01-04 07:45:08; 186.00; 4.44; 19.25
2019-01-04 07:45:21; 186.00; 4.44; 19.25
2019-01-04 07:45:33; 186.00; 4.44; 19.25
2019-01-04 07:45:46; 185.00; 4.45; 19.25
2019-01-04 07:45:58; 186.00; 4.44; 19.25
2019-01-04 08:00:02; 185.00; 4.45; 19.81
2019-01-04 08:00:15; 185.00; 4.45; 19.81
2019-01-04 08:00:27; 185.00; 4.45; 19.81
2019-01-04 08:00:40; 185.00; 4.45; 19.81
2019-01-04 08:00:52; 185.00; 4.45; 19.88
2019-01-04 08:15:07; 184.00; 4.46; 21.19
2019-01-04 08:15:20; 184.00; 4.46; 21.19
2019-01-04 08:15:32; 184.00; 4.46; 21.25
2019-01-04 08:15:45; 184.00; 4.46; 21.31
2019-01-04 08:15:57; 184.00; 4.46; 21.38
2019-01-04 08:30:01; 184.00; 4.46; 23.25
2019-01-04 08:30:13; 183.00; 4.47; 23.31
2019-01-04 08:30:26; 184.00; 4.46; 23.31
2019-01-04 08:30:38; 179.00; 4.51; 23.31
2019-01-04 08:30:51; 203.00; 4.27; 23.38
2019-01-04 08:45:05; 192.00; 4.38; 23.94
2019-01-04 08:45:18; 192.00; 4.38; 23.94
2019-01-04 08:45:30; 185.00; 4.45; 23.88
2019-01-04 08:45:43; 186.00; 4.44; 23.88
2019-01-04 08:45:55; 186.00; 4.44; 23.88
2019-01-04 09:00:10; 184.00; 4.46; 24.56
2019-01-04 09:00:22; 213.00; 4.17; 24.56
2019-01-04 09:00:35; 184.00; 4.46; 24.63
2019-01-04 09:00:47; 184.00; 4.46; 24.69
2019-01-04 09:01:00; 183.00; 4.47; 24.75
2019-01-04 09:15:03; 185.00; 4.45; 26.63
2019-01-04 09:15:16; 186.00; 4.44; 26.63
2019-01-04 09:15:28; 185.00; 4.45; 26.56
2019-01-04 09:15:41; 185.00; 4.45; 26.63
2019-01-04 09:15:53; 185.00; 4.45; 26.69
2019-01-04 09:30:08; 184.00; 4.46; 26.56
2019-01-04 09:30:20; 184.00; 4.46; 26.56
2019-01-04 09:30:33; 184.00; 4.46; 26.56
2019-01-04 09:30:45; 184.00; 4.46; 26.56
2019-01-04 09:30:58; 183.00; 4.47; 26.63
2019-01-04 09:45:01; 184.00; 4.46; 27.06
2019-01-04 09:45:13; 184.00; 4.46; 27.13
2019-01-04 09:45:26; 184.00; 4.46; 27.13
2019-01-04 09:45:38; 184.00; 4.46; 27.06
2019-01-04 09:45:51; 185.00; 4.45; 27.13
2019-01-04 10:00:05; 185.00; 4.45; 28.19
2019-01-04 10:00:18; 184.00; 4.46; 28.13
2019-01-04 10:00:30; 184.00; 4.46; 28.13
2019-01-04 10:00:43; 184.00; 4.46; 28.19
2019-01-04 10:00:55; 184.00; 4.46; 28.25
2019-01-04 10:15:10; 183.00; 4.47; 28.94
2019-01-04 10:15:22; 184.00; 4.46; 28.88
2019-01-04 10:15:35; 183.00; 4.47; 28.88
2019-01-04 10:15:47; 184.00; 4.47; 28.94
2019-01-04 10:16:00; 183.00; 4.47; 28.88
2019-01-04 10:30:03; 209.00; 4.21; 29.81
2019-01-04 10:30:15; 185.00; 4.45; 29.75
2019-01-04 10:30:28; 185.00; 4.45; 29.69
2019-01-04 10:30:40; 212.00; 4.18; 29.69
2019-01-04 10:30:52; 184.00; 4.47; 29.63
2019-01-04 10:45:07; 184.00; 4.46; 28.94
2019-01-04 10:45:19; 183.00; 4.47; 29.00
2019-01-04 10:45:32; 184.00; 4.46; 29.06
2019-01-04 10:45:44; 184.00; 4.46; 29.13
2019-01-04 10:45:57; 185.00; 4.45; 29.13
2019-01-04 11:00:11; 183.00; 4.47; 30.56
2019-01-04 11:00:24; 184.00; 4.46; 30.50
2019-01-04 11:00:36; 213.00; 4.17; 30.50
2019-01-04 11:00:48; 184.00; 4.46; 30.63
2019-01-04 11:15:03; 187.00; 4.43; 32.81
2019-01-04 11:15:15; 185.00; 4.45; 32.81
2019-01-04 11:15:28; 206.00; 4.24; 32.88
2019-01-04 11:15:40; 206.00; 4.24; 33.00
2019-01-04 11:15:53; 204.00; 4.26; 33.13
2019-01-04 11:30:07; 185.00; 4.45; 32.50
2019-01-04 11:30:19; 185.00; 4.45; 32.31
2019-01-04 11:30:32; 184.00; 4.46; 32.25
2019-01-04 11:30:44; 197.00; 4.33; 32.19
2019-01-04 11:30:57; 187.00; 4.43; 32.19
2019-01-04 11:45:11; 186.00; 4.44; 32.88
2019-01-04 11:45:23; 186.00; 4.44; 32.81
2019-01-04 11:45:36; 183.00; 4.47; 32.88
2019-01-04 11:45:48; 185.00; 4.45; 32.94
2019-01-04 12:00:02; 204.00; 4.26; 33.13
2019-01-04 12:00:15; 212.00; 4.18; 33.13
2019-01-04 12:00:27; 210.00; 4.20; 33.13
2019-01-04 12:00:40; 205.00; 4.25; 33.13
2019-01-04 12:00:52; 208.00; 4.23; 33.19
2019-01-04 12:15:06; 205.00; 4.25; 33.13
2019-01-04 12:15:19; 185.00; 4.45; 33.13
2019-01-04 12:15:31; 184.00; 4.46; 33.13
2019-01-04 12:15:43; 185.00; 4.45; 33.13
2019-01-04 12:15:56; 185.00; 4.45; 33.19
2019-01-04 12:30:10; 206.00; 4.28; 34.06
2019-01-04 12:30:23; 209.00; 4.21; 34.13
2019-01-04 12:30:35; 187.00; 4.43; 34.06
2019-01-04 12:30:47; 185.00; 4.45; 34.19
2019-01-04 12:31:00; 190.00; 4.40; 34.19
2019-01-04 12:45:03; 196.00; 4.34; 34.88
2019-01-04 12:45:15; 205.00; 4.25; 34.88
2019-01-04 12:45:27; 189.00; 4.41; 35.00
2019-01-04 12:45:40; 201.00; 4.29; 35.13
2019-01-04 12:45:52; 189.00; 4.41; 35.13
2019-01-04 13:00:06; 204.00; 4.26; 35.50
2019-01-04 13:00:19; 198.00; 4.32; 35.38
2019-01-04 13:00:31; 197.00; 4.33; 35.44
2019-01-04 13:00:44; 203.00; 4.27; 35.50
2019-01-04 13:00:56; 184.00; 4.46; 35.56
2019-01-04 13:15:10; 183.00; 4.47; 36.75
2019-01-04 13:15:23; 184.00; 4.46; 36.81
2019-01-04 13:15:35; 185.00; 4.45; 36.88
2019-01-04 13:15:48; 185.00; 4.45; 36.88
2019-01-04 13:16:00; 196.00; 4.34; 36.94
2019-01-04 13:30:03; 183.00; 4.47; 37.00
2019-01-04 13:30:15; 196.00; 4.34; 37.06
2019-01-04 13:30:28; 199.00; 4.31; 37.06
2019-01-04 13:30:40; 183.00; 4.47; 37.13
2019-01-04 13:30:53; 196.00; 4.34; 37.13
2019-01-04 13:45:07; 205.00; 4.25; 36.69
2019-01-04 13:45:19; 184.00; 4.46; 36.56
2019-01-04 13:45:32; 206.00; 4.24; 36.38
2019-01-04 13:45:44; 196.00; 4.34; 36.50
2019-01-04 13:45:57; 198.00; 4.32; 36.50
2019-01-04 14:00:11; 183.00; 4.47; 37.75
2019-01-04 14:00:23; 184.00; 4.46; 37.81
2019-01-04 14:00:36; 184.00; 4.46; 37.88
2019-01-04 14:00:48; 184.00; 4.46; 37.75
2019-01-04 14:15:02; 183.00; 4.47; 37.13
2019-01-04 14:15:15; 198.00; 4.32; 37.06
2019-01-04 14:15:27; 198.00; 4.32; 37.06
2019-01-04 14:15:39; 206.00; 4.24; 37.00
2019-01-04 14:15:52; 206.00; 4.24; 36.88
2019-01-04 14:30:06; 199.00; 4.31; 35.88
2019-01-04 14:30:18; 183.00; 4.47; 36.00
2019-01-04 14:30:31; 183.00; 4.47; 36.00
2019-01-04 14:30:43; 196.00; 4.34; 36.00
2019-01-04 14:30:56; 183.00; 4.47; 36.06
2019-01-04 14:45:10; 183.00; 4.47; 37.00
2019-01-04 14:45:22; 184.00; 4.46; 37.06
2019-01-04 14:45:35; 205.00; 4.46; 37.13
2019-01-04 14:45:47; 184.00; 4.46; 37.13
2019-01-04 14:46:00; 206.00; 4.24; 37.00
2019-01-04 15:00:02; 200.00; 4.30; 36.63
2019-01-04 15:00:14; 183.00; 4.47; 36.81
2019-01-04 15:00:27; 183.00; 4.47; 36.94
2019-01-04 15:00:39; 182.00; 4.48; 37.06
2019-01-04 15:00:52; 184.00; 4.46; 37.00
2019-01-04 15:15:06; 183.00; 4.47; 37.69
2019-01-04 15:15:18; 198.00; 4.32; 37.56
2019-01-04 15:15:31; 201.00; 4.29; 37.63
2019-01-04 15:15:43; 183.00; 4.47; 37.75
2019-01-04 15:15:56; 183.00; 4.47; 37.81
2019-01-04 15:30:10; 185.00; 4.45; 39.13
2019-01-04 15:30:22; 185.00; 4.45; 39.19
2019-01-04 15:30:35; 185.00; 4.45; 39.13
2019-01-04 15:30:47; 184.00; 4.45; 39.13
2019-01-04 15:31:00; 184.00; 4.46; 39.25
2019-01-04 15:45:02; 183.00; 4.47; 39.75
2019-01-04 15:45:15; 182.00; 4.48; 39.75
2019-01-04 15:45:27; 183.00; 4.47; 39.69
2019-01-04 15:45:40; 183.00; 4.47; 39.69
2019-01-04 15:45:52; 183.00; 4.47; 39.75
2019-01-04 16:00:06; 182.00; 4.48; 39.94
2019-01-04 16:00:18; 182.00; 4.48; 39.88
2019-01-04 16:00:31; 181.00; 4.49; 39.94
2019-01-04 16:00:43; 182.00; 4.48; 39.81
2019-01-04 16:00:56; 182.00; 4.48; 39.88
2019-01-04 16:15:10; 184.00; 4.46; 39.13
2019-01-04 16:15:22; 184.00; 4.46; 39.13
2019-01-04 16:15:35; 185.00; 4.45; 39.13
2019-01-04 16:15:47; 183.00; 4.47; 39.13
2019-01-04 16:15:59; 183.00; 4.47; 39.13
2019-01-04 16:30:02; 184.00; 4.46; 39.63
2019-01-04 16:30:14; 183.00; 4.47; 39.69
2019-01-04 16:30:27; 183.00; 4.48; 39.69
2019-01-04 16:30:39; 183.00; 4.47; 39.63
2019-01-04 16:30:52; 184.00; 4.46; 39.63
2019-01-04 16:45:06; 183.00; 4.47; 38.25
2019-01-04 16:45:18; 184.00; 4.47; 38.19
2019-01-04 16:45:31; 182.00; 4.47; 38.25
2019-01-04 16:45:43; 183.00; 4.47; 38.13
2019-01-04 16:45:56; 182.00; 4.48; 38.13
2019-01-04 17:00:10; 183.00; 4.47; 35.88
2019-01-04 17:00:22; 182.00; 4.47; 36.00
2019-01-04 17:00:35; 182.00; 4.48; 36.00
2019-01-04 17:00:47; 182.00; 4.48; 36.13
2019-01-04 17:01:00; 182.00; 4.48; 36.19
2019-01-04 17:15:02; 184.00; 4.47; 39.06
2019-01-04 17:15:15; 183.00; 4.47; 39.19
2019-01-04 17:15:27; 183.00; 4.47; 39.31
2019-01-04 17:15:40; 182.00; 4.48; 39.44
2019-01-04 17:15:52; 183.00; 4.47; 39.50
2019-01-04 17:30:06; 183.00; 4.47; 40.06
2019-01-04 17:30:19; 182.00; 4.48; 40.06
2019-01-04 17:30:31; 182.00; 4.48; 40.13
2019-01-04 17:30:43; 183.00; 4.47; 40.19
2019-01-04 17:30:56; 183.00; 4.47; 40.25
2019-01-04 17:45:10; 183.00; 4.47; 39.88
2019-01-04 17:45:22; 183.00; 4.47; 39.94
2019-01-04 17:45:35; 184.00; 4.46; 40.00
2019-01-04 17:45:47; 183.00; 4.47; 40.13
2019-01-04 17:46:00; 183.00; 4.47; 40.19
2019-01-04 18:00:02; 183.00; 4.47; 36.94
2019-01-04 18:00:15; 183.00; 4.47; 36.88
2019-01-04 18:00:27; 182.00; 4.48; 36.75
2019-01-04 18:00:40; 182.00; 4.48; 36.69
2019-01-04 18:00:52; 184.00; 4.46; 36.69
2019-01-04 18:15:06; 183.00; 4.47; 32.88
2019-01-04 18:15:19; 184.00; 4.46; 32.88
2019-01-04 18:15:31; 183.00; 4.47; 32.81
2019-01-04 18:15:44; 184.00; 4.46; 32.75
2019-01-04 18:15:56; 183.00; 4.47; 32.69
2019-01-04 18:30:10; 185.00; 4.45; 31.50
2019-01-04 18:30:23; 182.00; 4.48; 31.50
2019-01-04 18:30:35; 183.00; 4.47; 31.50
2019-01-04 18:30:47; 183.00; 4.47; 31.50
2019-01-04 18:31:00; 183.00; 4.47; 31.50
2019-01-04 18:45:03; 183.00; 4.47; 30.69
2019-01-04 18:45:15; 184.00; 4.46; 30.69
2019-01-04 18:45:28; 184.00; 4.46; 30.69
2019-01-04 18:45:40; 184.00; 4.46; 30.69
2019-01-04 18:45:53; 183.00; 4.46; 30.69
2019-01-04 19:00:07; 184.00; 4.46; 31.00
2019-01-04 19:00:19; 183.00; 4.47; 31.00
2019-01-04 19:00:32; 184.00; 4.45; 31.00
2019-01-04 19:00:44; 183.00; 4.47; 31.00
2019-01-04 19:00:57; 183.00; 4.47; 31.00
2019-01-04 19:15:11; 183.00; 4.47; 29.75
2019-01-04 19:15:24; 183.00; 4.47; 29.75
2019-01-04 19:15:36; 184.00; 4.46; 29.75
2019-01-04 19:15:49; 183.00; 4.47; 29.75
2019-01-04 19:30:03; 183.00; 4.47; 29.88
2019-01-04 19:30:16; 183.00; 4.47; 29.88
2019-01-04 19:30:28; 184.00; 4.46; 29.88
2019-01-04 19:30:41; 183.00; 4.47; 29.88
2019-01-04 19:30:53; 184.00; 4.46; 29.88
2019-01-04 19:45:08; 183.00; 4.47; 29.13
2019-01-04 19:45:20; 183.00; 4.47; 29.19
2019-01-04 19:45:32; 182.00; 4.48; 29.13
2019-01-04 19:45:45; 183.00; 4.47; 29.13
2019-01-04 19:45:57; 182.00; 4.48; 29.13
2019-01-04 20:00:12; 184.00; 4.46; 28.56
2019-01-04 20:00:25; 184.00; 4.46; 28.56
2019-01-04 20:00:37; 183.00; 4.47; 28.56
2019-01-04 20:00:49; 184.00; 4.46; 28.56
2019-01-04 20:15:04; 184.00; 4.46; 27.94
2019-01-04 20:15:17; 184.00; 4.46; 27.94
2019-01-04 20:15:29; 184.00; 4.46; 27.94
2019-01-04 20:15:42; 184.00; 4.46; 27.94
2019-01-04 20:15:54; 183.00; 4.47; 27.94
2019-01-04 20:30:09; 183.00; 4.46; 26.88
2019-01-04 20:30:21; 184.00; 4.46; 26.88
2019-01-04 20:30:34; 184.00; 4.46; 26.88
2019-01-04 20:30:46; 184.00; 4.47; 26.88
2019-01-04 20:30:59; 183.00; 4.47; 26.88
2019-01-04 20:45:02; 185.00; 4.45; 26.25
2019-01-04 20:45:15; 185.00; 4.45; 26.25
2019-01-04 20:45:27; 186.00; 4.44; 26.25
2019-01-04 20:45:40; 184.00; 4.46; 26.25
2019-01-04 20:45:52; 185.00; 4.45; 26.19
2019-01-04 21:00:07; 183.00; 4.47; 25.63
2019-01-04 21:00:20; 185.00; 4.45; 25.63
2019-01-04 21:00:32; 185.00; 4.45; 25.56
2019-01-04 21:00:44; 184.00; 4.46; 25.56
2019-01-04 21:00:57; 185.00; 4.45; 25.56
2019-01-04 21:15:12; 183.00; 4.47; 25.13
2019-01-04 21:15:24; 184.00; 4.46; 25.13
2019-01-04 21:15:37; 184.00; 4.46; 25.13
2019-01-04 21:15:49; 184.00; 4.46; 25.13
2019-01-04 21:30:04; 185.00; 4.45; 24.94
2019-01-04 21:30:17; 185.00; 4.46; 24.94
2019-01-04 21:30:29; 185.00; 4.45; 24.94
2019-01-04 21:30:42; 185.00; 4.45; 24.94
2019-01-04 21:30:54; 185.00; 4.45; 24.94
2019-01-04 21:45:09; 185.00; 4.45; 24.94
2019-01-04 21:45:22; 185.00; 4.45; 24.94
2019-01-04 21:45:34; 184.00; 4.46; 24.94
2019-01-04 21:45:47; 184.00; 4.46; 24.94
2019-01-04 21:45:59; 184.00; 4.46; 24.94
2019-01-04 22:00:02; 184.00; 4.46; 24.75
2019-01-04 22:00:15; 183.00; 4.47; 24.75
2019-01-04 22:00:27; 183.00; 4.47; 24.75
2019-01-04 22:00:40; 183.00; 4.47; 24.75
2019-01-04 22:00:52; 184.00; 4.46; 24.75
2019-01-04 22:15:07; 184.00; 4.46; 24.75
2019-01-04 22:15:20; 184.00; 4.46; 24.75
2019-01-04 22:15:32; 185.00; 4.45; 24.75
2019-01-04 22:15:45; 184.00; 4.45; 24.75
2019-01-04 22:15:57; 185.00; 4.45; 24.75
2019-01-04 22:30:01; 184.00; 4.46; 24.75
2019-01-04 22:30:13; 182.00; 4.48; 24.75
2019-01-04 22:30:26; 184.00; 4.46; 24.75
2019-01-04 22:30:38; 181.00; 4.49; 24.75
2019-01-04 22:30:51; 185.00; 4.45; 24.75
2019-01-04 22:45:06; 185.00; 4.45; 24.56
2019-01-04 22:45:18; 185.00; 4.45; 24.56
2019-01-04 22:45:31; 184.00; 4.46; 24.56
2019-01-04 22:45:43; 184.00; 4.46; 24.56
2019-01-04 22:45:56; 184.00; 4.46; 24.56
2019-01-04 23:00:11; 184.00; 4.46; 24.19
2019-01-04 23:00:23; 185.00; 4.45; 24.13
2019-01-04 23:00:35; 186.00; 4.44; 24.13
2019-01-04 23:00:48; 185.00; 4.45; 24.13
2019-01-04 23:01:00; 193.00; 4.37; 24.13
2019-01-04 23:15:04; 187.00; 4.43; 23.88
2019-01-04 23:15:16; 192.00; 4.38; 23.88
2019-01-04 23:15:29; 188.00; 4.42; 23.88
2019-01-04 23:15:41; 183.00; 4.47; 23.88
2019-01-04 23:15:54; 188.00; 4.46; 23.88
2019-01-04 23:30:09; 206.00; 4.23; 23.75
2019-01-04 23:30:21; 215.00; 4.15; 23.75
2019-01-04 23:30:34; 184.00; 4.46; 23.75
2019-01-04 23:30:46; 185.00; 4.45; 23.75
2019-01-04 23:30:59; 184.00; 4.46; 23.75
2019-01-04 23:45:02; 185.00; 4.45; 23.44
2019-01-04 23:45:15; 185.00; 4.45; 23.44
2019-01-04 23:45:27; 185.00; 4.45; 23.44
2019-01-04 23:45:40; 185.00; 4.45; 23.44
2019-01-04 23:45:52; 185.00; 4.45; 23.44
