2019-08-16 00:00:09; 381.00; 2.49; 9.88
2019-08-16 00:00:22; 381.00; 2.49; 9.88
2019-08-16 00:00:34; 381.00; 2.49; 9.88
2019-08-16 00:00:47; 381.00; 2.49; 9.88
2019-08-16 00:00:59; 381.00; 2.49; 9.88
2019-08-16 00:15:03; 381.00; 2.49; 9.69
2019-08-16 00:15:15; 381.00; 2.49; 9.69
2019-08-16 00:15:27; 381.00; 2.49; 9.69
2019-08-16 00:15:40; 381.00; 2.49; 9.69
2019-08-16 00:15:52; 381.00; 2.49; 9.69
2019-08-16 00:30:07; 381.00; 2.49; 9.56
2019-08-16 00:30:20; 381.00; 2.49; 9.56
2019-08-16 00:30:32; 381.00; 2.49; 9.56
2019-08-16 00:30:44; 381.00; 2.49; 9.56
2019-08-16 00:30:57; 381.00; 2.49; 9.56
2019-08-16 00:45:12; 381.00; 2.49; 9.63
2019-08-16 00:45:24; 381.00; 2.49; 9.63
2019-08-16 00:45:37; 381.00; 2.49; 9.63
2019-08-16 00:45:49; 381.00; 2.49; 9.63
2019-08-16 01:00:04; 381.00; 2.49; 9.63
2019-08-16 01:00:16; 381.00; 2.49; 9.63
2019-08-16 01:00:29; 381.00; 2.49; 9.63
2019-08-16 01:00:41; 381.00; 2.49; 9.63
2019-08-16 01:00:54; 381.00; 2.49; 9.63
2019-08-16 01:15:08; 381.00; 2.49; 9.50
2019-08-16 01:15:21; 381.00; 2.49; 9.50
2019-08-16 01:15:33; 381.00; 2.49; 9.56
2019-08-16 01:15:46; 382.00; 2.48; 9.56
2019-08-16 01:15:58; 381.00; 2.49; 9.56
2019-08-16 01:30:02; 381.00; 2.49; 10.06
2019-08-16 01:30:14; 381.00; 2.49; 10.06
2019-08-16 01:30:27; 381.00; 2.49; 10.06
2019-08-16 01:30:39; 381.00; 2.49; 10.06
2019-08-16 01:30:52; 381.00; 2.49; 10.06
2019-08-16 01:45:06; 382.00; 2.48; 10.13
2019-08-16 01:45:19; 382.00; 2.48; 10.13
2019-08-16 01:45:31; 382.00; 2.48; 10.13
2019-08-16 01:45:43; 382.00; 2.48; 10.13
2019-08-16 01:45:56; 382.00; 2.48; 10.13
2019-08-16 02:00:10; 382.00; 2.48; 9.63
2019-08-16 02:00:23; 382.00; 2.48; 9.63
2019-08-16 02:00:35; 382.00; 2.48; 9.63
2019-08-16 02:00:48; 382.00; 2.48; 9.63
2019-08-16 02:01:00; 382.00; 2.48; 9.63
2019-08-16 02:15:04; 382.00; 2.48; 9.31
2019-08-16 02:15:16; 382.00; 2.48; 9.31
2019-08-16 02:15:29; 382.00; 2.48; 9.31
2019-08-16 02:15:41; 382.00; 2.48; 9.31
2019-08-16 02:15:53; 382.00; 2.48; 9.31
2019-08-16 02:30:08; 382.00; 2.48; 9.06
2019-08-16 02:30:21; 382.00; 2.48; 9.06
2019-08-16 02:30:33; 382.00; 2.48; 9.06
2019-08-16 02:30:46; 382.00; 2.48; 9.06
2019-08-16 02:30:58; 382.00; 2.48; 9.06
2019-08-16 02:45:01; 383.00; 2.47; 8.69
2019-08-16 02:45:14; 383.00; 2.47; 8.69
2019-08-16 02:45:26; 382.00; 2.47; 8.69
2019-08-16 02:45:39; 382.00; 2.48; 8.69
2019-08-16 02:45:51; 382.00; 2.48; 8.69
2019-08-16 03:00:06; 382.00; 2.48; 8.50
2019-08-16 03:00:19; 383.00; 2.47; 8.50
2019-08-16 03:00:31; 383.00; 2.47; 8.50
2019-08-16 03:00:43; 383.00; 2.47; 8.50
2019-08-16 03:00:56; 383.00; 2.47; 8.50
2019-08-16 03:15:11; 382.00; 2.48; 8.50
2019-08-16 03:15:23; 382.00; 2.48; 8.50
2019-08-16 03:15:36; 383.00; 2.47; 8.50
2019-08-16 03:15:48; 383.00; 2.47; 8.50
2019-08-16 03:16:01; 383.00; 2.47; 8.50
2019-08-16 03:30:04; 383.00; 2.47; 8.38
2019-08-16 03:30:16; 383.00; 2.47; 8.38
2019-08-16 03:30:29; 383.00; 2.47; 8.38
2019-08-16 03:30:41; 383.00; 2.47; 8.38
2019-08-16 03:30:54; 383.00; 2.47; 8.38
2019-08-16 03:45:09; 383.00; 2.47; 8.44
2019-08-16 03:45:21; 383.00; 2.47; 8.44
2019-08-16 03:45:34; 383.00; 2.47; 8.44
2019-08-16 03:45:46; 383.00; 2.47; 8.44
2019-08-16 03:45:59; 383.00; 2.47; 8.44
2019-08-16 04:00:02; 383.00; 2.47; 8.25
2019-08-16 04:00:14; 383.00; 2.47; 8.25
2019-08-16 04:00:27; 383.00; 2.47; 8.25
2019-08-16 04:00:39; 383.00; 2.47; 8.25
2019-08-16 04:00:52; 383.00; 2.47; 8.25
2019-08-16 04:15:07; 383.00; 2.47; 8.19
2019-08-16 04:15:19; 383.00; 2.47; 8.19
2019-08-16 04:15:32; 383.00; 2.47; 8.19
2019-08-16 04:15:44; 383.00; 2.47; 8.19
2019-08-16 04:15:57; 383.00; 2.47; 8.19
2019-08-16 04:30:11; 383.00; 2.47; 7.94
2019-08-16 04:30:24; 383.00; 2.47; 7.94
2019-08-16 04:30:36; 383.00; 2.47; 7.94
2019-08-16 04:30:49; 383.00; 2.47; 7.94
2019-08-16 04:45:04; 383.00; 2.47; 8.00
2019-08-16 04:45:16; 383.00; 2.47; 8.00
2019-08-16 04:45:29; 383.00; 2.47; 8.00
2019-08-16 04:45:41; 383.00; 2.47; 8.00
2019-08-16 04:45:54; 383.00; 2.47; 8.00
2019-08-16 05:00:09; 383.00; 2.47; 8.06
2019-08-16 05:00:21; 383.00; 2.47; 8.06
2019-08-16 05:00:34; 383.00; 2.47; 8.06
2019-08-16 05:00:46; 383.00; 2.47; 8.06
2019-08-16 05:00:58; 383.00; 2.47; 8.06
2019-08-16 05:15:02; 383.00; 2.47; 8.00
2019-08-16 05:15:14; 383.00; 2.47; 8.00
2019-08-16 05:15:27; 383.00; 2.47; 8.00
2019-08-16 05:15:39; 383.00; 2.47; 8.00
2019-08-16 05:15:52; 383.00; 2.47; 8.00
2019-08-16 05:30:07; 383.00; 2.47; 8.00
2019-08-16 05:30:19; 383.00; 2.47; 8.00
2019-08-16 05:30:31; 383.00; 2.47; 8.00
2019-08-16 05:30:44; 383.00; 2.47; 8.00
2019-08-16 05:30:57; 384.00; 2.46; 7.94
2019-08-16 05:45:11; 383.00; 2.47; 8.06
2019-08-16 05:45:24; 383.00; 2.47; 8.06
2019-08-16 05:45:36; 383.00; 2.47; 8.06
2019-08-16 05:45:49; 384.00; 2.46; 8.06
2019-08-16 06:00:04; 385.00; 2.45; 8.06
2019-08-16 06:00:16; 387.00; 2.43; 8.06
2019-08-16 06:00:29; 383.00; 2.47; 8.06
2019-08-16 06:00:41; 384.00; 2.46; 8.06
2019-08-16 06:00:54; 384.00; 2.46; 8.06
2019-08-16 06:15:08; 384.00; 2.46; 8.25
2019-08-16 06:15:21; 384.00; 2.46; 8.25
2019-08-16 06:15:33; 384.00; 2.46; 8.31
2019-08-16 06:15:46; 384.00; 2.46; 8.31
2019-08-16 06:15:58; 384.00; 2.46; 8.31
2019-08-16 06:30:02; 383.00; 2.47; 8.50
2019-08-16 06:30:14; 383.00; 2.47; 8.50
2019-08-16 06:30:27; 383.00; 2.47; 8.50
2019-08-16 06:30:39; 383.00; 2.47; 8.50
2019-08-16 06:30:52; 383.00; 2.47; 8.56
2019-08-16 06:45:07; 384.00; 2.46; 8.88
2019-08-16 06:45:19; 384.00; 2.46; 8.88
2019-08-16 06:45:32; 384.00; 2.46; 8.88
2019-08-16 06:45:44; 383.00; 2.47; 8.88
2019-08-16 06:45:57; 383.00; 2.47; 8.88
2019-08-16 07:00:11; 383.00; 2.47; 8.75
2019-08-16 07:00:24; 383.00; 2.47; 8.81
2019-08-16 07:00:36; 383.00; 2.47; 8.75
2019-08-16 07:00:49; 383.00; 2.47; 8.75
2019-08-16 07:15:04; 383.00; 2.47; 9.13
2019-08-16 07:15:16; 383.00; 2.47; 9.13
2019-08-16 07:15:29; 383.00; 2.47; 9.13
2019-08-16 07:15:41; 383.00; 2.47; 9.13
2019-08-16 07:15:54; 383.00; 2.47; 9.13
2019-08-16 07:30:08; 384.00; 2.46; 8.81
2019-08-16 07:30:21; 383.00; 2.47; 8.81
2019-08-16 07:30:33; 383.00; 2.47; 8.81
2019-08-16 07:30:46; 384.00; 2.46; 8.81
2019-08-16 07:30:58; 384.00; 2.46; 8.81
2019-08-16 07:45:02; 384.00; 2.46; 8.31
2019-08-16 07:45:14; 384.00; 2.46; 8.31
2019-08-16 07:45:27; 384.00; 2.46; 8.31
2019-08-16 07:45:39; 384.00; 2.46; 8.31
2019-08-16 07:45:52; 384.00; 2.46; 8.31
2019-08-16 08:00:06; 384.00; 2.46; 8.25
2019-08-16 08:00:19; 384.00; 2.46; 8.25
2019-08-16 08:00:31; 384.00; 2.46; 8.25
2019-08-16 08:00:44; 384.00; 2.46; 8.25
2019-08-16 08:00:56; 384.00; 2.46; 8.25
2019-08-16 08:15:11; 383.00; 2.47; 8.56
2019-08-16 08:15:24; 383.00; 2.47; 8.56
2019-08-16 08:15:36; 383.00; 2.47; 8.63
2019-08-16 08:15:49; 383.00; 2.47; 8.63
2019-08-16 08:30:03; 383.00; 2.47; 9.38
2019-08-16 08:30:16; 383.00; 2.47; 9.38
2019-08-16 08:30:28; 383.00; 2.47; 9.44
2019-08-16 08:30:41; 383.00; 2.47; 9.44
2019-08-16 08:30:53; 383.00; 2.47; 9.44
2019-08-16 08:45:08; 383.00; 2.47; 9.56
2019-08-16 08:45:20; 383.00; 2.47; 9.56
2019-08-16 08:45:33; 383.00; 2.47; 9.56
2019-08-16 08:45:45; 383.00; 2.47; 9.56
2019-08-16 08:45:58; 383.00; 2.47; 9.56
2019-08-16 09:00:01; 383.00; 2.47; 9.69
2019-08-16 09:00:13; 383.00; 2.47; 9.69
2019-08-16 09:00:26; 383.00; 2.47; 9.69
2019-08-16 09:00:38; 383.00; 2.47; 9.69
2019-08-16 09:00:51; 383.00; 2.47; 9.69
2019-08-16 09:15:05; 384.00; 2.46; 9.94
2019-08-16 09:15:18; 383.00; 2.47; 9.94
2019-08-16 09:15:30; 383.00; 2.47; 9.94
2019-08-16 09:15:43; 383.00; 2.47; 9.94
2019-08-16 09:15:55; 383.00; 2.47; 9.94
2019-08-16 09:30:09; 384.00; 2.46; 10.13
2019-08-16 09:30:21; 384.00; 2.46; 10.19
2019-08-16 09:30:34; 384.00; 2.46; 10.19
2019-08-16 09:30:46; 384.00; 2.46; 10.19
2019-08-16 09:30:59; 384.00; 2.46; 10.19
2019-08-16 09:45:02; 383.00; 2.47; 10.63
2019-08-16 09:45:15; 384.00; 2.47; 10.69
2019-08-16 09:45:27; 383.00; 2.47; 10.69
2019-08-16 09:45:39; 383.00; 2.47; 10.69
2019-08-16 09:45:52; 384.00; 2.47; 10.69
2019-08-16 10:00:07; 383.00; 2.46; 11.31
2019-08-16 10:00:19; 384.00; 2.46; 11.31
2019-08-16 10:00:32; 383.00; 2.47; 11.31
2019-08-16 10:00:44; 383.00; 2.47; 11.31
2019-08-16 10:00:57; 383.00; 2.47; 11.31
2019-08-16 10:15:11; 383.00; 2.47; 12.31
2019-08-16 10:15:24; 383.00; 2.47; 12.31
2019-08-16 10:15:36; 383.00; 2.47; 12.31
2019-08-16 10:15:49; 383.00; 2.47; 12.31
2019-08-16 10:30:03; 383.00; 2.47; 13.38
2019-08-16 10:30:15; 383.00; 2.47; 13.38
2019-08-16 10:30:28; 383.00; 2.47; 13.38
2019-08-16 10:30:40; 383.00; 2.47; 13.38
2019-08-16 10:30:53; 383.00; 2.47; 13.44
2019-08-16 10:45:07; 382.00; 2.48; 15.56
2019-08-16 10:45:19; 382.00; 2.48; 15.63
2019-08-16 10:45:32; 382.00; 2.48; 15.69
2019-08-16 10:45:44; 383.00; 2.47; 15.75
2019-08-16 10:45:57; 383.00; 2.47; 15.81
2019-08-16 11:00:11; 382.00; 2.48; 17.88
2019-08-16 11:00:23; 382.00; 2.48; 17.94
2019-08-16 11:00:36; 383.00; 2.47; 17.94
2019-08-16 11:00:48; 384.00; 2.46; 17.94
2019-08-16 11:15:02; 383.00; 2.47; 18.81
2019-08-16 11:15:15; 383.00; 2.47; 18.88
2019-08-16 11:15:27; 382.00; 2.48; 18.94
2019-08-16 11:15:40; 382.00; 2.48; 18.94
2019-08-16 11:15:52; 383.00; 2.47; 18.94
2019-08-16 11:30:06; 383.00; 2.47; 19.25
2019-08-16 11:30:18; 383.00; 2.47; 19.25
2019-08-16 11:30:31; 383.00; 2.47; 19.31
2019-08-16 11:30:43; 382.00; 2.48; 19.31
2019-08-16 11:30:56; 382.00; 2.48; 19.25
2019-08-16 11:45:10; 383.00; 2.47; 19.50
2019-08-16 11:45:23; 383.00; 2.47; 19.56
2019-08-16 11:45:35; 383.00; 2.47; 19.56
2019-08-16 11:45:47; 383.00; 2.47; 19.56
2019-08-16 11:46:00; 383.00; 2.47; 19.63
2019-08-16 12:00:03; 382.00; 2.48; 20.38
2019-08-16 12:00:15; 382.00; 2.48; 20.44
2019-08-16 12:00:27; 382.00; 2.48; 20.44
2019-08-16 12:00:40; 382.00; 2.48; 20.50
2019-08-16 12:00:52; 383.00; 2.47; 20.50
2019-08-16 12:15:06; 382.00; 2.48; 20.31
2019-08-16 12:15:19; 382.00; 2.48; 20.31
2019-08-16 12:15:31; 382.00; 2.48; 20.25
2019-08-16 12:15:43; 382.00; 2.48; 20.31
2019-08-16 12:15:56; 382.00; 2.48; 20.31
2019-08-16 12:30:10; 382.00; 2.48; 21.06
2019-08-16 12:30:22; 382.00; 2.48; 21.13
2019-08-16 12:30:34; 382.00; 2.48; 21.19
2019-08-16 12:30:47; 382.00; 2.48; 21.19
2019-08-16 12:30:59; 382.00; 2.48; 21.13
2019-08-16 12:45:02; 381.00; 2.49; 20.88
2019-08-16 12:45:14; 382.00; 2.48; 20.94
2019-08-16 12:45:27; 381.00; 2.49; 20.94
2019-08-16 12:45:39; 381.00; 2.49; 20.94
2019-08-16 12:45:52; 382.00; 2.48; 21.00
2019-08-16 13:00:06; 382.00; 2.48; 21.50
2019-08-16 13:00:18; 381.00; 2.49; 21.50
2019-08-16 13:00:30; 381.00; 2.49; 21.63
2019-08-16 13:00:43; 381.00; 2.49; 21.63
2019-08-16 13:00:55; 381.00; 2.49; 21.63
2019-08-16 13:15:09; 381.00; 2.49; 23.00
2019-08-16 13:15:22; 381.00; 2.49; 23.06
2019-08-16 13:15:34; 381.00; 2.49; 23.13
2019-08-16 13:15:47; 381.00; 2.49; 23.13
2019-08-16 13:15:59; 381.00; 2.49; 23.13
2019-08-16 13:30:02; 381.00; 2.49; 23.44
2019-08-16 13:30:14; 381.00; 2.49; 23.44
2019-08-16 13:30:27; 381.00; 2.49; 23.50
2019-08-16 13:30:39; 381.00; 2.49; 23.56
2019-08-16 13:30:52; 381.00; 2.49; 23.56
2019-08-16 13:45:05; 381.00; 2.49; 23.88
2019-08-16 13:45:17; 381.00; 2.49; 24.00
2019-08-16 13:45:30; 381.00; 2.49; 24.00
2019-08-16 13:45:42; 381.00; 2.49; 23.88
2019-08-16 13:45:55; 381.00; 2.49; 23.94
2019-08-16 14:00:08; 381.00; 2.49; 23.88
2019-08-16 14:00:21; 381.00; 2.49; 23.94
2019-08-16 14:00:33; 381.00; 2.49; 24.00
2019-08-16 14:00:45; 381.00; 2.49; 24.06
2019-08-16 14:00:58; 381.00; 2.49; 24.06
2019-08-16 14:15:11; 381.00; 2.49; 24.06
2019-08-16 14:15:24; 381.00; 2.49; 24.00
2019-08-16 14:15:36; 381.00; 2.49; 24.06
2019-08-16 14:15:49; 381.00; 2.49; 24.13
2019-08-16 14:30:02; 380.00; 2.50; 24.88
2019-08-16 14:30:15; 380.00; 2.50; 24.94
2019-08-16 14:30:27; 380.00; 2.50; 24.94
2019-08-16 14:30:39; 380.00; 2.50; 24.94
2019-08-16 14:30:52; 380.00; 2.50; 24.94
2019-08-16 14:45:05; 381.00; 2.49; 24.50
2019-08-16 14:45:18; 380.00; 2.50; 24.50
2019-08-16 14:45:30; 380.00; 2.50; 24.56
2019-08-16 14:45:43; 380.00; 2.50; 24.56
2019-08-16 14:45:55; 380.00; 2.50; 24.63
2019-08-16 15:00:09; 380.00; 2.50; 25.13
2019-08-16 15:00:21; 380.00; 2.50; 25.06
2019-08-16 15:00:34; 381.00; 2.49; 25.00
2019-08-16 15:00:46; 381.00; 2.49; 24.94
2019-08-16 15:00:59; 380.00; 2.50; 24.94
2019-08-16 15:15:12; 380.00; 2.50; 25.13
2019-08-16 15:15:24; 380.00; 2.50; 25.25
2019-08-16 15:15:37; 380.00; 2.50; 25.31
2019-08-16 15:15:49; 381.00; 2.50; 25.31
2019-08-16 15:30:02; 380.00; 2.50; 26.25
2019-08-16 15:30:15; 380.00; 2.50; 26.19
2019-08-16 15:30:27; 380.00; 2.50; 26.13
2019-08-16 15:30:40; 380.00; 2.50; 26.06
2019-08-16 15:30:52; 380.00; 2.50; 26.19
2019-08-16 15:45:06; 380.00; 2.51; 26.75
2019-08-16 15:45:18; 380.00; 2.50; 26.69
2019-08-16 15:45:31; 379.00; 2.51; 26.56
2019-08-16 15:45:43; 379.00; 2.51; 26.63
2019-08-16 15:45:55; 379.00; 2.51; 26.69
2019-08-16 16:00:09; 379.00; 2.51; 27.44
2019-08-16 16:00:21; 379.00; 2.51; 27.31
2019-08-16 16:00:33; 379.00; 2.51; 27.25
2019-08-16 16:00:46; 379.00; 2.51; 27.19
2019-08-16 16:00:58; 379.00; 2.51; 27.31
2019-08-16 16:15:11; 379.00; 2.51; 28.75
2019-08-16 16:15:24; 379.00; 2.51; 28.75
2019-08-16 16:15:36; 379.00; 2.51; 28.69
2019-08-16 16:15:49; 379.00; 2.51; 28.75
2019-08-16 16:30:02; 379.00; 2.51; 28.31
2019-08-16 16:30:14; 379.00; 2.51; 28.38
2019-08-16 16:30:27; 379.00; 2.51; 28.38
2019-08-16 16:30:39; 379.00; 2.51; 28.31
2019-08-16 16:30:52; 378.00; 2.52; 28.38
2019-08-16 16:45:05; 379.00; 2.51; 28.25
2019-08-16 16:45:17; 379.00; 2.51; 28.19
2019-08-16 16:45:29; 379.00; 2.51; 28.13
2019-08-16 16:45:42; 379.00; 2.51; 28.06
2019-08-16 16:45:54; 379.00; 2.51; 28.06
2019-08-16 17:00:07; 380.00; 2.50; 28.69
2019-08-16 17:00:20; 379.00; 2.51; 28.75
2019-08-16 17:00:32; 380.00; 2.50; 28.75
2019-08-16 17:00:45; 379.00; 2.51; 28.81
2019-08-16 17:00:57; 379.00; 2.51; 28.75
2019-08-16 17:15:10; 379.00; 2.51; 29.06
2019-08-16 17:15:23; 379.00; 2.51; 29.13
2019-08-16 17:15:35; 379.00; 2.51; 29.06
2019-08-16 17:15:48; 379.00; 2.51; 29.06
2019-08-16 17:16:00; 379.00; 2.51; 29.13
2019-08-16 17:30:02; 379.00; 2.51; 30.00
2019-08-16 17:30:14; 378.00; 2.51; 30.00
2019-08-16 17:30:27; 378.00; 2.52; 29.88
2019-08-16 17:30:39; 379.00; 2.51; 29.94
2019-08-16 17:30:52; 379.00; 2.51; 29.94
2019-08-16 17:45:05; 379.00; 2.51; 30.31
2019-08-16 17:45:17; 378.00; 2.52; 30.31
2019-08-16 17:45:29; 379.00; 2.52; 30.38
2019-08-16 17:45:42; 379.00; 2.51; 30.38
2019-08-16 17:45:54; 378.00; 2.52; 30.38
2019-08-16 18:00:07; 379.00; 2.51; 29.88
2019-08-16 18:00:20; 379.00; 2.51; 29.81
2019-08-16 18:00:32; 379.00; 2.51; 29.81
2019-08-16 18:00:45; 379.00; 2.51; 29.81
2019-08-16 18:00:57; 379.00; 2.51; 29.81
2019-08-16 18:15:10; 379.00; 2.51; 28.50
2019-08-16 18:15:23; 379.00; 2.51; 28.50
2019-08-16 18:15:35; 379.00; 2.51; 28.50
2019-08-16 18:15:48; 379.00; 2.51; 28.50
2019-08-16 18:16:00; 379.00; 2.51; 28.56
2019-08-16 18:30:02; 380.00; 2.50; 27.81
2019-08-16 18:30:14; 381.00; 2.49; 27.75
2019-08-16 18:30:27; 380.00; 2.50; 27.81
2019-08-16 18:30:39; 380.00; 2.50; 27.81
2019-08-16 18:30:52; 380.00; 2.50; 27.81
2019-08-16 18:45:06; 380.00; 2.50; 26.19
2019-08-16 18:45:18; 380.00; 2.50; 26.19
2019-08-16 18:45:30; 379.00; 2.51; 26.25
2019-08-16 18:45:43; 379.00; 2.51; 26.25
2019-08-16 18:45:55; 379.00; 2.51; 26.25
2019-08-16 19:00:09; 378.00; 2.52; 26.19
2019-08-16 19:00:21; 379.00; 2.51; 26.13
2019-08-16 19:00:34; 379.00; 2.51; 26.13
2019-08-16 19:00:46; 378.00; 2.52; 26.13
2019-08-16 19:00:58; 378.00; 2.52; 26.13
2019-08-16 19:15:12; 381.00; 2.49; 23.88
2019-08-16 19:15:24; 381.00; 2.49; 23.81
2019-08-16 19:15:37; 381.00; 2.49; 23.75
2019-08-16 19:15:49; 380.00; 2.50; 23.75
2019-08-16 19:30:03; 380.00; 2.50; 21.13
2019-08-16 19:30:15; 380.00; 2.50; 21.06
2019-08-16 19:30:28; 379.00; 2.51; 21.06
2019-08-16 19:30:40; 379.00; 2.51; 21.00
2019-08-16 19:30:53; 381.00; 2.49; 21.00
2019-08-16 19:45:07; 380.00; 2.50; 19.44
2019-08-16 19:45:19; 381.00; 2.49; 19.44
2019-08-16 19:45:31; 381.00; 2.49; 19.44
2019-08-16 19:45:44; 381.00; 2.49; 19.38
2019-08-16 19:45:56; 381.00; 2.49; 19.38
2019-08-16 20:00:10; 381.00; 2.49; 18.38
2019-08-16 20:00:23; 381.00; 2.49; 18.38
2019-08-16 20:00:35; 381.00; 2.49; 18.38
2019-08-16 20:00:47; 381.00; 2.49; 18.38
2019-08-16 20:01:00; 381.00; 2.49; 18.38
2019-08-16 20:15:02; 382.00; 2.48; 17.75
2019-08-16 20:15:15; 382.00; 2.48; 17.75
2019-08-16 20:15:27; 382.00; 2.48; 17.75
2019-08-16 20:15:40; 382.00; 2.48; 17.75
2019-08-16 20:15:52; 381.00; 2.49; 17.75
2019-08-16 20:30:07; 382.00; 2.48; 17.44
2019-08-16 20:30:19; 382.00; 2.48; 17.44
2019-08-16 20:30:31; 382.00; 2.48; 17.44
2019-08-16 20:30:44; 382.00; 2.48; 17.44
2019-08-16 20:30:56; 382.00; 2.48; 17.38
2019-08-16 20:45:10; 382.00; 2.48; 17.44
2019-08-16 20:45:23; 382.00; 2.48; 17.44
2019-08-16 20:45:35; 382.00; 2.48; 17.38
2019-08-16 20:45:48; 382.00; 2.48; 17.38
2019-08-16 20:46:00; 381.00; 2.49; 17.38
2019-08-16 21:00:03; 382.00; 2.48; 17.38
2019-08-16 21:00:15; 382.00; 2.48; 17.38
2019-08-16 21:00:27; 382.00; 2.48; 17.38
2019-08-16 21:00:40; 382.00; 2.48; 17.38
2019-08-16 21:00:52; 382.00; 2.48; 17.44
2019-08-16 21:15:06; 382.00; 2.48; 17.25
2019-08-16 21:15:19; 382.00; 2.48; 17.25
2019-08-16 21:15:31; 382.00; 2.48; 17.25
2019-08-16 21:15:44; 382.00; 2.48; 17.25
2019-08-16 21:15:56; 382.00; 2.48; 17.25
2019-08-16 21:30:10; 382.00; 2.48; 16.94
2019-08-16 21:30:23; 382.00; 2.48; 16.94
2019-08-16 21:30:35; 382.00; 2.48; 16.94
2019-08-16 21:30:48; 382.00; 2.48; 16.94
2019-08-16 21:31:00; 382.00; 2.48; 16.94
2019-08-16 21:45:03; 383.00; 2.47; 16.44
2019-08-16 21:45:15; 383.00; 2.47; 16.50
2019-08-16 21:45:28; 383.00; 2.47; 16.50
2019-08-16 21:45:40; 383.00; 2.47; 16.50
2019-08-16 21:45:53; 383.00; 2.47; 16.50
2019-08-16 22:00:07; 382.00; 2.48; 16.38
2019-08-16 22:00:19; 383.00; 2.47; 16.38
2019-08-16 22:00:32; 383.00; 2.47; 16.38
2019-08-16 22:00:44; 383.00; 2.47; 16.38
2019-08-16 22:00:57; 383.00; 2.47; 16.38
2019-08-16 22:15:11; 382.00; 2.48; 16.38
2019-08-16 22:15:23; 382.00; 2.48; 16.38
2019-08-16 22:15:36; 383.00; 2.47; 16.44
2019-08-16 22:15:48; 383.00; 2.47; 16.38
2019-08-16 22:30:02; 382.00; 2.48; 16.19
2019-08-16 22:30:15; 382.00; 2.48; 16.19
2019-08-16 22:30:27; 382.00; 2.48; 16.19
2019-08-16 22:30:40; 382.00; 2.48; 16.19
2019-08-16 22:30:52; 383.00; 2.47; 16.19
2019-08-16 22:45:06; 383.00; 2.47; 16.44
2019-08-16 22:45:19; 383.00; 2.47; 16.38
2019-08-16 22:45:31; 383.00; 2.47; 16.38
2019-08-16 22:45:44; 383.00; 2.47; 16.38
2019-08-16 22:45:56; 383.00; 2.47; 16.38
2019-08-16 23:00:11; 382.00; 2.48; 15.56
2019-08-16 23:00:23; 382.00; 2.48; 15.56
2019-08-16 23:00:35; 382.00; 2.48; 15.50
2019-08-16 23:00:48; 382.00; 2.47; 15.50
2019-08-16 23:01:00; 383.00; 2.47; 15.50
2019-08-16 23:15:02; 382.00; 2.48; 15.44
2019-08-16 23:15:14; 382.00; 2.48; 15.44
2019-08-16 23:15:27; 383.00; 2.47; 15.44
2019-08-16 23:15:39; 383.00; 2.47; 15.44
2019-08-16 23:15:52; 382.00; 2.48; 15.44
2019-08-16 23:30:04; 382.00; 2.48; 15.25
2019-08-16 23:30:16; 383.00; 2.47; 15.25
2019-08-16 23:30:29; 383.00; 2.47; 15.25
2019-08-16 23:30:41; 383.00; 2.47; 15.25
2019-08-16 23:30:54; 383.00; 2.47; 15.25
2019-08-16 23:45:05; 384.00; 2.47; 15.19
2019-08-16 23:45:18; 384.00; 2.47; 15.19
2019-08-16 23:45:30; 383.00; 2.48; 15.19
2019-08-16 23:45:43; 384.00; 2.47; 15.13
2019-08-16 23:45:55; 384.00; 2.47; 15.13
