2019-03-24 00:00:11; 284.00; 3.46; 21.13
2019-03-24 00:00:24; 286.00; 3.44; 21.13
2019-03-24 00:00:36; 285.00; 3.45; 21.13
2019-03-24 00:00:49; 286.00; 3.44; 21.13
2019-03-24 00:15:04; 291.00; 3.40; 21.13
2019-03-24 00:15:16; 284.00; 3.44; 21.13
2019-03-24 00:15:29; 290.00; 3.41; 21.13
2019-03-24 00:15:41; 286.00; 3.45; 21.13
2019-03-24 00:15:54; 287.00; 3.44; 21.13
2019-03-24 00:30:08; 286.00; 3.46; 20.94
2019-03-24 00:30:21; 284.00; 3.46; 20.94
2019-03-24 00:30:33; 290.00; 3.40; 20.94
2019-03-24 00:30:46; 288.00; 3.44; 20.94
2019-03-24 00:30:58; 286.00; 3.45; 20.94
2019-03-24 00:45:01; 289.00; 3.43; 20.56
2019-03-24 00:45:14; 287.00; 3.43; 20.56
2019-03-24 00:45:26; 288.00; 3.41; 20.56
2019-03-24 00:45:39; 289.00; 3.41; 20.56
2019-03-24 00:45:51; 288.00; 3.44; 20.56
2019-03-24 01:00:06; 297.00; 3.33; 20.50
2019-03-24 01:00:18; 284.00; 3.46; 20.50
2019-03-24 01:00:31; 290.00; 3.40; 20.44
2019-03-24 01:00:43; 286.00; 3.44; 20.44
2019-03-24 01:00:55; 286.00; 3.42; 20.44
2019-03-24 01:15:10; 290.00; 3.42; 20.38
2019-03-24 01:15:22; 285.00; 3.46; 20.38
2019-03-24 01:15:35; 289.00; 3.41; 20.38
2019-03-24 01:15:47; 285.00; 3.45; 20.38
2019-03-24 01:16:00; 287.00; 3.44; 20.31
2019-03-24 01:30:03; 294.00; 3.36; 20.44
2019-03-24 01:30:15; 284.00; 3.46; 20.44
2019-03-24 01:30:28; 289.00; 3.41; 20.44
2019-03-24 01:30:40; 285.00; 3.45; 20.44
2019-03-24 01:30:53; 286.00; 3.46; 20.44
2019-03-24 01:45:07; 286.00; 3.44; 20.44
2019-03-24 01:45:20; 295.00; 3.39; 20.44
2019-03-24 01:45:32; 284.00; 3.46; 20.44
2019-03-24 01:45:44; 286.00; 3.44; 20.44
2019-03-24 01:45:57; 284.00; 3.45; 20.44
2019-03-24 02:00:11; 287.00; 3.41; 20.38
2019-03-24 02:00:24; 286.00; 3.44; 20.38
2019-03-24 02:00:36; 288.00; 3.43; 20.38
2019-03-24 02:00:49; 284.00; 3.46; 20.38
2019-03-24 02:15:03; 288.00; 3.44; 20.38
2019-03-24 02:15:16; 285.00; 3.45; 20.38
2019-03-24 02:15:28; 287.00; 3.43; 20.38
2019-03-24 02:15:41; 288.00; 3.44; 20.44
2019-03-24 02:15:53; 293.00; 3.37; 20.44
2019-03-24 02:30:08; 293.00; 3.36; 20.50
2019-03-24 02:30:20; 295.00; 3.35; 20.50
2019-03-24 02:30:33; 294.00; 3.39; 20.50
2019-03-24 02:30:45; 291.00; 3.39; 20.50
2019-03-24 02:30:58; 294.00; 3.37; 20.44
2019-03-24 02:45:01; 302.00; 3.28; 20.38
2019-03-24 02:45:13; 295.00; 3.35; 20.31
2019-03-24 02:45:26; 298.00; 3.32; 20.31
2019-03-24 02:45:38; 298.00; 3.32; 20.31
2019-03-24 02:45:51; 302.00; 3.28; 20.31
2019-03-24 03:00:05; 310.00; 3.20; 20.38
2019-03-24 03:00:18; 293.00; 3.37; 20.38
2019-03-24 03:00:30; 303.00; 3.34; 20.38
2019-03-24 03:00:43; 301.00; 3.26; 20.38
2019-03-24 03:00:55; 294.00; 3.36; 20.38
2019-03-24 03:15:10; 294.00; 3.36; 20.19
2019-03-24 03:15:22; 294.00; 3.36; 20.19
2019-03-24 03:15:35; 293.00; 3.37; 20.19
2019-03-24 03:15:47; 293.00; 3.37; 20.19
2019-03-24 03:16:00; 293.00; 3.36; 20.19
2019-03-24 03:30:03; 293.00; 3.37; 20.13
2019-03-24 03:30:15; 292.00; 3.38; 20.13
2019-03-24 03:30:28; 293.00; 3.37; 20.06
2019-03-24 03:30:40; 293.00; 3.37; 20.13
2019-03-24 03:30:53; 293.00; 3.36; 20.13
2019-03-24 03:45:07; 292.00; 3.38; 20.06
2019-03-24 03:45:20; 294.00; 3.37; 20.06
2019-03-24 03:45:32; 293.00; 3.37; 20.06
2019-03-24 03:45:45; 294.00; 3.36; 20.06
2019-03-24 03:45:57; 293.00; 3.37; 20.06
2019-03-24 04:00:11; 294.00; 3.36; 20.00
2019-03-24 04:00:24; 293.00; 3.36; 20.00
2019-03-24 04:00:36; 294.00; 3.36; 20.00
2019-03-24 04:00:49; 293.00; 3.37; 20.00
2019-03-24 04:15:03; 294.00; 3.37; 19.88
2019-03-24 04:15:16; 293.00; 3.37; 19.88
2019-03-24 04:15:28; 294.00; 3.36; 19.88
2019-03-24 04:15:41; 293.00; 3.37; 19.88
2019-03-24 04:15:53; 293.00; 3.39; 19.88
2019-03-24 04:30:08; 293.00; 3.37; 19.81
2019-03-24 04:30:20; 292.00; 3.38; 19.81
2019-03-24 04:30:32; 294.00; 3.36; 19.81
2019-03-24 04:30:45; 290.00; 3.41; 19.81
2019-03-24 04:30:57; 289.00; 3.41; 19.81
2019-03-24 04:45:11; 290.00; 3.41; 19.81
2019-03-24 04:45:24; 290.00; 3.41; 19.81
2019-03-24 04:45:36; 290.00; 3.40; 19.81
2019-03-24 04:45:49; 291.00; 3.39; 19.81
2019-03-24 05:00:02; 287.00; 3.42; 19.75
2019-03-24 05:00:14; 285.00; 3.44; 19.75
2019-03-24 05:00:27; 290.00; 3.42; 19.75
2019-03-24 05:00:39; 286.00; 3.42; 19.75
2019-03-24 05:00:52; 290.00; 3.40; 19.75
2019-03-24 05:15:05; 290.00; 3.40; 19.69
2019-03-24 05:15:18; 290.00; 3.40; 19.69
2019-03-24 05:15:30; 286.00; 3.44; 19.69
2019-03-24 05:15:43; 290.00; 3.40; 19.69
2019-03-24 05:15:55; 290.00; 3.40; 19.69
2019-03-24 05:30:08; 289.00; 3.41; 19.69
2019-03-24 05:30:21; 290.00; 3.40; 19.69
2019-03-24 05:30:33; 290.00; 3.40; 19.75
2019-03-24 05:30:46; 289.00; 3.40; 19.75
2019-03-24 05:30:58; 289.00; 3.40; 19.75
2019-03-24 05:45:12; 292.00; 3.38; 19.69
2019-03-24 05:45:24; 292.00; 3.38; 19.69
2019-03-24 05:45:37; 292.00; 3.38; 19.69
2019-03-24 05:45:49; 289.00; 3.41; 19.69
2019-03-24 06:00:03; 289.00; 3.41; 19.75
2019-03-24 06:00:16; 291.00; 3.39; 19.75
2019-03-24 06:00:28; 292.00; 3.38; 19.75
2019-03-24 06:00:41; 290.00; 3.40; 19.75
2019-03-24 06:00:53; 290.00; 3.40; 19.75
2019-03-24 06:15:07; 286.00; 3.44; 19.63
2019-03-24 06:15:19; 287.00; 3.43; 19.63
2019-03-24 06:15:32; 288.00; 3.42; 19.63
2019-03-24 06:15:44; 287.00; 3.43; 19.56
2019-03-24 06:15:56; 286.00; 3.44; 19.56
2019-03-24 06:30:09; 287.00; 3.43; 19.38
2019-03-24 06:30:22; 286.00; 3.44; 19.38
2019-03-24 06:30:34; 287.00; 3.43; 19.38
2019-03-24 06:30:47; 286.00; 3.44; 19.38
2019-03-24 06:30:59; 286.00; 3.44; 19.38
2019-03-24 06:45:02; 285.00; 3.45; 19.31
2019-03-24 06:45:14; 287.00; 3.43; 19.31
2019-03-24 06:45:27; 285.00; 3.45; 19.31
2019-03-24 06:45:39; 285.00; 3.45; 19.31
2019-03-24 06:45:52; 285.00; 3.45; 19.31
2019-03-24 07:00:06; 285.00; 3.45; 19.19
2019-03-24 07:00:18; 285.00; 3.45; 19.19
2019-03-24 07:00:31; 285.00; 3.45; 19.19
2019-03-24 07:00:43; 284.00; 3.46; 19.19
2019-03-24 07:00:56; 285.00; 3.45; 19.19
2019-03-24 07:15:09; 287.00; 3.43; 19.13
2019-03-24 07:15:22; 287.00; 3.43; 19.13
2019-03-24 07:15:34; 286.00; 3.43; 19.13
2019-03-24 07:15:46; 287.00; 3.43; 19.13
2019-03-24 07:15:59; 287.00; 3.43; 19.13
2019-03-24 07:30:12; 287.00; 3.43; 18.94
2019-03-24 07:30:24; 288.00; 3.42; 18.94
2019-03-24 07:30:37; 288.00; 3.42; 18.94
2019-03-24 07:30:49; 288.00; 3.42; 19.00
2019-03-24 07:45:03; 291.00; 3.39; 18.88
2019-03-24 07:45:15; 291.00; 3.39; 18.88
2019-03-24 07:45:28; 291.00; 3.39; 18.88
2019-03-24 07:45:40; 291.00; 3.39; 18.88
2019-03-24 07:45:53; 291.00; 3.39; 18.88
2019-03-24 08:00:07; 292.00; 3.39; 18.50
2019-03-24 08:00:19; 292.00; 3.38; 18.50
2019-03-24 08:00:32; 291.00; 3.39; 18.50
2019-03-24 08:00:44; 291.00; 3.39; 18.50
2019-03-24 08:00:57; 292.00; 3.38; 18.50
2019-03-24 08:15:11; 291.00; 3.39; 18.13
2019-03-24 08:15:23; 292.00; 3.38; 18.13
2019-03-24 08:15:35; 291.00; 3.39; 18.13
2019-03-24 08:15:48; 291.00; 3.39; 18.13
2019-03-24 08:16:00; 291.00; 3.39; 18.13
2019-03-24 08:30:03; 291.00; 3.39; 18.38
2019-03-24 08:30:16; 291.00; 3.39; 18.38
2019-03-24 08:30:28; 291.00; 3.39; 18.38
2019-03-24 08:30:40; 291.00; 3.39; 18.38
2019-03-24 08:30:53; 291.00; 3.39; 18.38
2019-03-24 08:45:07; 291.00; 3.39; 18.81
2019-03-24 08:45:19; 291.00; 3.39; 18.75
2019-03-24 08:45:32; 291.00; 3.39; 18.75
2019-03-24 08:45:44; 291.00; 3.39; 18.81
2019-03-24 08:45:57; 291.00; 3.39; 18.81
2019-03-24 09:00:11; 289.00; 3.40; 19.06
2019-03-24 09:00:23; 290.00; 3.41; 19.06
2019-03-24 09:00:36; 289.00; 3.41; 19.06
2019-03-24 09:00:48; 290.00; 3.40; 19.06
2019-03-24 09:15:02; 289.00; 3.41; 19.50
2019-03-24 09:15:15; 288.00; 3.42; 19.50
2019-03-24 09:15:27; 289.00; 3.41; 19.50
2019-03-24 09:15:40; 287.00; 3.42; 19.50
2019-03-24 09:15:52; 289.00; 3.41; 19.56
2019-03-24 09:30:06; 288.00; 3.42; 20.69
2019-03-24 09:30:18; 289.00; 3.41; 20.69
2019-03-24 09:30:31; 288.00; 3.42; 20.69
2019-03-24 09:30:43; 288.00; 3.42; 20.75
2019-03-24 09:30:56; 289.00; 3.41; 20.75
2019-03-24 09:45:09; 287.00; 3.43; 22.88
2019-03-24 09:45:22; 287.00; 3.43; 22.94
2019-03-24 09:45:34; 287.00; 3.43; 23.00
2019-03-24 09:45:47; 287.00; 3.43; 23.13
2019-03-24 09:45:59; 288.00; 3.43; 23.19
2019-03-24 10:00:01; 287.00; 3.43; 25.56
2019-03-24 10:00:13; 287.00; 3.43; 25.50
2019-03-24 10:00:26; 288.00; 3.42; 25.56
2019-03-24 10:00:38; 287.00; 3.43; 25.56
2019-03-24 10:00:51; 288.00; 3.42; 25.63
2019-03-24 10:15:04; 286.00; 3.44; 24.56
2019-03-24 10:15:17; 286.00; 3.44; 24.56
2019-03-24 10:15:29; 285.00; 3.45; 24.50
2019-03-24 10:15:42; 287.00; 3.44; 24.50
2019-03-24 10:15:54; 284.00; 3.45; 24.56
2019-03-24 10:30:08; 286.00; 3.44; 24.94
2019-03-24 10:30:21; 287.00; 3.44; 24.94
2019-03-24 10:30:33; 290.00; 3.42; 24.88
2019-03-24 10:30:46; 286.00; 3.44; 24.94
2019-03-24 10:30:58; 286.00; 3.44; 24.88
2019-03-24 10:45:01; 288.00; 3.41; 26.13
2019-03-24 10:45:13; 290.00; 3.41; 26.13
2019-03-24 10:45:26; 288.00; 3.39; 26.19
2019-03-24 10:45:38; 291.00; 3.39; 26.19
2019-03-24 10:45:51; 292.00; 3.39; 26.19
2019-03-24 11:00:05; 285.00; 3.42; 25.81
2019-03-24 11:00:17; 291.00; 3.39; 25.94
2019-03-24 11:00:29; 292.00; 3.38; 26.00
2019-03-24 11:00:42; 291.00; 3.41; 26.06
2019-03-24 11:00:54; 286.00; 3.44; 25.88
2019-03-24 11:15:08; 293.00; 3.37; 25.94
2019-03-24 11:15:21; 291.00; 3.40; 25.94
2019-03-24 11:15:33; 290.00; 3.40; 25.94
2019-03-24 11:15:46; 285.00; 3.42; 25.88
2019-03-24 11:15:58; 287.00; 3.40; 25.94
2019-03-24 11:30:01; 293.00; 3.37; 26.69
2019-03-24 11:30:13; 286.00; 3.44; 26.75
2019-03-24 11:30:26; 290.00; 3.42; 26.69
2019-03-24 11:30:38; 287.00; 3.45; 26.75
2019-03-24 11:30:51; 293.00; 3.37; 26.69
2019-03-24 11:45:05; 289.00; 3.41; 27.13
2019-03-24 11:45:17; 290.00; 3.40; 27.19
2019-03-24 11:45:30; 285.00; 3.45; 27.19
2019-03-24 11:45:42; 287.00; 3.45; 27.19
2019-03-24 11:45:55; 285.00; 3.45; 27.19
2019-03-24 12:00:09; 289.00; 3.44; 27.56
2019-03-24 12:00:21; 283.00; 3.48; 27.63
2019-03-24 12:00:34; 291.00; 3.39; 27.63
2019-03-24 12:00:46; 286.00; 3.44; 27.56
2019-03-24 12:00:58; 286.00; 3.44; 27.63
2019-03-24 12:15:01; 285.00; 3.45; 27.63
2019-03-24 12:15:14; 291.00; 3.40; 27.56
2019-03-24 12:15:26; 290.00; 3.39; 27.44
2019-03-24 12:15:39; 291.00; 3.39; 27.38
2019-03-24 12:15:51; 283.00; 3.47; 27.31
2019-03-24 12:30:05; 283.00; 3.47; 26.81
2019-03-24 12:30:17; 283.00; 3.47; 26.75
2019-03-24 12:30:30; 289.00; 3.41; 26.81
2019-03-24 12:30:42; 282.00; 3.48; 26.88
2019-03-24 12:30:55; 290.00; 3.40; 26.88
2019-03-24 12:45:09; 290.00; 3.41; 26.38
2019-03-24 12:45:21; 290.00; 3.42; 26.38
2019-03-24 12:45:34; 290.00; 3.40; 26.44
2019-03-24 12:45:46; 291.00; 3.41; 26.50
2019-03-24 12:45:59; 291.00; 3.39; 26.50
2019-03-24 13:00:01; 287.00; 3.45; 26.50
2019-03-24 13:00:14; 282.00; 3.46; 26.50
2019-03-24 13:00:26; 288.00; 3.41; 26.50
2019-03-24 13:00:39; 288.00; 3.40; 26.50
2019-03-24 13:00:51; 289.00; 3.41; 26.50
2019-03-24 13:15:05; 282.00; 3.48; 26.69
2019-03-24 13:15:18; 282.00; 3.48; 26.69
2019-03-24 13:15:30; 286.00; 3.42; 26.69
2019-03-24 13:15:43; 285.00; 3.45; 26.69
2019-03-24 13:15:55; 286.00; 3.45; 26.69
2019-03-24 13:30:09; 294.00; 3.39; 27.06
2019-03-24 13:30:22; 284.00; 3.46; 27.06
2019-03-24 13:30:34; 287.00; 3.43; 27.06
2019-03-24 13:30:46; 283.00; 3.45; 27.13
2019-03-24 13:30:59; 287.00; 3.42; 27.13
2019-03-24 13:45:02; 287.00; 3.43; 27.13
2019-03-24 13:45:14; 285.00; 3.46; 27.19
2019-03-24 13:45:27; 291.00; 3.39; 27.19
2019-03-24 13:45:39; 289.00; 3.41; 27.19
2019-03-24 13:45:51; 292.00; 3.38; 27.19
2019-03-24 14:00:05; 286.00; 3.42; 27.06
2019-03-24 14:00:18; 286.00; 3.46; 27.06
2019-03-24 14:00:30; 284.00; 3.46; 27.06
2019-03-24 14:00:43; 289.00; 3.41; 27.06
2019-03-24 14:00:55; 289.00; 3.41; 27.06
2019-03-24 14:15:09; 285.00; 3.45; 27.13
2019-03-24 14:15:22; 285.00; 3.45; 27.13
2019-03-24 14:15:34; 288.00; 3.40; 27.06
2019-03-24 14:15:47; 285.00; 3.40; 27.13
2019-03-24 14:15:59; 289.00; 3.46; 27.13
2019-03-24 14:30:02; 287.00; 3.42; 27.38
2019-03-24 14:30:14; 283.00; 3.47; 27.44
2019-03-24 14:30:27; 288.00; 3.41; 27.44
2019-03-24 14:30:39; 284.00; 3.45; 27.50
2019-03-24 14:30:52; 288.00; 3.42; 27.50
2019-03-24 14:45:06; 290.00; 3.40; 27.25
2019-03-24 14:45:18; 288.00; 3.41; 27.25
2019-03-24 14:45:30; 287.00; 3.43; 27.25
2019-03-24 14:45:43; 290.00; 3.40; 27.31
2019-03-24 14:45:55; 284.00; 3.46; 27.31
2019-03-24 15:00:09; 288.00; 3.45; 27.94
2019-03-24 15:00:22; 283.00; 3.47; 28.00
2019-03-24 15:00:34; 283.00; 3.47; 28.00
2019-03-24 15:00:47; 288.00; 3.42; 27.94
2019-03-24 15:00:59; 286.00; 3.44; 27.88
2019-03-24 15:15:02; 284.00; 3.46; 28.38
2019-03-24 15:15:14; 282.00; 3.48; 28.31
2019-03-24 15:15:27; 288.00; 3.43; 28.31
2019-03-24 15:15:39; 285.00; 3.46; 28.31
2019-03-24 15:15:52; 289.00; 3.41; 28.31
2019-03-24 15:30:05; 287.00; 3.41; 28.81
2019-03-24 15:30:18; 289.00; 3.43; 28.81
2019-03-24 15:30:30; 287.00; 3.43; 28.81
2019-03-24 15:30:43; 284.00; 3.46; 28.75
2019-03-24 15:30:55; 287.00; 3.43; 28.69
2019-03-24 15:45:09; 284.00; 3.46; 28.44
2019-03-24 15:45:22; 286.00; 3.44; 28.50
2019-03-24 15:45:34; 287.00; 3.41; 28.56
2019-03-24 15:45:47; 286.00; 3.44; 28.50
2019-03-24 15:45:59; 286.00; 3.44; 28.50
2019-03-24 16:00:02; 288.00; 3.43; 28.25
2019-03-24 16:00:14; 285.00; 3.45; 28.31
2019-03-24 16:00:27; 289.00; 3.41; 28.38
2019-03-24 16:00:39; 284.00; 3.46; 28.44
2019-03-24 16:00:51; 763.00; 3.47; 28.50
2019-03-24 16:15:05; 287.00; 3.44; 28.13
2019-03-24 16:15:18; 285.00; 3.45; 28.19
2019-03-24 16:15:30; 285.00; 3.46; 28.19
2019-03-24 16:15:43; 283.00; 3.47; 28.13
2019-03-24 16:15:55; 292.00; 3.38; 28.13
2019-03-24 16:30:09; 283.00; 3.47; 28.31
2019-03-24 16:30:22; 286.00; 3.44; 28.25
2019-03-24 16:30:34; 290.00; 3.40; 28.25
2019-03-24 16:30:47; 285.00; 3.45; 28.38
2019-03-24 16:30:59; 286.00; 3.44; 28.38
2019-03-24 16:45:01; 289.00; 3.41; 28.81
2019-03-24 16:45:14; 289.00; 3.41; 28.81
2019-03-24 16:45:26; 290.00; 3.40; 28.88
2019-03-24 16:45:39; 288.00; 3.42; 28.88
2019-03-24 16:45:51; 292.00; 3.38; 28.88
2019-03-24 17:00:05; 288.00; 3.42; 28.56
2019-03-24 17:00:18; 287.00; 3.41; 28.50
2019-03-24 17:00:30; 285.00; 3.44; 28.56
2019-03-24 17:00:43; 286.00; 3.44; 28.56
2019-03-24 17:00:55; 289.00; 3.39; 28.56
2019-03-24 17:15:09; 288.00; 3.46; 28.63
2019-03-24 17:15:22; 288.00; 3.47; 28.63
2019-03-24 17:15:34; 288.00; 3.42; 28.63
2019-03-24 17:15:46; 288.00; 3.42; 28.63
2019-03-24 17:15:59; 288.00; 3.42; 28.69
2019-03-24 17:30:01; 288.00; 3.42; 28.31
2019-03-24 17:30:14; 287.00; 3.43; 28.31
2019-03-24 17:30:26; 288.00; 3.42; 28.25
2019-03-24 17:30:39; 289.00; 3.41; 28.25
2019-03-24 17:30:51; 284.00; 3.46; 28.25
2019-03-24 17:45:05; 283.00; 3.47; 29.25
2019-03-24 17:45:18; 292.00; 3.38; 29.25
2019-03-24 17:45:30; 290.00; 3.40; 29.25
2019-03-24 17:45:43; 289.00; 3.41; 29.25
2019-03-24 17:45:55; 283.00; 3.47; 29.25
2019-03-24 18:00:09; 287.00; 3.44; 28.81
2019-03-24 18:00:21; 284.00; 3.46; 28.81
2019-03-24 18:00:34; 283.00; 3.47; 28.81
2019-03-24 18:00:46; 292.00; 3.38; 28.81
2019-03-24 18:00:59; 288.00; 3.42; 28.81
2019-03-24 18:15:01; 288.00; 3.43; 28.56
2019-03-24 18:15:14; 283.00; 3.47; 28.50
2019-03-24 18:15:26; 287.00; 3.43; 28.56
2019-03-24 18:15:39; 284.00; 3.46; 28.50
2019-03-24 18:15:51; 289.00; 3.41; 28.56
2019-03-24 18:30:05; 284.00; 3.46; 27.56
2019-03-24 18:30:18; 759.00; -1.29; 27.56
2019-03-24 18:30:30; 294.00; 3.36; 27.63
2019-03-24 18:30:43; 283.00; -1.30; 27.63
2019-03-24 18:30:55; 286.00; 3.44; 27.69
2019-03-24 18:45:09; 291.00; 3.45; 27.50
2019-03-24 18:45:22; 289.00; 3.41; 27.44
2019-03-24 18:45:34; 288.00; 3.44; 27.44
2019-03-24 18:45:46; 284.00; 3.46; 27.44
2019-03-24 18:45:59; 295.00; 3.35; 27.38
2019-03-24 19:00:02; 290.00; 3.40; 26.75
2019-03-24 19:00:14; 290.00; 3.40; 26.75
2019-03-24 19:00:26; 293.00; 3.37; 26.75
2019-03-24 19:00:39; 290.00; 3.40; 26.69
2019-03-24 19:00:51; 289.00; 3.41; 26.69
2019-03-24 19:15:06; 285.00; 3.45; 25.94
2019-03-24 19:15:18; 287.00; 3.43; 25.94
2019-03-24 19:15:31; 291.00; 3.39; 25.94
2019-03-24 19:15:43; 291.00; 3.39; 25.94
2019-03-24 19:15:56; 290.00; 3.40; 25.94
2019-03-24 19:30:10; 288.00; 3.42; 25.69
2019-03-24 19:30:22; 286.00; 3.44; 25.69
2019-03-24 19:30:35; 290.00; 3.40; 25.63
2019-03-24 19:30:47; 294.00; 3.36; 25.63
2019-03-24 19:30:59; 291.00; 3.40; 25.63
2019-03-24 19:45:02; 290.00; 3.40; 24.63
2019-03-24 19:45:15; 291.00; 3.39; 24.63
2019-03-24 19:45:27; 289.00; 3.41; 24.63
2019-03-24 19:45:40; 294.00; 3.36; 24.63
2019-03-24 19:45:52; 289.00; 3.38; 24.56
2019-03-24 20:00:07; 292.00; 3.38; 23.19
2019-03-24 20:00:19; 287.00; 3.43; 23.13
2019-03-24 20:00:32; 284.00; 3.46; 23.13
2019-03-24 20:00:44; 287.00; 3.43; 23.13
2019-03-24 20:00:56; 288.00; 3.40; 23.06
2019-03-24 20:15:11; 290.00; 3.43; 21.56
2019-03-24 20:15:23; 287.00; 3.43; 21.56
2019-03-24 20:15:36; 286.00; 3.44; 21.50
2019-03-24 20:15:48; 293.00; 3.38; 21.50
2019-03-24 20:30:03; 285.00; 3.45; 20.63
2019-03-24 20:30:15; 286.00; 3.45; 20.56
2019-03-24 20:30:28; 290.00; 3.41; 20.56
2019-03-24 20:30:40; 286.00; 3.44; 20.56
2019-03-24 20:30:53; 291.00; 3.39; 20.56
2019-03-24 20:45:07; 290.00; 3.42; 20.06
2019-03-24 20:45:20; 287.00; 3.42; 20.00
2019-03-24 20:45:32; 290.00; 3.40; 20.00
2019-03-24 20:45:45; 292.00; 3.38; 20.00
2019-03-24 20:45:57; 292.00; 3.39; 20.00
2019-03-24 21:00:12; 290.00; 3.40; 19.56
2019-03-24 21:00:24; 291.00; 3.39; 19.56
2019-03-24 21:00:36; 292.00; 3.38; 19.50
2019-03-24 21:00:49; 291.00; 3.40; 19.50
2019-03-24 21:15:03; 289.00; 3.41; 19.31
2019-03-24 21:15:16; 288.00; 3.43; 19.31
2019-03-24 21:15:28; 289.00; 3.41; 19.31
2019-03-24 21:15:41; 290.00; 3.40; 19.31
2019-03-24 21:15:53; 286.00; 3.45; 19.31
2019-03-24 21:30:08; 288.00; 3.42; 18.75
2019-03-24 21:30:20; 285.00; 3.45; 18.75
2019-03-24 21:30:33; 289.00; 3.41; 18.75
2019-03-24 21:30:45; 285.00; 3.45; 18.75
2019-03-24 21:30:58; 285.00; 3.45; 18.75
2019-03-24 21:45:01; 286.00; 3.44; 18.19
2019-03-24 21:45:13; 285.00; 3.45; 18.19
2019-03-24 21:45:26; 291.00; 3.39; 18.19
2019-03-24 21:45:38; 293.00; 3.37; 18.19
2019-03-24 21:45:51; 286.00; 3.42; 18.19
2019-03-24 22:00:05; 289.00; 3.43; 18.06
2019-03-24 22:00:18; 291.00; 3.39; 18.06
2019-03-24 22:00:30; 286.00; 3.44; 18.06
2019-03-24 22:00:43; 287.00; 3.45; 18.06
2019-03-24 22:00:55; 286.00; 3.43; 18.06
2019-03-24 22:15:10; 287.00; 3.43; 17.81
2019-03-24 22:15:22; 287.00; 3.43; 17.81
2019-03-24 22:15:35; 327.00; 3.03; 17.81
2019-03-24 22:15:47; 285.00; 3.44; 17.81
2019-03-24 22:16:00; 322.00; 3.08; 17.81
2019-03-24 22:30:03; 287.00; 3.43; 17.75
2019-03-24 22:30:15; 293.00; 3.36; 17.81
2019-03-24 22:30:28; 292.00; 3.37; 17.81
2019-03-24 22:30:40; 295.00; 3.35; 17.81
2019-03-24 22:30:53; 289.00; 3.39; 17.81
2019-03-24 22:45:08; 294.00; 3.36; 17.56
2019-03-24 22:45:20; 289.00; 3.40; 17.56
2019-03-24 22:45:33; 294.00; 3.36; 17.56
2019-03-24 22:45:45; 294.00; 3.36; 17.56
2019-03-24 22:45:58; 292.00; 3.38; 17.56
2019-03-24 23:00:01; 294.00; 3.36; 17.38
2019-03-24 23:00:13; 294.00; 3.36; 17.38
2019-03-24 23:00:26; 294.00; 3.36; 17.38
2019-03-24 23:00:38; 294.00; 3.36; 17.38
2019-03-24 23:00:51; 294.00; 3.36; 17.38
2019-03-24 23:15:06; 294.00; 3.37; 17.44
2019-03-24 23:15:18; 293.00; 3.38; 17.44
2019-03-24 23:15:31; 293.00; 3.37; 17.44
2019-03-24 23:15:43; 292.00; 3.39; 17.44
2019-03-24 23:15:56; 294.00; 3.36; 17.44
2019-03-24 23:30:11; 293.00; 3.37; 17.38
2019-03-24 23:30:23; 293.00; 3.37; 17.38
2019-03-24 23:30:36; 294.00; 3.36; 17.38
2019-03-24 23:30:48; 294.00; 3.36; 17.38
2019-03-24 23:31:01; 294.00; 3.36; 17.38
2019-03-24 23:45:04; 295.00; 3.35; 17.25
2019-03-24 23:45:17; 294.00; 3.36; 17.25
2019-03-24 23:45:29; 294.00; 3.36; 17.25
2019-03-24 23:45:41; 293.00; 3.37; 17.25
2019-03-24 23:45:54; 291.00; 3.42; 17.25
