2019-03-26 00:00:12; 293.00; 3.37; 16.31
2019-03-26 00:00:24; 293.00; 3.37; 16.31
2019-03-26 00:00:37; 294.00; 3.36; 16.31
2019-03-26 00:00:49; 293.00; 3.37; 16.31
2019-03-26 00:15:04; 294.00; 3.36; 16.19
2019-03-26 00:15:16; 293.00; 3.37; 16.19
2019-03-26 00:15:29; 293.00; 3.38; 16.19
2019-03-26 00:15:41; 294.00; 3.36; 16.19
2019-03-26 00:15:54; 294.00; 3.36; 16.19
2019-03-26 00:30:08; 293.00; 3.37; 16.13
2019-03-26 00:30:21; 293.00; 3.37; 16.13
2019-03-26 00:30:33; 293.00; 3.37; 16.13
2019-03-26 00:30:46; 293.00; 3.37; 16.06
2019-03-26 00:30:58; 293.00; 3.37; 16.13
2019-03-26 00:45:01; 291.00; 3.39; 16.31
2019-03-26 00:45:14; 292.00; 3.37; 16.31
2019-03-26 00:45:26; 292.00; 3.38; 16.31
2019-03-26 00:45:39; 293.00; 3.37; 16.31
2019-03-26 00:45:51; 293.00; 3.37; 16.31
2019-03-26 01:00:05; 290.00; 3.38; 16.25
2019-03-26 01:00:18; 292.00; 3.39; 16.25
2019-03-26 01:00:30; 287.00; 3.43; 16.25
2019-03-26 01:00:43; 288.00; 3.43; 16.25
2019-03-26 01:00:55; 292.00; 3.38; 16.25
2019-03-26 01:15:09; 290.00; 3.40; 16.31
2019-03-26 01:15:22; 291.00; 3.39; 16.31
2019-03-26 01:15:34; 291.00; 3.39; 16.31
2019-03-26 01:15:47; 290.00; 3.40; 16.31
2019-03-26 01:15:59; 291.00; 3.39; 16.31
2019-03-26 01:30:02; 290.00; 3.40; 16.31
2019-03-26 01:30:14; 290.00; 3.40; 16.31
2019-03-26 01:30:26; 290.00; 3.41; 16.31
2019-03-26 01:30:39; 291.00; 3.39; 16.31
2019-03-26 01:30:51; 290.00; 3.40; 16.31
2019-03-26 01:45:06; 292.00; 3.39; 16.13
2019-03-26 01:45:18; 291.00; 3.39; 16.13
2019-03-26 01:45:31; 291.00; 3.39; 16.13
2019-03-26 01:45:43; 292.00; 3.38; 16.13
2019-03-26 01:45:56; 292.00; 3.38; 16.13
2019-03-26 02:00:10; 291.00; 3.39; 16.00
2019-03-26 02:00:22; 292.00; 3.38; 16.00
2019-03-26 02:00:34; 292.00; 3.37; 16.00
2019-03-26 02:00:47; 292.00; 3.38; 16.00
2019-03-26 02:00:59; 292.00; 3.37; 16.00
2019-03-26 02:15:02; 292.00; 3.38; 16.06
2019-03-26 02:15:15; 292.00; 3.39; 16.06
2019-03-26 02:15:27; 292.00; 3.38; 16.06
2019-03-26 02:15:40; 290.00; 3.39; 16.06
2019-03-26 02:15:52; 291.00; 3.39; 16.06
2019-03-26 02:30:06; 292.00; 3.36; 16.06
2019-03-26 02:30:18; 291.00; 3.39; 16.06
2019-03-26 02:30:31; 292.00; 3.38; 16.06
2019-03-26 02:30:43; 292.00; 3.38; 16.06
2019-03-26 02:30:56; 292.00; 3.38; 16.06
2019-03-26 02:45:10; 292.00; 3.38; 16.13
2019-03-26 02:45:23; 292.00; 3.38; 16.13
2019-03-26 02:45:35; 291.00; 3.38; 16.13
2019-03-26 02:45:48; 289.00; 3.41; 16.13
2019-03-26 02:46:00; 293.00; 3.37; 16.13
2019-03-26 03:00:03; 293.00; 3.37; 16.13
2019-03-26 03:00:15; 293.00; 3.37; 16.13
2019-03-26 03:00:28; 293.00; 3.37; 16.13
2019-03-26 03:00:40; 293.00; 3.37; 16.13
2019-03-26 03:00:53; 293.00; 3.37; 16.13
2019-03-26 03:15:07; 293.00; 3.37; 16.06
2019-03-26 03:15:20; 293.00; 3.37; 16.06
2019-03-26 03:15:32; 293.00; 3.37; 16.06
2019-03-26 03:15:45; 293.00; 3.37; 16.06
2019-03-26 03:15:57; 293.00; 3.37; 16.06
2019-03-26 03:30:11; 293.00; 3.37; 15.88
2019-03-26 03:30:24; 293.00; 3.37; 15.81
2019-03-26 03:30:36; 293.00; 3.37; 15.81
2019-03-26 03:30:49; 293.00; 3.37; 15.81
2019-03-26 03:45:03; 291.00; 3.39; 15.50
2019-03-26 03:45:16; 290.00; 3.40; 15.50
2019-03-26 03:45:28; 291.00; 3.39; 15.50
2019-03-26 03:45:41; 291.00; 3.39; 15.50
2019-03-26 03:45:53; 291.00; 3.39; 15.50
2019-03-26 04:00:07; 291.00; 3.39; 15.31
2019-03-26 04:00:20; 291.00; 3.39; 15.31
2019-03-26 04:00:32; 289.00; 3.41; 15.31
2019-03-26 04:00:45; 290.00; 3.40; 15.31
2019-03-26 04:00:57; 290.00; 3.40; 15.31
2019-03-26 04:15:11; 291.00; 3.39; 14.94
2019-03-26 04:15:24; 291.00; 3.40; 14.94
2019-03-26 04:15:36; 291.00; 3.39; 14.94
2019-03-26 04:15:49; 291.00; 3.39; 14.94
2019-03-26 04:30:03; 292.00; 3.38; 14.44
2019-03-26 04:30:16; 291.00; 3.38; 14.44
2019-03-26 04:30:28; 292.00; 3.39; 14.44
2019-03-26 04:30:41; 292.00; 3.38; 14.44
2019-03-26 04:30:53; 292.00; 3.38; 14.44
2019-03-26 04:45:08; 293.00; 3.37; 14.06
2019-03-26 04:45:21; 294.00; 3.36; 14.06
2019-03-26 04:45:33; 293.00; 3.37; 14.06
2019-03-26 04:45:45; 293.00; 3.37; 14.06
2019-03-26 04:45:58; 293.00; 3.37; 14.06
2019-03-26 05:00:02; 291.00; 3.41; 14.06
2019-03-26 05:00:14; 288.00; 3.42; 14.06
2019-03-26 05:00:27; 294.00; 3.36; 14.06
2019-03-26 05:00:39; 290.00; 3.39; 14.06
2019-03-26 05:00:51; 290.00; 3.40; 14.06
2019-03-26 05:15:06; 289.00; 3.41; 14.06
2019-03-26 05:15:19; 290.00; 3.40; 14.06
2019-03-26 05:15:31; 292.00; 3.36; 14.06
2019-03-26 05:15:44; 293.00; 3.37; 14.06
2019-03-26 05:15:56; 291.00; 3.40; 14.06
2019-03-26 05:30:11; 288.00; 3.42; 13.75
2019-03-26 05:30:23; 288.00; 3.42; 13.75
2019-03-26 05:30:36; 291.00; 3.40; 13.75
2019-03-26 05:30:48; 290.00; 3.41; 13.75
2019-03-26 05:45:03; 289.00; 3.42; 13.75
2019-03-26 05:45:15; 287.00; 3.43; 13.75
2019-03-26 05:45:28; 288.00; 3.42; 13.69
2019-03-26 05:45:40; 290.00; 3.39; 13.75
2019-03-26 05:45:53; 288.00; 3.42; 13.69
2019-03-26 06:00:07; 291.00; 3.40; 13.56
2019-03-26 06:00:19; 292.00; 3.38; 13.50
2019-03-26 06:00:32; 291.00; 3.40; 13.50
2019-03-26 06:00:44; 293.00; 3.37; 13.50
2019-03-26 06:00:57; 291.00; 3.39; 13.50
2019-03-26 06:15:11; 294.00; 3.35; 13.38
2019-03-26 06:15:23; 291.00; 3.39; 13.38
2019-03-26 06:15:36; 294.00; 3.36; 13.38
2019-03-26 06:15:48; 294.00; 3.36; 13.38
2019-03-26 06:16:00; 293.00; 3.38; 13.38
2019-03-26 06:30:04; 289.00; 3.41; 13.19
2019-03-26 06:30:16; 288.00; 3.42; 13.19
2019-03-26 06:30:29; 289.00; 3.41; 13.19
2019-03-26 06:30:41; 288.00; 3.42; 13.19
2019-03-26 06:30:53; 289.00; 3.41; 13.19
2019-03-26 06:45:08; 288.00; 3.42; 13.06
2019-03-26 06:45:20; 287.00; 3.43; 13.13
2019-03-26 06:45:33; 288.00; 3.41; 13.13
2019-03-26 06:45:45; 292.00; 3.37; 13.13
2019-03-26 06:45:58; 288.00; 3.42; 13.13
2019-03-26 07:00:01; 287.00; 3.43; 13.25
2019-03-26 07:00:14; 287.00; 3.43; 13.25
2019-03-26 07:00:26; 290.00; 3.40; 13.25
2019-03-26 07:00:39; 287.00; 3.43; 13.25
2019-03-26 07:00:51; 288.00; 3.42; 13.25
2019-03-26 07:15:06; 288.00; 3.41; 13.19
2019-03-26 07:15:18; 287.00; 3.43; 13.13
2019-03-26 07:15:31; 295.00; 3.35; 13.13
2019-03-26 07:15:43; 290.00; 3.39; 13.19
2019-03-26 07:15:56; 292.00; 3.40; 13.19
2019-03-26 07:30:10; 295.00; 3.35; 13.19
2019-03-26 07:30:23; 294.00; 3.36; 13.19
2019-03-26 07:30:35; 295.00; 3.35; 13.19
2019-03-26 07:30:48; 295.00; 3.35; 13.19
2019-03-26 07:31:00; 295.00; 3.35; 13.19
2019-03-26 07:45:03; 296.00; 3.34; 13.25
2019-03-26 07:45:16; 295.00; 3.35; 13.25
2019-03-26 07:45:28; 296.00; 3.34; 13.25
2019-03-26 07:45:41; 296.00; 3.34; 13.25
2019-03-26 07:45:53; 294.00; 3.36; 13.25
2019-03-26 08:00:08; 289.00; 3.41; 13.25
2019-03-26 08:00:20; 293.00; 3.37; 13.25
2019-03-26 08:00:33; 291.00; 3.40; 13.25
2019-03-26 08:00:45; 292.00; 3.37; 13.25
2019-03-26 08:00:58; 294.00; 3.36; 13.25
2019-03-26 08:15:12; 292.00; 3.38; 13.25
2019-03-26 08:15:24; 293.00; 3.37; 13.25
2019-03-26 08:15:37; 293.00; 3.38; 13.25
2019-03-26 08:15:49; 293.00; 3.37; 13.25
2019-03-26 08:30:04; 294.00; 3.36; 13.31
2019-03-26 08:30:16; 294.00; 3.36; 13.31
2019-03-26 08:30:28; 295.00; 3.35; 13.31
2019-03-26 08:30:41; 295.00; 3.35; 13.31
2019-03-26 08:30:53; 294.00; 3.36; 13.31
2019-03-26 08:45:08; 289.00; 3.41; 13.63
2019-03-26 08:45:21; 289.00; 3.41; 13.63
2019-03-26 08:45:33; 294.00; 3.36; 13.63
2019-03-26 08:45:46; 294.00; 3.36; 13.69
2019-03-26 08:45:58; 290.00; 3.40; 13.63
2019-03-26 09:00:02; 292.00; 3.38; 14.13
2019-03-26 09:00:14; 291.00; 3.38; 14.19
2019-03-26 09:00:27; 291.00; 3.40; 14.19
2019-03-26 09:00:39; 291.00; 3.39; 14.19
2019-03-26 09:00:51; 290.00; 3.40; 14.19
2019-03-26 09:15:06; 294.00; 3.36; 15.06
2019-03-26 09:15:19; 294.00; 3.37; 15.06
2019-03-26 09:15:31; 294.00; 3.37; 15.13
2019-03-26 09:15:44; 294.00; 3.36; 15.13
2019-03-26 09:15:56; 295.00; 3.36; 15.13
2019-03-26 09:30:11; 294.00; 3.36; 16.06
2019-03-26 09:30:23; 294.00; 3.36; 16.06
2019-03-26 09:30:35; 294.00; 3.36; 16.13
2019-03-26 09:30:48; 294.00; 3.36; 16.13
2019-03-26 09:31:00; 293.00; 3.37; 16.13
2019-03-26 09:45:04; 295.00; 3.35; 18.13
2019-03-26 09:45:16; 294.00; 3.36; 18.19
2019-03-26 09:45:29; 295.00; 3.35; 18.25
2019-03-26 09:45:41; 290.00; 3.38; 18.31
2019-03-26 09:45:54; 294.00; 3.36; 18.38
2019-03-26 10:00:08; 290.00; 3.40; 21.38
2019-03-26 10:00:20; 293.00; 3.37; 21.38
2019-03-26 10:00:33; 294.00; 3.37; 21.38
2019-03-26 10:00:45; 291.00; 3.38; 21.38
2019-03-26 10:00:58; 294.00; 3.37; 21.38
2019-03-26 10:15:01; 293.00; 3.37; 22.75
2019-03-26 10:15:13; 293.00; 3.36; 22.75
2019-03-26 10:15:26; 293.00; 3.38; 22.75
2019-03-26 10:15:38; 293.00; 3.37; 22.75
2019-03-26 10:15:51; 293.00; 3.37; 22.75
2019-03-26 10:30:05; 294.00; 3.36; 23.06
2019-03-26 10:30:18; 306.00; 3.24; 23.06
2019-03-26 10:30:30; 294.00; 3.36; 23.06
2019-03-26 10:30:42; 293.00; 3.37; 23.06
2019-03-26 10:30:55; 294.00; 3.36; 23.06
2019-03-26 10:45:09; 290.00; 3.40; 24.06
2019-03-26 10:45:22; 290.00; 3.40; 24.06
2019-03-26 10:45:34; 291.00; 3.40; 24.19
2019-03-26 10:45:47; 289.00; 3.42; 24.25
2019-03-26 10:45:59; 289.00; 3.41; 24.31
2019-03-26 11:00:02; 288.00; 3.42; 24.38
2019-03-26 11:00:15; 291.00; 3.36; 24.38
2019-03-26 11:00:27; 289.00; 3.38; 24.31
2019-03-26 11:00:39; 293.00; 3.37; 24.25
2019-03-26 11:00:52; 293.00; 3.37; 24.06
2019-03-26 11:15:06; 286.00; 3.44; 25.25
2019-03-26 11:15:19; 288.00; 3.42; 25.25
2019-03-26 11:15:31; 285.00; 3.45; 25.31
2019-03-26 11:15:44; 290.00; 3.40; 25.38
2019-03-26 11:15:56; 286.00; 3.44; 25.38
2019-03-26 11:30:10; 289.00; 3.42; 25.69
2019-03-26 11:30:23; 292.00; 3.38; 25.75
2019-03-26 11:30:35; 285.00; 3.45; 25.75
2019-03-26 11:30:48; 288.00; 3.42; 25.81
2019-03-26 11:31:00; 289.00; 3.41; 25.75
2019-03-26 11:45:03; 291.00; 3.39; 24.81
2019-03-26 11:45:15; 289.00; 3.41; 24.88
2019-03-26 11:45:28; 292.00; 3.38; 24.75
2019-03-26 11:45:40; 291.00; 3.39; 24.75
2019-03-26 11:45:53; 287.00; 3.43; 24.63
2019-03-26 12:00:07; 285.00; 3.45; 26.44
2019-03-26 12:00:20; 285.00; 3.45; 26.50
2019-03-26 12:00:32; 285.00; 3.45; 26.56
2019-03-26 12:00:45; 286.00; 3.44; 26.56
2019-03-26 12:00:57; 285.00; 3.45; 26.63
2019-03-26 12:15:11; 288.00; 3.43; 26.75
2019-03-26 12:15:24; 287.00; 3.43; 26.75
2019-03-26 12:15:36; 287.00; 3.42; 26.81
2019-03-26 12:15:49; 285.00; 3.45; 26.69
2019-03-26 12:30:03; 292.00; 3.38; 27.00
2019-03-26 12:30:15; 292.00; 3.39; 26.94
2019-03-26 12:30:28; 287.00; 3.43; 26.88
2019-03-26 12:30:40; 291.00; 3.39; 26.81
2019-03-26 12:30:53; 288.00; 3.42; 26.81
2019-03-26 12:45:07; 287.00; 3.42; 23.94
2019-03-26 12:45:19; 288.00; 3.42; 23.94
2019-03-26 12:45:32; 284.00; 3.46; 24.00
2019-03-26 12:45:44; 285.00; 3.45; 24.13
2019-03-26 12:45:57; 290.00; 3.40; 24.19
2019-03-26 13:00:05; 288.00; 3.43; 26.56
2019-03-26 13:00:17; 291.00; 3.39; 26.56
2019-03-26 13:00:30; 287.00; 3.43; 26.50
2019-03-26 13:00:42; 293.00; 3.37; 26.38
2019-03-26 13:00:55; 288.00; 3.42; 26.31
2019-03-26 13:15:09; 291.00; 3.41; 24.25
2019-03-26 13:15:21; 293.00; 3.37; 24.31
2019-03-26 13:15:34; 290.00; 3.39; 24.38
2019-03-26 13:15:46; 290.00; 3.40; 24.44
2019-03-26 13:15:59; 288.00; 3.42; 24.50
2019-03-26 13:30:02; 290.00; 3.45; 24.63
2019-03-26 13:30:14; 288.00; 3.42; 24.69
2019-03-26 13:30:27; 287.00; 3.43; 24.75
2019-03-26 13:30:39; 285.00; 3.45; 24.88
2019-03-26 13:30:52; 292.00; 3.38; 25.06
2019-03-26 13:45:06; 291.00; 3.39; 28.75
2019-03-26 13:45:18; 288.00; 3.42; 28.69
2019-03-26 13:45:31; 286.00; 3.44; 28.75
2019-03-26 13:45:43; 289.00; 3.40; 28.81
2019-03-26 13:45:55; 289.00; 3.41; 28.88
2019-03-26 14:00:09; 289.00; 3.42; 25.88
2019-03-26 14:00:22; 287.00; 3.43; 25.81
2019-03-26 14:00:34; 290.00; 3.40; 25.75
2019-03-26 14:00:47; 289.00; 3.41; 25.75
2019-03-26 14:00:59; 289.00; 3.42; 25.69
2019-03-26 14:15:02; 288.00; 3.42; 27.19
2019-03-26 14:15:14; 288.00; 3.41; 27.19
2019-03-26 14:15:27; 287.00; 3.44; 27.19
2019-03-26 14:15:39; 292.00; 3.38; 27.06
2019-03-26 14:15:52; 285.00; 3.45; 26.94
2019-03-26 14:30:06; 289.00; 3.41; 28.88
2019-03-26 14:30:18; 291.00; 3.39; 29.00
2019-03-26 14:30:31; 290.00; 3.40; 29.13
2019-03-26 14:30:43; 285.00; 3.44; 29.25
2019-03-26 14:30:56; 285.00; 3.45; 29.25
2019-03-26 14:45:10; 293.00; 3.37; 31.00
2019-03-26 14:45:22; 284.00; 3.46; 30.94
2019-03-26 14:45:35; 285.00; 3.45; 30.75
2019-03-26 14:45:47; 287.00; 3.43; 30.63
2019-03-26 14:45:59; 290.00; 3.40; 30.69
2019-03-26 15:00:02; 287.00; 3.42; 28.75
2019-03-26 15:00:14; 286.00; 3.44; 28.88
2019-03-26 15:00:27; 283.00; 3.47; 28.88
2019-03-26 15:00:39; 285.00; 3.44; 28.88
2019-03-26 15:00:52; 292.00; 3.39; 29.00
2019-03-26 15:15:06; 291.00; 3.40; 30.00
2019-03-26 15:15:18; 287.00; 3.43; 30.00
2019-03-26 15:15:31; 290.00; 3.40; 30.06
2019-03-26 15:15:43; 287.00; 3.43; 30.13
2019-03-26 15:15:56; 291.00; 3.39; 30.19
2019-03-26 15:30:10; 289.00; 3.46; 28.19
2019-03-26 15:30:22; 289.00; 3.41; 28.38
2019-03-26 15:30:34; 290.00; 3.40; 28.50
2019-03-26 15:30:47; 289.00; 3.41; 28.63
2019-03-26 15:30:59; 291.00; 3.39; 28.69
2019-03-26 15:45:02; 290.00; 3.39; 31.63
2019-03-26 15:45:14; 290.00; 3.40; 31.44
2019-03-26 15:45:27; 290.00; 3.40; 31.44
2019-03-26 15:45:39; 291.00; 3.39; 31.38
2019-03-26 15:45:52; 292.00; 3.39; 31.38
2019-03-26 16:00:06; 292.00; 3.38; 24.50
2019-03-26 16:00:18; 292.00; 3.38; 24.50
2019-03-26 16:00:31; 289.00; 3.41; 24.50
2019-03-26 16:00:43; 291.00; 3.39; 24.56
2019-03-26 16:00:56; 292.00; 3.38; 24.63
2019-03-26 16:15:10; 291.00; 3.39; 30.06
2019-03-26 16:15:22; 291.00; 3.39; 30.00
2019-03-26 16:15:35; 292.00; 3.39; 30.06
2019-03-26 16:15:47; 292.00; 3.38; 30.13
2019-03-26 16:16:00; 292.00; 3.38; 30.00
2019-03-26 16:30:02; 291.00; 3.39; 28.31
2019-03-26 16:30:15; 291.00; 3.39; 28.38
2019-03-26 16:30:27; 290.00; 3.40; 28.56
2019-03-26 16:30:40; 291.00; 3.39; 28.69
2019-03-26 16:30:52; 292.00; 3.38; 28.88
2019-03-26 16:45:06; 294.00; 3.37; 26.19
2019-03-26 16:45:19; 291.00; 3.38; 26.13
2019-03-26 16:45:31; 293.00; 3.36; 26.00
2019-03-26 16:45:44; 293.00; 3.37; 25.94
2019-03-26 16:45:56; 293.00; 3.36; 25.88
2019-03-26 17:00:10; 293.00; 3.37; 30.00
2019-03-26 17:00:23; 293.00; 3.37; 29.88
2019-03-26 17:00:35; 293.00; 3.37; 29.88
2019-03-26 17:00:48; 295.00; 3.35; 29.88
2019-03-26 17:01:00; 296.00; 3.35; 29.81
2019-03-26 17:15:03; 291.00; 3.39; 24.63
2019-03-26 17:15:15; 291.00; 3.39; 24.69
2019-03-26 17:15:28; 291.00; 3.39; 24.75
2019-03-26 17:15:40; 289.00; 3.41; 24.75
2019-03-26 17:15:52; 291.00; 3.39; 24.88
2019-03-26 17:30:07; 290.00; 3.40; 28.69
2019-03-26 17:30:19; 290.00; 3.40; 28.69
2019-03-26 17:30:32; 283.00; 3.47; 28.75
2019-03-26 17:30:44; 285.00; 3.45; 28.81
2019-03-26 17:30:56; 283.00; 3.47; 28.81
2019-03-26 17:45:04; 285.00; 3.45; 32.56
2019-03-26 17:45:17; 290.00; 3.47; 32.69
2019-03-26 17:45:29; 293.00; 3.37; 32.75
2019-03-26 17:45:42; 301.00; 3.29; 32.75
2019-03-26 17:45:54; 291.00; 3.39; 32.81
2019-03-26 18:00:08; 290.00; 3.40; 28.13
2019-03-26 18:00:20; 292.00; 3.38; 28.06
2019-03-26 18:00:33; 291.00; 3.39; 28.06
2019-03-26 18:00:45; 292.00; 3.38; 28.00
2019-03-26 18:00:58; 292.00; 3.38; 27.88
2019-03-26 18:15:12; 292.00; 3.38; 28.44
2019-03-26 18:15:24; 291.00; 3.39; 28.38
2019-03-26 18:15:37; 291.00; 3.39; 28.31
2019-03-26 18:15:49; 284.00; 3.46; 28.25
2019-03-26 18:30:03; 291.00; 3.39; 30.00
2019-03-26 18:30:16; 291.00; 3.39; 30.06
2019-03-26 18:30:28; 289.00; 3.38; 30.06
2019-03-26 18:30:41; 291.00; 3.39; 30.06
2019-03-26 18:30:53; 291.00; 3.39; 30.06
2019-03-26 18:45:07; 292.00; 3.38; 30.19
2019-03-26 18:45:19; 291.00; 3.39; 30.06
2019-03-26 18:45:32; 291.00; 3.39; 30.19
2019-03-26 18:45:44; 291.00; 3.39; 30.25
2019-03-26 18:45:57; 296.00; 3.34; 30.31
2019-03-26 19:00:11; 291.00; 3.39; 28.06
2019-03-26 19:00:23; 291.00; 3.39; 27.81
2019-03-26 19:00:36; 289.00; 3.41; 27.81
2019-03-26 19:00:48; 290.00; 3.40; 27.69
2019-03-26 19:01:00; 290.00; 3.39; 27.63
2019-03-26 19:15:03; 291.00; 3.39; 28.38
2019-03-26 19:15:16; 291.00; 3.39; 28.44
2019-03-26 19:15:28; 292.00; 3.39; 28.50
2019-03-26 19:15:41; 292.00; 3.39; 28.50
2019-03-26 19:15:53; 289.00; 3.40; 28.44
2019-03-26 19:30:07; 291.00; 3.39; 27.81
2019-03-26 19:30:19; 295.00; 3.35; 27.75
2019-03-26 19:30:32; 292.00; 3.38; 27.69
2019-03-26 19:30:44; 291.00; 3.39; 27.63
2019-03-26 19:30:57; 297.00; 3.33; 27.56
2019-03-26 19:45:11; 322.00; 3.08; 26.63
2019-03-26 19:45:23; 322.00; 3.08; 26.63
2019-03-26 19:45:36; 322.00; 3.08; 26.56
2019-03-26 19:45:48; 313.00; 3.17; 26.56
2019-03-26 20:00:03; 290.00; 3.40; 23.94
2019-03-26 20:00:15; 306.00; 3.24; 23.88
2019-03-26 20:00:28; 291.00; 3.39; 23.81
2019-03-26 20:00:40; 292.00; 3.38; 23.75
2019-03-26 20:00:52; 290.00; 3.40; 23.69
2019-03-26 20:15:07; 290.00; 3.40; 20.94
2019-03-26 20:15:19; 292.00; 3.39; 20.94
2019-03-26 20:15:32; 293.00; 3.37; 20.94
2019-03-26 20:15:44; 295.00; 3.35; 20.88
2019-03-26 20:15:57; 292.00; 3.38; 20.81
2019-03-26 20:30:12; 287.00; 3.43; 19.69
2019-03-26 20:30:24; 287.00; 3.43; 19.69
2019-03-26 20:30:37; 327.00; 3.03; 19.69
2019-03-26 20:30:49; 318.00; 3.11; 19.63
2019-03-26 20:45:04; 295.00; 3.35; 19.13
2019-03-26 20:45:16; 289.00; 3.41; 19.13
2019-03-26 20:45:29; 305.00; 3.25; 19.13
2019-03-26 20:45:41; 289.00; 3.41; 19.13
2019-03-26 20:45:53; 287.00; 3.43; 19.06
2019-03-26 21:00:08; 286.00; 3.44; 18.50
2019-03-26 21:00:20; 286.00; 3.44; 18.50
2019-03-26 21:00:33; 285.00; 3.45; 18.50
2019-03-26 21:00:45; 288.00; 3.42; 18.50
2019-03-26 21:00:58; 286.00; 3.44; 18.50
2019-03-26 21:15:01; 291.00; 3.39; 18.06
2019-03-26 21:15:14; 290.00; 3.40; 18.06
2019-03-26 21:15:26; 291.00; 3.39; 18.06
2019-03-26 21:15:39; 292.00; 3.38; 18.06
2019-03-26 21:15:51; 290.00; 3.39; 18.06
2019-03-26 21:30:06; 291.00; 3.39; 17.94
2019-03-26 21:30:18; 291.00; 3.39; 17.94
2019-03-26 21:30:31; 291.00; 3.39; 17.94
2019-03-26 21:30:43; 291.00; 3.38; 17.94
2019-03-26 21:30:56; 291.00; 3.39; 17.94
2019-03-26 21:45:10; 289.00; 3.41; 17.81
2019-03-26 21:45:23; 289.00; 3.39; 17.81
2019-03-26 21:45:35; 290.00; 3.41; 17.81
2019-03-26 21:45:48; 289.00; 3.40; 17.81
2019-03-26 21:46:00; 287.00; 3.43; 17.81
2019-03-26 22:00:03; 287.00; 3.43; 17.63
2019-03-26 22:00:16; 287.00; 3.43; 17.63
2019-03-26 22:00:28; 288.00; 3.42; 17.63
2019-03-26 22:00:41; 287.00; 3.43; 17.63
2019-03-26 22:00:53; 287.00; 3.42; 17.63
2019-03-26 22:15:08; 288.00; 3.41; 17.38
2019-03-26 22:15:20; 292.00; 3.37; 17.38
2019-03-26 22:15:32; 291.00; 3.39; 17.38
2019-03-26 22:15:45; 288.00; 3.42; 17.38
2019-03-26 22:15:57; 288.00; 3.42; 17.38
2019-03-26 22:30:12; 291.00; 3.39; 17.13
2019-03-26 22:30:24; 293.00; 3.37; 17.13
2019-03-26 22:30:37; 292.00; 3.38; 17.13
2019-03-26 22:30:49; 291.00; 3.38; 17.13
2019-03-26 22:45:04; 289.00; 3.41; 16.88
2019-03-26 22:45:16; 288.00; 3.42; 16.88
2019-03-26 22:45:29; 289.00; 3.41; 16.88
2019-03-26 22:45:41; 288.00; 3.42; 16.88
2019-03-26 22:45:54; 291.00; 3.42; 16.88
2019-03-26 23:00:08; 298.00; 3.31; 16.44
2019-03-26 23:00:21; 295.00; 3.36; 16.44
2019-03-26 23:00:33; 298.00; 3.32; 16.44
2019-03-26 23:00:46; 295.00; 3.33; 16.44
2019-03-26 23:00:58; 294.00; 3.36; 16.44
2019-03-26 23:15:02; 297.00; 3.33; 16.06
2019-03-26 23:15:14; 299.00; 3.31; 16.06
2019-03-26 23:15:27; 299.00; 3.31; 16.06
2019-03-26 23:15:39; 298.00; 3.31; 16.06
2019-03-26 23:15:52; 298.00; 3.33; 16.06
2019-03-26 23:30:06; 293.00; 3.37; 15.94
2019-03-26 23:30:19; 286.00; 3.44; 15.94
2019-03-26 23:30:31; 289.00; 3.42; 15.94
2019-03-26 23:30:44; 289.00; 3.41; 15.94
2019-03-26 23:30:56; 298.00; 3.31; 15.94
2019-03-26 23:45:11; 287.00; 3.42; 16.06
2019-03-26 23:45:24; 288.00; 3.42; 16.06
2019-03-26 23:45:36; 289.00; 3.41; 16.06
2019-03-26 23:45:48; 288.00; 3.41; 16.06
