2019-05-26 00:00:03; 175.00; 4.55; 15.00
2019-05-26 00:00:15; 174.00; 4.56; 14.94
2019-05-26 00:00:28; 174.00; 4.56; 14.94
2019-05-26 00:00:40; 174.00; 4.56; 14.94
2019-05-26 00:00:53; 174.00; 4.55; 14.94
2019-05-26 00:15:08; 176.00; 4.54; 14.94
2019-05-26 00:15:21; 176.00; 4.54; 14.94
2019-05-26 00:15:33; 175.00; 4.54; 14.94
2019-05-26 00:15:46; 176.00; 4.54; 14.94
2019-05-26 00:15:58; 175.00; 4.55; 14.94
2019-05-26 00:30:03; 175.00; 4.54; 14.88
2019-05-26 00:30:15; 175.00; 4.55; 14.88
2019-05-26 00:30:27; 176.00; 4.54; 14.88
2019-05-26 00:30:40; 175.00; 4.55; 14.88
2019-05-26 00:30:52; 175.00; 4.54; 14.88
2019-05-26 00:45:08; 175.00; 4.55; 14.75
2019-05-26 00:45:21; 175.00; 4.55; 14.75
2019-05-26 00:45:33; 175.00; 4.55; 14.75
2019-05-26 00:45:45; 175.00; 4.55; 14.75
2019-05-26 00:45:58; 176.00; 4.54; 14.75
2019-05-26 01:00:02; 175.00; 4.55; 14.50
2019-05-26 01:00:15; 176.00; 4.54; 14.56
2019-05-26 01:00:27; 175.00; 4.55; 14.50
2019-05-26 01:00:40; 176.00; 4.54; 14.56
2019-05-26 01:00:52; 175.00; 4.55; 14.50
2019-05-26 01:15:08; 174.00; 4.56; 14.25
2019-05-26 01:15:20; 176.00; 4.55; 14.25
2019-05-26 01:15:33; 175.00; 4.55; 14.25
2019-05-26 01:15:45; 175.00; 4.55; 14.25
2019-05-26 01:15:58; 176.00; 4.55; 14.25
2019-05-26 01:30:02; 176.00; 4.54; 14.19
2019-05-26 01:30:14; 176.00; 4.54; 14.19
2019-05-26 01:30:27; 176.00; 4.54; 14.19
2019-05-26 01:30:39; 176.00; 4.54; 14.19
2019-05-26 01:30:52; 177.00; 4.53; 14.19
2019-05-26 01:45:07; 176.00; 4.54; 14.06
2019-05-26 01:45:20; 175.00; 4.55; 14.06
2019-05-26 01:45:32; 176.00; 4.54; 14.06
2019-05-26 01:45:45; 175.00; 4.55; 14.06
2019-05-26 01:45:57; 176.00; 4.54; 14.06
2019-05-26 02:00:02; 177.00; 4.53; 13.75
2019-05-26 02:00:14; 176.00; 4.54; 13.69
2019-05-26 02:00:26; 176.00; 4.54; 13.75
2019-05-26 02:00:39; 176.00; 4.54; 13.69
2019-05-26 02:00:51; 176.00; 4.54; 13.69
2019-05-26 02:15:07; 176.00; 4.54; 13.75
2019-05-26 02:15:20; 176.00; 4.54; 13.81
2019-05-26 02:15:32; 176.00; 4.54; 13.75
2019-05-26 02:15:44; 176.00; 4.54; 13.75
2019-05-26 02:15:57; 176.00; 4.54; 13.81
2019-05-26 02:30:01; 176.00; 4.54; 14.13
2019-05-26 02:30:14; 176.00; 4.54; 14.13
2019-05-26 02:30:26; 176.00; 4.54; 14.13
2019-05-26 02:30:39; 175.00; 4.55; 14.13
2019-05-26 02:30:51; 175.00; 4.55; 14.13
2019-05-26 02:45:07; 177.00; 4.53; 14.25
2019-05-26 02:45:19; 175.00; 4.55; 14.25
2019-05-26 02:45:32; 176.00; 4.54; 14.25
2019-05-26 02:45:44; 176.00; 4.54; 14.25
2019-05-26 02:45:57; 176.00; 4.54; 14.25
2019-05-26 03:00:01; 177.00; 4.53; 14.19
2019-05-26 03:00:13; 176.00; 4.54; 14.13
2019-05-26 03:00:26; 176.00; 4.54; 14.19
2019-05-26 03:00:38; 176.00; 4.55; 14.19
2019-05-26 03:00:51; 175.00; 4.55; 14.13
2019-05-26 03:15:06; 174.00; 4.56; 14.00
2019-05-26 03:15:19; 175.00; 4.55; 14.00
2019-05-26 03:15:31; 175.00; 4.55; 14.00
2019-05-26 03:15:44; 175.00; 4.55; 14.00
2019-05-26 03:15:56; 174.00; 4.56; 14.00
2019-05-26 03:30:12; 176.00; 4.54; 14.00
2019-05-26 03:30:24; 177.00; 4.53; 14.00
2019-05-26 03:30:37; 174.00; 4.56; 14.00
2019-05-26 03:30:49; 176.00; 4.54; 14.00
2019-05-26 03:45:05; 174.00; 4.56; 14.13
2019-05-26 03:45:17; 175.00; 4.55; 14.19
2019-05-26 03:45:30; 174.00; 4.56; 14.13
2019-05-26 03:45:42; 175.00; 4.55; 14.19
2019-05-26 03:45:55; 176.00; 4.54; 14.19
2019-05-26 04:00:10; 174.00; 4.56; 14.13
2019-05-26 04:00:23; 177.00; 4.53; 14.13
2019-05-26 04:00:35; 174.00; 4.56; 14.13
2019-05-26 04:00:47; 175.00; 4.55; 14.13
2019-05-26 04:01:00; 176.00; 4.54; 14.13
2019-05-26 04:15:04; 175.00; 4.55; 14.19
2019-05-26 04:15:16; 175.00; 4.56; 14.19
2019-05-26 04:15:29; 175.00; 4.55; 14.19
2019-05-26 04:15:41; 175.00; 4.54; 14.19
2019-05-26 04:15:54; 174.00; 4.55; 14.19
2019-05-26 04:30:09; 174.00; 4.56; 14.25
2019-05-26 04:30:22; 174.00; 4.56; 14.25
2019-05-26 04:30:34; 176.00; 4.55; 14.25
2019-05-26 04:30:47; 175.00; 4.55; 14.25
2019-05-26 04:30:59; 175.00; 4.54; 14.25
2019-05-26 04:45:04; 175.00; 4.55; 14.25
2019-05-26 04:45:16; 174.00; 4.56; 14.25
2019-05-26 04:45:28; 173.00; 4.58; 14.25
2019-05-26 04:45:41; 175.00; 4.55; 14.25
2019-05-26 04:45:53; 175.00; 4.55; 14.25
2019-05-26 05:00:09; 174.00; 4.56; 14.19
2019-05-26 05:00:21; 175.00; 4.55; 14.19
2019-05-26 05:00:34; 174.00; 4.55; 14.19
2019-05-26 05:00:46; 175.00; 4.55; 14.19
2019-05-26 05:00:59; 176.00; 4.54; 14.19
2019-05-26 05:15:03; 175.00; 4.55; 14.19
2019-05-26 05:15:15; 176.00; 4.54; 14.13
2019-05-26 05:15:28; 176.00; 4.54; 14.13
2019-05-26 05:15:41; 174.00; 4.57; 14.19
2019-05-26 05:15:53; 175.00; 4.55; 14.13
2019-05-26 05:30:09; 175.00; 4.55; 14.13
2019-05-26 05:30:21; 176.00; 4.54; 14.13
2019-05-26 05:30:34; 176.00; 4.54; 14.13
2019-05-26 05:30:46; 176.00; 4.54; 14.13
2019-05-26 05:30:59; 176.00; 4.55; 14.13
2019-05-26 05:45:03; 175.00; 4.55; 14.19
2019-05-26 05:45:15; 175.00; 4.55; 14.19
2019-05-26 05:45:28; 175.00; 4.55; 14.19
2019-05-26 05:45:40; 174.00; 4.55; 14.19
2019-05-26 05:45:53; 176.00; 4.55; 14.19
2019-05-26 06:00:08; 176.00; 4.53; 14.19
2019-05-26 06:00:21; 176.00; 4.54; 14.19
2019-05-26 06:00:33; 176.00; 4.53; 14.19
2019-05-26 06:00:46; 175.00; 4.55; 14.19
2019-05-26 06:00:58; 175.00; 4.55; 14.19
2019-05-26 06:15:02; 175.00; 4.55; 14.06
2019-05-26 06:15:15; 175.00; 4.55; 14.06
2019-05-26 06:15:27; 176.00; 4.54; 14.06
2019-05-26 06:15:40; 176.00; 4.54; 14.06
2019-05-26 06:15:52; 176.00; 4.55; 14.06
2019-05-26 06:30:07; 176.00; 4.54; 14.00
2019-05-26 06:30:20; 177.00; 4.53; 14.00
2019-05-26 06:30:32; 176.00; 4.54; 14.00
2019-05-26 06:30:45; 176.00; 4.54; 14.00
2019-05-26 06:30:57; 176.00; 4.54; 14.00
2019-05-26 06:45:01; 175.00; 4.55; 14.00
2019-05-26 06:45:14; 175.00; 4.55; 14.00
2019-05-26 06:45:26; 176.00; 4.54; 14.00
2019-05-26 06:45:39; 176.00; 4.54; 14.00
2019-05-26 06:45:51; 174.00; 4.55; 14.00
2019-05-26 07:00:07; 175.00; 4.55; 14.25
2019-05-26 07:00:19; 174.00; 4.56; 14.25
2019-05-26 07:00:32; 175.00; 4.55; 14.25
2019-05-26 07:00:44; 174.00; 4.56; 14.25
2019-05-26 07:00:57; 175.00; 4.55; 14.25
2019-05-26 07:15:01; 175.00; 4.55; 14.50
2019-05-26 07:15:13; 174.00; 4.56; 14.50
2019-05-26 07:15:26; 173.00; 4.57; 14.56
2019-05-26 07:15:38; 175.00; 4.55; 14.56
2019-05-26 07:15:51; 175.00; 4.55; 14.50
2019-05-26 07:30:07; 174.00; 4.56; 14.44
2019-05-26 07:30:19; 175.00; 4.55; 14.44
2019-05-26 07:30:32; 176.00; 4.54; 14.44
2019-05-26 07:30:44; 174.00; 4.56; 14.44
2019-05-26 07:30:56; 175.00; 4.55; 14.44
2019-05-26 07:45:01; 175.00; 4.55; 14.38
2019-05-26 07:45:13; 175.00; 4.55; 14.38
2019-05-26 07:45:26; 175.00; 4.55; 14.38
2019-05-26 07:45:38; 176.00; 4.54; 14.38
2019-05-26 07:45:51; 175.00; 4.55; 14.38
2019-05-26 08:00:06; 175.00; 4.55; 14.44
2019-05-26 08:00:19; 175.00; 4.55; 14.44
2019-05-26 08:00:31; 175.00; 4.55; 14.44
2019-05-26 08:00:44; 174.00; 4.56; 14.44
2019-05-26 08:00:56; 176.00; 4.54; 14.44
2019-05-26 08:15:12; 175.00; 4.55; 14.50
2019-05-26 08:15:24; 174.00; 4.55; 14.50
2019-05-26 08:15:37; 173.00; 4.56; 14.50
2019-05-26 08:15:49; 174.00; 4.56; 14.50
2019-05-26 08:30:05; 176.00; 4.54; 14.63
2019-05-26 08:30:17; 174.00; 4.56; 14.63
2019-05-26 08:30:30; 175.00; 4.55; 14.63
2019-05-26 08:30:42; 174.00; 4.56; 14.63
2019-05-26 08:30:55; 175.00; 4.55; 14.63
2019-05-26 08:45:10; 174.00; 4.56; 14.69
2019-05-26 08:45:23; 175.00; 4.56; 14.69
2019-05-26 08:45:35; 175.00; 4.56; 14.69
2019-05-26 08:45:48; 176.00; 4.55; 14.69
2019-05-26 08:46:00; 174.00; 4.55; 14.69
2019-05-26 09:00:04; 175.00; 4.55; 14.50
2019-05-26 09:00:17; 175.00; 4.55; 14.50
2019-05-26 09:00:29; 175.00; 4.55; 14.56
2019-05-26 09:00:42; 175.00; 4.55; 14.56
2019-05-26 09:00:54; 176.00; 4.54; 14.56
2019-05-26 09:15:10; 174.00; 4.56; 14.56
2019-05-26 09:15:22; 175.00; 4.55; 14.56
2019-05-26 09:15:35; 175.00; 4.55; 14.56
2019-05-26 09:15:47; 175.00; 4.55; 14.56
2019-05-26 09:16:00; 175.00; 4.55; 14.56
2019-05-26 09:30:04; 175.00; 4.55; 14.69
2019-05-26 09:30:16; 175.00; 4.55; 14.69
2019-05-26 09:30:29; 174.00; 4.56; 14.69
2019-05-26 09:30:41; 174.00; 4.56; 14.69
2019-05-26 09:30:54; 174.00; 4.56; 14.69
2019-05-26 09:45:09; 175.00; 4.55; 14.88
2019-05-26 09:45:22; 175.00; 4.55; 14.88
2019-05-26 09:45:34; 175.00; 4.55; 14.88
2019-05-26 09:45:47; 175.00; 4.55; 14.88
2019-05-26 09:45:59; 175.00; 4.55; 14.88
2019-05-26 10:00:04; 174.00; 4.57; 15.13
2019-05-26 10:00:16; 174.00; 4.57; 15.13
2019-05-26 10:00:29; 174.00; 4.57; 15.13
2019-05-26 10:00:41; 174.00; 4.57; 15.13
2019-05-26 10:00:54; 175.00; 4.56; 15.13
2019-05-26 10:15:09; 174.00; 4.56; 15.75
2019-05-26 10:15:21; 173.00; 4.57; 15.75
2019-05-26 10:15:34; 174.00; 4.56; 15.75
2019-05-26 10:15:46; 173.00; 4.56; 15.75
2019-05-26 10:15:59; 174.00; 4.56; 15.75
2019-05-26 10:30:03; 175.00; 4.55; 16.38
2019-05-26 10:30:15; 175.00; 4.55; 16.31
2019-05-26 10:30:28; 174.00; 4.56; 16.31
2019-05-26 10:30:40; 174.00; 4.56; 16.31
2019-05-26 10:30:53; 173.00; 4.57; 16.31
2019-05-26 10:45:08; 175.00; 4.55; 17.38
2019-05-26 10:45:20; 173.00; 4.56; 17.38
2019-05-26 10:45:33; 174.00; 4.56; 17.31
2019-05-26 10:45:45; 175.00; 4.55; 17.38
2019-05-26 10:45:58; 174.00; 4.55; 17.31
2019-05-26 11:00:02; 174.00; 4.56; 17.50
2019-05-26 11:00:14; 174.00; 4.56; 17.50
2019-05-26 11:00:27; 175.00; 4.55; 17.50
2019-05-26 11:00:39; 176.00; 4.54; 17.50
2019-05-26 11:00:52; 175.00; 4.55; 17.50
2019-05-26 11:15:07; 175.00; 4.55; 18.50
2019-05-26 11:15:19; 174.00; 4.56; 18.50
2019-05-26 11:15:32; 174.00; 4.56; 18.50
2019-05-26 11:15:44; 174.00; 4.56; 18.50
2019-05-26 11:15:57; 174.00; 4.56; 18.56
2019-05-26 11:30:01; 174.00; 4.56; 18.38
2019-05-26 11:30:13; 174.00; 4.56; 18.38
2019-05-26 11:30:26; 174.00; 4.56; 18.38
2019-05-26 11:30:38; 175.00; 4.55; 18.38
2019-05-26 11:30:51; 174.00; 4.56; 18.38
2019-05-26 11:45:06; 173.00; 4.56; 18.56
2019-05-26 11:45:19; 175.00; 4.55; 18.56
2019-05-26 11:45:31; 173.00; 4.57; 18.63
2019-05-26 11:45:44; 174.00; 4.56; 18.63
2019-05-26 11:45:56; 172.00; 4.58; 18.63
2019-05-26 12:00:11; 173.00; 4.57; 18.44
2019-05-26 12:00:24; 174.00; 4.55; 18.50
2019-05-26 12:00:36; 172.00; 4.58; 18.50
2019-05-26 12:00:49; 172.00; 4.58; 18.50
2019-05-26 12:15:04; 173.00; 4.56; 18.63
2019-05-26 12:15:17; 174.00; 4.56; 18.56
2019-05-26 12:15:29; 174.00; 4.55; 18.56
2019-05-26 12:15:41; 175.00; 4.55; 18.56
2019-05-26 12:15:54; 174.00; 4.56; 18.50
2019-05-26 12:30:09; 173.00; 4.57; 19.00
2019-05-26 12:30:22; 174.00; 4.56; 19.00
2019-05-26 12:30:34; 173.00; 4.58; 19.00
2019-05-26 12:30:47; 174.00; 4.57; 19.00
2019-05-26 12:30:59; 174.00; 4.56; 19.00
2019-05-26 12:45:03; 175.00; 4.56; 19.44
2019-05-26 12:45:16; 174.00; 4.56; 19.44
2019-05-26 12:45:28; 173.00; 4.57; 19.44
2019-05-26 12:45:41; 174.00; 4.56; 19.50
2019-05-26 12:45:53; 174.00; 4.56; 19.50
2019-05-26 13:00:08; 174.00; 4.56; 19.50
2019-05-26 13:00:21; 172.00; 4.58; 19.50
2019-05-26 13:00:33; 174.00; 4.56; 19.44
2019-05-26 13:00:46; 174.00; 4.56; 19.44
2019-05-26 13:00:58; 175.00; 4.55; 19.44
2019-05-26 13:15:02; 173.00; 4.56; 19.06
2019-05-26 13:15:15; 173.00; 4.57; 19.13
2019-05-26 13:15:27; 174.00; 4.56; 19.13
2019-05-26 13:15:40; 173.00; 4.57; 19.13
2019-05-26 13:15:52; 174.00; 4.56; 19.13
2019-05-26 13:30:07; 173.00; 4.57; 20.13
2019-05-26 13:30:20; 174.00; 4.56; 20.19
2019-05-26 13:30:32; 173.00; 4.57; 20.19
2019-05-26 13:30:45; 173.00; 4.56; 20.25
2019-05-26 13:30:57; 173.00; 4.57; 20.25
2019-05-26 13:45:01; 173.00; 4.57; 22.00
2019-05-26 13:45:13; 173.00; 4.57; 22.06
2019-05-26 13:45:26; 173.00; 4.56; 22.06
2019-05-26 13:45:38; 172.00; 4.57; 22.13
2019-05-26 13:45:51; 172.00; 4.58; 22.13
2019-05-26 14:00:06; 173.00; 4.57; 22.44
2019-05-26 14:00:18; 172.00; 4.58; 22.44
2019-05-26 14:00:31; 173.00; 4.57; 22.44
2019-05-26 14:00:43; 173.00; 4.57; 22.44
2019-05-26 14:00:55; 173.00; 4.57; 22.44
2019-05-26 14:15:10; 174.00; 4.56; 24.06
2019-05-26 14:15:23; 173.00; 4.57; 24.06
2019-05-26 14:15:35; 173.00; 4.57; 24.06
2019-05-26 14:15:48; 173.00; 4.57; 24.13
2019-05-26 14:16:00; 173.00; 4.57; 24.13
2019-05-26 14:30:04; 173.00; 4.57; 23.00
2019-05-26 14:30:16; 172.00; 4.58; 23.00
2019-05-26 14:30:29; 172.00; 4.58; 22.94
2019-05-26 14:30:41; 173.00; 4.57; 22.94
2019-05-26 14:30:54; 173.00; 4.57; 22.88
2019-05-26 14:45:08; 173.00; 4.57; 22.94
2019-05-26 14:45:21; 173.00; 4.57; 22.94
2019-05-26 14:45:33; 173.00; 4.57; 22.94
2019-05-26 14:45:46; 173.00; 4.57; 22.88
2019-05-26 14:45:58; 173.00; 4.57; 22.94
2019-05-26 15:00:02; 173.00; 4.57; 21.06
2019-05-26 15:00:14; 173.00; 4.57; 21.06
2019-05-26 15:00:27; 173.00; 4.57; 21.06
2019-05-26 15:00:39; 173.00; 4.57; 21.00
2019-05-26 15:00:52; 173.00; 4.57; 21.00
2019-05-26 15:15:07; 173.00; 4.57; 21.06
2019-05-26 15:15:19; 173.00; 4.57; 21.06
2019-05-26 15:15:32; 173.00; 4.57; 21.06
2019-05-26 15:15:44; 173.00; 4.57; 21.06
2019-05-26 15:15:57; 174.00; 4.57; 21.06
2019-05-26 15:30:11; 173.00; 4.57; 20.56
2019-05-26 15:30:24; 173.00; 4.57; 20.56
2019-05-26 15:30:36; 174.00; 4.56; 20.56
2019-05-26 15:30:49; 174.00; 4.56; 20.56
2019-05-26 15:45:04; 174.00; 4.57; 21.25
2019-05-26 15:45:16; 174.00; 4.57; 21.25
2019-05-26 15:45:29; 174.00; 4.56; 21.25
2019-05-26 15:45:41; 174.00; 4.56; 21.25
2019-05-26 15:45:54; 174.00; 4.57; 21.25
2019-05-26 16:00:09; 173.00; 4.57; 22.31
2019-05-26 16:00:21; 173.00; 4.57; 22.38
2019-05-26 16:00:34; 173.00; 4.57; 22.38
2019-05-26 16:00:46; 173.00; 4.57; 22.44
2019-05-26 16:00:59; 173.00; 4.57; 22.44
2019-05-26 16:15:02; 174.00; 4.56; 23.63
2019-05-26 16:15:15; 174.00; 4.56; 23.56
2019-05-26 16:15:27; 174.00; 4.56; 23.56
2019-05-26 16:15:39; 174.00; 4.56; 23.50
2019-05-26 16:15:52; 174.00; 4.56; 23.50
2019-05-26 16:30:07; 173.00; 4.57; 21.56
2019-05-26 16:30:19; 173.00; 4.57; 21.50
2019-05-26 16:30:32; 173.00; 4.57; 21.50
2019-05-26 16:30:44; 173.00; 4.57; 21.50
2019-05-26 16:30:57; 173.00; 4.57; 21.50
2019-05-26 16:45:12; 173.00; 4.57; 22.44
2019-05-26 16:45:24; 173.00; 4.57; 22.44
2019-05-26 16:45:37; 173.00; 4.57; 22.44
2019-05-26 16:45:49; 173.00; 4.57; 22.44
2019-05-26 17:00:04; 174.00; 4.56; 22.81
2019-05-26 17:00:17; 174.00; 4.56; 22.81
2019-05-26 17:00:29; 174.00; 4.56; 22.75
2019-05-26 17:00:41; 174.00; 4.56; 22.69
2019-05-26 17:00:54; 174.00; 4.56; 22.56
2019-05-26 17:15:09; 173.00; 4.57; 21.13
2019-05-26 17:15:21; 173.00; 4.57; 21.13
2019-05-26 17:15:34; 173.00; 4.57; 21.06
2019-05-26 17:15:46; 173.00; 4.57; 21.06
2019-05-26 17:15:59; 173.00; 4.57; 21.13
2019-05-26 17:30:02; 173.00; 4.57; 20.88
2019-05-26 17:30:15; 173.00; 4.57; 20.88
2019-05-26 17:30:27; 173.00; 4.57; 20.88
2019-05-26 17:30:40; 173.00; 4.57; 20.88
2019-05-26 17:30:52; 173.00; 4.57; 20.88
2019-05-26 17:45:07; 173.00; 4.57; 21.13
2019-05-26 17:45:19; 173.00; 4.57; 21.13
2019-05-26 17:45:32; 173.00; 4.57; 21.13
2019-05-26 17:45:44; 173.00; 4.57; 21.13
2019-05-26 17:45:57; 174.00; 4.56; 21.13
2019-05-26 18:00:12; 173.00; 4.57; 21.38
2019-05-26 18:00:24; 174.00; 4.57; 21.44
2019-05-26 18:00:37; 173.00; 4.57; 21.44
2019-05-26 18:00:49; 173.00; 4.57; 21.44
2019-05-26 18:15:04; 173.00; 4.57; 22.75
2019-05-26 18:15:17; 173.00; 4.57; 22.81
2019-05-26 18:15:29; 173.00; 4.57; 22.94
2019-05-26 18:15:42; 173.00; 4.57; 23.00
2019-05-26 18:15:54; 173.00; 4.57; 23.06
2019-05-26 18:30:09; 174.00; 4.56; 24.56
2019-05-26 18:30:21; 174.00; 4.56; 24.56
2019-05-26 18:30:34; 173.00; 4.57; 24.56
2019-05-26 18:30:46; 174.00; 4.56; 24.56
2019-05-26 18:30:59; 174.00; 4.56; 24.56
2019-05-26 18:45:02; 174.00; 4.56; 24.00
2019-05-26 18:45:14; 174.00; 4.56; 23.94
2019-05-26 18:45:27; 173.00; 4.56; 23.88
2019-05-26 18:45:39; 174.00; 4.56; 23.75
2019-05-26 18:45:52; 174.00; 4.56; 23.69
2019-05-26 19:00:07; 173.00; 4.57; 19.94
2019-05-26 19:00:19; 176.00; 4.54; 19.88
2019-05-26 19:00:32; 172.00; 4.58; 19.88
2019-05-26 19:00:44; 171.00; 4.60; 19.81
2019-05-26 19:00:57; 175.00; 4.55; 19.81
2019-05-26 19:15:01; 174.00; 4.56; 18.13
2019-05-26 19:15:13; 174.00; 4.56; 18.13
2019-05-26 19:15:26; 173.00; 4.56; 18.13
2019-05-26 19:15:38; 174.00; 4.56; 18.06
2019-05-26 19:15:50; 174.00; 4.56; 18.06
2019-05-26 19:30:06; 173.00; 4.57; 16.88
2019-05-26 19:30:18; 173.00; 4.57; 16.88
2019-05-26 19:30:31; 173.00; 4.57; 16.88
2019-05-26 19:30:43; 174.00; 4.56; 16.81
2019-05-26 19:30:56; 173.00; 4.57; 16.81
2019-05-26 19:45:11; 174.00; 4.56; 16.25
2019-05-26 19:45:23; 174.00; 4.56; 16.25
2019-05-26 19:45:36; 174.00; 4.56; 16.25
2019-05-26 19:45:48; 174.00; 4.56; 16.25
2019-05-26 20:00:04; 173.00; 4.56; 16.13
2019-05-26 20:00:16; 174.00; 4.56; 16.13
2019-05-26 20:00:29; 174.00; 4.56; 16.13
2019-05-26 20:00:41; 173.00; 4.57; 16.13
2019-05-26 20:00:54; 174.00; 4.56; 16.13
2019-05-26 20:15:09; 172.00; 4.58; 15.94
2019-05-26 20:15:21; 172.00; 4.58; 15.88
2019-05-26 20:15:34; 173.00; 4.57; 15.88
2019-05-26 20:15:47; 173.00; 4.57; 15.88
2019-05-26 20:15:59; 172.00; 4.58; 15.88
2019-05-26 20:30:03; 172.00; 4.58; 15.81
2019-05-26 20:30:15; 172.00; 4.58; 15.81
2019-05-26 20:30:28; 172.00; 4.58; 15.81
2019-05-26 20:30:40; 172.00; 4.58; 15.81
2019-05-26 20:30:53; 173.00; 4.57; 15.81
2019-05-26 20:45:08; 172.00; 4.58; 15.69
2019-05-26 20:45:21; 172.00; 4.58; 15.69
2019-05-26 20:45:33; 172.00; 4.58; 15.63
2019-05-26 20:45:45; 172.00; 4.58; 15.63
2019-05-26 20:45:58; 172.00; 4.58; 15.63
2019-05-26 21:00:02; 174.00; 4.57; 15.50
2019-05-26 21:00:14; 174.00; 4.57; 15.44
2019-05-26 21:00:27; 174.00; 4.57; 15.44
2019-05-26 21:00:39; 173.00; 4.57; 15.50
2019-05-26 21:00:52; 174.00; 4.57; 15.44
2019-05-26 21:15:07; 173.00; 4.58; 15.31
2019-05-26 21:15:20; 173.00; 4.57; 15.31
2019-05-26 21:15:32; 174.00; 4.56; 15.31
2019-05-26 21:15:44; 174.00; 4.57; 15.31
2019-05-26 21:15:57; 173.00; 4.58; 15.31
2019-05-26 21:30:01; 174.00; 4.57; 15.25
2019-05-26 21:30:14; 174.00; 4.57; 15.25
2019-05-26 21:30:26; 174.00; 4.56; 15.25
2019-05-26 21:30:38; 173.00; 4.57; 15.25
2019-05-26 21:30:51; 173.00; 4.58; 15.25
2019-05-26 21:45:06; 174.00; 4.57; 15.31
2019-05-26 21:45:19; 173.00; 4.58; 15.31
2019-05-26 21:45:31; 173.00; 4.58; 15.31
2019-05-26 21:45:44; 173.00; 4.58; 15.31
2019-05-26 21:45:56; 173.00; 4.58; 15.31
2019-05-26 22:00:12; 174.00; 4.57; 15.19
2019-05-26 22:00:24; 174.00; 4.56; 15.19
2019-05-26 22:00:37; 174.00; 4.57; 15.19
2019-05-26 22:00:49; 174.00; 4.56; 15.19
2019-05-26 22:15:05; 173.00; 4.58; 15.25
2019-05-26 22:15:17; 173.00; 4.58; 15.25
2019-05-26 22:15:30; 173.00; 4.57; 15.25
2019-05-26 22:15:42; 173.00; 4.58; 15.25
2019-05-26 22:15:54; 173.00; 4.57; 15.25
2019-05-26 22:30:10; 174.00; 4.56; 15.25
2019-05-26 22:30:23; 174.00; 4.56; 15.25
2019-05-26 22:30:35; 174.00; 4.57; 15.25
2019-05-26 22:30:47; 174.00; 4.57; 15.25
2019-05-26 22:31:00; 174.00; 4.57; 15.25
2019-05-26 22:45:04; 173.00; 4.57; 15.25
2019-05-26 22:45:16; 173.00; 4.57; 15.25
2019-05-26 22:45:29; 173.00; 4.58; 15.25
2019-05-26 22:45:41; 173.00; 4.58; 15.25
2019-05-26 22:45:54; 173.00; 4.57; 15.25
2019-05-26 23:00:09; 174.00; 4.57; 15.31
2019-05-26 23:00:22; 174.00; 4.56; 15.31
2019-05-26 23:00:34; 174.00; 4.57; 15.31
2019-05-26 23:00:46; 174.00; 4.57; 15.31
2019-05-26 23:00:59; 174.00; 4.57; 15.31
2019-05-26 23:15:03; 173.00; 4.57; 15.56
2019-05-26 23:15:15; 174.00; 4.57; 15.56
2019-05-26 23:15:28; 174.00; 4.57; 15.56
2019-05-26 23:15:40; 174.00; 4.57; 15.56
2019-05-26 23:15:53; 173.00; 4.57; 15.56
2019-05-26 23:30:08; 174.00; 4.56; 15.25
2019-05-26 23:30:21; 174.00; 4.56; 15.25
2019-05-26 23:30:33; 174.00; 4.57; 15.25
2019-05-26 23:30:46; 174.00; 4.57; 15.25
2019-05-26 23:30:58; 174.00; 4.57; 15.25
2019-05-26 23:45:02; 174.00; 4.56; 14.69
2019-05-26 23:45:15; 174.00; 4.56; 14.69
2019-05-26 23:45:27; 174.00; 4.56; 14.69
2019-05-26 23:45:40; 174.00; 4.56; 14.69
2019-05-26 23:45:52; 175.00; 4.55; 14.69
