2019-02-17 00:00:01; 170.00; 4.60; 22.31
2019-02-17 00:00:13; 171.00; 4.59; 22.31
2019-02-17 00:00:26; 171.00; 4.59; 22.31
2019-02-17 00:00:38; 171.00; 4.59; 22.31
2019-02-17 00:00:51; 171.00; 4.59; 22.31
2019-02-17 00:15:06; 172.00; 4.58; 22.19
2019-02-17 00:15:18; 172.00; 4.58; 22.19
2019-02-17 00:15:31; 171.00; 4.59; 22.19
2019-02-17 00:15:43; 171.00; 4.59; 22.13
2019-02-17 00:15:56; 171.00; 4.59; 22.19
2019-02-17 00:30:10; 172.00; 4.58; 22.25
2019-02-17 00:30:23; 171.00; 4.58; 22.25
2019-02-17 00:30:35; 172.00; 4.58; 22.25
2019-02-17 00:30:48; 172.00; 4.58; 22.25
2019-02-17 00:31:00; 171.00; 4.59; 22.25
2019-02-17 00:45:04; 172.00; 4.58; 22.13
2019-02-17 00:45:17; 172.00; 4.58; 22.13
2019-02-17 00:45:29; 172.00; 4.58; 22.13
2019-02-17 00:45:42; 172.00; 4.58; 22.13
2019-02-17 00:45:54; 172.00; 4.58; 22.13
2019-02-17 01:00:09; 172.00; 4.58; 22.00
2019-02-17 01:00:21; 172.00; 4.58; 21.94
2019-02-17 01:00:34; 172.00; 4.58; 21.94
2019-02-17 01:00:46; 171.00; 4.59; 21.94
2019-02-17 01:00:59; 172.00; 4.58; 21.94
2019-02-17 01:15:02; 172.00; 4.58; 21.94
2019-02-17 01:15:15; 172.00; 4.58; 21.94
2019-02-17 01:15:27; 172.00; 4.58; 21.94
2019-02-17 01:15:40; 172.00; 4.58; 21.94
2019-02-17 01:15:52; 172.00; 4.58; 21.94
2019-02-17 01:30:07; 171.00; 4.59; 21.75
2019-02-17 01:30:20; 171.00; 4.59; 21.75
2019-02-17 01:30:32; 171.00; 4.59; 21.75
2019-02-17 01:30:45; 171.00; 4.59; 21.75
2019-02-17 01:30:57; 171.00; 4.59; 21.75
2019-02-17 01:45:01; 171.00; 4.59; 21.63
2019-02-17 01:45:13; 171.00; 4.59; 21.63
2019-02-17 01:45:26; 171.00; 4.59; 21.63
2019-02-17 01:45:38; 171.00; 4.59; 21.63
2019-02-17 01:45:51; 171.00; 4.59; 21.63
2019-02-17 02:00:06; 171.00; 4.59; 21.56
2019-02-17 02:00:18; 171.00; 4.59; 21.56
2019-02-17 02:00:31; 172.00; 4.59; 21.50
2019-02-17 02:00:43; 172.00; 4.59; 21.56
2019-02-17 02:00:56; 171.00; 4.59; 21.50
2019-02-17 02:15:11; 171.00; 4.59; 21.63
2019-02-17 02:15:23; 172.00; 4.58; 21.63
2019-02-17 02:15:36; 171.00; 4.59; 21.63
2019-02-17 02:15:48; 171.00; 4.59; 21.63
2019-02-17 02:16:01; 171.00; 4.59; 21.63
2019-02-17 02:30:04; 171.00; 4.59; 21.56
2019-02-17 02:30:17; 172.00; 4.58; 21.56
2019-02-17 02:30:29; 171.00; 4.59; 21.56
2019-02-17 02:30:42; 172.00; 4.58; 21.56
2019-02-17 02:30:54; 171.00; 4.59; 21.56
2019-02-17 02:45:09; 172.00; 4.58; 21.44
2019-02-17 02:45:21; 171.00; 4.59; 21.44
2019-02-17 02:45:34; 171.00; 4.59; 21.44
2019-02-17 02:45:46; 171.00; 4.59; 21.38
2019-02-17 02:45:59; 172.00; 4.58; 21.44
2019-02-17 03:00:03; 171.00; 4.59; 21.38
2019-02-17 03:00:15; 171.00; 4.59; 21.38
2019-02-17 03:00:28; 171.00; 4.59; 21.38
2019-02-17 03:00:40; 171.00; 4.59; 21.38
2019-02-17 03:00:52; 171.00; 4.59; 21.38
2019-02-17 03:15:07; 172.00; 4.58; 21.25
2019-02-17 03:15:20; 172.00; 4.58; 21.25
2019-02-17 03:15:32; 171.00; 4.59; 21.25
2019-02-17 03:15:45; 173.00; 4.57; 21.25
2019-02-17 03:15:57; 173.00; 4.57; 21.25
2019-02-17 03:30:01; 172.00; 4.58; 21.06
2019-02-17 03:30:13; 172.00; 4.58; 21.00
2019-02-17 03:30:26; 190.00; 4.40; 21.00
2019-02-17 03:30:38; 173.00; 4.57; 21.00
2019-02-17 03:30:51; 172.00; 4.58; 21.00
2019-02-17 03:45:06; 173.00; 4.57; 20.88
2019-02-17 03:45:18; 173.00; 4.57; 20.88
2019-02-17 03:45:31; 173.00; 4.57; 20.88
2019-02-17 03:45:43; 173.00; 4.57; 20.88
2019-02-17 03:45:56; 173.00; 4.57; 20.88
2019-02-17 04:00:11; 172.00; 4.58; 20.88
2019-02-17 04:00:23; 173.00; 4.57; 20.88
2019-02-17 04:00:36; 173.00; 4.57; 20.81
2019-02-17 04:00:48; 172.00; 4.58; 20.81
2019-02-17 04:01:00; 172.00; 4.58; 20.81
2019-02-17 04:15:04; 171.00; 4.59; 20.81
2019-02-17 04:15:16; 174.00; 4.56; 20.81
2019-02-17 04:15:29; 172.00; 4.58; 20.81
2019-02-17 04:15:41; 172.00; 4.58; 20.81
2019-02-17 04:15:54; 172.00; 4.58; 20.81
2019-02-17 04:30:09; 172.00; 4.58; 20.75
2019-02-17 04:30:21; 171.00; 4.59; 20.75
2019-02-17 04:30:34; 172.00; 4.58; 20.81
2019-02-17 04:30:46; 172.00; 4.58; 20.81
2019-02-17 04:30:59; 172.00; 4.58; 20.75
2019-02-17 04:45:02; 173.00; 4.56; 20.81
2019-02-17 04:45:15; 173.00; 4.57; 20.81
2019-02-17 04:45:27; 173.00; 4.57; 20.81
2019-02-17 04:45:40; 173.00; 4.57; 20.81
2019-02-17 04:45:52; 172.00; 4.57; 20.81
2019-02-17 05:00:07; 173.00; 4.57; 20.88
2019-02-17 05:00:20; 173.00; 4.57; 20.88
2019-02-17 05:00:32; 173.00; 4.57; 20.88
2019-02-17 05:00:45; 173.00; 4.57; 20.88
2019-02-17 05:00:57; 174.00; 4.56; 20.81
2019-02-17 05:15:01; 173.00; 4.57; 20.75
2019-02-17 05:15:13; 174.00; 4.57; 20.75
2019-02-17 05:15:26; 173.00; 4.57; 20.75
2019-02-17 05:15:38; 173.00; 4.57; 20.75
2019-02-17 05:15:51; 173.00; 4.57; 20.75
2019-02-17 05:30:06; 173.00; 4.57; 20.75
2019-02-17 05:30:18; 173.00; 4.57; 20.75
2019-02-17 05:30:30; 173.00; 4.56; 20.75
2019-02-17 05:30:43; 174.00; 4.57; 20.75
2019-02-17 05:30:55; 173.00; 4.57; 20.75
2019-02-17 05:45:10; 173.00; 4.57; 20.75
2019-02-17 05:45:23; 173.00; 4.57; 20.75
2019-02-17 05:45:35; 173.00; 4.57; 20.75
2019-02-17 05:45:48; 173.00; 4.57; 20.75
2019-02-17 05:46:00; 174.00; 4.56; 20.75
2019-02-17 06:00:04; 173.00; 4.57; 20.81
2019-02-17 06:00:16; 173.00; 4.57; 20.88
2019-02-17 06:00:29; 174.00; 4.56; 20.88
2019-02-17 06:00:41; 174.00; 4.56; 20.88
2019-02-17 06:00:54; 174.00; 4.56; 20.88
2019-02-17 06:15:09; 174.00; 4.56; 20.94
2019-02-17 06:15:21; 174.00; 4.56; 21.00
2019-02-17 06:15:34; 175.00; 4.54; 21.00
2019-02-17 06:15:46; 174.00; 4.56; 21.00
2019-02-17 06:15:59; 173.00; 4.57; 21.00
2019-02-17 06:30:02; 174.00; 4.56; 21.00
2019-02-17 06:30:15; 174.00; 4.56; 21.00
2019-02-17 06:30:27; 174.00; 4.56; 21.00
2019-02-17 06:30:40; 174.00; 4.56; 21.00
2019-02-17 06:30:52; 174.00; 4.56; 21.00
2019-02-17 06:45:07; 173.00; 4.57; 20.94
2019-02-17 06:45:19; 174.00; 4.56; 20.94
2019-02-17 06:45:32; 174.00; 4.56; 20.94
2019-02-17 06:45:44; 173.00; 4.57; 20.94
2019-02-17 06:45:57; 175.00; 4.54; 20.94
2019-02-17 07:00:12; 173.00; 4.57; 20.88
2019-02-17 07:00:24; 173.00; 4.56; 20.88
2019-02-17 07:00:37; 173.00; 4.57; 20.88
2019-02-17 07:00:49; 173.00; 4.57; 20.88
2019-02-17 07:15:04; 174.00; 4.56; 20.94
2019-02-17 07:15:17; 173.00; 4.57; 20.94
2019-02-17 07:15:29; 173.00; 4.57; 20.94
2019-02-17 07:15:42; 174.00; 4.56; 20.94
2019-02-17 07:15:54; 174.00; 4.56; 20.94
2019-02-17 07:30:09; 174.00; 4.56; 20.94
2019-02-17 07:30:22; 175.00; 4.55; 20.94
2019-02-17 07:30:34; 175.00; 4.55; 20.94
2019-02-17 07:30:47; 174.00; 4.56; 20.94
2019-02-17 07:30:59; 174.00; 4.56; 20.94
2019-02-17 07:45:03; 174.00; 4.56; 20.88
2019-02-17 07:45:15; 174.00; 4.56; 20.88
2019-02-17 07:45:28; 175.00; 4.55; 20.88
2019-02-17 07:45:40; 174.00; 4.56; 20.88
2019-02-17 07:45:52; 175.00; 4.55; 20.88
2019-02-17 08:00:07; 175.00; 4.55; 21.00
2019-02-17 08:00:20; 175.00; 4.55; 21.00
2019-02-17 08:00:32; 174.00; 4.56; 21.00
2019-02-17 08:00:45; 174.00; 4.56; 21.00
2019-02-17 08:00:57; 174.00; 4.56; 21.00
2019-02-17 08:15:01; 176.00; 4.54; 21.25
2019-02-17 08:15:13; 176.00; 4.54; 21.25
2019-02-17 08:15:26; 175.00; 4.55; 21.25
2019-02-17 08:15:38; 175.00; 4.55; 21.25
2019-02-17 08:15:51; 174.00; 4.56; 21.25
2019-02-17 08:30:06; 174.00; 4.56; 21.75
2019-02-17 08:30:18; 173.00; 4.56; 21.75
2019-02-17 08:30:31; 175.00; 4.56; 21.75
2019-02-17 08:30:43; 175.00; 4.55; 21.75
2019-02-17 08:30:56; 174.00; 4.56; 21.81
2019-02-17 08:45:11; 175.00; 4.55; 22.88
2019-02-17 08:45:23; 175.00; 4.56; 22.94
2019-02-17 08:45:36; 178.00; 4.53; 23.00
2019-02-17 08:45:48; 175.00; 4.55; 23.06
2019-02-17 09:00:03; 175.00; 4.55; 26.88
2019-02-17 09:00:15; 175.00; 4.55; 26.88
2019-02-17 09:00:28; 174.00; 4.56; 26.94
2019-02-17 09:00:40; 175.00; 4.56; 27.00
2019-02-17 09:00:53; 172.00; 4.57; 27.00
2019-02-17 09:15:07; 174.00; 4.56; 29.56
2019-02-17 09:15:20; 173.00; 4.57; 29.56
2019-02-17 09:15:32; 173.00; 4.57; 29.56
2019-02-17 09:15:45; 172.00; 4.58; 29.63
2019-02-17 09:15:57; 173.00; 4.57; 29.56
2019-02-17 09:30:12; 175.00; 4.55; 30.50
2019-02-17 09:30:24; 174.00; 4.57; 30.50
2019-02-17 09:30:37; 172.00; 4.58; 30.56
2019-02-17 09:30:49; 173.00; 4.57; 30.63
2019-02-17 09:45:03; 173.00; 4.57; 30.88
2019-02-17 09:45:16; 174.00; 4.56; 30.88
2019-02-17 09:45:28; 173.00; 4.57; 30.88
2019-02-17 09:45:41; 173.00; 4.56; 30.88
2019-02-17 09:45:53; 175.00; 4.55; 30.88
2019-02-17 10:00:08; 173.00; 4.56; 31.25
2019-02-17 10:00:20; 172.00; 4.58; 31.19
2019-02-17 10:00:33; 173.00; 4.57; 31.19
2019-02-17 10:00:45; 173.00; 4.57; 31.31
2019-02-17 10:00:58; 174.00; 4.57; 31.38
2019-02-17 10:15:01; 173.00; 4.57; 32.25
2019-02-17 10:15:13; 173.00; 4.57; 32.25
2019-02-17 10:15:26; 175.00; 4.56; 32.38
2019-02-17 10:15:38; 174.00; 4.56; 32.38
2019-02-17 10:15:51; 172.00; 4.58; 32.31
2019-02-17 10:30:05; 173.00; 4.57; 32.19
2019-02-17 10:30:18; 172.00; 4.58; 32.25
2019-02-17 10:30:30; 174.00; 4.57; 32.25
2019-02-17 10:30:43; 173.00; 4.57; 32.19
2019-02-17 10:30:55; 174.00; 4.56; 32.13
2019-02-17 10:45:09; 172.00; 4.58; 32.81
2019-02-17 10:45:22; 173.00; 4.56; 32.81
2019-02-17 10:45:34; 173.00; 4.57; 32.81
2019-02-17 10:45:47; 174.00; 4.56; 32.88
2019-02-17 10:45:59; 174.00; 4.55; 32.94
2019-02-17 11:00:02; 174.00; 4.57; 32.63
2019-02-17 11:00:15; 175.00; 4.55; 32.63
2019-02-17 11:00:27; 171.00; 4.59; 32.69
2019-02-17 11:00:40; 174.00; 4.56; 32.69
2019-02-17 11:00:52; 174.00; 4.56; 32.75
2019-02-17 11:15:06; 174.00; 4.56; 33.69
2019-02-17 11:15:19; 172.00; 4.58; 33.75
2019-02-17 11:15:31; 173.00; 4.56; 33.75
2019-02-17 11:15:44; 174.00; 4.56; 33.69
2019-02-17 11:15:56; 174.00; 4.56; 33.81
2019-02-17 11:30:10; 175.00; 4.54; 34.31
2019-02-17 11:30:23; 171.00; 4.59; 34.38
2019-02-17 11:30:35; 175.00; 4.55; 34.38
2019-02-17 11:30:48; 173.00; 4.57; 34.44
2019-02-17 11:31:00; 172.00; 4.58; 34.31
2019-02-17 11:45:03; 175.00; 4.55; 33.94
2019-02-17 11:45:16; 176.00; 4.55; 33.81
2019-02-17 11:45:28; 173.00; 4.57; 33.81
2019-02-17 11:45:41; 173.00; 4.57; 33.81
2019-02-17 11:45:53; 174.00; 4.57; 33.88
2019-02-17 12:00:07; 174.00; 4.56; 34.88
2019-02-17 12:00:20; 175.00; 4.55; 34.94
2019-02-17 12:00:32; 174.00; 4.56; 35.00
2019-02-17 12:00:45; 175.00; 4.55; 35.06
2019-02-17 12:00:57; 175.00; 4.55; 34.81
2019-02-17 12:15:12; 174.00; 4.56; 34.00
2019-02-17 12:15:24; 174.00; 4.56; 33.81
2019-02-17 12:15:36; 175.00; 4.56; 33.75
2019-02-17 12:15:49; 175.00; 4.56; 33.81
2019-02-17 12:30:03; 175.00; 4.55; 35.00
2019-02-17 12:30:16; 173.00; 4.56; 35.06
2019-02-17 12:30:28; 174.00; 4.57; 34.94
2019-02-17 12:30:41; 175.00; 4.55; 35.00
2019-02-17 12:30:53; 175.00; 4.55; 34.94
2019-02-17 12:45:07; 175.00; 4.55; 36.56
2019-02-17 12:45:20; 173.00; 4.57; 36.63
2019-02-17 12:45:32; 174.00; 4.56; 36.69
2019-02-17 12:45:45; 174.00; 4.56; 36.75
2019-02-17 12:45:57; 174.00; 4.56; 36.75
2019-02-17 13:00:11; 173.00; 4.57; 36.75
2019-02-17 13:00:24; 174.00; 4.56; 36.81
2019-02-17 13:00:36; 174.00; 4.56; 36.88
2019-02-17 13:00:49; 174.00; 4.57; 36.94
2019-02-17 13:15:03; 173.00; 4.58; 37.88
2019-02-17 13:15:16; 171.00; 4.59; 37.94
2019-02-17 13:15:28; 175.00; 4.55; 37.88
2019-02-17 13:15:40; 175.00; 4.55; 37.81
2019-02-17 13:15:53; 171.00; 4.60; 37.75
2019-02-17 13:30:07; 175.00; 4.55; 38.25
2019-02-17 13:30:20; 174.00; 4.55; 38.19
2019-02-17 13:30:32; 173.00; 4.57; 38.13
2019-02-17 13:30:44; 173.00; 4.57; 38.06
2019-02-17 13:30:57; 174.00; 4.56; 37.94
2019-02-17 13:45:11; 174.00; 4.56; 38.38
2019-02-17 13:45:24; 174.00; 4.55; 38.25
2019-02-17 13:45:36; 175.00; 4.55; 38.25
2019-02-17 13:45:49; 172.00; 4.57; 38.25
2019-02-17 14:00:03; 173.00; 4.56; 38.56
2019-02-17 14:00:15; 173.00; 4.56; 38.50
2019-02-17 14:00:28; 172.00; 4.58; 38.44
2019-02-17 14:00:40; 173.00; 4.56; 38.44
2019-02-17 14:00:53; 175.00; 4.55; 38.50
2019-02-17 14:15:07; 173.00; 4.56; 38.06
2019-02-17 14:15:19; 174.00; 4.56; 38.00
2019-02-17 14:15:32; 175.00; 4.55; 38.00
2019-02-17 14:15:44; 174.00; 4.56; 37.94
2019-02-17 14:15:57; 174.00; 4.56; 37.94
2019-02-17 14:30:11; 174.00; 4.57; 38.88
2019-02-17 14:30:24; 174.00; 4.56; 38.63
2019-02-17 14:30:36; 175.00; 4.55; 38.56
2019-02-17 14:30:48; 174.00; 4.56; 38.63
2019-02-17 14:45:03; 173.00; 4.57; 38.00
2019-02-17 14:45:15; 174.00; 4.55; 37.94
2019-02-17 14:45:28; 175.00; 4.55; 37.81
2019-02-17 14:45:40; 175.00; 4.56; 37.88
2019-02-17 14:45:52; 175.00; 4.56; 37.94
2019-02-17 15:00:07; 174.00; 4.57; 38.00
2019-02-17 15:00:19; 175.00; 4.55; 37.94
2019-02-17 15:00:32; 174.00; 4.56; 37.94
2019-02-17 15:00:44; 175.00; 4.54; 38.00
2019-02-17 15:00:56; 176.00; 4.54; 37.88
2019-02-17 15:15:11; 175.00; 4.55; 38.50
2019-02-17 15:15:23; 174.00; 4.57; 38.56
2019-02-17 15:15:36; 176.00; 4.54; 38.63
2019-02-17 15:15:48; 175.00; 4.55; 38.69
2019-02-17 15:16:01; 175.00; 4.55; 38.69
2019-02-17 15:30:03; 176.00; 4.53; 38.63
2019-02-17 15:30:16; 175.00; 4.55; 38.69
2019-02-17 15:30:28; 174.00; 4.55; 38.69
2019-02-17 15:30:41; 173.00; 4.58; 38.63
2019-02-17 15:30:53; 175.00; 4.55; 38.63
2019-02-17 15:45:07; 175.00; 4.55; 38.44
2019-02-17 15:45:20; 175.00; 4.55; 38.38
2019-02-17 15:45:32; 175.00; 4.55; 38.31
2019-02-17 15:45:45; 174.00; 4.56; 38.19
2019-02-17 15:45:57; 175.00; 4.55; 38.38
2019-02-17 16:00:11; 173.00; 4.57; 39.75
2019-02-17 16:00:24; 174.00; 4.56; 39.81
2019-02-17 16:00:36; 175.00; 4.55; 39.88
2019-02-17 16:00:49; 175.00; 4.55; 39.75
2019-02-17 16:15:03; 176.00; 4.54; 40.44
2019-02-17 16:15:15; 175.00; 4.55; 40.44
2019-02-17 16:15:28; 174.00; 4.56; 40.44
2019-02-17 16:15:40; 175.00; 4.54; 40.38
2019-02-17 16:15:53; 175.00; 4.55; 40.44
2019-02-17 16:30:07; 175.00; 4.55; 40.63
2019-02-17 16:30:19; 175.00; 4.55; 40.56
2019-02-17 16:30:32; 176.00; 4.55; 40.69
2019-02-17 16:30:44; 173.00; 4.57; 40.81
2019-02-17 16:30:56; 176.00; 4.54; 40.88
2019-02-17 16:45:10; 175.00; 4.54; 41.00
2019-02-17 16:45:23; 175.00; 4.56; 41.00
2019-02-17 16:45:35; 177.00; 4.54; 41.13
2019-02-17 16:45:48; 176.00; 4.54; 41.13
2019-02-17 16:46:00; 176.00; 4.54; 41.00
2019-02-17 17:00:03; 175.00; 4.55; 41.75
2019-02-17 17:00:15; 174.00; 4.56; 41.81
2019-02-17 17:00:28; 175.00; 4.55; 41.75
2019-02-17 17:00:40; 175.00; 4.54; 41.69
2019-02-17 17:00:52; 177.00; 4.53; 41.75
2019-02-17 17:15:06; 176.00; 4.54; 41.44
2019-02-17 17:15:19; 177.00; 4.53; 41.44
2019-02-17 17:15:31; 176.00; 4.55; 41.38
2019-02-17 17:15:44; 176.00; 4.54; 41.38
2019-02-17 17:15:56; 176.00; 4.53; 41.31
2019-02-17 17:30:10; 175.00; 4.55; 41.88
2019-02-17 17:30:23; 176.00; 4.54; 41.94
2019-02-17 17:30:35; 177.00; 4.54; 42.00
2019-02-17 17:30:48; 175.00; 4.54; 42.00
2019-02-17 17:31:00; 176.00; 4.54; 42.06
2019-02-17 17:45:03; 175.00; 4.55; 42.94
2019-02-17 17:45:15; 176.00; 4.54; 42.94
2019-02-17 17:45:28; 175.00; 4.54; 42.88
2019-02-17 17:45:40; 175.00; 4.55; 42.94
2019-02-17 17:45:52; 176.00; 4.54; 43.06
2019-02-17 18:00:06; 176.00; 4.54; 43.25
2019-02-17 18:00:19; 175.00; 4.54; 43.19
2019-02-17 18:00:31; 177.00; 4.53; 43.19
2019-02-17 18:00:44; 176.00; 4.54; 43.00
2019-02-17 18:00:56; 174.00; 4.55; 42.94
2019-02-17 18:15:10; 176.00; 4.55; 42.69
2019-02-17 18:15:22; 176.00; 4.54; 42.75
2019-02-17 18:15:35; 174.00; 4.56; 42.75
2019-02-17 18:15:47; 176.00; 4.54; 42.75
2019-02-17 18:16:00; 175.00; 4.55; 42.81
2019-02-17 18:30:02; 176.00; 4.54; 43.44
2019-02-17 18:30:15; 176.00; 4.53; 43.31
2019-02-17 18:30:27; 173.00; 4.57; 43.31
2019-02-17 18:30:40; 177.00; 4.53; 43.38
2019-02-17 18:30:52; 176.00; 4.53; 43.50
2019-02-17 18:45:06; 176.00; 4.54; 43.38
2019-02-17 18:45:18; 176.00; 4.55; 43.44
2019-02-17 18:45:31; 177.00; 4.54; 43.44
2019-02-17 18:45:43; 175.00; 4.56; 43.31
2019-02-17 18:45:56; 177.00; 4.53; 43.38
2019-02-17 19:00:09; 175.00; 4.56; 43.94
2019-02-17 19:00:22; 175.00; 4.55; 43.81
2019-02-17 19:00:34; 176.00; 4.51; 43.63
2019-02-17 19:00:47; 177.00; 4.52; 43.56
2019-02-17 19:00:59; 177.00; 4.54; 43.69
2019-02-17 19:15:01; 178.00; 4.52; 42.44
2019-02-17 19:15:14; 176.00; 4.53; 42.38
2019-02-17 19:15:26; 178.00; 4.52; 42.25
2019-02-17 19:15:39; 177.00; 4.53; 42.25
2019-02-17 19:15:51; 178.00; 4.52; 42.31
2019-02-17 19:30:05; 178.00; 4.52; 41.00
2019-02-17 19:30:18; 177.00; 4.53; 41.06
2019-02-17 19:30:30; 177.00; 4.53; 41.00
2019-02-17 19:30:43; 177.00; 4.53; 40.94
2019-02-17 19:30:55; 177.00; 4.53; 40.81
2019-02-17 19:45:09; 177.00; 4.53; 36.19
2019-02-17 19:45:21; 177.00; 4.53; 36.13
2019-02-17 19:45:34; 177.00; 4.53; 36.13
2019-02-17 19:45:46; 176.00; 4.54; 36.06
2019-02-17 19:45:59; 176.00; 4.54; 36.00
2019-02-17 20:00:02; 176.00; 4.54; 33.06
2019-02-17 20:00:14; 177.00; 4.53; 33.00
2019-02-17 20:00:26; 178.00; 4.52; 33.00
2019-02-17 20:00:39; 178.00; 4.52; 33.00
2019-02-17 20:00:51; 178.00; 4.52; 33.00
2019-02-17 20:15:05; 175.00; 4.54; 34.50
2019-02-17 20:15:18; 177.00; 4.53; 34.50
2019-02-17 20:15:30; 181.00; 4.49; 34.56
2019-02-17 20:15:43; 178.00; 4.52; 34.63
2019-02-17 20:15:55; 180.00; 4.50; 34.63
2019-02-17 20:30:09; 176.00; 4.54; 34.56
2019-02-17 20:30:22; 178.00; 4.52; 34.56
2019-02-17 20:30:34; 176.00; 4.54; 34.56
2019-02-17 20:30:47; 176.00; 4.54; 34.56
2019-02-17 20:30:59; 179.00; 4.51; 34.50
2019-02-17 20:45:03; 179.00; 4.51; 31.75
2019-02-17 20:45:15; 178.00; 4.52; 31.69
2019-02-17 20:45:28; 180.00; 4.50; 31.69
2019-02-17 20:45:40; 179.00; 4.51; 31.63
2019-02-17 20:45:52; 178.00; 4.53; 31.56
2019-02-17 21:00:07; 176.00; 4.54; 29.00
2019-02-17 21:00:19; 177.00; 4.52; 28.94
2019-02-17 21:00:32; 179.00; 4.52; 28.94
2019-02-17 21:00:44; 179.00; 4.51; 28.94
2019-02-17 21:00:57; 177.00; 4.53; 28.94
2019-02-17 21:15:12; 179.00; 4.52; 28.06
2019-02-17 21:15:24; 179.00; 4.50; 28.06
2019-02-17 21:15:36; 178.00; 4.52; 28.06
2019-02-17 21:15:49; 179.00; 4.50; 28.06
2019-02-17 21:30:04; 178.00; 4.52; 27.75
2019-02-17 21:30:16; 178.00; 4.52; 27.75
2019-02-17 21:30:29; 179.00; 4.51; 27.75
2019-02-17 21:30:41; 179.00; 4.51; 27.69
2019-02-17 21:30:54; 177.00; 4.53; 27.69
2019-02-17 21:45:09; 178.00; 4.52; 27.38
2019-02-17 21:45:21; 180.00; 4.50; 27.38
2019-02-17 21:45:33; 179.00; 4.51; 27.38
2019-02-17 21:45:46; 179.00; 4.51; 27.38
2019-02-17 21:45:58; 178.00; 4.52; 27.38
2019-02-17 22:00:02; 180.00; 4.51; 27.25
2019-02-17 22:00:14; 179.00; 4.50; 27.31
2019-02-17 22:00:27; 180.00; 4.51; 27.31
2019-02-17 22:00:39; 179.00; 4.52; 27.31
2019-02-17 22:00:52; 178.00; 4.53; 27.31
2019-02-17 22:15:07; 180.00; 4.50; 27.25
2019-02-17 22:15:19; 180.00; 4.50; 27.25
2019-02-17 22:15:32; 180.00; 4.50; 27.25
2019-02-17 22:15:44; 180.00; 4.50; 27.25
2019-02-17 22:15:56; 179.00; 4.51; 27.25
2019-02-17 22:30:11; 179.00; 4.51; 27.31
2019-02-17 22:30:24; 180.00; 4.50; 27.31
2019-02-17 22:30:36; 180.00; 4.50; 27.31
2019-02-17 22:30:49; 179.00; 4.51; 27.31
2019-02-17 22:45:03; 180.00; 4.51; 27.06
2019-02-17 22:45:16; 180.00; 4.50; 27.06
2019-02-17 22:45:28; 180.00; 4.50; 27.06
2019-02-17 22:45:41; 179.00; 4.50; 27.00
2019-02-17 22:45:53; 180.00; 4.50; 27.00
2019-02-17 23:00:08; 181.00; 4.49; 25.81
2019-02-17 23:00:21; 180.00; 4.50; 25.81
2019-02-17 23:00:33; 180.00; 4.50; 25.81
2019-02-17 23:00:46; 180.00; 4.50; 25.75
2019-02-17 23:00:58; 180.00; 4.50; 25.75
2019-02-17 23:15:02; 180.00; 4.50; 25.06
2019-02-17 23:15:14; 180.00; 4.50; 25.06
2019-02-17 23:15:27; 180.00; 4.50; 25.06
2019-02-17 23:15:39; 180.00; 4.50; 25.00
2019-02-17 23:15:52; 180.00; 4.49; 25.00
2019-02-17 23:30:07; 180.00; 4.49; 24.75
2019-02-17 23:30:19; 181.00; 4.49; 24.75
2019-02-17 23:30:32; 181.00; 4.49; 24.75
2019-02-17 23:30:44; 181.00; 4.49; 24.75
2019-02-17 23:30:56; 181.00; 4.49; 24.75
2019-02-17 23:45:11; 182.00; 4.48; 24.69
2019-02-17 23:45:24; 181.00; 4.49; 24.69
2019-02-17 23:45:36; 180.00; 4.50; 24.69
2019-02-17 23:45:49; 180.00; 4.50; 24.69
