2019-05-06 00:00:06; 224.00; 4.06; 19.38
2019-05-06 00:00:19; 224.00; 4.06; 19.38
2019-05-06 00:00:31; 224.00; 4.06; 19.38
2019-05-06 00:00:43; 224.00; 4.06; 19.38
2019-05-06 00:00:56; 224.00; 4.06; 19.38
2019-05-06 00:15:11; 224.00; 4.06; 19.31
2019-05-06 00:15:24; 223.00; 4.07; 19.31
2019-05-06 00:15:36; 224.00; 4.06; 19.31
2019-05-06 00:15:49; 224.00; 4.06; 19.31
2019-05-06 00:30:04; 224.00; 4.06; 19.25
2019-05-06 00:30:17; 224.00; 4.06; 19.25
2019-05-06 00:30:29; 224.00; 4.06; 19.31
2019-05-06 00:30:42; 224.00; 4.06; 19.25
2019-05-06 00:30:54; 224.00; 4.06; 19.31
2019-05-06 00:45:10; 224.00; 4.06; 19.25
2019-05-06 00:45:22; 224.00; 4.06; 19.25
2019-05-06 00:45:35; 224.00; 4.06; 19.25
2019-05-06 00:45:47; 224.00; 4.06; 19.25
2019-05-06 00:46:00; 224.00; 4.06; 19.25
2019-05-06 01:00:04; 224.00; 4.06; 19.25
2019-05-06 01:00:16; 224.00; 4.06; 19.25
2019-05-06 01:00:29; 224.00; 4.06; 19.25
2019-05-06 01:00:41; 224.00; 4.06; 19.25
2019-05-06 01:00:54; 224.00; 4.06; 19.25
2019-05-06 01:15:09; 225.00; 4.05; 19.31
2019-05-06 01:15:22; 224.00; 4.06; 19.25
2019-05-06 01:15:34; 224.00; 4.06; 19.25
2019-05-06 01:15:47; 225.00; 4.06; 19.31
2019-05-06 01:15:59; 224.00; 4.06; 19.25
2019-05-06 01:30:03; 224.00; 4.06; 19.25
2019-05-06 01:30:16; 224.00; 4.06; 19.25
2019-05-06 01:30:28; 225.00; 4.05; 19.25
2019-05-06 01:30:41; 225.00; 4.05; 19.25
2019-05-06 01:30:53; 224.00; 4.06; 19.25
2019-05-06 01:45:08; 225.00; 4.05; 18.88
2019-05-06 01:45:21; 224.00; 4.05; 18.88
2019-05-06 01:45:33; 225.00; 4.05; 18.88
2019-05-06 01:45:46; 224.00; 4.06; 18.88
2019-05-06 01:45:58; 224.00; 4.06; 18.88
2019-05-06 02:00:03; 225.00; 4.05; 18.69
2019-05-06 02:00:15; 224.00; 4.06; 18.69
2019-05-06 02:00:28; 225.00; 4.05; 18.69
2019-05-06 02:00:40; 225.00; 4.05; 18.69
2019-05-06 02:00:52; 225.00; 4.05; 18.69
2019-05-06 02:15:08; 225.00; 4.05; 18.31
2019-05-06 02:15:20; 225.00; 4.06; 18.31
2019-05-06 02:15:33; 225.00; 4.04; 18.31
2019-05-06 02:15:45; 226.00; 4.04; 18.31
2019-05-06 02:15:58; 226.00; 4.04; 18.31
2019-05-06 02:30:02; 225.00; 4.05; 18.13
2019-05-06 02:30:15; 225.00; 4.05; 18.13
2019-05-06 02:30:27; 225.00; 4.05; 18.13
2019-05-06 02:30:40; 226.00; 4.04; 18.13
2019-05-06 02:30:52; 225.00; 4.05; 18.13
2019-05-06 02:45:08; 225.00; 4.05; 17.88
2019-05-06 02:45:20; 224.00; 4.06; 17.88
2019-05-06 02:45:33; 223.00; 4.07; 17.88
2019-05-06 02:45:45; 223.00; 4.06; 17.88
2019-05-06 02:45:58; 226.00; 4.04; 17.88
2019-05-06 03:00:02; 225.00; 4.05; 17.81
2019-05-06 03:00:14; 224.00; 4.06; 17.75
2019-05-06 03:00:27; 224.00; 4.06; 17.81
2019-05-06 03:00:39; 225.00; 4.05; 17.81
2019-05-06 03:00:52; 225.00; 4.05; 17.81
2019-05-06 03:15:07; 225.00; 4.05; 18.00
2019-05-06 03:15:20; 224.00; 4.06; 18.00
2019-05-06 03:15:32; 225.00; 4.05; 18.00
2019-05-06 03:15:45; 225.00; 4.06; 18.00
2019-05-06 03:15:57; 224.00; 4.06; 18.00
2019-05-06 03:30:01; 224.00; 4.06; 18.00
2019-05-06 03:30:14; 225.00; 4.05; 18.00
2019-05-06 03:30:26; 225.00; 4.04; 18.00
2019-05-06 03:30:39; 225.00; 4.05; 18.00
2019-05-06 03:30:51; 225.00; 4.05; 18.00
2019-05-06 03:45:07; 225.00; 4.06; 17.88
2019-05-06 03:45:19; 225.00; 4.05; 17.88
2019-05-06 03:45:32; 225.00; 4.05; 17.88
2019-05-06 03:45:44; 224.00; 4.06; 17.88
2019-05-06 03:45:57; 223.00; 4.07; 17.88
2019-05-06 04:00:01; 224.00; 4.06; 17.88
2019-05-06 04:00:14; 224.00; 4.06; 17.88
2019-05-06 04:00:26; 224.00; 4.06; 17.88
2019-05-06 04:00:39; 224.00; 4.06; 17.88
2019-05-06 04:00:51; 223.00; 4.07; 17.88
2019-05-06 04:15:07; 223.00; 4.07; 17.94
2019-05-06 04:15:19; 224.00; 4.06; 17.94
2019-05-06 04:15:31; 225.00; 4.05; 17.94
2019-05-06 04:15:44; 224.00; 4.06; 17.94
2019-05-06 04:15:56; 225.00; 4.05; 17.94
2019-05-06 04:30:12; 223.00; 4.07; 17.94
2019-05-06 04:30:24; 224.00; 4.06; 17.94
2019-05-06 04:30:37; 224.00; 4.05; 17.94
2019-05-06 04:30:49; 225.00; 4.05; 17.94
2019-05-06 04:45:05; 224.00; 4.06; 18.00
2019-05-06 04:45:17; 225.00; 4.06; 18.00
2019-05-06 04:45:30; 224.00; 4.06; 18.00
2019-05-06 04:45:42; 225.00; 4.05; 18.00
2019-05-06 04:45:55; 224.00; 4.06; 18.00
2019-05-06 05:00:10; 224.00; 4.06; 18.00
2019-05-06 05:00:23; 224.00; 4.06; 18.00
2019-05-06 05:00:36; 224.00; 4.06; 18.00
2019-05-06 05:00:48; 224.00; 4.06; 18.00
2019-05-06 05:01:00; 224.00; 4.06; 18.00
2019-05-06 05:15:05; 224.00; 4.06; 18.00
2019-05-06 05:15:17; 224.00; 4.06; 18.00
2019-05-06 05:15:30; 224.00; 4.06; 18.00
2019-05-06 05:15:42; 224.00; 4.06; 18.00
2019-05-06 05:15:54; 224.00; 4.06; 18.00
2019-05-06 05:30:10; 224.00; 4.06; 17.94
2019-05-06 05:30:23; 223.00; 4.07; 17.88
2019-05-06 05:30:35; 224.00; 4.06; 17.88
2019-05-06 05:30:48; 223.00; 4.07; 17.88
2019-05-06 05:31:00; 224.00; 4.06; 17.88
2019-05-06 05:45:04; 224.00; 4.06; 17.88
2019-05-06 05:45:17; 224.00; 4.06; 17.88
2019-05-06 05:45:29; 224.00; 4.06; 17.88
2019-05-06 05:45:42; 224.00; 4.06; 17.88
2019-05-06 05:45:54; 224.00; 4.06; 17.88
2019-05-06 06:00:10; 224.00; 4.06; 17.81
2019-05-06 06:00:22; 224.00; 4.06; 17.81
2019-05-06 06:00:35; 224.00; 4.06; 17.81
2019-05-06 06:00:47; 224.00; 4.06; 17.81
2019-05-06 06:01:00; 224.00; 4.06; 17.81
2019-05-06 06:15:04; 224.00; 4.06; 17.88
2019-05-06 06:15:16; 224.00; 4.06; 17.88
2019-05-06 06:15:29; 224.00; 4.07; 17.88
2019-05-06 06:15:41; 224.00; 4.06; 17.88
2019-05-06 06:15:54; 224.00; 4.06; 17.88
2019-05-06 06:30:09; 224.00; 4.06; 17.81
2019-05-06 06:30:22; 224.00; 4.06; 17.88
2019-05-06 06:30:34; 224.00; 4.07; 17.88
2019-05-06 06:30:47; 224.00; 4.06; 17.88
2019-05-06 06:30:59; 224.00; 4.06; 17.88
2019-05-06 06:45:03; 225.00; 4.06; 17.81
2019-05-06 06:45:16; 224.00; 4.06; 17.75
2019-05-06 06:45:28; 224.00; 4.06; 17.75
2019-05-06 06:45:41; 225.00; 4.05; 17.75
2019-05-06 06:45:53; 224.00; 4.06; 17.75
2019-05-06 07:00:09; 224.00; 4.06; 17.69
2019-05-06 07:00:21; 224.00; 4.06; 17.69
2019-05-06 07:00:34; 224.00; 4.06; 17.69
2019-05-06 07:00:46; 224.00; 4.06; 17.69
2019-05-06 07:00:59; 225.00; 4.05; 17.69
2019-05-06 07:15:03; 225.00; 4.06; 17.69
2019-05-06 07:15:15; 224.00; 4.06; 17.69
2019-05-06 07:15:28; 225.00; 4.06; 17.69
2019-05-06 07:15:40; 224.00; 4.06; 17.69
2019-05-06 07:15:53; 224.00; 4.06; 17.69
2019-05-06 07:30:08; 225.00; 4.05; 17.50
2019-05-06 07:30:21; 224.00; 4.05; 17.50
2019-05-06 07:30:33; 225.00; 4.05; 17.50
2019-05-06 07:30:46; 225.00; 4.05; 17.50
2019-05-06 07:30:58; 225.00; 4.05; 17.50
2019-05-06 07:45:02; 225.00; 4.05; 17.63
2019-05-06 07:45:14; 225.00; 4.05; 17.63
2019-05-06 07:45:27; 225.00; 4.06; 17.63
2019-05-06 07:45:39; 224.00; 4.06; 17.63
2019-05-06 07:45:52; 225.00; 4.05; 17.63
2019-05-06 08:00:07; 225.00; 4.06; 17.69
2019-05-06 08:00:19; 225.00; 4.05; 17.69
2019-05-06 08:00:32; 225.00; 4.05; 17.69
2019-05-06 08:00:44; 225.00; 4.06; 17.69
2019-05-06 08:00:57; 224.00; 4.06; 17.69
2019-05-06 08:15:01; 224.00; 4.06; 17.63
2019-05-06 08:15:13; 224.00; 4.06; 17.63
2019-05-06 08:15:26; 224.00; 4.06; 17.63
2019-05-06 08:15:38; 224.00; 4.06; 17.63
2019-05-06 08:15:51; 225.00; 4.06; 17.63
2019-05-06 08:30:06; 224.00; 4.06; 17.63
2019-05-06 08:30:19; 223.00; 4.06; 17.63
2019-05-06 08:30:31; 223.00; 4.07; 17.63
2019-05-06 08:30:44; 224.00; 4.06; 17.63
2019-05-06 08:30:56; 223.00; 4.07; 17.63
2019-05-06 08:45:11; 224.00; 4.06; 17.56
2019-05-06 08:45:24; 224.00; 4.06; 17.56
2019-05-06 08:45:36; 224.00; 4.06; 17.56
2019-05-06 08:45:49; 224.00; 4.06; 17.56
2019-05-06 09:00:04; 224.00; 4.06; 17.38
2019-05-06 09:00:16; 224.00; 4.06; 17.38
2019-05-06 09:00:29; 224.00; 4.06; 17.38
2019-05-06 09:00:41; 224.00; 4.06; 17.38
2019-05-06 09:00:54; 224.00; 4.06; 17.38
2019-05-06 09:15:09; 225.00; 4.05; 17.31
2019-05-06 09:15:21; 224.00; 4.06; 17.31
2019-05-06 09:15:34; 223.00; 4.07; 17.31
2019-05-06 09:15:46; 224.00; 4.06; 17.31
2019-05-06 09:15:59; 224.00; 4.06; 17.31
2019-05-06 09:30:03; 224.00; 4.06; 17.31
2019-05-06 09:30:15; 224.00; 4.06; 17.31
2019-05-06 09:30:28; 224.00; 4.06; 17.38
2019-05-06 09:30:40; 225.00; 4.05; 17.38
2019-05-06 09:30:53; 224.00; 4.06; 17.38
2019-05-06 09:45:08; 225.00; 4.05; 17.50
2019-05-06 09:45:21; 224.00; 4.06; 17.50
2019-05-06 09:45:33; 223.00; 4.07; 17.50
2019-05-06 09:45:46; 224.00; 4.06; 17.50
2019-05-06 09:45:58; 225.00; 4.05; 17.50
2019-05-06 10:00:02; 225.00; 4.05; 17.56
2019-05-06 10:00:14; 225.00; 4.06; 17.56
2019-05-06 10:00:27; 224.00; 4.06; 17.56
2019-05-06 10:00:39; 224.00; 4.07; 17.56
2019-05-06 10:00:52; 225.00; 4.05; 17.56
2019-05-06 10:15:07; 224.00; 4.05; 17.63
2019-05-06 10:15:20; 224.00; 4.06; 17.63
2019-05-06 10:15:32; 224.00; 4.06; 17.63
2019-05-06 10:15:45; 224.00; 4.06; 17.63
2019-05-06 10:15:57; 224.00; 4.06; 17.63
2019-05-06 10:30:01; 225.00; 4.05; 17.63
2019-05-06 10:30:14; 225.00; 4.05; 17.63
2019-05-06 10:30:26; 226.00; 4.04; 17.63
2019-05-06 10:30:39; 225.00; 4.05; 17.63
2019-05-06 10:30:51; 223.00; 4.06; 17.63
2019-05-06 10:45:07; 224.00; 4.06; 17.75
2019-05-06 10:45:19; 224.00; 4.06; 17.81
2019-05-06 10:45:32; 225.00; 4.05; 17.81
2019-05-06 10:45:44; 225.00; 4.05; 17.81
2019-05-06 10:45:57; 225.00; 4.06; 17.81
2019-05-06 11:00:01; 224.00; 4.06; 18.13
2019-05-06 11:00:13; 224.00; 4.06; 18.13
2019-05-06 11:00:26; 224.00; 4.06; 18.13
2019-05-06 11:00:38; 223.00; 4.07; 18.13
2019-05-06 11:00:51; 224.00; 4.06; 18.13
2019-05-06 11:15:06; 223.00; 4.07; 18.38
2019-05-06 11:15:19; 223.00; 4.07; 18.38
2019-05-06 11:15:31; 223.00; 4.07; 18.38
2019-05-06 11:15:44; 224.00; 4.06; 18.38
2019-05-06 11:15:56; 223.00; 4.07; 18.38
2019-05-06 11:30:12; 223.00; 4.07; 18.94
2019-05-06 11:30:24; 223.00; 4.07; 18.94
2019-05-06 11:30:37; 223.00; 4.07; 18.94
2019-05-06 11:30:49; 223.00; 4.07; 18.94
2019-05-06 11:45:05; 222.00; 4.08; 19.50
2019-05-06 11:45:17; 223.00; 4.07; 19.50
2019-05-06 11:45:30; 223.00; 4.08; 19.56
2019-05-06 11:45:42; 222.00; 4.08; 19.56
2019-05-06 11:45:55; 221.00; 4.09; 19.63
2019-05-06 12:00:10; 223.00; 4.07; 20.06
2019-05-06 12:00:22; 222.00; 4.08; 20.13
2019-05-06 12:00:35; 222.00; 4.08; 20.13
2019-05-06 12:00:47; 222.00; 4.08; 20.06
2019-05-06 12:01:00; 222.00; 4.08; 20.06
2019-05-06 12:15:04; 223.00; 4.07; 19.94
2019-05-06 12:15:16; 222.00; 4.08; 19.94
2019-05-06 12:15:29; 221.00; 4.09; 19.94
2019-05-06 12:15:41; 223.00; 4.07; 20.00
2019-05-06 12:15:53; 222.00; 4.08; 19.94
2019-05-06 12:30:09; 223.00; 4.07; 19.38
2019-05-06 12:30:21; 222.00; 4.08; 19.38
2019-05-06 12:30:34; 222.00; 4.08; 19.38
2019-05-06 12:30:46; 222.00; 4.08; 19.38
2019-05-06 12:30:59; 222.00; 4.07; 19.38
2019-05-06 12:45:03; 222.00; 4.08; 19.44
2019-05-06 12:45:15; 222.00; 4.08; 19.50
2019-05-06 12:45:28; 223.00; 4.07; 19.50
2019-05-06 12:45:40; 222.00; 4.08; 19.50
2019-05-06 12:45:53; 222.00; 4.08; 19.50
2019-05-06 13:00:08; 223.00; 4.07; 19.94
2019-05-06 13:00:20; 222.00; 4.07; 19.94
2019-05-06 13:00:33; 222.00; 4.07; 20.00
2019-05-06 13:00:45; 222.00; 4.08; 19.94
2019-05-06 13:00:58; 222.00; 4.08; 19.94
2019-05-06 13:15:02; 222.00; 4.08; 20.56
2019-05-06 13:15:14; 222.00; 4.08; 20.63
2019-05-06 13:15:27; 222.00; 4.08; 20.63
2019-05-06 13:15:39; 222.00; 4.08; 20.56
2019-05-06 13:15:52; 222.00; 4.08; 20.56
2019-05-06 13:30:07; 221.00; 4.09; 21.06
2019-05-06 13:30:19; 221.00; 4.09; 21.13
2019-05-06 13:30:32; 222.00; 4.08; 21.19
2019-05-06 13:30:44; 221.00; 4.09; 21.25
2019-05-06 13:30:57; 221.00; 4.09; 21.25
2019-05-06 13:45:01; 221.00; 4.09; 21.88
2019-05-06 13:45:13; 221.00; 4.09; 21.81
2019-05-06 13:45:26; 221.00; 4.09; 21.75
2019-05-06 13:45:38; 221.00; 4.09; 21.75
2019-05-06 13:45:51; 221.00; 4.09; 21.75
2019-05-06 14:00:06; 222.00; 4.08; 21.44
2019-05-06 14:00:18; 222.00; 4.08; 21.44
2019-05-06 14:00:31; 222.00; 4.08; 21.44
2019-05-06 14:00:43; 222.00; 4.09; 21.44
2019-05-06 14:00:56; 222.00; 4.08; 21.44
2019-05-06 14:15:11; 221.00; 4.09; 21.94
2019-05-06 14:15:24; 221.00; 4.09; 21.94
2019-05-06 14:15:36; 221.00; 4.09; 21.94
2019-05-06 14:15:49; 221.00; 4.09; 21.94
2019-05-06 14:30:04; 221.00; 4.09; 21.88
2019-05-06 14:30:16; 221.00; 4.09; 21.94
2019-05-06 14:30:29; 221.00; 4.09; 21.94
2019-05-06 14:30:41; 221.00; 4.09; 21.94
2019-05-06 14:30:54; 221.00; 4.09; 22.00
2019-05-06 14:45:09; 221.00; 4.09; 22.88
2019-05-06 14:45:21; 221.00; 4.09; 22.94
2019-05-06 14:45:34; 221.00; 4.09; 23.00
2019-05-06 14:45:46; 221.00; 4.09; 23.00
2019-05-06 14:45:59; 221.00; 4.09; 23.13
2019-05-06 15:00:02; 221.00; 4.09; 24.00
2019-05-06 15:00:15; 221.00; 4.09; 24.00
2019-05-06 15:00:27; 221.00; 4.09; 24.00
2019-05-06 15:00:40; 221.00; 4.09; 24.00
2019-05-06 15:00:52; 221.00; 4.09; 24.00
2019-05-06 15:15:07; 220.00; 4.10; 23.94
2019-05-06 15:15:20; 220.00; 4.10; 23.94
2019-05-06 15:15:32; 220.00; 4.10; 23.94
2019-05-06 15:15:45; 220.00; 4.10; 23.94
2019-05-06 15:15:57; 221.00; 4.09; 24.00
2019-05-06 15:30:01; 220.00; 4.10; 25.63
2019-05-06 15:30:13; 220.00; 4.10; 25.63
2019-05-06 15:30:26; 221.00; 4.09; 25.63
2019-05-06 15:30:38; 221.00; 4.09; 25.63
2019-05-06 15:30:51; 220.00; 4.10; 25.56
2019-05-06 15:45:06; 220.00; 4.10; 25.88
2019-05-06 15:45:18; 220.00; 4.10; 25.81
2019-05-06 15:45:31; 220.00; 4.10; 25.81
2019-05-06 15:45:43; 220.00; 4.10; 25.88
2019-05-06 15:45:56; 220.00; 4.10; 25.94
2019-05-06 16:00:10; 220.00; 4.10; 28.69
2019-05-06 16:00:23; 220.00; 4.10; 28.56
2019-05-06 16:00:35; 220.00; 4.10; 28.38
2019-05-06 16:00:48; 220.00; 4.10; 28.31
2019-05-06 16:01:00; 220.00; 4.10; 28.31
2019-05-06 16:15:04; 220.00; 4.10; 28.88
2019-05-06 16:15:16; 220.00; 4.10; 28.88
2019-05-06 16:15:29; 220.00; 4.11; 28.88
2019-05-06 16:15:41; 220.00; 4.10; 28.88
2019-05-06 16:15:53; 220.00; 4.10; 28.88
2019-05-06 16:30:08; 220.00; 4.10; 27.38
2019-05-06 16:30:21; 220.00; 4.10; 27.31
2019-05-06 16:30:33; 220.00; 4.10; 27.31
2019-05-06 16:30:46; 220.00; 4.10; 27.31
2019-05-06 16:30:58; 220.00; 4.10; 27.31
2019-05-06 16:45:01; 220.00; 4.10; 27.38
2019-05-06 16:45:14; 220.00; 4.10; 27.25
2019-05-06 16:45:26; 220.00; 4.10; 27.19
2019-05-06 16:45:39; 220.00; 4.10; 27.13
2019-05-06 16:45:51; 220.00; 4.10; 27.13
2019-05-06 17:00:06; 220.00; 4.10; 27.88
2019-05-06 17:00:18; 220.00; 4.10; 27.94
2019-05-06 17:00:31; 220.00; 4.10; 28.00
2019-05-06 17:00:43; 220.00; 4.10; 28.00
2019-05-06 17:00:56; 220.00; 4.10; 28.00
2019-05-06 17:15:11; 220.00; 4.10; 27.06
2019-05-06 17:15:23; 221.00; 4.09; 27.00
2019-05-06 17:15:35; 220.00; 4.10; 26.94
2019-05-06 17:15:48; 220.00; 4.10; 26.81
2019-05-06 17:16:00; 220.00; 4.10; 26.69
2019-05-06 17:30:04; 221.00; 4.09; 26.13
2019-05-06 17:30:16; 221.00; 4.09; 26.13
2019-05-06 17:30:29; 221.00; 4.09; 26.06
2019-05-06 17:30:41; 221.00; 4.10; 26.06
2019-05-06 17:30:54; 221.00; 4.09; 26.13
2019-05-06 17:45:09; 221.00; 4.09; 25.63
2019-05-06 17:45:21; 220.00; 4.10; 25.63
2019-05-06 17:45:34; 220.00; 4.10; 25.56
2019-05-06 17:45:46; 221.00; 4.09; 25.56
2019-05-06 17:45:59; 220.00; 4.10; 25.50
2019-05-06 18:00:02; 220.00; 4.10; 25.06
2019-05-06 18:00:15; 220.00; 4.10; 25.06
2019-05-06 18:00:27; 221.00; 4.10; 25.00
2019-05-06 18:00:40; 220.00; 4.10; 25.06
2019-05-06 18:00:52; 221.00; 4.10; 25.06
2019-05-06 18:15:07; 221.00; 4.09; 24.31
2019-05-06 18:15:20; 221.00; 4.09; 24.31
2019-05-06 18:15:32; 221.00; 4.09; 24.31
2019-05-06 18:15:45; 221.00; 4.09; 24.31
2019-05-06 18:15:57; 221.00; 4.09; 24.31
2019-05-06 18:30:01; 220.00; 4.10; 23.44
2019-05-06 18:30:13; 221.00; 4.09; 23.44
2019-05-06 18:30:26; 221.00; 4.09; 23.44
2019-05-06 18:30:38; 221.00; 4.09; 23.44
2019-05-06 18:30:51; 221.00; 4.09; 23.44
2019-05-06 18:45:06; 221.00; 4.10; 22.63
2019-05-06 18:45:18; 221.00; 4.09; 22.63
2019-05-06 18:45:31; 220.00; 4.10; 22.63
2019-05-06 18:45:43; 221.00; 4.09; 22.63
2019-05-06 18:45:56; 221.00; 4.09; 22.63
2019-05-06 19:00:11; 221.00; 4.09; 22.13
2019-05-06 19:00:23; 221.00; 4.09; 22.13
2019-05-06 19:00:36; 221.00; 4.09; 22.13
2019-05-06 19:00:48; 221.00; 4.09; 22.06
2019-05-06 19:15:04; 221.00; 4.09; 21.44
2019-05-06 19:15:16; 221.00; 4.09; 21.44
2019-05-06 19:15:29; 221.00; 4.09; 21.38
2019-05-06 19:15:41; 221.00; 4.09; 21.38
2019-05-06 19:15:53; 221.00; 4.09; 21.38
2019-05-06 19:30:09; 221.00; 4.09; 20.13
2019-05-06 19:30:21; 221.00; 4.09; 20.13
2019-05-06 19:30:34; 221.00; 4.09; 20.13
2019-05-06 19:30:46; 221.00; 4.09; 20.13
2019-05-06 19:30:59; 221.00; 4.09; 20.13
2019-05-06 19:45:03; 221.00; 4.09; 19.44
2019-05-06 19:45:15; 221.00; 4.09; 19.44
2019-05-06 19:45:28; 221.00; 4.09; 19.44
2019-05-06 19:45:40; 221.00; 4.09; 19.44
2019-05-06 19:45:53; 221.00; 4.09; 19.38
2019-05-06 20:00:08; 221.00; 4.09; 19.00
2019-05-06 20:00:21; 221.00; 4.09; 19.00
2019-05-06 20:00:33; 221.00; 4.09; 19.00
2019-05-06 20:00:46; 221.00; 4.09; 19.00
2019-05-06 20:00:58; 221.00; 4.09; 19.00
2019-05-06 20:15:02; 221.00; 4.09; 18.75
2019-05-06 20:15:15; 221.00; 4.09; 18.75
2019-05-06 20:15:27; 221.00; 4.09; 18.75
2019-05-06 20:15:40; 221.00; 4.09; 18.75
2019-05-06 20:15:52; 221.00; 4.09; 18.75
2019-05-06 20:30:08; 221.00; 4.09; 18.56
2019-05-06 20:30:20; 221.00; 4.09; 18.56
2019-05-06 20:30:33; 221.00; 4.09; 18.63
2019-05-06 20:30:45; 221.00; 4.09; 18.63
2019-05-06 20:30:58; 221.00; 4.09; 18.63
2019-05-06 20:45:02; 222.00; 4.09; 18.44
2019-05-06 20:45:14; 222.00; 4.08; 18.50
2019-05-06 20:45:27; 222.00; 4.08; 18.44
2019-05-06 20:45:39; 222.00; 4.08; 18.44
2019-05-06 20:45:52; 222.00; 4.08; 18.44
2019-05-06 21:00:07; 222.00; 4.08; 18.25
2019-05-06 21:00:20; 222.00; 4.08; 18.25
2019-05-06 21:00:32; 221.00; 4.09; 18.25
2019-05-06 21:00:45; 222.00; 4.08; 18.25
2019-05-06 21:00:57; 222.00; 4.08; 18.25
2019-05-06 21:15:01; 221.00; 4.09; 18.25
2019-05-06 21:15:14; 222.00; 4.08; 18.25
2019-05-06 21:15:26; 222.00; 4.08; 18.25
2019-05-06 21:15:39; 222.00; 4.08; 18.25
2019-05-06 21:15:51; 222.00; 4.08; 18.25
2019-05-06 21:30:07; 222.00; 4.08; 18.19
2019-05-06 21:30:19; 222.00; 4.08; 18.19
2019-05-06 21:30:32; 222.00; 4.08; 18.19
2019-05-06 21:30:44; 222.00; 4.08; 18.19
2019-05-06 21:30:57; 222.00; 4.08; 18.19
2019-05-06 21:45:01; 222.00; 4.08; 18.06
2019-05-06 21:45:13; 222.00; 4.08; 18.06
2019-05-06 21:45:26; 222.00; 4.08; 18.06
2019-05-06 21:45:38; 222.00; 4.08; 18.06
2019-05-06 21:45:51; 222.00; 4.08; 18.06
2019-05-06 22:00:06; 223.00; 4.08; 18.00
2019-05-06 22:00:19; 223.00; 4.08; 18.00
2019-05-06 22:00:31; 222.00; 4.08; 18.00
2019-05-06 22:00:44; 222.00; 4.08; 18.00
2019-05-06 22:00:56; 222.00; 4.08; 18.00
2019-05-06 22:15:12; 223.00; 4.07; 17.88
2019-05-06 22:15:24; 222.00; 4.08; 17.88
2019-05-06 22:15:37; 222.00; 4.08; 17.88
2019-05-06 22:15:49; 222.00; 4.08; 17.88
2019-05-06 22:30:04; 222.00; 4.08; 17.88
2019-05-06 22:30:17; 222.00; 4.08; 17.88
2019-05-06 22:30:29; 222.00; 4.08; 17.88
2019-05-06 22:30:42; 222.00; 4.08; 17.88
2019-05-06 22:30:54; 222.00; 4.08; 17.88
2019-05-06 22:45:09; 222.00; 4.08; 17.75
2019-05-06 22:45:22; 222.00; 4.08; 17.75
2019-05-06 22:45:34; 222.00; 4.08; 17.75
2019-05-06 22:45:47; 222.00; 4.08; 17.75
2019-05-06 22:45:59; 222.00; 4.08; 17.75
2019-05-06 23:00:03; 222.00; 4.08; 17.63
2019-05-06 23:00:16; 222.00; 4.08; 17.63
2019-05-06 23:00:28; 222.00; 4.08; 17.63
2019-05-06 23:00:41; 222.00; 4.08; 17.63
2019-05-06 23:00:53; 222.00; 4.08; 17.63
2019-05-06 23:15:09; 222.00; 4.08; 17.31
2019-05-06 23:15:21; 222.00; 4.08; 17.31
2019-05-06 23:15:34; 222.00; 4.08; 17.31
2019-05-06 23:15:46; 222.00; 4.08; 17.31
2019-05-06 23:15:59; 222.00; 4.08; 17.31
2019-05-06 23:30:03; 222.00; 4.08; 17.19
2019-05-06 23:30:16; 222.00; 4.08; 17.19
2019-05-06 23:30:28; 222.00; 4.08; 17.19
2019-05-06 23:30:40; 222.00; 4.08; 17.19
2019-05-06 23:30:53; 222.00; 4.08; 17.19
2019-05-06 23:45:09; 222.00; 4.08; 16.88
2019-05-06 23:45:21; 222.00; 4.08; 16.88
2019-05-06 23:45:34; 222.00; 4.08; 16.88
2019-05-06 23:45:46; 222.00; 4.08; 16.88
2019-05-06 23:45:59; 222.00; 4.08; 16.88
