2019-04-30 00:00:01; 251.00; 3.79; 16.19
2019-04-30 00:00:14; 251.00; 3.79; 16.13
2019-04-30 00:00:26; 251.00; 3.79; 16.13
2019-04-30 00:00:39; 251.00; 3.79; 16.13
2019-04-30 00:00:51; 251.00; 3.79; 16.13
2019-04-30 00:15:06; 250.00; 3.80; 16.00
2019-04-30 00:15:18; 250.00; 3.79; 16.00
2019-04-30 00:15:31; 250.00; 3.80; 16.00
2019-04-30 00:15:43; 249.00; 3.80; 16.00
2019-04-30 00:15:56; 250.00; 3.79; 16.00
2019-04-30 00:30:10; 250.00; 3.79; 16.13
2019-04-30 00:30:23; 251.00; 3.79; 16.13
2019-04-30 00:30:35; 251.00; 3.79; 16.13
2019-04-30 00:30:48; 251.00; 3.79; 16.13
2019-04-30 00:31:00; 251.00; 3.79; 16.13
2019-04-30 00:45:03; 250.00; 3.80; 16.25
2019-04-30 00:45:16; 250.00; 3.80; 16.25
2019-04-30 00:45:28; 250.00; 3.80; 16.25
2019-04-30 00:45:41; 250.00; 3.80; 16.25
2019-04-30 00:45:53; 250.00; 3.80; 16.25
2019-04-30 01:00:08; 251.00; 3.79; 16.38
2019-04-30 01:00:20; 251.00; 3.79; 16.38
2019-04-30 01:00:33; 251.00; 3.79; 16.38
2019-04-30 01:00:45; 251.00; 3.79; 16.38
2019-04-30 01:00:58; 251.00; 3.79; 16.38
2019-04-30 01:15:01; 251.00; 3.79; 16.31
2019-04-30 01:15:13; 251.00; 3.79; 16.31
2019-04-30 01:15:26; 251.00; 3.79; 16.31
2019-04-30 01:15:38; 251.00; 3.79; 16.31
2019-04-30 01:15:51; 251.00; 3.79; 16.31
2019-04-30 01:30:05; 251.00; 3.79; 16.31
2019-04-30 01:30:18; 251.00; 3.79; 16.31
2019-04-30 01:30:30; 251.00; 3.79; 16.31
2019-04-30 01:30:43; 251.00; 3.79; 16.31
2019-04-30 01:30:55; 251.00; 3.79; 16.31
2019-04-30 01:45:10; 251.00; 3.79; 16.31
2019-04-30 01:45:22; 251.00; 3.79; 16.31
2019-04-30 01:45:35; 251.00; 3.79; 16.31
2019-04-30 01:45:47; 251.00; 3.79; 16.31
2019-04-30 01:46:00; 251.00; 3.79; 16.31
2019-04-30 02:00:03; 251.00; 3.79; 16.44
2019-04-30 02:00:15; 251.00; 3.79; 16.38
2019-04-30 02:00:28; 251.00; 3.79; 16.38
2019-04-30 02:00:40; 251.00; 3.79; 16.44
2019-04-30 02:00:53; 251.00; 3.79; 16.44
2019-04-30 02:15:07; 251.00; 3.79; 16.56
2019-04-30 02:15:20; 251.00; 3.79; 16.56
2019-04-30 02:15:32; 251.00; 3.79; 16.56
2019-04-30 02:15:45; 251.00; 3.79; 16.56
2019-04-30 02:15:57; 251.00; 3.79; 16.56
2019-04-30 02:30:12; 251.00; 3.79; 16.94
2019-04-30 02:30:24; 251.00; 3.79; 16.94
2019-04-30 02:30:36; 251.00; 3.79; 16.94
2019-04-30 02:30:49; 251.00; 3.79; 16.94
2019-04-30 02:45:03; 251.00; 3.79; 17.38
2019-04-30 02:45:16; 251.00; 3.79; 17.38
2019-04-30 02:45:28; 251.00; 3.79; 17.38
2019-04-30 02:45:41; 250.00; 3.80; 17.38
2019-04-30 02:45:53; 251.00; 3.79; 17.38
2019-04-30 03:00:08; 252.00; 3.78; 17.19
2019-04-30 03:00:20; 251.00; 3.79; 17.19
2019-04-30 03:00:33; 252.00; 3.78; 17.19
2019-04-30 03:00:45; 251.00; 3.79; 17.19
2019-04-30 03:00:58; 251.00; 3.79; 17.19
2019-04-30 03:15:01; 252.00; 3.78; 16.88
2019-04-30 03:15:13; 251.00; 3.79; 16.88
2019-04-30 03:15:26; 252.00; 3.78; 16.88
2019-04-30 03:15:38; 251.00; 3.78; 16.88
2019-04-30 03:15:50; 251.00; 3.79; 16.88
2019-04-30 03:30:05; 252.00; 3.78; 16.50
2019-04-30 03:30:17; 252.00; 3.78; 16.50
2019-04-30 03:30:30; 252.00; 3.78; 16.50
2019-04-30 03:30:42; 252.00; 3.78; 16.50
2019-04-30 03:30:55; 252.00; 3.78; 16.50
2019-04-30 03:45:09; 252.00; 3.78; 16.25
2019-04-30 03:45:22; 252.00; 3.78; 16.25
2019-04-30 03:45:34; 252.00; 3.78; 16.25
2019-04-30 03:45:47; 252.00; 3.78; 16.25
2019-04-30 03:45:59; 252.00; 3.78; 16.25
2019-04-30 04:00:02; 251.00; 3.79; 15.75
2019-04-30 04:00:15; 251.00; 3.79; 15.75
2019-04-30 04:00:27; 251.00; 3.79; 15.75
2019-04-30 04:00:40; 251.00; 3.79; 15.75
2019-04-30 04:00:52; 251.00; 3.79; 15.75
2019-04-30 04:15:07; 251.00; 3.79; 15.81
2019-04-30 04:15:19; 251.00; 3.79; 15.75
2019-04-30 04:15:32; 251.00; 3.79; 15.81
2019-04-30 04:15:44; 251.00; 3.79; 15.75
2019-04-30 04:15:57; 251.00; 3.79; 15.75
2019-04-30 04:30:11; 250.00; 3.80; 15.56
2019-04-30 04:30:24; 251.00; 3.79; 15.56
2019-04-30 04:30:36; 251.00; 3.79; 15.56
2019-04-30 04:30:49; 251.00; 3.79; 15.56
2019-04-30 04:45:04; 250.00; 3.80; 15.44
2019-04-30 04:45:16; 250.00; 3.80; 15.44
2019-04-30 04:45:29; 251.00; 3.79; 15.44
2019-04-30 04:45:41; 251.00; 3.79; 15.44
2019-04-30 04:45:54; 251.00; 3.79; 15.44
2019-04-30 05:00:09; 250.00; 3.80; 15.38
2019-04-30 05:00:21; 251.00; 3.79; 15.44
2019-04-30 05:00:34; 250.00; 3.80; 15.44
2019-04-30 05:00:46; 250.00; 3.80; 15.44
2019-04-30 05:00:59; 250.00; 3.80; 15.44
2019-04-30 05:15:02; 250.00; 3.80; 15.31
2019-04-30 05:15:15; 250.00; 3.80; 15.31
2019-04-30 05:15:27; 250.00; 3.80; 15.31
2019-04-30 05:15:40; 251.00; 3.79; 15.31
2019-04-30 05:15:52; 251.00; 3.79; 15.31
2019-04-30 05:30:07; 251.00; 3.79; 15.38
2019-04-30 05:30:20; 251.00; 3.79; 15.38
2019-04-30 05:30:32; 251.00; 3.79; 15.38
2019-04-30 05:30:45; 251.00; 3.79; 15.38
2019-04-30 05:30:57; 251.00; 3.79; 15.38
2019-04-30 05:45:01; 251.00; 3.79; 15.31
2019-04-30 05:45:14; 251.00; 3.79; 15.31
2019-04-30 05:45:26; 251.00; 3.79; 15.31
2019-04-30 05:45:39; 251.00; 3.80; 15.31
2019-04-30 05:45:51; 251.00; 3.79; 15.31
2019-04-30 06:00:06; 252.00; 3.79; 15.25
2019-04-30 06:00:19; 251.00; 3.80; 15.25
2019-04-30 06:00:31; 252.00; 3.79; 15.25
2019-04-30 06:00:44; 250.00; 3.80; 15.25
2019-04-30 06:00:56; 251.00; 3.80; 15.25
2019-04-30 06:15:11; 251.00; 3.79; 15.19
2019-04-30 06:15:24; 252.00; 3.79; 15.19
2019-04-30 06:15:36; 252.00; 3.79; 15.19
2019-04-30 06:15:49; 252.00; 3.79; 15.19
2019-04-30 06:30:04; 252.00; 3.79; 15.13
2019-04-30 06:30:16; 251.00; 3.79; 15.13
2019-04-30 06:30:29; 251.00; 3.79; 15.13
2019-04-30 06:30:42; 252.00; 3.79; 15.13
2019-04-30 06:30:54; 252.00; 3.79; 15.13
2019-04-30 06:45:09; 252.00; 3.78; 14.94
2019-04-30 06:45:21; 252.00; 3.78; 14.94
2019-04-30 06:45:34; 252.00; 3.78; 14.94
2019-04-30 06:45:46; 252.00; 3.78; 14.94
2019-04-30 06:45:59; 252.00; 3.78; 14.94
2019-04-30 07:00:02; 252.00; 3.78; 14.69
2019-04-30 07:00:15; 252.00; 3.78; 14.69
2019-04-30 07:00:27; 252.00; 3.78; 14.69
2019-04-30 07:00:40; 252.00; 3.78; 14.69
2019-04-30 07:00:52; 252.00; 3.78; 14.69
2019-04-30 07:15:07; 252.00; 3.78; 14.44
2019-04-30 07:15:19; 252.00; 3.78; 14.44
2019-04-30 07:15:32; 252.00; 3.78; 14.44
2019-04-30 07:15:44; 252.00; 3.78; 14.44
2019-04-30 07:15:56; 252.00; 3.78; 14.44
2019-04-30 07:30:11; 253.00; 3.78; 14.25
2019-04-30 07:30:23; 253.00; 3.78; 14.25
2019-04-30 07:30:36; 253.00; 3.78; 14.19
2019-04-30 07:30:48; 253.00; 3.78; 14.19
2019-04-30 07:45:03; 252.00; 3.78; 13.94
2019-04-30 07:45:15; 252.00; 3.78; 13.94
2019-04-30 07:45:28; 252.00; 3.77; 14.00
2019-04-30 07:45:40; 253.00; 3.77; 13.94
2019-04-30 07:45:52; 253.00; 3.77; 13.94
2019-04-30 08:00:07; 253.00; 3.77; 13.94
2019-04-30 08:00:19; 253.00; 3.77; 13.94
2019-04-30 08:00:32; 253.00; 3.77; 13.94
2019-04-30 08:00:44; 253.00; 3.77; 13.94
2019-04-30 08:00:57; 253.00; 3.77; 13.94
2019-04-30 08:15:11; 252.00; 3.78; 13.88
2019-04-30 08:15:23; 252.00; 3.78; 13.88
2019-04-30 08:15:36; 252.00; 3.78; 13.88
2019-04-30 08:15:48; 252.00; 3.78; 13.88
2019-04-30 08:30:03; 252.00; 3.78; 13.75
2019-04-30 08:30:15; 252.00; 3.78; 13.75
2019-04-30 08:30:28; 253.00; 3.77; 13.75
2019-04-30 08:30:40; 252.00; 3.78; 13.75
2019-04-30 08:30:53; 252.00; 3.78; 13.75
2019-04-30 08:45:07; 252.00; 3.78; 13.88
2019-04-30 08:45:20; 252.00; 3.78; 13.88
2019-04-30 08:45:32; 253.00; 3.77; 13.88
2019-04-30 08:45:45; 253.00; 3.78; 13.81
2019-04-30 08:45:57; 252.00; 3.78; 13.88
2019-04-30 09:00:11; 254.00; 3.76; 14.00
2019-04-30 09:00:24; 254.00; 3.76; 14.00
2019-04-30 09:00:36; 253.00; 3.77; 14.00
2019-04-30 09:00:49; 253.00; 3.77; 14.00
2019-04-30 09:15:03; 252.00; 3.79; 14.13
2019-04-30 09:15:16; 253.00; 3.78; 14.13
2019-04-30 09:15:28; 253.00; 3.78; 14.13
2019-04-30 09:15:41; 253.00; 3.78; 14.13
2019-04-30 09:15:53; 253.00; 3.78; 14.13
2019-04-30 09:30:08; 251.00; 3.79; 14.25
2019-04-30 09:30:20; 252.00; 3.78; 14.25
2019-04-30 09:30:33; 251.00; 3.79; 14.25
2019-04-30 09:30:45; 251.00; 3.79; 14.25
2019-04-30 09:30:58; 252.00; 3.78; 14.25
2019-04-30 09:45:01; 251.00; 3.79; 14.25
2019-04-30 09:45:13; 252.00; 3.78; 14.25
2019-04-30 09:45:26; 252.00; 3.78; 14.25
2019-04-30 09:45:38; 252.00; 3.78; 14.25
2019-04-30 09:45:51; 252.00; 3.78; 14.25
2019-04-30 10:00:05; 252.00; 3.78; 14.44
2019-04-30 10:00:18; 252.00; 3.78; 14.44
2019-04-30 10:00:30; 252.00; 3.78; 14.44
2019-04-30 10:00:43; 252.00; 3.78; 14.44
2019-04-30 10:00:55; 252.00; 3.78; 14.50
2019-04-30 10:15:10; 251.00; 3.79; 14.88
2019-04-30 10:15:22; 252.00; 3.79; 14.88
2019-04-30 10:15:35; 251.00; 3.78; 14.88
2019-04-30 10:15:47; 251.00; 3.79; 14.88
2019-04-30 10:16:00; 252.00; 3.78; 14.88
2019-04-30 10:30:04; 251.00; 3.80; 15.19
2019-04-30 10:30:16; 251.00; 3.80; 15.19
2019-04-30 10:30:29; 251.00; 3.79; 15.19
2019-04-30 10:30:41; 251.00; 3.80; 15.19
2019-04-30 10:30:54; 252.00; 3.79; 15.19
2019-04-30 10:45:09; 250.00; 3.80; 15.44
2019-04-30 10:45:21; 250.00; 3.80; 15.44
2019-04-30 10:45:34; 250.00; 3.80; 15.44
2019-04-30 10:45:46; 251.00; 3.79; 15.44
2019-04-30 10:45:58; 250.00; 3.80; 15.44
2019-04-30 11:00:02; 251.00; 3.79; 15.75
2019-04-30 11:00:14; 251.00; 3.79; 15.75
2019-04-30 11:00:27; 251.00; 3.79; 15.75
2019-04-30 11:00:39; 251.00; 3.79; 15.81
2019-04-30 11:00:52; 251.00; 3.79; 15.75
2019-04-30 11:15:06; 251.00; 3.79; 16.06
2019-04-30 11:15:19; 251.00; 3.80; 16.06
2019-04-30 11:15:31; 250.00; 3.80; 16.13
2019-04-30 11:15:44; 250.00; 3.80; 16.13
2019-04-30 11:15:56; 251.00; 3.79; 16.19
2019-04-30 11:30:11; 252.00; 3.78; 19.81
2019-04-30 11:30:23; 252.00; 3.78; 19.81
2019-04-30 11:30:36; 251.00; 3.80; 19.88
2019-04-30 11:30:48; 250.00; 3.80; 19.94
2019-04-30 11:45:03; 250.00; 3.80; 21.44
2019-04-30 11:45:15; 250.00; 3.80; 21.44
2019-04-30 11:45:28; 250.00; 3.80; 21.56
2019-04-30 11:45:40; 250.00; 3.80; 21.63
2019-04-30 11:45:53; 250.00; 3.80; 21.69
2019-04-30 12:00:07; 249.00; 3.81; 22.25
2019-04-30 12:00:19; 249.00; 3.81; 22.19
2019-04-30 12:00:32; 250.00; 3.80; 22.13
2019-04-30 12:00:44; 250.00; 3.80; 22.13
2019-04-30 12:00:57; 250.00; 3.80; 22.06
2019-04-30 12:15:11; 250.00; 3.81; 21.75
2019-04-30 12:15:24; 249.00; 3.81; 21.75
2019-04-30 12:15:36; 248.00; 3.81; 21.88
2019-04-30 12:15:49; 248.00; 3.82; 21.94
2019-04-30 12:30:03; 250.00; 3.80; 23.00
2019-04-30 12:30:16; 249.00; 3.82; 23.06
2019-04-30 12:30:28; 248.00; 3.82; 23.13
2019-04-30 12:30:41; 249.00; 3.80; 23.19
2019-04-30 12:30:53; 248.00; 3.81; 23.19
2019-04-30 12:45:07; 249.00; 3.81; 23.06
2019-04-30 12:45:20; 249.00; 3.80; 23.13
2019-04-30 12:45:32; 249.00; 3.81; 23.19
2019-04-30 12:45:45; 249.00; 3.81; 23.19
2019-04-30 12:45:57; 249.00; 3.81; 23.25
2019-04-30 13:00:12; 249.00; 3.81; 24.06
2019-04-30 13:00:24; 249.00; 3.81; 24.06
2019-04-30 13:00:37; 249.00; 3.81; 24.13
2019-04-30 13:00:49; 249.00; 3.81; 24.13
2019-04-30 13:15:04; 249.00; 3.81; 24.56
2019-04-30 13:15:16; 249.00; 3.81; 24.50
2019-04-30 13:15:29; 249.00; 3.81; 24.56
2019-04-30 13:15:41; 248.00; 3.82; 24.56
2019-04-30 13:15:54; 249.00; 3.81; 24.63
2019-04-30 13:30:08; 248.00; 3.82; 24.81
2019-04-30 13:30:20; 249.00; 3.81; 24.88
2019-04-30 13:30:33; 248.00; 3.82; 24.94
2019-04-30 13:30:45; 248.00; 3.82; 24.94
2019-04-30 13:30:58; 248.00; 3.82; 24.94
2019-04-30 13:45:01; 248.00; 3.82; 25.13
2019-04-30 13:45:13; 248.00; 3.82; 25.13
2019-04-30 13:45:26; 248.00; 3.82; 25.19
2019-04-30 13:45:38; 248.00; 3.82; 25.19
2019-04-30 13:45:51; 249.00; 3.81; 25.13
2019-04-30 14:00:05; 248.00; 3.81; 24.75
2019-04-30 14:00:17; 248.00; 3.82; 24.81
2019-04-30 14:00:30; 248.00; 3.82; 24.88
2019-04-30 14:00:42; 247.00; 3.82; 24.88
2019-04-30 14:00:55; 248.00; 3.82; 24.94
2019-04-30 14:15:09; 248.00; 3.82; 25.69
2019-04-30 14:15:21; 248.00; 3.82; 25.75
2019-04-30 14:15:34; 247.00; 3.83; 25.69
2019-04-30 14:15:46; 247.00; 3.83; 25.63
2019-04-30 14:15:59; 247.00; 3.82; 25.56
2019-04-30 14:30:02; 248.00; 3.82; 26.13
2019-04-30 14:30:14; 248.00; 3.82; 26.13
2019-04-30 14:30:26; 248.00; 3.82; 26.13
2019-04-30 14:30:39; 248.00; 3.82; 26.06
2019-04-30 14:30:51; 248.00; 3.82; 26.06
2019-04-30 14:45:06; 248.00; 3.82; 26.19
2019-04-30 14:45:18; 248.00; 3.82; 26.13
2019-04-30 14:45:31; 248.00; 3.82; 26.00
2019-04-30 14:45:43; 248.00; 3.82; 25.88
2019-04-30 14:45:55; 248.00; 3.82; 25.81
2019-04-30 15:00:10; 248.00; 3.82; 25.00
2019-04-30 15:00:22; 248.00; 3.82; 24.94
2019-04-30 15:00:35; 248.00; 3.82; 24.88
2019-04-30 15:00:47; 248.00; 3.82; 24.88
2019-04-30 15:01:00; 248.00; 3.82; 24.88
2019-04-30 15:15:02; 248.00; 3.82; 25.19
2019-04-30 15:15:15; 248.00; 3.82; 25.06
2019-04-30 15:15:27; 248.00; 3.82; 25.06
2019-04-30 15:15:40; 248.00; 3.82; 25.06
2019-04-30 15:15:52; 248.00; 3.82; 25.06
2019-04-30 15:30:07; 247.00; 3.83; 25.88
2019-04-30 15:30:19; 247.00; 3.83; 25.88
2019-04-30 15:30:32; 247.00; 3.83; 25.94
2019-04-30 15:30:44; 247.00; 3.83; 26.00
2019-04-30 15:30:56; 247.00; 3.83; 26.00
2019-04-30 15:45:11; 248.00; 3.82; 25.25
2019-04-30 15:45:23; 248.00; 3.82; 25.25
2019-04-30 15:45:36; 249.00; 3.82; 25.31
2019-04-30 15:45:48; 248.00; 3.82; 25.44
2019-04-30 15:46:01; 248.00; 3.82; 25.50
2019-04-30 16:00:03; 247.00; 3.83; 26.25
2019-04-30 16:00:16; 247.00; 3.82; 26.25
2019-04-30 16:00:28; 248.00; 3.82; 26.25
2019-04-30 16:00:41; 247.00; 3.82; 26.19
2019-04-30 16:00:53; 248.00; 3.82; 26.19
2019-04-30 16:15:07; 248.00; 3.82; 26.88
2019-04-30 16:15:20; 248.00; 3.82; 26.69
2019-04-30 16:15:32; 247.00; 3.83; 26.63
2019-04-30 16:15:45; 247.00; 3.83; 26.56
2019-04-30 16:15:57; 247.00; 3.82; 26.56
2019-04-30 16:30:11; 248.00; 3.82; 27.19
2019-04-30 16:30:24; 248.00; 3.82; 27.25
2019-04-30 16:30:36; 248.00; 3.82; 27.19
2019-04-30 16:30:49; 248.00; 3.82; 27.25
2019-04-30 16:45:03; 248.00; 3.82; 26.81
2019-04-30 16:45:16; 248.00; 3.82; 26.75
2019-04-30 16:45:28; 248.00; 3.82; 26.81
2019-04-30 16:45:40; 248.00; 3.82; 26.88
2019-04-30 16:45:53; 248.00; 3.82; 26.88
2019-04-30 17:00:07; 247.00; 3.83; 26.56
2019-04-30 17:00:20; 248.00; 3.82; 26.63
2019-04-30 17:00:32; 248.00; 3.82; 26.63
2019-04-30 17:00:44; 248.00; 3.82; 26.63
2019-04-30 17:00:57; 248.00; 3.82; 26.56
2019-04-30 17:15:11; 248.00; 3.82; 26.06
2019-04-30 17:15:24; 248.00; 3.82; 26.06
2019-04-30 17:15:36; 248.00; 3.82; 26.06
2019-04-30 17:15:49; 249.00; 3.81; 26.06
2019-04-30 17:30:03; 248.00; 3.82; 25.00
2019-04-30 17:30:15; 248.00; 3.82; 25.06
2019-04-30 17:30:28; 248.00; 3.82; 25.06
2019-04-30 17:30:40; 248.00; 3.82; 25.13
2019-04-30 17:30:53; 248.00; 3.82; 25.13
2019-04-30 17:45:07; 248.00; 3.82; 26.56
2019-04-30 17:45:20; 248.00; 3.82; 26.63
2019-04-30 17:45:32; 248.00; 3.82; 26.69
2019-04-30 17:45:44; 248.00; 3.82; 26.75
2019-04-30 17:45:57; 248.00; 3.82; 26.75
2019-04-30 18:00:11; 248.00; 3.82; 27.63
2019-04-30 18:00:23; 248.00; 3.82; 27.63
2019-04-30 18:00:36; 248.00; 3.82; 27.63
2019-04-30 18:00:48; 248.00; 3.82; 27.63
2019-04-30 18:15:03; 249.00; 3.81; 26.81
2019-04-30 18:15:15; 249.00; 3.81; 26.75
2019-04-30 18:15:28; 248.00; 3.82; 26.56
2019-04-30 18:15:40; 247.00; 3.83; 26.44
2019-04-30 18:15:53; 248.00; 3.81; 26.31
2019-04-30 18:30:07; 249.00; 3.81; 23.50
2019-04-30 18:30:20; 248.00; 3.82; 23.56
2019-04-30 18:30:32; 248.00; 3.82; 23.50
2019-04-30 18:30:44; 249.00; 3.81; 23.50
2019-04-30 18:30:57; 249.00; 3.81; 23.50
2019-04-30 18:45:11; 249.00; 3.82; 24.94
2019-04-30 18:45:24; 250.00; 3.81; 24.94
2019-04-30 18:45:36; 249.00; 3.82; 25.00
2019-04-30 18:45:49; 249.00; 3.81; 25.00
2019-04-30 19:00:03; 249.00; 3.81; 24.69
2019-04-30 19:00:16; 249.00; 3.81; 24.69
2019-04-30 19:00:28; 249.00; 3.81; 24.63
2019-04-30 19:00:40; 249.00; 3.81; 24.63
2019-04-30 19:00:53; 249.00; 3.81; 24.63
2019-04-30 19:15:07; 249.00; 3.81; 21.88
2019-04-30 19:15:20; 249.00; 3.81; 21.81
2019-04-30 19:15:32; 249.00; 3.81; 21.75
2019-04-30 19:15:45; 249.00; 3.81; 21.69
2019-04-30 19:15:57; 249.00; 3.81; 21.63
2019-04-30 19:30:12; 249.00; 3.81; 18.81
2019-04-30 19:30:24; 249.00; 3.81; 18.81
2019-04-30 19:30:37; 249.00; 3.81; 18.75
2019-04-30 19:30:49; 249.00; 3.81; 18.75
2019-04-30 19:45:04; 249.00; 3.81; 18.06
2019-04-30 19:45:16; 250.00; 3.81; 18.00
2019-04-30 19:45:29; 249.00; 3.81; 18.00
2019-04-30 19:45:41; 250.00; 3.81; 18.00
2019-04-30 19:45:54; 250.00; 3.81; 18.00
2019-04-30 20:00:09; 249.00; 3.80; 17.31
2019-04-30 20:00:21; 249.00; 3.81; 17.31
2019-04-30 20:00:33; 249.00; 3.81; 17.31
2019-04-30 20:00:46; 250.00; 3.80; 17.25
2019-04-30 20:00:58; 249.00; 3.81; 17.25
2019-04-30 20:15:02; 249.00; 3.81; 16.81
2019-04-30 20:15:14; 249.00; 3.81; 16.81
2019-04-30 20:15:27; 249.00; 3.81; 16.81
2019-04-30 20:15:39; 250.00; 3.80; 16.81
2019-04-30 20:15:52; 249.00; 3.81; 16.81
2019-04-30 20:30:07; 250.00; 3.80; 16.63
2019-04-30 20:30:19; 250.00; 3.80; 16.63
2019-04-30 20:30:32; 249.00; 3.81; 16.63
2019-04-30 20:30:44; 249.00; 3.81; 16.63
2019-04-30 20:30:57; 250.00; 3.80; 16.63
2019-04-30 20:45:12; 250.00; 3.80; 16.31
2019-04-30 20:45:24; 250.00; 3.80; 16.31
2019-04-30 20:45:37; 250.00; 3.80; 16.31
2019-04-30 20:45:49; 250.00; 3.81; 16.31
2019-04-30 21:00:04; 249.00; 3.81; 15.88
2019-04-30 21:00:17; 248.00; 3.82; 15.88
2019-04-30 21:00:29; 248.00; 3.82; 15.88
2019-04-30 21:00:42; 248.00; 3.82; 15.88
2019-04-30 21:00:54; 248.00; 3.81; 15.88
2019-04-30 21:15:09; 249.00; 3.81; 15.69
2019-04-30 21:15:22; 248.00; 3.82; 15.69
2019-04-30 21:15:34; 248.00; 3.82; 15.69
2019-04-30 21:15:47; 248.00; 3.82; 15.69
2019-04-30 21:15:59; 248.00; 3.82; 15.69
2019-04-30 21:30:03; 250.00; 3.81; 15.44
2019-04-30 21:30:16; 250.00; 3.81; 15.44
2019-04-30 21:30:28; 250.00; 3.81; 15.44
2019-04-30 21:30:41; 250.00; 3.81; 15.44
2019-04-30 21:30:53; 249.00; 3.81; 15.44
2019-04-30 21:45:08; 251.00; 3.80; 14.69
2019-04-30 21:45:21; 250.00; 3.80; 14.69
2019-04-30 21:45:33; 250.00; 3.80; 14.69
2019-04-30 21:45:46; 250.00; 3.80; 14.69
2019-04-30 21:45:58; 250.00; 3.80; 14.63
2019-04-30 22:00:02; 251.00; 3.80; 14.38
2019-04-30 22:00:15; 251.00; 3.80; 14.38
2019-04-30 22:00:27; 251.00; 3.79; 14.38
2019-04-30 22:00:40; 251.00; 3.80; 14.38
2019-04-30 22:00:52; 251.00; 3.80; 14.38
2019-04-30 22:15:06; 251.00; 3.79; 14.31
2019-04-30 22:15:19; 251.00; 3.79; 14.31
2019-04-30 22:15:31; 251.00; 3.79; 14.31
2019-04-30 22:15:44; 251.00; 3.80; 14.31
2019-04-30 22:15:56; 251.00; 3.79; 14.31
2019-04-30 22:30:11; 250.00; 3.80; 14.63
2019-04-30 22:30:24; 250.00; 3.80; 14.63
2019-04-30 22:30:36; 250.00; 3.80; 14.63
2019-04-30 22:30:49; 250.00; 3.80; 14.63
2019-04-30 22:45:03; 250.00; 3.80; 14.75
2019-04-30 22:45:16; 250.00; 3.80; 14.75
2019-04-30 22:45:28; 250.00; 3.80; 14.75
2019-04-30 22:45:41; 250.00; 3.80; 14.75
2019-04-30 22:45:53; 250.00; 3.80; 14.75
2019-04-30 23:00:08; 250.00; 3.80; 14.50
2019-04-30 23:00:21; 250.00; 3.80; 14.50
2019-04-30 23:00:33; 250.00; 3.80; 14.50
2019-04-30 23:00:46; 250.00; 3.80; 14.50
2019-04-30 23:00:58; 250.00; 3.80; 14.50
2019-04-30 23:15:02; 250.00; 3.80; 14.13
2019-04-30 23:15:14; 251.00; 3.79; 14.13
2019-04-30 23:15:26; 251.00; 3.79; 14.13
2019-04-30 23:15:39; 251.00; 3.79; 14.13
2019-04-30 23:15:51; 250.00; 3.79; 14.13
2019-04-30 23:30:06; 250.00; 3.80; 13.75
2019-04-30 23:30:19; 251.00; 3.79; 13.75
2019-04-30 23:30:31; 250.00; 3.80; 13.75
2019-04-30 23:30:43; 250.00; 3.80; 13.75
2019-04-30 23:30:56; 250.00; 3.80; 13.75
2019-04-30 23:45:11; 251.00; 3.79; 13.50
2019-04-30 23:45:23; 251.00; 3.79; 13.50
2019-04-30 23:45:36; 250.00; 3.80; 13.50
2019-04-30 23:45:48; 250.00; 3.80; 13.50
2019-04-30 23:46:01; 251.00; 3.79; 13.50
