G04 #@! TF.FileFunction,Copper,L2,Bot,Signal*
%FSLAX46Y46*%
G04 Gerber Fmt 4.6, Leading zero omitted, Abs format (unit mm)*
G04 Created by KiCad (PCBNEW 4.0.7-e2-6376~58~ubuntu16.04.1) date Wed Mar 21 21:48:13 2018*
%MOMM*%
%LPD*%
G01*
G04 APERTURE LIST*
%ADD10C,0.100000*%
%ADD11O,1.727200X1.727200*%
%ADD12C,1.727200*%
%ADD13C,1.520000*%
%ADD14C,1.524000*%
%ADD15C,1.572720*%
%ADD16C,0.600000*%
%ADD17C,0.250000*%
G04 APERTURE END LIST*
D10*
D11*
X146724000Y-73444000D03*
X149264000Y-73444000D03*
X151804000Y-73444000D03*
X154344000Y-73444000D03*
X156884000Y-73444000D03*
X159424000Y-73444000D03*
X161964000Y-73444000D03*
X164504000Y-73444000D03*
X164504000Y-73444000D03*
X161964000Y-73444000D03*
X159424000Y-73444000D03*
X156884000Y-73444000D03*
X154344000Y-73444000D03*
X151804000Y-73444000D03*
X149264000Y-73444000D03*
X146724000Y-73444000D03*
X146724000Y-73444000D03*
X149264000Y-73444000D03*
X151804000Y-73444000D03*
X154344000Y-73444000D03*
X156884000Y-73444000D03*
X159424000Y-73444000D03*
X161964000Y-73444000D03*
X164504000Y-73444000D03*
X151804000Y-121704000D03*
X146724000Y-121704000D03*
X144184000Y-121704000D03*
X141644000Y-121704000D03*
X139104000Y-121704000D03*
X136564000Y-121704000D03*
X134024000Y-121704000D03*
X131484000Y-121704000D03*
X164504000Y-73444000D03*
X161964000Y-73444000D03*
X159424000Y-73444000D03*
X156884000Y-73444000D03*
X154344000Y-73444000D03*
X151804000Y-73444000D03*
X149264000Y-73444000D03*
X146724000Y-73444000D03*
X127420000Y-73444000D03*
X142660000Y-73444000D03*
X140120000Y-73444000D03*
X137580000Y-73444000D03*
X119800000Y-73444000D03*
X122340000Y-73444000D03*
X124880000Y-73444000D03*
X129960000Y-73444000D03*
X132500000Y-73444000D03*
X135040000Y-73444000D03*
X128944000Y-121704000D03*
X154344000Y-121704000D03*
X156884000Y-121704000D03*
X159424000Y-121704000D03*
X161964000Y-121704000D03*
X164504000Y-121704000D03*
D12*
X164504000Y-78524000D03*
X161964000Y-78524000D03*
X159424000Y-78524000D03*
X156884000Y-78524000D03*
X154344000Y-78524000D03*
X151804000Y-78524000D03*
X149264000Y-78524000D03*
X146724000Y-78524000D03*
X146724000Y-93764000D03*
X149264000Y-93764000D03*
X151804000Y-93764000D03*
X154344000Y-93764000D03*
X156884000Y-93764000D03*
X159424000Y-93764000D03*
X161964000Y-93764000D03*
X164504000Y-93764000D03*
X144184000Y-93764000D03*
X141644000Y-93764000D03*
X139104000Y-93764000D03*
X136564000Y-93764000D03*
X144184000Y-78524000D03*
X141644000Y-78524000D03*
X139104000Y-78524000D03*
X136564000Y-78524000D03*
X136564000Y-91224000D03*
X136564000Y-88684000D03*
X136564000Y-86144000D03*
X155614000Y-91224000D03*
X153074000Y-91224000D03*
X144184000Y-101384000D03*
X144184000Y-103924000D03*
X144184000Y-106464000D03*
X144184000Y-109004000D03*
X144184000Y-111544000D03*
X144184000Y-114084000D03*
X125134000Y-114084000D03*
X122594000Y-114084000D03*
X120054000Y-114084000D03*
X117514000Y-114084000D03*
X114974000Y-114084000D03*
X112434000Y-114084000D03*
D13*
X164504000Y-71000000D03*
X161964000Y-71000000D03*
X159424000Y-71000000D03*
X156884000Y-71000000D03*
X154344000Y-71000000D03*
X151804000Y-71000000D03*
X149264000Y-71000000D03*
X146724000Y-71000000D03*
X142660000Y-71000000D03*
X140120000Y-71000000D03*
X137580000Y-71000000D03*
X135040000Y-71000000D03*
X132500000Y-71000000D03*
X129960000Y-71000000D03*
X127420000Y-71000000D03*
X124880000Y-71000000D03*
X122340000Y-71000000D03*
X119800000Y-71000000D03*
X164504000Y-124200000D03*
X161964000Y-124200000D03*
X159424000Y-124200000D03*
X156884000Y-124200000D03*
X154344000Y-124200000D03*
X151804000Y-124200000D03*
X146724000Y-124200000D03*
X144184000Y-124200000D03*
X141644000Y-124200000D03*
X139104000Y-124200000D03*
X136564000Y-124200000D03*
X134024000Y-124200000D03*
X131484000Y-124200000D03*
X128944000Y-124200000D03*
D14*
X108624000Y-74714000D03*
X108624000Y-82334000D03*
X103544000Y-82334000D03*
X103544000Y-74714000D03*
D12*
X113704000Y-89954000D03*
X123864000Y-89954000D03*
X123864000Y-92367000D03*
X105195000Y-92494000D03*
X123864000Y-95923000D03*
X123864000Y-101384000D03*
X113704000Y-92367000D03*
X105195000Y-89954000D03*
X105195000Y-87414000D03*
X113704000Y-95923000D03*
X113704000Y-101384000D03*
X105195000Y-101384000D03*
X105195000Y-98844000D03*
X105195000Y-96304000D03*
X106084000Y-107226000D03*
X103544000Y-107226000D03*
X106084000Y-111036000D03*
X106084000Y-113576000D03*
X106084000Y-116116000D03*
X106084000Y-119926000D03*
X106084000Y-123736000D03*
X103544000Y-123736000D03*
D15*
X103544000Y-119926000D03*
D12*
X126404000Y-89954000D03*
X136564000Y-101384000D03*
X136564000Y-111544000D03*
D16*
X120904000Y-78486000D03*
X123698000Y-78486000D03*
X129032000Y-78486000D03*
X146304000Y-116078000D03*
X134112000Y-117094000D03*
X162814000Y-110744000D03*
X160782000Y-114046000D03*
X149098000Y-115570000D03*
X145034000Y-120142000D03*
X160782000Y-116586000D03*
X150114000Y-116586000D03*
X155956000Y-83566000D03*
X129032000Y-85090000D03*
X153416000Y-80772000D03*
X126238000Y-80772000D03*
X129286000Y-82296000D03*
X124206000Y-82296000D03*
X166878000Y-99568000D03*
X166878000Y-104394000D03*
D17*
X136564000Y-78524000D02*
X129070000Y-78524000D01*
X123698000Y-78486000D02*
X120904000Y-78486000D01*
X129070000Y-78524000D02*
X129032000Y-78486000D01*
X141644000Y-121704000D02*
X141644000Y-116078000D01*
X141644000Y-116078000D02*
X141732000Y-116078000D01*
X146304000Y-116078000D02*
X141732000Y-116078000D01*
X141732000Y-116078000D02*
X139192000Y-116078000D01*
X112522000Y-116078000D02*
X139192000Y-116078000D01*
X112434000Y-115990000D02*
X112522000Y-116078000D01*
X112434000Y-114084000D02*
X112434000Y-115990000D01*
X159424000Y-93764000D02*
X159424000Y-96940000D01*
X134024000Y-117182000D02*
X134024000Y-121704000D01*
X134112000Y-117094000D02*
X134024000Y-117182000D01*
X162814000Y-100330000D02*
X162814000Y-110744000D01*
X159424000Y-96940000D02*
X162814000Y-100330000D01*
X156884000Y-96940000D02*
X156884000Y-93764000D01*
X161036000Y-101092000D02*
X156884000Y-96940000D01*
X161036000Y-113792000D02*
X161036000Y-101092000D01*
X160782000Y-114046000D02*
X161036000Y-113792000D01*
X149098000Y-119888000D02*
X149098000Y-115570000D01*
X148844000Y-120142000D02*
X149098000Y-119888000D01*
X145034000Y-120142000D02*
X148844000Y-120142000D01*
X146724000Y-121704000D02*
X149314000Y-121704000D01*
X164338000Y-111760000D02*
X164338000Y-93930000D01*
X160782000Y-115316000D02*
X164338000Y-111760000D01*
X160782000Y-116586000D02*
X160782000Y-115316000D01*
X150114000Y-120904000D02*
X150114000Y-116586000D01*
X149314000Y-121704000D02*
X150114000Y-120904000D01*
X164338000Y-93930000D02*
X164504000Y-93764000D01*
X130556000Y-83566000D02*
X155956000Y-83566000D01*
X129032000Y-85090000D02*
X130556000Y-83566000D01*
X126238000Y-80772000D02*
X153416000Y-80772000D01*
X108624000Y-82334000D02*
X124168000Y-82334000D01*
X159424000Y-82130000D02*
X159424000Y-78524000D01*
X159258000Y-82296000D02*
X159424000Y-82130000D01*
X129286000Y-82296000D02*
X159258000Y-82296000D01*
X124168000Y-82334000D02*
X124206000Y-82296000D01*
X155614000Y-91224000D02*
X165570000Y-91224000D01*
X165570000Y-91224000D02*
X166878000Y-92532000D01*
X166878000Y-92532000D02*
X166878000Y-99568000D01*
X166878000Y-104394000D02*
X166878000Y-113030000D01*
X166878000Y-113030000D02*
X164504000Y-115404000D01*
X164504000Y-115404000D02*
X164504000Y-121704000D01*
X153074000Y-91224000D02*
X153074000Y-89320000D01*
X153074000Y-89320000D02*
X153494000Y-88900000D01*
X153494000Y-88900000D02*
X165862000Y-88900000D01*
X165862000Y-88900000D02*
X168148000Y-91186000D01*
X168148000Y-91186000D02*
X168148000Y-100076000D01*
X168148000Y-100076000D02*
X165354000Y-102870000D01*
X165354000Y-102870000D02*
X165354000Y-112776000D01*
X165354000Y-112776000D02*
X161964000Y-116166000D01*
X161964000Y-116166000D02*
X161964000Y-121704000D01*
X154344000Y-93764000D02*
X154344000Y-96940000D01*
X159424000Y-102020000D02*
X159424000Y-121704000D01*
X154344000Y-96940000D02*
X159424000Y-102020000D01*
X151804000Y-93764000D02*
X151804000Y-96354000D01*
X156796000Y-101346000D02*
X156796000Y-121616000D01*
X151804000Y-96354000D02*
X156796000Y-101346000D01*
X156796000Y-121616000D02*
X156884000Y-121704000D01*
X149264000Y-93764000D02*
X149264000Y-97116000D01*
X154344000Y-100496000D02*
X154344000Y-121704000D01*
X151130000Y-97282000D02*
X154344000Y-100496000D01*
X149430000Y-97282000D02*
X151130000Y-97282000D01*
X149264000Y-97116000D02*
X149430000Y-97282000D01*
X146724000Y-93764000D02*
X146724000Y-96686000D01*
X151804000Y-99226000D02*
X151804000Y-121704000D01*
X150876000Y-98298000D02*
X151804000Y-99226000D01*
X148336000Y-98298000D02*
X150876000Y-98298000D01*
X146724000Y-96686000D02*
X148336000Y-98298000D01*
X144184000Y-109004000D02*
X142024000Y-109004000D01*
X141644000Y-108624000D02*
X141644000Y-93764000D01*
X142024000Y-109004000D02*
X141644000Y-108624000D01*
X144184000Y-114084000D02*
X134912000Y-114084000D01*
X136564000Y-97878000D02*
X136564000Y-93764000D01*
X134366000Y-100076000D02*
X136564000Y-97878000D01*
X134366000Y-113538000D02*
X134366000Y-100076000D01*
X134912000Y-114084000D02*
X134366000Y-113538000D01*
X144184000Y-111544000D02*
X146596000Y-111544000D01*
X144184000Y-97194000D02*
X144184000Y-93764000D01*
X144526000Y-97536000D02*
X144184000Y-97194000D01*
X146304000Y-97536000D02*
X144526000Y-97536000D01*
X146812000Y-98044000D02*
X146304000Y-97536000D01*
X146812000Y-111328000D02*
X146812000Y-98044000D01*
X146596000Y-111544000D02*
X146812000Y-111328000D01*
X136564000Y-101384000D02*
X138900000Y-101384000D01*
X139104000Y-101180000D02*
X139104000Y-93764000D01*
X138900000Y-101384000D02*
X139104000Y-101180000D01*
X127420000Y-76962000D02*
X103886000Y-76962000D01*
X103544000Y-76620000D02*
X103544000Y-74714000D01*
X103886000Y-76962000D02*
X103544000Y-76620000D01*
X136564000Y-86144000D02*
X128054000Y-86144000D01*
X127420000Y-85510000D02*
X127420000Y-76962000D01*
X127420000Y-76962000D02*
X127420000Y-73444000D01*
X128054000Y-86144000D02*
X127420000Y-85510000D01*
X106084000Y-113576000D02*
X103544000Y-113576000D01*
X103632000Y-113538000D02*
X103544000Y-113538000D01*
X103582000Y-113538000D02*
X103632000Y-113538000D01*
X103544000Y-113576000D02*
X103582000Y-113538000D01*
X103544000Y-119926000D02*
X103544000Y-123736000D01*
X103544000Y-107226000D02*
X103544000Y-113538000D01*
X103544000Y-113538000D02*
X103544000Y-119926000D01*
X103544000Y-107226000D02*
X103544000Y-105244000D01*
X103544000Y-105244000D02*
X103632000Y-105156000D01*
X103632000Y-105156000D02*
X111760000Y-105156000D01*
X111760000Y-105156000D02*
X112434000Y-105830000D01*
X112434000Y-105830000D02*
X112434000Y-114084000D01*
X105195000Y-101384000D02*
X105195000Y-103339000D01*
X114974000Y-104814000D02*
X114974000Y-112522000D01*
X114974000Y-112522000D02*
X114974000Y-114084000D01*
X114300000Y-104140000D02*
X114974000Y-104814000D01*
X105996000Y-104140000D02*
X114300000Y-104140000D01*
X105195000Y-103339000D02*
X105996000Y-104140000D01*
X123864000Y-101384000D02*
X128562000Y-101384000D01*
X130302000Y-99644000D02*
X130302000Y-92367000D01*
X128562000Y-101384000D02*
X130302000Y-99644000D01*
X105195000Y-87414000D02*
X109182000Y-87414000D01*
X110147000Y-95923000D02*
X113704000Y-95923000D01*
X109474000Y-95250000D02*
X110147000Y-95923000D01*
X109474000Y-87706000D02*
X109474000Y-95250000D01*
X109182000Y-87414000D02*
X109474000Y-87706000D01*
X123864000Y-92367000D02*
X130302000Y-92367000D01*
X130302000Y-92367000D02*
X132931000Y-92367000D01*
X133820000Y-86144000D02*
X136564000Y-86144000D01*
X133604000Y-86360000D02*
X133820000Y-86144000D01*
X133604000Y-91694000D02*
X133604000Y-86360000D01*
X132931000Y-92367000D02*
X133604000Y-91694000D01*
M02*
