2017-08-31 00:00:03; 338.00; 2.92; 8.50
2017-08-31 00:00:15; 338.00; 2.92; 8.50
2017-08-31 00:00:28; 338.00; 2.92; 8.50
2017-08-31 00:00:40; 338.00; 2.92; 8.50
2017-08-31 00:00:52; 338.00; 2.92; 8.56
2017-08-31 00:15:08; 338.00; 2.92; 8.44
2017-08-31 00:15:20; 338.00; 2.92; 8.44
2017-08-31 00:15:33; 338.00; 2.92; 8.44
2017-08-31 00:15:45; 338.00; 2.92; 8.38
2017-08-31 00:15:57; 338.00; 2.92; 8.38
2017-08-31 00:30:02; 338.00; 2.92; 8.06
2017-08-31 00:30:14; 338.00; 2.92; 8.06
2017-08-31 00:30:27; 338.00; 2.92; 8.06
2017-08-31 00:30:39; 338.00; 2.92; 8.06
2017-08-31 00:30:51; 338.00; 2.92; 8.00
2017-08-31 00:45:07; 338.00; 2.92; 7.88
2017-08-31 00:45:20; 338.00; 2.92; 7.88
2017-08-31 00:45:32; 338.00; 2.92; 7.88
2017-08-31 00:45:44; 338.00; 2.92; 7.94
2017-08-31 00:45:57; 338.00; 2.92; 7.88
2017-08-31 01:00:01; 338.00; 2.92; 8.38
2017-08-31 01:00:13; 338.00; 2.92; 8.38
2017-08-31 01:00:26; 338.00; 2.92; 8.38
2017-08-31 01:00:38; 338.00; 2.92; 8.38
2017-08-31 01:00:51; 338.00; 2.92; 8.38
2017-08-31 01:15:06; 338.00; 2.92; 8.38
2017-08-31 01:15:19; 338.00; 2.92; 8.38
2017-08-31 01:15:31; 338.00; 2.92; 8.38
2017-08-31 01:15:43; 338.00; 2.92; 8.31
2017-08-31 01:15:56; 338.00; 2.92; 8.31
2017-08-31 01:30:11; 338.00; 2.92; 8.19
2017-08-31 01:30:24; 338.00; 2.92; 8.19
2017-08-31 01:30:36; 338.00; 2.92; 8.19
2017-08-31 01:30:48; 338.00; 2.92; 8.19
2017-08-31 01:45:04; 338.00; 2.92; 7.88
2017-08-31 01:45:16; 338.00; 2.92; 7.88
2017-08-31 01:45:29; 338.00; 2.92; 7.88
2017-08-31 01:45:41; 338.00; 2.92; 7.88
2017-08-31 01:45:54; 338.00; 2.92; 7.88
2017-08-31 02:00:09; 338.00; 2.92; 7.75
2017-08-31 02:00:22; 338.00; 2.92; 7.75
2017-08-31 02:00:34; 338.00; 2.92; 7.75
2017-08-31 02:00:47; 338.00; 2.91; 7.75
2017-08-31 02:00:59; 338.00; 2.92; 7.75
2017-08-31 02:15:04; 338.00; 2.92; 7.75
2017-08-31 02:15:16; 338.00; 2.92; 7.75
2017-08-31 02:15:28; 339.00; 2.91; 7.75
2017-08-31 02:15:41; 338.00; 2.92; 7.75
2017-08-31 02:15:53; 338.00; 2.92; 7.75
2017-08-31 02:30:09; 339.00; 2.91; 7.88
2017-08-31 02:30:21; 339.00; 2.91; 7.88
2017-08-31 02:30:34; 339.00; 2.91; 7.88
2017-08-31 02:30:46; 339.00; 2.91; 7.88
2017-08-31 02:30:58; 339.00; 2.91; 7.88
2017-08-31 02:45:03; 338.00; 2.92; 8.00
2017-08-31 02:45:15; 338.00; 2.92; 8.06
2017-08-31 02:45:28; 338.00; 2.92; 8.00
2017-08-31 02:45:40; 338.00; 2.92; 8.06
2017-08-31 02:45:52; 338.00; 2.92; 8.06
2017-08-31 03:00:08; 338.00; 2.92; 7.88
2017-08-31 03:00:21; 339.00; 2.91; 7.88
2017-08-31 03:00:33; 339.00; 2.91; 7.88
2017-08-31 03:00:45; 339.00; 2.91; 7.88
2017-08-31 03:00:58; 339.00; 2.91; 7.88
2017-08-31 03:15:02; 338.00; 2.91; 7.81
2017-08-31 03:15:15; 338.00; 2.92; 7.81
2017-08-31 03:15:27; 338.00; 2.92; 7.81
2017-08-31 03:15:39; 338.00; 2.92; 7.81
2017-08-31 03:15:52; 338.00; 2.92; 7.88
2017-08-31 03:30:08; 338.00; 2.92; 8.00
2017-08-31 03:30:20; 338.00; 2.92; 8.06
2017-08-31 03:30:32; 339.00; 2.91; 8.06
2017-08-31 03:30:45; 338.00; 2.92; 8.06
2017-08-31 03:30:57; 338.00; 2.92; 8.06
2017-08-31 03:45:01; 339.00; 2.91; 8.25
2017-08-31 03:45:14; 338.00; 2.92; 8.25
2017-08-31 03:45:26; 339.00; 2.91; 8.25
2017-08-31 03:45:39; 339.00; 2.91; 8.25
2017-08-31 03:45:51; 339.00; 2.91; 8.31
2017-08-31 04:00:07; 338.00; 2.92; 8.44
2017-08-31 04:00:19; 338.00; 2.92; 8.38
2017-08-31 04:00:31; 338.00; 2.92; 8.38
2017-08-31 04:00:44; 338.00; 2.92; 8.38
2017-08-31 04:00:56; 338.00; 2.92; 8.38
2017-08-31 04:15:12; 338.00; 2.91; 8.50
2017-08-31 04:15:24; 338.00; 2.92; 8.50
2017-08-31 04:15:37; 338.00; 2.92; 8.56
2017-08-31 04:15:49; 338.00; 2.92; 8.56
2017-08-31 04:30:05; 338.00; 2.92; 8.75
2017-08-31 04:30:17; 338.00; 2.92; 8.75
2017-08-31 04:30:29; 338.00; 2.92; 8.81
2017-08-31 04:30:42; 338.00; 2.92; 8.81
2017-08-31 04:30:54; 339.00; 2.91; 8.81
2017-08-31 04:45:10; 338.00; 2.92; 8.69
2017-08-31 04:45:22; 338.00; 2.91; 8.69
2017-08-31 04:45:34; 338.00; 2.92; 8.69
2017-08-31 04:45:47; 339.00; 2.91; 8.69
2017-08-31 04:45:59; 339.00; 2.91; 8.75
2017-08-31 05:00:03; 339.00; 2.92; 8.69
2017-08-31 05:00:16; 338.00; 2.92; 8.69
2017-08-31 05:00:28; 339.00; 2.91; 8.69
2017-08-31 05:00:41; 338.00; 2.92; 8.69
2017-08-31 05:00:53; 338.00; 2.92; 8.69
2017-08-31 05:15:09; 338.00; 2.92; 8.81
2017-08-31 05:15:21; 338.00; 2.92; 8.81
2017-08-31 05:15:33; 339.00; 2.91; 8.81
2017-08-31 05:15:46; 338.00; 2.92; 8.81
2017-08-31 05:15:58; 339.00; 2.91; 8.81
2017-08-31 05:30:03; 339.00; 2.91; 8.63
2017-08-31 05:30:15; 339.00; 2.91; 8.63
2017-08-31 05:30:27; 338.00; 2.92; 8.63
2017-08-31 05:30:40; 338.00; 2.92; 8.63
2017-08-31 05:30:52; 338.00; 2.92; 8.56
2017-08-31 05:45:08; 339.00; 2.91; 8.50
2017-08-31 05:45:20; 339.00; 2.91; 8.56
2017-08-31 05:45:33; 338.00; 2.92; 8.56
2017-08-31 05:45:45; 339.00; 2.91; 8.56
2017-08-31 05:45:57; 339.00; 2.91; 8.56
2017-08-31 06:00:02; 339.00; 2.91; 8.25
2017-08-31 06:00:14; 339.00; 2.91; 8.25
2017-08-31 06:00:26; 339.00; 2.91; 8.25
2017-08-31 06:00:39; 339.00; 2.91; 8.25
2017-08-31 06:00:51; 339.00; 2.91; 8.25
2017-08-31 06:15:07; 339.00; 2.91; 8.56
2017-08-31 06:15:19; 339.00; 2.91; 8.56
2017-08-31 06:15:31; 338.00; 2.92; 8.56
2017-08-31 06:15:44; 339.00; 2.91; 8.56
2017-08-31 06:15:56; 339.00; 2.91; 8.56
2017-08-31 06:30:01; 339.00; 2.91; 8.38
2017-08-31 06:30:13; 339.00; 2.91; 8.38
2017-08-31 06:30:25; 339.00; 2.91; 8.38
2017-08-31 06:30:38; 339.00; 2.91; 8.38
2017-08-31 06:30:50; 339.00; 2.91; 8.44
2017-08-31 06:45:06; 339.00; 2.91; 8.38
2017-08-31 06:45:18; 339.00; 2.91; 8.38
2017-08-31 06:45:30; 339.00; 2.91; 8.38
2017-08-31 06:45:43; 339.00; 2.91; 8.38
2017-08-31 06:45:55; 339.00; 2.91; 8.38
2017-08-31 07:00:11; 339.00; 2.92; 8.44
2017-08-31 07:00:23; 339.00; 2.91; 8.44
2017-08-31 07:00:36; 339.00; 2.91; 8.50
2017-08-31 07:00:48; 338.00; 2.92; 8.50
2017-08-31 07:01:00; 338.00; 2.92; 8.56
2017-08-31 07:15:05; 339.00; 2.91; 8.25
2017-08-31 07:15:17; 339.00; 2.91; 8.25
2017-08-31 07:15:29; 339.00; 2.91; 8.25
2017-08-31 07:15:42; 339.00; 2.91; 8.31
2017-08-31 07:15:54; 339.00; 2.91; 8.25
2017-08-31 07:30:10; 339.00; 2.91; 8.38
2017-08-31 07:30:22; 339.00; 2.91; 8.38
2017-08-31 07:30:34; 339.00; 2.91; 8.38
2017-08-31 07:30:47; 339.00; 2.91; 8.38
2017-08-31 07:30:59; 339.00; 2.91; 8.38
2017-08-31 07:45:04; 338.00; 2.92; 8.69
2017-08-31 07:45:16; 338.00; 2.92; 8.69
2017-08-31 07:45:28; 338.00; 2.91; 8.75
2017-08-31 07:45:41; 339.00; 2.91; 8.75
2017-08-31 07:45:53; 339.00; 2.91; 8.75
2017-08-31 08:00:09; 338.00; 2.92; 9.00
2017-08-31 08:00:21; 338.00; 2.92; 8.94
2017-08-31 08:00:34; 339.00; 2.91; 9.00
2017-08-31 08:00:46; 338.00; 2.91; 9.00
2017-08-31 08:00:58; 339.00; 2.91; 9.00
2017-08-31 08:15:03; 339.00; 2.91; 9.44
2017-08-31 08:15:15; 338.00; 2.91; 9.44
2017-08-31 08:15:27; 339.00; 2.91; 9.44
2017-08-31 08:15:40; 339.00; 2.91; 9.50
2017-08-31 08:15:52; 338.00; 2.92; 9.50
2017-08-31 08:30:08; 339.00; 2.92; 10.56
2017-08-31 08:30:20; 339.00; 2.91; 10.56
2017-08-31 08:30:33; 338.00; 2.92; 10.56
2017-08-31 08:30:45; 338.00; 2.92; 10.63
2017-08-31 08:30:57; 339.00; 2.91; 10.63
2017-08-31 08:45:01; 339.00; 2.91; 11.00
2017-08-31 08:45:14; 338.00; 2.92; 11.06
2017-08-31 08:45:26; 338.00; 2.92; 11.06
2017-08-31 08:45:39; 338.00; 2.92; 11.06
2017-08-31 08:45:51; 338.00; 2.92; 11.13
2017-08-31 09:00:06; 339.00; 2.91; 12.75
2017-08-31 09:00:19; 339.00; 2.91; 12.81
2017-08-31 09:00:31; 338.00; 2.92; 12.81
2017-08-31 09:00:43; 338.00; 2.92; 12.88
2017-08-31 09:00:56; 338.00; 2.92; 12.94
2017-08-31 09:15:11; 338.00; 2.92; 15.69
2017-08-31 09:15:23; 338.00; 2.92; 15.69
2017-08-31 09:15:35; 338.00; 2.92; 15.75
2017-08-31 09:15:48; 337.00; 2.93; 15.81
2017-08-31 09:16:00; 338.00; 2.92; 15.88
2017-08-31 09:30:04; 337.00; 2.92; 15.81
2017-08-31 09:30:16; 338.00; 2.92; 15.81
2017-08-31 09:30:28; 337.00; 2.93; 15.94
2017-08-31 09:30:41; 337.00; 2.93; 16.00
2017-08-31 09:30:53; 338.00; 2.92; 16.06
2017-08-31 09:45:08; 337.00; 2.93; 17.19
2017-08-31 09:45:20; 337.00; 2.94; 17.19
2017-08-31 09:45:33; 338.00; 2.92; 17.19
2017-08-31 09:45:45; 337.00; 2.93; 17.13
2017-08-31 09:45:58; 337.00; 2.92; 17.19
2017-08-31 10:00:01; 338.00; 2.92; 18.19
2017-08-31 10:00:13; 339.00; 2.91; 18.25
2017-08-31 10:00:26; 338.00; 2.92; 18.13
2017-08-31 10:00:38; 337.00; 2.93; 18.13
2017-08-31 10:00:51; 337.00; 2.93; 18.19
2017-08-31 10:15:06; 337.00; 2.93; 18.75
2017-08-31 10:15:18; 337.00; 2.93; 18.81
2017-08-31 10:15:31; 337.00; 2.93; 18.81
2017-08-31 10:15:43; 337.00; 2.94; 19.00
2017-08-31 10:15:55; 338.00; 2.93; 19.00
2017-08-31 10:30:10; 337.00; 2.93; 18.88
2017-08-31 10:30:23; 337.00; 2.93; 18.88
2017-08-31 10:30:35; 337.00; 2.93; 19.00
2017-08-31 10:30:47; 335.00; 2.95; 19.06
2017-08-31 10:31:00; 336.00; 2.95; 19.13
2017-08-31 10:45:03; 335.00; 2.95; 20.25
2017-08-31 10:45:16; 336.00; 2.94; 20.19
2017-08-31 10:45:28; 337.00; 2.93; 20.00
2017-08-31 10:45:40; 337.00; 2.93; 20.00
2017-08-31 10:45:53; 338.00; 2.92; 20.00
2017-08-31 11:00:08; 335.00; 2.95; 20.13
2017-08-31 11:00:20; 337.00; 2.93; 20.06
2017-08-31 11:00:32; 335.00; 2.95; 20.13
2017-08-31 11:00:45; 335.00; 2.95; 20.00
2017-08-31 11:00:57; 336.00; 2.95; 20.13
2017-08-31 11:15:12; 336.00; 2.94; 21.00
2017-08-31 11:15:24; 336.00; 2.95; 20.94
2017-08-31 11:15:37; 336.00; 2.93; 21.00
2017-08-31 11:15:49; 336.00; 2.94; 21.06
2017-08-31 11:30:04; 335.00; 2.95; 21.19
2017-08-31 11:30:16; 334.00; 2.96; 21.19
2017-08-31 11:30:28; 336.00; 2.94; 21.19
2017-08-31 11:30:41; 336.00; 2.94; 21.13
2017-08-31 11:30:53; 335.00; 2.95; 21.00
2017-08-31 11:45:08; 336.00; 2.94; 20.94
2017-08-31 11:45:21; 335.00; 2.95; 21.06
2017-08-31 11:45:33; 337.00; 2.93; 21.00
2017-08-31 11:45:45; 335.00; 2.95; 21.06
2017-08-31 11:45:58; 335.00; 2.95; 21.13
2017-08-31 12:00:01; 335.00; 2.95; 20.88
2017-08-31 12:00:14; 336.00; 2.94; 20.88
2017-08-31 12:00:26; 336.00; 2.94; 20.94
2017-08-31 12:00:38; 335.00; 2.95; 20.94
2017-08-31 12:00:51; 336.00; 2.94; 20.94
2017-08-31 12:15:06; 336.00; 2.94; 20.56
2017-08-31 12:15:18; 336.00; 2.94; 20.63
2017-08-31 12:15:30; 335.00; 2.95; 20.56
2017-08-31 12:15:43; 336.00; 2.94; 20.50
2017-08-31 12:15:55; 337.00; 2.93; 20.56
2017-08-31 12:30:10; 337.00; 2.93; 21.13
2017-08-31 12:30:22; 335.00; 2.95; 21.19
2017-08-31 12:30:35; 337.00; 2.93; 21.25
2017-08-31 12:30:47; 336.00; 2.94; 21.19
2017-08-31 12:30:59; 336.00; 2.94; 21.19
2017-08-31 12:45:03; 336.00; 2.94; 22.88
2017-08-31 12:45:15; 335.00; 2.95; 22.75
2017-08-31 12:45:27; 336.00; 2.93; 22.81
2017-08-31 12:45:40; 336.00; 2.95; 22.69
2017-08-31 12:45:52; 336.00; 2.94; 22.75
2017-08-31 13:00:07; 336.00; 2.94; 24.38
2017-08-31 13:00:19; 335.00; 2.96; 24.44
2017-08-31 13:00:32; 334.00; 2.96; 24.56
2017-08-31 13:00:44; 335.00; 2.95; 24.44
2017-08-31 13:00:56; 336.00; 2.94; 24.38
2017-08-31 13:15:11; 335.00; 2.95; 22.56
2017-08-31 13:15:24; 336.00; 2.94; 22.50
2017-08-31 13:15:36; 336.00; 2.94; 22.63
2017-08-31 13:15:48; 337.00; 2.93; 22.63
2017-08-31 13:30:03; 337.00; 2.92; 24.50
2017-08-31 13:30:15; 336.00; 2.94; 24.44
2017-08-31 13:30:28; 334.00; 2.95; 24.50
2017-08-31 13:30:40; 336.00; 2.94; 24.63
2017-08-31 13:30:52; 335.00; 2.95; 24.63
2017-08-31 13:45:07; 335.00; 2.95; 24.88
2017-08-31 13:45:20; 335.00; 2.95; 24.94
2017-08-31 13:45:32; 334.00; 2.96; 25.06
2017-08-31 13:45:44; 336.00; 2.93; 25.06
2017-08-31 13:45:57; 334.00; 2.96; 25.19
2017-08-31 14:00:11; 336.00; 2.94; 23.06
2017-08-31 14:00:24; 335.00; 2.95; 23.13
2017-08-31 14:00:36; 337.00; 2.93; 23.13
2017-08-31 14:00:49; 336.00; 2.95; 23.00
2017-08-31 14:15:03; 335.00; 2.96; 22.13
2017-08-31 14:15:16; 335.00; 2.95; 22.13
2017-08-31 14:15:28; 335.00; 2.95; 22.06
2017-08-31 14:15:41; 336.00; 2.94; 22.06
2017-08-31 14:15:53; 336.00; 2.95; 22.13
2017-08-31 14:30:08; 334.00; 2.96; 23.75
2017-08-31 14:30:20; 334.00; 2.95; 23.75
2017-08-31 14:30:33; 334.00; 2.96; 23.75
2017-08-31 14:30:45; 336.00; 2.94; 23.88
2017-08-31 14:30:57; 335.00; 2.96; 23.88
2017-08-31 14:45:01; 335.00; 2.94; 22.13
2017-08-31 14:45:13; 336.00; 2.94; 22.06
2017-08-31 14:45:25; 335.00; 2.94; 22.00
2017-08-31 14:45:38; 334.00; 2.96; 22.00
2017-08-31 14:45:50; 335.00; 2.95; 21.81
2017-08-31 15:00:05; 336.00; 2.95; 22.31
2017-08-31 15:00:17; 335.00; 2.95; 22.25
2017-08-31 15:00:29; 335.00; 2.95; 22.31
2017-08-31 15:00:42; 334.00; 2.96; 22.31
2017-08-31 15:00:54; 335.00; 2.95; 22.44
2017-08-31 15:15:09; 335.00; 2.95; 22.81
2017-08-31 15:15:21; 335.00; 2.95; 22.88
2017-08-31 15:15:33; 336.00; 2.94; 22.88
2017-08-31 15:15:46; 334.00; 2.96; 23.06
2017-08-31 15:15:58; 336.00; 2.94; 23.06
2017-08-31 15:30:01; 336.00; 2.95; 22.44
2017-08-31 15:30:14; 335.00; 2.95; 22.56
2017-08-31 15:30:26; 335.00; 2.95; 22.50
2017-08-31 15:30:38; 334.00; 2.96; 22.56
2017-08-31 15:30:51; 336.00; 2.94; 22.38
2017-08-31 15:45:05; 335.00; 2.95; 21.56
2017-08-31 15:45:18; 336.00; 2.93; 21.50
2017-08-31 15:45:30; 335.00; 2.95; 21.56
2017-08-31 15:45:43; 335.00; 2.95; 21.50
2017-08-31 15:45:55; 335.00; 2.95; 21.50
2017-08-31 16:00:09; 336.00; 2.94; 20.94
2017-08-31 16:00:22; 335.00; 2.95; 21.00
2017-08-31 16:00:34; 335.00; 2.95; 21.00
2017-08-31 16:00:47; 336.00; 2.95; 21.00
2017-08-31 16:00:59; 334.00; 2.96; 21.00
2017-08-31 16:15:02; 335.00; 2.95; 20.94
2017-08-31 16:15:15; 335.00; 2.95; 21.00
2017-08-31 16:15:27; 334.00; 2.96; 21.06
2017-08-31 16:15:39; 335.00; 2.95; 21.13
2017-08-31 16:15:52; 335.00; 2.95; 21.13
2017-08-31 16:30:07; 335.00; 2.94; 21.13
2017-08-31 16:30:19; 334.00; 2.96; 21.00
2017-08-31 16:30:32; 335.00; 2.95; 21.06
2017-08-31 16:30:44; 336.00; 2.94; 21.06
2017-08-31 16:30:56; 335.00; 2.95; 21.13
2017-08-31 16:45:11; 335.00; 2.95; 20.50
2017-08-31 16:45:24; 335.00; 2.95; 20.56
2017-08-31 16:45:36; 336.00; 2.95; 20.50
2017-08-31 16:45:48; 334.00; 2.96; 20.50
2017-08-31 17:00:03; 335.00; 2.95; 19.81
2017-08-31 17:00:16; 334.00; 2.95; 19.81
2017-08-31 17:00:28; 336.00; 2.94; 19.88
2017-08-31 17:00:40; 335.00; 2.95; 19.88
2017-08-31 17:00:53; 334.00; 2.96; 19.88
2017-08-31 17:15:08; 335.00; 2.95; 19.25
2017-08-31 17:15:20; 335.00; 2.95; 19.25
2017-08-31 17:15:32; 335.00; 2.95; 19.25
2017-08-31 17:15:45; 335.00; 2.95; 19.31
2017-08-31 17:15:57; 335.00; 2.95; 19.25
2017-08-31 17:30:12; 335.00; 2.95; 18.81
2017-08-31 17:30:24; 335.00; 2.95; 18.81
2017-08-31 17:30:36; 334.00; 2.96; 18.81
2017-08-31 17:30:49; 334.00; 2.95; 18.75
2017-08-31 17:45:04; 334.00; 2.97; 18.56
2017-08-31 17:45:16; 335.00; 2.95; 18.56
2017-08-31 17:45:28; 335.00; 2.95; 18.56
2017-08-31 17:45:41; 334.00; 2.96; 18.56
2017-08-31 17:45:53; 335.00; 2.95; 18.63
2017-08-31 18:00:08; 334.00; 2.96; 18.31
2017-08-31 18:00:20; 335.00; 2.95; 18.31
2017-08-31 18:00:32; 335.00; 2.95; 18.31
2017-08-31 18:00:45; 335.00; 2.95; 18.31
2017-08-31 18:00:57; 335.00; 2.95; 18.31
2017-08-31 18:15:12; 335.00; 2.95; 17.94
2017-08-31 18:15:24; 336.00; 2.94; 17.94
2017-08-31 18:15:37; 335.00; 2.95; 17.88
2017-08-31 18:15:49; 335.00; 2.95; 17.94
2017-08-31 18:30:04; 336.00; 2.94; 17.38
2017-08-31 18:30:16; 336.00; 2.94; 17.38
2017-08-31 18:30:29; 336.00; 2.94; 17.38
2017-08-31 18:30:41; 336.00; 2.94; 17.38
2017-08-31 18:30:53; 335.00; 2.95; 17.38
2017-08-31 18:45:09; 336.00; 2.94; 16.56
2017-08-31 18:45:21; 335.00; 2.94; 16.50
2017-08-31 18:45:33; 335.00; 2.95; 16.50
2017-08-31 18:45:46; 335.00; 2.95; 16.50
2017-08-31 18:45:58; 335.00; 2.95; 16.50
2017-08-31 19:00:02; 336.00; 2.94; 15.75
2017-08-31 19:00:14; 336.00; 2.94; 15.75
2017-08-31 19:00:27; 335.00; 2.95; 15.75
2017-08-31 19:00:39; 335.00; 2.95; 15.75
2017-08-31 19:00:51; 335.00; 2.94; 15.75
2017-08-31 19:15:06; 335.00; 2.95; 15.38
2017-08-31 19:15:18; 335.00; 2.95; 15.38
2017-08-31 19:15:31; 335.00; 2.96; 15.38
2017-08-31 19:15:43; 335.00; 2.95; 15.38
2017-08-31 19:15:55; 335.00; 2.95; 15.38
2017-08-31 19:30:09; 335.00; 2.95; 15.38
2017-08-31 19:30:21; 335.00; 2.95; 15.44
2017-08-31 19:30:33; 334.00; 2.96; 15.38
2017-08-31 19:30:46; 334.00; 2.96; 15.38
2017-08-31 19:30:58; 334.00; 2.96; 15.38
2017-08-31 19:45:12; 335.00; 2.95; 15.56
2017-08-31 19:45:24; 334.00; 2.96; 15.56
2017-08-31 19:45:36; 334.00; 2.96; 15.56
2017-08-31 19:45:49; 334.00; 2.96; 15.56
2017-08-31 20:00:02; 334.00; 2.96; 15.56
2017-08-31 20:00:14; 334.00; 2.96; 15.56
2017-08-31 20:00:27; 334.00; 2.96; 15.63
2017-08-31 20:00:39; 334.00; 2.96; 15.63
2017-08-31 20:00:51; 335.00; 2.95; 15.63
2017-08-31 20:15:05; 334.00; 2.96; 15.50
2017-08-31 20:15:17; 335.00; 2.95; 15.44
2017-08-31 20:15:30; 334.00; 2.96; 15.44
2017-08-31 20:15:42; 334.00; 2.96; 15.44
2017-08-31 20:15:54; 334.00; 2.96; 15.50
2017-08-31 20:30:08; 335.00; 2.95; 15.13
2017-08-31 20:30:20; 335.00; 2.95; 15.13
2017-08-31 20:30:33; 334.00; 2.96; 15.13
2017-08-31 20:30:45; 335.00; 2.95; 15.13
2017-08-31 20:30:58; 335.00; 2.95; 15.13
2017-08-31 20:45:01; 335.00; 2.95; 14.88
2017-08-31 20:45:14; 335.00; 2.95; 14.81
2017-08-31 20:45:26; 335.00; 2.95; 14.88
2017-08-31 20:45:39; 335.00; 2.94; 14.88
2017-08-31 20:45:51; 336.00; 2.94; 14.88
2017-08-31 21:00:06; 336.00; 2.94; 14.88
2017-08-31 21:00:19; 336.00; 2.94; 14.88
2017-08-31 21:00:31; 336.00; 2.95; 14.88
2017-08-31 21:00:43; 336.00; 2.94; 14.88
2017-08-31 21:00:56; 336.00; 2.94; 14.88
2017-08-31 21:15:11; 335.00; 2.95; 15.06
2017-08-31 21:15:23; 335.00; 2.95; 15.06
2017-08-31 21:15:36; 335.00; 2.95; 15.06
2017-08-31 21:15:48; 335.00; 2.95; 15.06
2017-08-31 21:30:03; 335.00; 2.95; 14.88
2017-08-31 21:30:16; 336.00; 2.95; 14.94
2017-08-31 21:30:28; 336.00; 2.95; 14.94
2017-08-31 21:30:40; 336.00; 2.94; 14.94
2017-08-31 21:30:53; 336.00; 2.94; 14.94
2017-08-31 21:45:08; 335.00; 2.95; 14.81
2017-08-31 21:45:20; 336.00; 2.94; 14.81
2017-08-31 21:45:33; 336.00; 2.94; 14.81
2017-08-31 21:45:45; 336.00; 2.94; 14.81
2017-08-31 21:45:58; 335.00; 2.95; 14.81
2017-08-31 22:00:01; 336.00; 2.94; 14.75
2017-08-31 22:00:14; 335.00; 2.95; 14.75
2017-08-31 22:00:26; 335.00; 2.95; 14.75
2017-08-31 22:00:38; 335.00; 2.94; 14.75
2017-08-31 22:00:51; 335.00; 2.95; 14.75
2017-08-31 22:15:06; 336.00; 2.94; 14.63
2017-08-31 22:15:18; 336.00; 2.94; 14.63
2017-08-31 22:15:31; 336.00; 2.94; 14.63
2017-08-31 22:15:43; 335.00; 2.95; 14.63
2017-08-31 22:15:55; 336.00; 2.94; 14.63
2017-08-31 22:30:11; 335.00; 2.95; 14.63
2017-08-31 22:30:23; 335.00; 2.94; 14.63
2017-08-31 22:30:35; 335.00; 2.95; 14.63
2017-08-31 22:30:48; 335.00; 2.95; 14.63
2017-08-31 22:31:00; 336.00; 2.94; 14.63
2017-08-31 22:45:04; 336.00; 2.94; 14.56
2017-08-31 22:45:16; 336.00; 2.94; 14.56
2017-08-31 22:45:29; 335.00; 2.95; 14.56
2017-08-31 22:45:41; 336.00; 2.94; 14.56
2017-08-31 22:45:53; 335.00; 2.94; 14.56
2017-08-31 23:00:09; 336.00; 2.95; 14.50
2017-08-31 23:00:21; 335.00; 2.95; 14.50
2017-08-31 23:00:33; 336.00; 2.94; 14.50
2017-08-31 23:00:46; 336.00; 2.94; 14.50
2017-08-31 23:00:58; 336.00; 2.94; 14.50
2017-08-31 23:15:02; 335.00; 2.94; 14.50
2017-08-31 23:15:14; 336.00; 2.95; 14.50
2017-08-31 23:15:27; 336.00; 2.95; 14.50
2017-08-31 23:15:39; 336.00; 2.94; 14.50
2017-08-31 23:15:52; 336.00; 2.94; 14.50
2017-08-31 23:30:07; 335.00; 2.95; 14.25
2017-08-31 23:30:19; 336.00; 2.94; 14.25
2017-08-31 23:30:31; 336.00; 2.94; 14.25
2017-08-31 23:30:44; 335.00; 2.95; 14.25
2017-08-31 23:30:56; 335.00; 2.95; 14.25
2017-08-31 23:45:12; 336.00; 2.94; 14.25
2017-08-31 23:45:24; 336.00; 2.95; 14.25
2017-08-31 23:45:36; 335.00; 2.95; 14.31
2017-08-31 23:45:49; 336.00; 2.94; 14.31
2017-09-01 00:00:04; 336.00; 2.94; 14.19
2017-09-01 00:00:16; 336.00; 2.94; 14.19
2017-09-01 00:00:29; 336.00; 2.94; 14.25
2017-09-01 00:00:41; 336.00; 2.94; 14.25
2017-09-01 00:00:53; 335.00; 2.95; 14.19
2017-09-01 00:15:09; 336.00; 2.95; 14.13
2017-09-01 00:15:21; 336.00; 2.94; 14.13
2017-09-01 00:15:34; 336.00; 2.95; 14.06
2017-09-01 00:15:46; 336.00; 2.94; 14.06
2017-09-01 00:15:58; 336.00; 2.94; 14.06
2017-09-01 00:30:02; 335.00; 2.95; 13.94
2017-09-01 00:30:14; 336.00; 2.94; 14.00
2017-09-01 00:30:27; 336.00; 2.94; 13.94
2017-09-01 00:30:39; 336.00; 2.94; 13.94
2017-09-01 00:30:52; 336.00; 2.94; 13.94
2017-09-01 00:45:07; 335.00; 2.95; 13.88
2017-09-01 00:45:20; 335.00; 2.94; 13.88
2017-09-01 00:45:32; 336.00; 2.94; 13.88
2017-09-01 00:45:44; 336.00; 2.94; 13.88
2017-09-01 00:45:57; 336.00; 2.94; 13.88
2017-09-01 01:00:01; 336.00; 2.94; 14.00
2017-09-01 01:00:14; 336.00; 2.94; 14.00
2017-09-01 01:00:26; 335.00; 2.95; 14.00
2017-09-01 01:00:38; 337.00; 2.93; 14.00
2017-09-01 01:00:51; 335.00; 2.95; 14.00
2017-09-01 01:15:06; 336.00; 2.94; 14.00
2017-09-01 01:15:19; 335.00; 2.95; 14.00
2017-09-01 01:15:31; 336.00; 2.94; 14.00
2017-09-01 01:15:43; 336.00; 2.94; 13.94
2017-09-01 01:15:56; 336.00; 2.94; 13.94
2017-09-01 01:30:11; 335.00; 2.95; 13.88
2017-09-01 01:30:24; 336.00; 2.93; 13.94
2017-09-01 01:30:36; 337.00; 2.94; 13.94
2017-09-01 01:30:48; 335.00; 2.95; 13.94
2017-09-01 01:45:04; 337.00; 2.93; 14.00
2017-09-01 01:45:17; 336.00; 2.95; 14.00
2017-09-01 01:45:29; 337.00; 2.94; 14.00
2017-09-01 01:45:41; 335.00; 2.95; 14.00
2017-09-01 01:45:54; 335.00; 2.95; 14.00
2017-09-01 02:00:10; 336.00; 2.94; 13.88
2017-09-01 02:00:22; 336.00; 2.94; 13.88
2017-09-01 02:00:34; 336.00; 2.94; 13.88
2017-09-01 02:00:47; 336.00; 2.94; 13.88
2017-09-01 02:00:59; 336.00; 2.95; 13.88
2017-09-01 02:15:04; 336.00; 2.94; 13.81
2017-09-01 02:15:16; 336.00; 2.94; 13.81
2017-09-01 02:15:29; 337.00; 2.93; 13.81
2017-09-01 02:15:41; 336.00; 2.94; 13.81
2017-09-01 02:15:54; 335.00; 2.94; 13.81
2017-09-01 02:30:09; 336.00; 2.94; 13.81
2017-09-01 02:30:22; 338.00; 2.93; 13.81
2017-09-01 02:30:34; 336.00; 2.94; 13.81
2017-09-01 02:30:46; 337.00; 2.93; 13.81
2017-09-01 02:30:59; 336.00; 2.94; 13.81
2017-09-01 02:45:03; 336.00; 2.94; 13.81
2017-09-01 02:45:15; 336.00; 2.94; 13.81
2017-09-01 02:45:28; 337.00; 2.93; 13.81
2017-09-01 02:45:40; 336.00; 2.94; 13.81
2017-09-01 02:45:52; 336.00; 2.93; 13.88
2017-09-01 03:00:08; 336.00; 2.94; 13.88
2017-09-01 03:00:20; 335.00; 2.95; 13.88
2017-09-01 03:00:33; 335.00; 2.95; 13.94
2017-09-01 03:00:45; 336.00; 2.94; 13.88
2017-09-01 03:00:58; 337.00; 2.94; 13.88
2017-09-01 03:15:02; 335.00; 2.95; 14.00
2017-09-01 03:15:15; 336.00; 2.94; 14.06
2017-09-01 03:15:27; 336.00; 2.94; 14.06
2017-09-01 03:15:39; 337.00; 2.93; 14.06
2017-09-01 03:15:52; 336.00; 2.94; 14.06
2017-09-01 03:30:07; 334.00; 2.95; 14.31
2017-09-01 03:30:19; 335.00; 2.95; 14.31
2017-09-01 03:30:32; 335.00; 2.95; 14.31
2017-09-01 03:30:44; 336.00; 2.95; 14.31
2017-09-01 03:30:57; 335.00; 2.95; 14.31
2017-09-01 03:45:01; 336.00; 2.94; 14.31
2017-09-01 03:45:13; 335.00; 2.95; 14.31
2017-09-01 03:45:25; 335.00; 2.95; 14.31
2017-09-01 03:45:38; 334.00; 2.96; 14.31
2017-09-01 03:45:50; 335.00; 2.96; 14.31
2017-09-01 04:00:06; 335.00; 2.95; 14.31
2017-09-01 04:00:18; 335.00; 2.95; 14.31
2017-09-01 04:00:30; 334.00; 2.96; 14.31
2017-09-01 04:00:43; 334.00; 2.95; 14.31
2017-09-01 04:00:55; 335.00; 2.96; 14.38
2017-09-01 04:15:10; 334.00; 2.96; 14.63
2017-09-01 04:15:23; 336.00; 2.94; 14.63
2017-09-01 04:15:35; 335.00; 2.95; 14.63
2017-09-01 04:15:48; 336.00; 2.94; 14.63
2017-09-01 04:16:00; 334.00; 2.96; 14.69
2017-09-01 04:30:04; 335.00; 2.95; 14.69
2017-09-01 04:30:16; 335.00; 2.95; 14.69
2017-09-01 04:30:29; 335.00; 2.96; 14.69
2017-09-01 04:30:41; 333.00; 2.97; 14.69
2017-09-01 04:30:53; 335.00; 2.94; 14.69
2017-09-01 04:45:09; 334.00; 2.97; 14.75
2017-09-01 04:45:21; 333.00; 2.97; 14.75
2017-09-01 04:45:33; 337.00; 2.94; 14.75
2017-09-01 04:45:46; 334.00; 2.96; 14.81
2017-09-01 04:45:58; 336.00; 2.94; 14.81
2017-09-01 05:00:02; 335.00; 2.95; 14.75
2017-09-01 05:00:15; 334.00; 2.96; 14.75
2017-09-01 05:00:27; 333.00; 2.97; 14.75
2017-09-01 05:00:39; 333.00; 2.97; 14.75
2017-09-01 05:00:52; 335.00; 2.96; 14.75
2017-09-01 05:15:07; 333.00; 2.97; 14.63
2017-09-01 05:15:20; 331.00; 2.99; 14.63
2017-09-01 05:15:32; 336.00; 2.94; 14.56
2017-09-01 05:15:44; 334.00; 2.97; 14.63
2017-09-01 05:15:57; 335.00; 2.95; 14.63
2017-09-01 05:30:01; 335.00; 2.95; 14.50
2017-09-01 05:30:13; 333.00; 2.97; 14.50
2017-09-01 05:30:25; 334.00; 2.96; 14.50
2017-09-01 05:30:38; 334.00; 2.96; 14.50
2017-09-01 05:30:50; 336.00; 2.94; 14.50
2017-09-01 05:45:06; 337.00; 2.93; 14.50
2017-09-01 05:45:18; 335.00; 2.95; 14.50
2017-09-01 05:45:31; 334.00; 2.95; 14.50
2017-09-01 05:45:43; 334.00; 2.95; 14.50
2017-09-01 05:45:55; 334.00; 2.96; 14.50
2017-09-01 06:00:11; 336.00; 2.95; 14.50
2017-09-01 06:00:23; 335.00; 2.95; 14.50
2017-09-01 06:00:35; 337.00; 2.93; 14.50
2017-09-01 06:00:48; 334.00; 2.96; 14.50
2017-09-01 06:01:00; 337.00; 2.94; 14.44
2017-09-01 06:15:04; 338.00; 2.93; 14.19
2017-09-01 06:15:17; 336.00; 2.93; 14.19
2017-09-01 06:15:29; 337.00; 2.93; 14.19
2017-09-01 06:15:41; 336.00; 2.94; 14.19
2017-09-01 06:15:54; 335.00; 2.94; 14.19
2017-09-01 06:30:10; 336.00; 2.94; 13.81
2017-09-01 06:30:22; 336.00; 2.94; 13.81
2017-09-01 06:30:34; 337.00; 2.93; 13.81
2017-09-01 06:30:47; 335.00; 2.94; 13.81
2017-09-01 06:30:59; 336.00; 2.94; 13.81
2017-09-01 06:45:03; 336.00; 2.94; 13.56
2017-09-01 06:45:16; 336.00; 2.94; 13.50
2017-09-01 06:45:28; 337.00; 2.93; 13.50
2017-09-01 06:45:40; 335.00; 2.95; 13.50
2017-09-01 06:45:53; 336.00; 2.94; 13.50
2017-09-01 07:00:08; 337.00; 2.94; 13.38
2017-09-01 07:00:20; 337.00; 2.92; 13.38
2017-09-01 07:00:33; 336.00; 2.94; 13.38
2017-09-01 07:00:45; 337.00; 2.93; 13.38
2017-09-01 07:00:58; 337.00; 2.92; 13.38
2017-09-01 07:15:02; 336.00; 2.94; 13.25
2017-09-01 07:15:14; 337.00; 2.93; 13.31
2017-09-01 07:15:26; 336.00; 2.95; 13.31
2017-09-01 07:15:39; 336.00; 2.94; 13.31
2017-09-01 07:15:51; 336.00; 2.94; 13.31
2017-09-01 07:30:07; 337.00; 2.93; 13.44
2017-09-01 07:30:19; 336.00; 2.94; 13.38
2017-09-01 07:30:31; 336.00; 2.94; 13.38
2017-09-01 07:30:44; 337.00; 2.94; 13.38
2017-09-01 07:30:56; 336.00; 2.94; 13.38
2017-09-01 07:45:11; 336.00; 2.93; 13.63
2017-09-01 07:45:24; 337.00; 2.94; 13.56
2017-09-01 07:45:36; 336.00; 2.94; 13.63
2017-09-01 07:45:49; 336.00; 2.94; 13.63
2017-09-01 08:00:04; 336.00; 2.94; 13.88
2017-09-01 08:00:17; 337.00; 2.93; 13.88
2017-09-01 08:00:29; 335.00; 2.95; 13.88
2017-09-01 08:00:41; 335.00; 2.95; 13.94
2017-09-01 08:00:54; 337.00; 2.93; 13.94
2017-09-01 08:15:09; 336.00; 2.93; 14.50
2017-09-01 08:15:22; 336.00; 2.94; 14.50
2017-09-01 08:15:34; 336.00; 2.95; 14.50
2017-09-01 08:15:46; 335.00; 2.95; 14.56
2017-09-01 08:15:59; 336.00; 2.94; 14.56
2017-09-01 08:30:03; 337.00; 2.93; 15.38
2017-09-01 08:30:15; 336.00; 2.94; 15.38
2017-09-01 08:30:27; 338.00; 2.93; 15.38
2017-09-01 08:30:40; 335.00; 2.95; 15.38
2017-09-01 08:30:52; 336.00; 2.94; 15.38
2017-09-01 08:45:07; 334.00; 2.96; 15.50
2017-09-01 08:45:20; 335.00; 2.95; 15.50
2017-09-01 08:45:32; 335.00; 2.95; 15.50
2017-09-01 08:45:45; 335.00; 2.95; 15.50
2017-09-01 08:45:57; 336.00; 2.94; 15.56
2017-09-01 09:00:01; 336.00; 2.94; 17.19
2017-09-01 09:00:13; 336.00; 2.94; 17.19
2017-09-01 09:00:25; 335.00; 2.95; 17.25
2017-09-01 09:00:38; 337.00; 2.94; 17.25
2017-09-01 09:00:50; 335.00; 2.95; 17.25
2017-09-01 09:15:05; 335.00; 2.95; 18.56
2017-09-01 09:15:18; 336.00; 2.94; 18.63
2017-09-01 09:15:30; 335.00; 2.95; 18.63
2017-09-01 09:15:42; 336.00; 2.94; 18.56
2017-09-01 09:15:55; 335.00; 2.95; 18.63
2017-09-01 09:30:10; 334.00; 2.96; 19.00
2017-09-01 09:30:22; 334.00; 2.96; 19.00
2017-09-01 09:30:34; 336.00; 2.94; 19.00
2017-09-01 09:30:47; 336.00; 2.94; 19.00
2017-09-01 09:30:59; 334.00; 2.95; 19.13
2017-09-01 09:45:02; 335.00; 2.95; 19.94
2017-09-01 09:45:15; 336.00; 2.93; 19.94
2017-09-01 09:45:27; 335.00; 2.95; 19.94
2017-09-01 09:45:40; 335.00; 2.94; 20.00
2017-09-01 09:45:52; 335.00; 2.95; 20.00
2017-09-01 10:00:07; 336.00; 2.95; 20.44
2017-09-01 10:00:19; 335.00; 2.95; 20.50
2017-09-01 10:00:31; 335.00; 2.95; 20.56
2017-09-01 10:00:44; 335.00; 2.95; 20.63
2017-09-01 10:00:56; 334.00; 2.95; 20.69
2017-09-01 10:15:11; 335.00; 2.95; 21.19
2017-09-01 10:15:23; 334.00; 2.96; 21.13
2017-09-01 10:15:36; 336.00; 2.94; 21.06
2017-09-01 10:15:48; 334.00; 2.96; 21.00
2017-09-01 10:16:00; 333.00; 2.95; 20.94
2017-09-01 10:30:04; 334.00; 2.96; 21.44
2017-09-01 10:30:16; 335.00; 2.95; 21.44
2017-09-01 10:30:28; 336.00; 2.94; 21.44
2017-09-01 10:30:41; 335.00; 2.95; 21.50
2017-09-01 10:30:53; 335.00; 2.95; 21.50
2017-09-01 10:45:08; 334.00; 2.95; 22.81
2017-09-01 10:45:20; 335.00; 2.95; 22.75
2017-09-01 10:45:32; 334.00; 2.95; 22.88
2017-09-01 10:45:45; 335.00; 2.95; 22.94
2017-09-01 10:45:57; 335.00; 2.95; 23.00
2017-09-01 11:00:01; 335.00; 2.95; 23.38
2017-09-01 11:00:13; 335.00; 2.95; 23.38
2017-09-01 11:00:25; 335.00; 2.95; 23.38
2017-09-01 11:00:38; 336.00; 2.95; 23.31
2017-09-01 11:00:50; 334.00; 2.96; 23.44
2017-09-01 11:15:05; 334.00; 2.96; 25.19
2017-09-01 11:15:17; 334.00; 2.96; 25.31
2017-09-01 11:15:29; 334.00; 2.96; 25.38
2017-09-01 11:15:42; 333.00; 2.97; 25.44
2017-09-01 11:15:54; 333.00; 2.97; 25.31
2017-09-01 11:30:08; 334.00; 2.97; 25.38
2017-09-01 11:30:21; 333.00; 2.97; 25.31
2017-09-01 11:30:33; 334.00; 2.97; 25.31
2017-09-01 11:30:45; 333.00; 2.97; 25.38
2017-09-01 11:30:58; 335.00; 2.96; 25.44
2017-09-01 11:45:01; 334.00; 2.96; 25.00
2017-09-01 11:45:13; 335.00; 2.95; 24.81
2017-09-01 11:45:26; 334.00; 2.96; 24.81
2017-09-01 11:45:38; 332.00; 2.98; 25.00
2017-09-01 11:45:50; 331.00; 2.99; 25.06
2017-09-01 12:00:05; 336.00; 2.94; 25.69
2017-09-01 12:00:17; 335.00; 2.95; 25.63
2017-09-01 12:00:30; 333.00; 2.97; 25.56
2017-09-01 12:00:42; 331.00; 2.99; 25.56
2017-09-01 12:00:54; 332.00; 2.98; 25.63
2017-09-01 12:15:09; 334.00; 2.96; 26.25
2017-09-01 12:15:21; 333.00; 2.97; 26.44
2017-09-01 12:15:34; 332.00; 2.98; 26.50
2017-09-01 12:15:46; 332.00; 2.98; 26.50
2017-09-01 12:15:58; 332.00; 2.98; 26.50
2017-09-01 12:30:01; 334.00; 2.96; 27.06
2017-09-01 12:30:14; 334.00; 2.96; 27.13
2017-09-01 12:30:26; 334.00; 2.96; 27.31
2017-09-01 12:30:38; 332.00; 2.98; 27.31
2017-09-01 12:30:51; 333.00; 2.97; 27.06
2017-09-01 12:45:05; 332.00; 2.98; 28.56
2017-09-01 12:45:17; 332.00; 2.98; 28.75
2017-09-01 12:45:30; 333.00; 2.97; 28.81
2017-09-01 12:45:42; 332.00; 2.98; 28.81
2017-09-01 12:45:55; 332.00; 2.98; 28.88
2017-09-01 13:00:09; 333.00; 2.97; 29.00
2017-09-01 13:00:21; 333.00; 2.97; 29.00
2017-09-01 13:00:34; 332.00; 2.98; 28.88
2017-09-01 13:00:46; 333.00; 2.97; 28.81
2017-09-01 13:00:58; 331.00; 2.99; 28.81
2017-09-01 13:15:02; 331.00; 2.99; 29.75
2017-09-01 13:15:14; 329.00; 3.01; 29.75
2017-09-01 13:15:26; 330.00; 3.00; 29.75
2017-09-01 13:15:39; 331.00; 2.99; 29.81
2017-09-01 13:15:51; 333.00; 2.97; 29.69
2017-09-01 13:30:05; 330.00; 3.00; 29.31
2017-09-01 13:30:18; 330.00; 3.00; 29.38
2017-09-01 13:30:30; 332.00; 2.98; 29.44
2017-09-01 13:30:43; 332.00; 2.97; 29.38
2017-09-01 13:30:55; 332.00; 2.98; 29.31
2017-09-01 13:45:09; 332.00; 2.98; 29.94
2017-09-01 13:45:21; 332.00; 2.98; 30.13
2017-09-01 13:45:34; 332.00; 2.98; 30.00
2017-09-01 13:45:46; 330.00; 3.00; 30.06
2017-09-01 13:45:59; 331.00; 2.99; 29.94
2017-09-01 14:00:01; 332.00; 2.98; 30.38
2017-09-01 14:00:14; 331.00; 2.99; 30.25
2017-09-01 14:00:26; 331.00; 2.99; 30.25
2017-09-01 14:00:39; 331.00; 2.99; 30.31
2017-09-01 14:00:51; 331.00; 2.99; 30.25
2017-09-01 14:15:05; 332.00; 2.98; 30.31
2017-09-01 14:15:18; 331.00; 2.99; 30.25
2017-09-01 14:15:30; 330.00; 2.99; 30.31
2017-09-01 14:15:42; 332.00; 2.98; 30.31
2017-09-01 14:15:55; 331.00; 2.99; 30.31
2017-09-01 14:30:09; 330.00; 3.00; 30.69
2017-09-01 14:30:21; 330.00; 3.00; 30.69
2017-09-01 14:30:34; 330.00; 3.00; 30.75
2017-09-01 14:30:46; 331.00; 2.99; 30.94
2017-09-01 14:30:58; 331.00; 2.99; 31.06
2017-09-01 14:45:01; 332.00; 2.98; 32.63
2017-09-01 14:45:14; 331.00; 2.99; 32.69
2017-09-01 14:45:26; 330.00; 3.00; 32.75
2017-09-01 14:45:38; 330.00; 3.00; 32.81
2017-09-01 14:45:51; 331.00; 2.99; 32.88
2017-09-01 15:00:05; 329.00; 3.00; 32.06
2017-09-01 15:00:17; 330.00; 3.00; 31.94
2017-09-01 15:00:30; 329.00; 3.01; 32.06
2017-09-01 15:00:42; 331.00; 2.99; 32.00
2017-09-01 15:00:54; 331.00; 2.99; 32.06
2017-09-01 15:15:08; 330.00; 2.99; 32.88
2017-09-01 15:15:21; 332.00; 2.99; 32.94
2017-09-01 15:15:33; 329.00; 3.01; 32.81
2017-09-01 15:15:45; 331.00; 2.99; 32.81
2017-09-01 15:15:58; 330.00; 2.99; 32.69
2017-09-01 15:30:01; 331.00; 2.99; 33.06
2017-09-01 15:30:13; 331.00; 3.00; 33.00
2017-09-01 15:30:25; 332.00; 2.99; 33.06
2017-09-01 15:30:38; 330.00; 3.00; 33.06
2017-09-01 15:30:50; 331.00; 2.99; 33.13
2017-09-01 15:45:05; 331.00; 2.99; 32.88
2017-09-01 15:45:17; 331.00; 2.99; 32.88
2017-09-01 15:45:29; 331.00; 2.99; 32.94
2017-09-01 15:45:42; 331.00; 2.99; 32.88
2017-09-01 15:45:54; 333.00; 2.98; 32.88
2017-09-01 16:00:09; 331.00; 2.99; 32.38
2017-09-01 16:00:21; 331.00; 2.99; 32.50
2017-09-01 16:00:33; 331.00; 2.99; 32.06
2017-09-01 16:00:46; 331.00; 2.99; 32.19
2017-09-01 16:00:58; 330.00; 3.00; 32.31
2017-09-01 16:15:01; 330.00; 3.00; 32.00
2017-09-01 16:15:13; 331.00; 2.99; 31.94
2017-09-01 16:15:25; 331.00; 2.99; 32.06
2017-09-01 16:15:38; 330.00; 3.00; 32.13
2017-09-01 16:15:50; 330.00; 3.00; 32.19
2017-09-01 16:30:04; 331.00; 2.98; 31.00
2017-09-01 16:30:17; 332.00; 2.99; 31.06
2017-09-01 16:30:29; 329.00; 3.02; 30.94
2017-09-01 16:30:41; 331.00; 2.98; 31.06
2017-09-01 16:30:54; 330.00; 3.00; 31.06
2017-09-01 16:45:08; 330.00; 3.00; 31.69
2017-09-01 16:45:20; 330.00; 3.00; 31.75
2017-09-01 16:45:32; 331.00; 2.99; 31.81
2017-09-01 16:45:45; 330.00; 3.00; 31.88
2017-09-01 16:45:57; 330.00; 3.00; 31.88
2017-09-01 17:00:11; 330.00; 3.00; 30.56
2017-09-01 17:00:24; 330.00; 3.00; 30.44
2017-09-01 17:00:36; 330.00; 3.00; 30.38
2017-09-01 17:00:48; 329.00; 3.01; 30.44
2017-09-01 17:15:02; 330.00; 3.00; 30.56
2017-09-01 17:15:15; 331.00; 2.99; 30.69
2017-09-01 17:15:27; 330.00; 3.00; 30.75
2017-09-01 17:15:39; 332.00; 2.98; 30.69
2017-09-01 17:15:52; 331.00; 2.99; 30.75
2017-09-01 17:30:06; 330.00; 3.00; 30.25
2017-09-01 17:30:18; 330.00; 3.00; 30.13
2017-09-01 17:30:30; 330.00; 3.00; 30.13
2017-09-01 17:30:43; 330.00; 3.00; 29.88
2017-09-01 17:30:55; 330.00; 3.00; 29.94
2017-09-01 17:45:10; 331.00; 2.99; 29.19
2017-09-01 17:45:22; 329.00; 3.00; 29.19
2017-09-01 17:45:34; 331.00; 2.99; 29.19
2017-09-01 17:45:47; 331.00; 3.00; 29.19
2017-09-01 17:45:59; 331.00; 2.99; 29.13
2017-09-01 18:00:02; 331.00; 2.99; 25.88
2017-09-01 18:00:14; 330.00; 2.99; 25.88
2017-09-01 18:00:27; 331.00; 2.99; 25.81
2017-09-01 18:00:39; 331.00; 2.99; 25.75
2017-09-01 18:00:51; 332.00; 2.98; 25.75
2017-09-01 18:15:06; 330.00; 3.00; 24.00
2017-09-01 18:15:18; 331.00; 2.99; 24.00
2017-09-01 18:15:31; 331.00; 2.99; 23.94
2017-09-01 18:15:43; 331.00; 2.98; 23.94
2017-09-01 18:15:55; 330.00; 3.00; 23.94
2017-09-01 18:30:10; 330.00; 3.00; 23.00
2017-09-01 18:30:22; 331.00; 2.99; 23.00
2017-09-01 18:30:35; 331.00; 2.99; 23.00
2017-09-01 18:30:47; 331.00; 2.99; 23.00
2017-09-01 18:30:59; 330.00; 2.99; 23.00
2017-09-01 18:45:02; 330.00; 3.00; 22.38
2017-09-01 18:45:15; 330.00; 2.99; 22.38
2017-09-01 18:45:27; 330.00; 3.00; 22.38
2017-09-01 18:45:40; 330.00; 3.00; 22.31
2017-09-01 18:45:52; 332.00; 2.98; 22.31
2017-09-01 19:00:06; 332.00; 2.98; 22.00
2017-09-01 19:00:19; 332.00; 2.97; 22.00
2017-09-01 19:00:31; 332.00; 2.98; 21.94
2017-09-01 19:00:44; 331.00; 2.98; 21.94
2017-09-01 19:00:56; 331.00; 2.99; 22.00
2017-09-01 19:15:11; 331.00; 2.99; 21.56
2017-09-01 19:15:23; 332.00; 2.99; 21.56
2017-09-01 19:15:35; 331.00; 2.99; 21.56
2017-09-01 19:15:48; 331.00; 3.00; 21.56
2017-09-01 19:16:00; 331.00; 2.99; 21.56
2017-09-01 19:30:03; 331.00; 2.99; 21.31
2017-09-01 19:30:16; 331.00; 2.99; 21.25
2017-09-01 19:30:28; 332.00; 2.98; 21.25
2017-09-01 19:30:40; 331.00; 2.99; 21.25
2017-09-01 19:30:53; 331.00; 2.99; 21.25
2017-09-01 19:45:08; 332.00; 2.98; 20.50
2017-09-01 19:45:20; 333.00; 2.97; 20.50
2017-09-01 19:45:33; 333.00; 2.97; 20.44
2017-09-01 19:45:45; 333.00; 2.97; 20.44
2017-09-01 19:45:57; 333.00; 2.97; 20.44
2017-09-01 20:00:01; 333.00; 2.97; 19.75
2017-09-01 20:00:13; 333.00; 2.97; 19.75
2017-09-01 20:00:25; 333.00; 2.98; 19.75
2017-09-01 20:00:38; 332.00; 2.98; 19.69
2017-09-01 20:00:50; 333.00; 2.97; 19.69
2017-09-01 20:15:05; 332.00; 2.98; 19.25
2017-09-01 20:15:17; 332.00; 2.98; 19.25
2017-09-01 20:15:29; 332.00; 2.98; 19.25
2017-09-01 20:15:42; 332.00; 2.98; 19.25
2017-09-01 20:15:54; 332.00; 2.98; 19.25
2017-09-01 20:30:09; 331.00; 2.99; 19.44
2017-09-01 20:30:21; 332.00; 2.98; 19.44
2017-09-01 20:30:34; 331.00; 2.99; 19.44
2017-09-01 20:30:46; 331.00; 2.98; 19.44
2017-09-01 20:30:58; 331.00; 2.99; 19.44
2017-09-01 20:45:02; 331.00; 2.99; 20.19
2017-09-01 20:45:14; 331.00; 2.99; 20.25
2017-09-01 20:45:26; 331.00; 2.99; 20.25
2017-09-01 20:45:39; 332.00; 2.98; 20.25
2017-09-01 20:45:51; 331.00; 2.99; 20.25
2017-09-01 21:00:06; 332.00; 2.98; 20.56
2017-09-01 21:00:18; 331.00; 2.99; 20.56
2017-09-01 21:00:30; 331.00; 2.99; 20.56
2017-09-01 21:00:43; 331.00; 2.99; 20.56
2017-09-01 21:00:55; 332.00; 2.98; 20.56
2017-09-01 21:15:10; 331.00; 2.99; 20.56
2017-09-01 21:15:22; 332.00; 2.98; 20.63
2017-09-01 21:15:34; 331.00; 2.99; 20.63
2017-09-01 21:15:47; 331.00; 2.99; 20.56
2017-09-01 21:15:59; 332.00; 2.98; 20.56
2017-09-01 21:30:02; 331.00; 2.99; 20.38
2017-09-01 21:30:15; 332.00; 2.98; 20.44
2017-09-01 21:30:27; 332.00; 2.98; 20.44
2017-09-01 21:30:39; 331.00; 2.98; 20.44
2017-09-01 21:30:52; 331.00; 2.98; 20.44
2017-09-01 21:45:06; 332.00; 2.98; 20.25
2017-09-01 21:45:18; 332.00; 2.98; 20.19
2017-09-01 21:45:31; 332.00; 2.98; 20.19
2017-09-01 21:45:43; 332.00; 2.98; 20.25
2017-09-01 21:45:56; 332.00; 2.98; 20.19
2017-09-01 22:00:10; 332.00; 2.98; 19.81
2017-09-01 22:00:22; 332.00; 2.98; 19.81
2017-09-01 22:00:35; 332.00; 2.98; 19.75
2017-09-01 22:00:47; 332.00; 2.98; 19.75
2017-09-01 22:00:59; 332.00; 2.98; 19.75
2017-09-01 22:15:03; 332.00; 2.98; 19.81
2017-09-01 22:15:15; 332.00; 2.98; 19.88
2017-09-01 22:15:27; 332.00; 2.98; 19.88
2017-09-01 22:15:40; 331.00; 2.99; 19.88
2017-09-01 22:15:52; 332.00; 2.98; 19.88
2017-09-01 22:30:07; 332.00; 2.98; 19.38
2017-09-01 22:30:19; 332.00; 2.98; 19.38
2017-09-01 22:30:32; 332.00; 2.98; 19.38
2017-09-01 22:30:44; 332.00; 2.98; 19.38
2017-09-01 22:30:56; 332.00; 2.98; 19.38
2017-09-01 22:45:11; 332.00; 2.98; 19.19
2017-09-01 22:45:23; 332.00; 2.97; 19.19
2017-09-01 22:45:36; 332.00; 2.98; 19.19
2017-09-01 22:45:48; 332.00; 2.98; 19.19
2017-09-01 22:46:00; 332.00; 2.98; 19.19
2017-09-01 23:00:04; 332.00; 2.98; 19.25
2017-09-01 23:00:16; 332.00; 2.98; 19.25
2017-09-01 23:00:28; 332.00; 2.98; 19.25
2017-09-01 23:00:41; 332.00; 2.98; 19.25
2017-09-01 23:00:53; 332.00; 2.98; 19.25
2017-09-01 23:15:08; 332.00; 2.98; 19.50
2017-09-01 23:15:20; 332.00; 2.98; 19.50
2017-09-01 23:15:32; 332.00; 2.98; 19.50
2017-09-01 23:15:45; 332.00; 2.98; 19.50
2017-09-01 23:15:57; 332.00; 2.98; 19.50
2017-09-01 23:30:12; 332.00; 2.98; 19.69
2017-09-01 23:30:24; 332.00; 2.98; 19.69
2017-09-01 23:30:36; 332.00; 2.98; 19.69
2017-09-01 23:30:49; 332.00; 2.98; 19.69
2017-09-01 23:45:03; 331.00; 2.99; 20.00
2017-09-01 23:45:16; 331.00; 2.99; 20.00
2017-09-01 23:45:28; 331.00; 2.99; 20.06
2017-09-01 23:45:40; 331.00; 2.99; 20.00
2017-09-01 23:45:53; 331.00; 2.99; 20.00
2017-09-02 00:00:07; 331.00; 2.99; 20.00
2017-09-02 00:00:20; 331.00; 2.99; 20.00
2017-09-02 00:00:32; 331.00; 2.99; 20.00
2017-09-02 00:00:44; 331.00; 2.99; 20.00
2017-09-02 00:00:57; 331.00; 2.99; 20.00
2017-09-02 00:15:11; 331.00; 2.99; 19.69
2017-09-02 00:15:24; 331.00; 2.99; 19.69
2017-09-02 00:15:36; 331.00; 2.99; 19.69
2017-09-02 00:15:49; 331.00; 2.99; 19.69
2017-09-02 00:30:03; 331.00; 2.99; 19.75
2017-09-02 00:30:16; 331.00; 2.98; 19.75
2017-09-02 00:30:28; 331.00; 2.99; 19.75
2017-09-02 00:30:40; 331.00; 2.98; 19.75
2017-09-02 00:30:53; 332.00; 2.98; 19.75
2017-09-02 00:45:08; 332.00; 2.98; 19.75
2017-09-02 00:45:20; 332.00; 2.98; 19.75
2017-09-02 00:45:32; 332.00; 2.98; 19.75
2017-09-02 00:45:45; 332.00; 2.98; 19.75
2017-09-02 00:45:57; 332.00; 2.98; 19.75
2017-09-02 01:00:12; 331.00; 2.99; 19.69
2017-09-02 01:00:24; 331.00; 2.99; 19.69
2017-09-02 01:00:36; 331.00; 2.99; 19.69
2017-09-02 01:00:49; 331.00; 2.99; 19.69
2017-09-02 01:15:03; 331.00; 2.98; 19.69
2017-09-02 01:15:16; 332.00; 2.98; 19.69
2017-09-02 01:15:28; 331.00; 2.98; 19.69
2017-09-02 01:15:41; 331.00; 2.99; 19.69
2017-09-02 01:15:53; 331.00; 2.99; 19.69
2017-09-02 01:30:08; 332.00; 2.98; 19.25
2017-09-02 01:30:20; 332.00; 2.98; 19.25
2017-09-02 01:30:32; 332.00; 2.98; 19.25
2017-09-02 01:30:45; 332.00; 2.98; 19.25
2017-09-02 01:30:57; 332.00; 2.98; 19.25
2017-09-02 01:45:00; 333.00; 2.97; 19.00
2017-09-02 01:45:13; 333.00; 2.97; 19.00
2017-09-02 01:45:25; 333.00; 2.97; 19.00
2017-09-02 01:45:38; 333.00; 2.98; 19.00
2017-09-02 01:45:50; 333.00; 2.97; 19.00
2017-09-02 02:00:05; 332.00; 2.98; 19.13
2017-09-02 02:00:17; 332.00; 2.98; 19.13
2017-09-02 02:00:30; 332.00; 2.98; 19.13
2017-09-02 02:00:42; 332.00; 2.98; 19.13
2017-09-02 02:00:54; 332.00; 2.98; 19.13
2017-09-02 02:15:09; 332.00; 2.98; 19.25
2017-09-02 02:15:21; 332.00; 2.98; 19.25
2017-09-02 02:15:34; 332.00; 2.98; 19.25
2017-09-02 02:15:46; 332.00; 2.98; 19.25
2017-09-02 02:15:58; 332.00; 2.98; 19.31
2017-09-02 02:30:01; 332.00; 2.98; 19.13
2017-09-02 02:30:14; 332.00; 2.98; 19.13
2017-09-02 02:30:26; 332.00; 2.98; 19.13
2017-09-02 02:30:38; 332.00; 2.98; 19.13
2017-09-02 02:30:51; 332.00; 2.98; 19.13
2017-09-02 02:45:06; 332.00; 2.98; 18.75
2017-09-02 02:45:18; 332.00; 2.98; 18.75
2017-09-02 02:45:30; 332.00; 2.98; 18.75
2017-09-02 02:45:43; 332.00; 2.98; 18.81
2017-09-02 02:45:55; 332.00; 2.98; 18.81
2017-09-02 03:00:10; 332.00; 2.98; 19.25
2017-09-02 03:00:22; 332.00; 2.98; 19.19
2017-09-02 03:00:34; 332.00; 2.98; 19.25
2017-09-02 03:00:47; 332.00; 2.98; 19.19
2017-09-02 03:00:59; 332.00; 2.98; 19.19
2017-09-02 03:15:02; 331.00; 2.99; 19.06
2017-09-02 03:15:15; 332.00; 2.98; 19.06
2017-09-02 03:15:27; 331.00; 2.99; 19.06
2017-09-02 03:15:39; 331.00; 2.99; 19.06
2017-09-02 03:15:52; 331.00; 2.99; 19.06
2017-09-02 03:30:06; 331.00; 2.99; 18.88
2017-09-02 03:30:19; 332.00; 2.98; 18.94
2017-09-02 03:30:31; 332.00; 2.98; 18.88
2017-09-02 03:30:43; 332.00; 2.98; 18.88
2017-09-02 03:30:56; 331.00; 2.99; 18.94
2017-09-02 03:45:10; 331.00; 2.99; 19.00
2017-09-02 03:45:23; 331.00; 2.99; 19.00
2017-09-02 03:45:35; 331.00; 2.99; 19.00
2017-09-02 03:45:47; 332.00; 2.98; 19.00
2017-09-02 03:46:00; 332.00; 2.98; 19.00
2017-09-02 04:00:03; 332.00; 2.98; 19.00
2017-09-02 04:00:15; 332.00; 2.98; 19.00
2017-09-02 04:00:28; 331.00; 2.99; 19.00
2017-09-02 04:00:40; 332.00; 2.98; 19.00
2017-09-02 04:00:52; 332.00; 2.98; 19.00
2017-09-02 04:15:07; 332.00; 2.98; 18.63
2017-09-02 04:15:20; 331.00; 2.99; 18.63
2017-09-02 04:15:32; 331.00; 2.99; 18.63
2017-09-02 04:15:44; 332.00; 2.98; 18.63
2017-09-02 04:15:57; 332.00; 2.98; 18.63
2017-09-02 04:30:11; 332.00; 2.99; 19.19
2017-09-02 04:30:24; 331.00; 2.99; 19.19
2017-09-02 04:30:36; 331.00; 2.99; 19.19
2017-09-02 04:30:48; 331.00; 2.99; 19.25
2017-09-02 04:45:03; 331.00; 2.99; 19.44
2017-09-02 04:45:16; 332.00; 2.99; 19.44
2017-09-02 04:45:28; 332.00; 2.99; 19.44
2017-09-02 04:45:40; 332.00; 2.98; 19.44
2017-09-02 04:45:53; 331.00; 2.99; 19.44
2017-09-02 05:00:07; 332.00; 2.98; 19.31
2017-09-02 05:00:20; 332.00; 2.98; 19.31
2017-09-02 05:00:32; 332.00; 2.99; 19.31
2017-09-02 05:00:45; 331.00; 2.99; 19.31
2017-09-02 05:00:57; 332.00; 2.98; 19.31
2017-09-02 05:15:12; 332.00; 2.98; 19.19
2017-09-02 05:15:24; 332.00; 2.98; 19.19
2017-09-02 05:15:36; 331.00; 2.99; 19.19
2017-09-02 05:15:49; 332.00; 2.98; 19.19
2017-09-02 05:30:03; 331.00; 2.98; 19.19
2017-09-02 05:30:16; 331.00; 2.99; 19.19
2017-09-02 05:30:28; 331.00; 2.99; 19.19
2017-09-02 05:30:40; 331.00; 2.99; 19.19
2017-09-02 05:30:53; 331.00; 2.99; 19.19
2017-09-02 05:45:08; 331.00; 2.99; 19.50
2017-09-02 05:45:20; 331.00; 2.99; 19.50
2017-09-02 05:45:32; 331.00; 2.99; 19.44
2017-09-02 05:45:45; 331.00; 2.99; 19.50
2017-09-02 05:45:57; 331.00; 2.99; 19.50
2017-09-02 06:00:12; 331.00; 2.99; 19.63
2017-09-02 06:00:24; 331.00; 2.99; 19.63
2017-09-02 06:00:36; 331.00; 2.99; 19.63
2017-09-02 06:00:49; 331.00; 2.99; 19.63
2017-09-02 06:15:03; 331.00; 2.99; 19.88
2017-09-02 06:15:16; 331.00; 2.99; 19.88
2017-09-02 06:15:28; 330.00; 3.00; 19.88
2017-09-02 06:15:40; 331.00; 2.99; 19.88
2017-09-02 06:15:53; 331.00; 2.99; 19.88
2017-09-02 06:30:07; 331.00; 2.99; 20.13
2017-09-02 06:30:20; 331.00; 2.99; 20.13
2017-09-02 06:30:32; 331.00; 2.99; 20.13
2017-09-02 06:30:45; 331.00; 2.99; 20.13
2017-09-02 06:30:57; 331.00; 2.99; 20.13
2017-09-02 06:45:12; 331.00; 2.99; 19.88
2017-09-02 06:45:24; 331.00; 2.99; 19.88
2017-09-02 06:45:36; 331.00; 2.99; 19.88
2017-09-02 06:45:49; 331.00; 2.99; 19.88
2017-09-02 07:00:03; 331.00; 2.99; 19.88
2017-09-02 07:00:16; 331.00; 2.99; 19.88
2017-09-02 07:00:28; 331.00; 2.99; 19.88
2017-09-02 07:00:40; 331.00; 2.99; 19.88
2017-09-02 07:00:53; 331.00; 2.99; 19.88
2017-09-02 07:15:08; 331.00; 2.99; 19.81
2017-09-02 07:15:20; 331.00; 2.99; 19.81
2017-09-02 07:15:32; 331.00; 2.99; 19.75
2017-09-02 07:15:45; 331.00; 2.99; 19.75
2017-09-02 07:15:57; 331.00; 2.99; 19.75
2017-09-02 07:30:12; 331.00; 2.99; 19.81
2017-09-02 07:30:24; 331.00; 2.99; 19.75
2017-09-02 07:30:36; 331.00; 2.99; 19.75
2017-09-02 07:30:49; 331.00; 2.99; 19.75
2017-09-02 07:45:03; 331.00; 2.99; 19.94
2017-09-02 07:45:16; 331.00; 2.99; 19.94
2017-09-02 07:45:28; 331.00; 2.99; 19.88
2017-09-02 07:45:40; 331.00; 2.99; 19.94
2017-09-02 07:45:53; 331.00; 2.99; 19.94
2017-09-02 08:00:07; 331.00; 2.99; 20.19
2017-09-02 08:00:20; 331.00; 2.99; 20.19
2017-09-02 08:00:32; 331.00; 2.99; 20.19
2017-09-02 08:00:44; 331.00; 2.99; 20.19
2017-09-02 08:00:57; 331.00; 2.99; 20.19
2017-09-02 08:15:11; 331.00; 2.99; 20.75
2017-09-02 08:15:23; 330.00; 2.99; 20.75
2017-09-02 08:15:36; 331.00; 2.99; 20.75
2017-09-02 08:15:48; 331.00; 2.99; 20.75
2017-09-02 08:30:03; 330.00; 3.00; 21.50
2017-09-02 08:30:15; 330.00; 3.00; 21.50
2017-09-02 08:30:28; 330.00; 3.00; 21.50
2017-09-02 08:30:40; 330.00; 3.00; 21.50
2017-09-02 08:30:52; 331.00; 2.99; 21.50
2017-09-02 08:45:07; 331.00; 2.99; 21.75
2017-09-02 08:45:19; 331.00; 2.99; 21.75
2017-09-02 08:45:31; 330.00; 3.00; 21.75
2017-09-02 08:45:44; 330.00; 3.00; 21.75
2017-09-02 08:45:56; 331.00; 2.99; 21.75
2017-09-02 09:00:11; 330.00; 3.00; 22.56
2017-09-02 09:00:23; 331.00; 2.99; 22.56
2017-09-02 09:00:35; 331.00; 2.99; 22.56
2017-09-02 09:00:48; 330.00; 3.00; 22.63
2017-09-02 09:01:00; 331.00; 2.99; 22.69
2017-09-02 09:15:03; 331.00; 2.99; 22.38
2017-09-02 09:15:16; 331.00; 2.99; 22.38
2017-09-02 09:15:28; 331.00; 2.99; 22.38
2017-09-02 09:15:40; 331.00; 2.99; 22.38
2017-09-02 09:15:53; 331.00; 2.99; 22.38
2017-09-02 09:30:07; 331.00; 2.99; 22.56
2017-09-02 09:30:20; 330.00; 3.00; 22.63
2017-09-02 09:30:32; 330.00; 3.00; 22.63
2017-09-02 09:30:44; 331.00; 2.99; 22.63
2017-09-02 09:30:57; 331.00; 2.99; 22.69
2017-09-02 09:45:11; 331.00; 2.99; 22.94
2017-09-02 09:45:23; 331.00; 2.99; 23.00
2017-09-02 09:45:36; 331.00; 2.99; 23.00
2017-09-02 09:45:48; 331.00; 2.98; 23.00
2017-09-02 09:46:00; 331.00; 2.99; 23.06
2017-09-02 10:00:03; 331.00; 3.00; 24.31
2017-09-02 10:00:16; 331.00; 2.99; 24.31
2017-09-02 10:00:28; 331.00; 2.99; 24.31
2017-09-02 10:00:41; 331.00; 2.99; 24.31
2017-09-02 10:00:53; 331.00; 2.99; 24.31
2017-09-02 10:15:08; 332.00; 2.98; 24.25
2017-09-02 10:15:20; 331.00; 2.99; 24.13
2017-09-02 10:15:32; 332.00; 2.98; 24.19
2017-09-02 10:15:45; 331.00; 2.99; 24.25
2017-09-02 10:15:57; 331.00; 2.99; 24.19
2017-09-02 10:30:12; 327.00; 3.03; 24.00
2017-09-02 10:30:24; 332.00; 2.97; 24.00
2017-09-02 10:30:36; 330.00; 3.00; 24.00
2017-09-02 10:30:49; 328.00; 3.02; 24.00
2017-09-02 10:45:03; 330.00; 3.00; 23.75
2017-09-02 10:45:16; 331.00; 2.99; 23.75
2017-09-02 10:45:28; 330.00; 3.00; 23.81
2017-09-02 10:45:40; 330.00; 3.00; 23.75
2017-09-02 10:45:53; 330.00; 3.00; 23.75
2017-09-02 11:00:07; 331.00; 2.98; 23.88
2017-09-02 11:00:20; 331.00; 2.99; 23.88
2017-09-02 11:00:32; 331.00; 2.99; 23.94
2017-09-02 11:00:44; 331.00; 2.99; 24.00
2017-09-02 11:00:57; 331.00; 2.99; 24.00
2017-09-02 11:15:11; 329.00; 3.00; 25.63
2017-09-02 11:15:24; 329.00; 3.01; 25.69
2017-09-02 11:15:36; 329.00; 3.01; 25.63
2017-09-02 11:15:48; 330.00; 3.00; 25.69
2017-09-02 11:30:03; 330.00; 3.00; 26.00
2017-09-02 11:30:15; 330.00; 3.00; 26.13
2017-09-02 11:30:28; 330.00; 3.00; 26.06
2017-09-02 11:30:40; 330.00; 3.00; 26.06
2017-09-02 11:30:52; 329.00; 3.01; 26.00
2017-09-02 11:45:07; 330.00; 3.00; 26.31
2017-09-02 11:45:19; 330.00; 3.00; 26.31
2017-09-02 11:45:31; 331.00; 2.99; 26.25
2017-09-02 11:45:44; 330.00; 3.00; 26.25
2017-09-02 11:45:56; 330.00; 3.00; 26.19
2017-09-02 12:00:10; 328.00; 3.01; 27.06
2017-09-02 12:00:23; 329.00; 3.01; 27.06
2017-09-02 12:00:35; 328.00; 3.02; 27.13
2017-09-02 12:00:47; 329.00; 3.01; 27.06
2017-09-02 12:01:00; 328.00; 3.02; 27.06
2017-09-02 12:15:03; 329.00; 3.01; 28.00
2017-09-02 12:15:15; 329.00; 3.02; 28.00
2017-09-02 12:15:27; 329.00; 3.01; 28.00
2017-09-02 12:15:40; 329.00; 3.01; 28.00
2017-09-02 12:15:52; 329.00; 3.01; 28.06
2017-09-02 12:30:06; 328.00; 3.02; 31.50
2017-09-02 12:30:18; 329.00; 3.02; 31.56
2017-09-02 12:30:31; 329.00; 3.01; 31.50
2017-09-02 12:30:43; 329.00; 3.01; 31.50
2017-09-02 12:30:56; 328.00; 3.02; 31.63
2017-09-02 12:45:10; 328.00; 3.02; 33.19
2017-09-02 12:45:22; 328.00; 3.02; 33.06
2017-09-02 12:45:35; 328.00; 3.02; 33.13
2017-09-02 12:45:47; 328.00; 3.02; 33.25
2017-09-02 12:45:59; 328.00; 3.02; 33.13
2017-09-02 13:00:02; 327.00; 3.03; 33.44
2017-09-02 13:00:14; 327.00; 3.03; 33.63
2017-09-02 13:00:26; 327.00; 3.03; 33.69
2017-09-02 13:00:39; 327.00; 3.02; 33.81
2017-09-02 13:00:51; 327.00; 3.03; 33.94
2017-09-02 13:15:05; 327.00; 3.03; 31.31
2017-09-02 13:15:17; 328.00; 3.02; 31.19
2017-09-02 13:15:30; 328.00; 3.02; 31.25
2017-09-02 13:15:42; 328.00; 3.02; 31.38
2017-09-02 13:15:54; 327.00; 3.03; 31.56
2017-09-02 13:30:08; 327.00; 3.03; 33.19
2017-09-02 13:30:21; 327.00; 3.03; 33.25
2017-09-02 13:30:33; 327.00; 3.03; 33.13
2017-09-02 13:30:45; 327.00; 3.03; 33.25
2017-09-02 13:30:58; 327.00; 3.03; 33.25
2017-09-02 13:45:12; 327.00; 3.03; 33.56
2017-09-02 13:45:24; 327.00; 3.03; 33.56
2017-09-02 13:45:36; 327.00; 3.03; 33.63
2017-09-02 13:45:49; 327.00; 3.03; 33.56
2017-09-02 14:00:02; 327.00; 3.03; 36.06
2017-09-02 14:00:15; 327.00; 3.03; 36.19
2017-09-02 14:00:27; 327.00; 3.03; 36.00
2017-09-02 14:00:39; 327.00; 3.03; 36.00
2017-09-02 14:00:52; 327.00; 3.04; 35.94
2017-09-02 14:15:05; 327.00; 3.03; 37.19
2017-09-02 14:15:18; 328.00; 3.02; 37.31
2017-09-02 14:15:30; 327.00; 3.03; 37.44
2017-09-02 14:15:42; 326.00; 3.03; 37.56
2017-09-02 14:15:55; 327.00; 3.04; 37.69
2017-09-02 14:30:09; 326.00; 3.04; 36.69
2017-09-02 14:30:21; 328.00; 3.03; 36.81
2017-09-02 14:30:33; 327.00; 3.03; 36.88
2017-09-02 14:30:46; 326.00; 3.04; 36.94
2017-09-02 14:30:58; 327.00; 3.03; 36.94
2017-09-02 14:45:12; 326.00; 3.04; 37.56
2017-09-02 14:45:24; 327.00; 3.03; 37.63
2017-09-02 14:45:36; 326.00; 3.04; 37.69
2017-09-02 14:45:49; 326.00; 3.04; 37.75
2017-09-02 15:00:03; 327.00; 3.03; 37.69
2017-09-02 15:00:15; 328.00; 3.02; 37.81
2017-09-02 15:00:27; 328.00; 3.03; 37.81
2017-09-02 15:00:40; 326.00; 3.04; 37.94
2017-09-02 15:00:52; 327.00; 3.03; 38.13
2017-09-02 15:15:06; 327.00; 3.03; 36.13
2017-09-02 15:15:18; 328.00; 3.02; 36.31
2017-09-02 15:15:31; 326.00; 3.04; 36.13
2017-09-02 15:15:43; 327.00; 3.03; 36.13
2017-09-02 15:15:55; 327.00; 3.03; 36.19
2017-09-02 15:30:09; 326.00; 3.04; 36.63
2017-09-02 15:30:21; 326.00; 3.04; 36.63
2017-09-02 15:30:34; 326.00; 3.04; 36.63
2017-09-02 15:30:46; 326.00; 3.04; 36.69
2017-09-02 15:30:58; 326.00; 3.04; 36.69
2017-09-02 15:45:01; 328.00; 3.02; 38.25
2017-09-02 15:45:13; 327.00; 3.03; 38.31
2017-09-02 15:45:26; 326.00; 3.03; 38.38
2017-09-02 15:45:38; 326.00; 3.04; 38.38
2017-09-02 15:45:51; 327.00; 3.03; 38.38
2017-09-02 16:00:04; 325.00; 3.05; 38.25
2017-09-02 16:00:17; 329.00; 3.02; 38.31
2017-09-02 16:00:29; 322.00; 3.08; 38.31
2017-09-02 16:00:41; 323.00; 3.06; 38.38
2017-09-02 16:00:54; 326.00; 3.04; 38.44
2017-09-02 16:15:08; 325.00; 3.05; 36.88
2017-09-02 16:15:20; 326.00; 3.04; 36.81
2017-09-02 16:15:32; 326.00; 3.04; 36.50
2017-09-02 16:15:45; 325.00; 3.05; 36.25
2017-09-02 16:15:57; 326.00; 3.04; 36.25
2017-09-02 16:30:11; 328.00; 3.02; 36.81
2017-09-02 16:30:23; 327.00; 3.03; 36.81
2017-09-02 16:30:36; 328.00; 3.02; 36.81
2017-09-02 16:30:48; 329.00; 3.01; 36.88
2017-09-02 16:31:00; 328.00; 3.02; 36.81
2017-09-02 16:45:03; 327.00; 3.03; 34.88
2017-09-02 16:45:15; 327.00; 3.03; 34.88
2017-09-02 16:45:28; 325.00; 3.05; 34.94
2017-09-02 16:45:40; 327.00; 3.03; 35.00
2017-09-02 16:45:52; 327.00; 3.04; 35.00
2017-09-02 17:00:06; 326.00; 3.04; 34.94
2017-09-02 17:00:18; 327.00; 3.03; 35.00
2017-09-02 17:00:31; 326.00; 3.04; 35.13
2017-09-02 17:00:43; 326.00; 3.04; 35.19
2017-09-02 17:00:56; 326.00; 3.04; 35.13
2017-09-02 17:15:10; 328.00; 3.03; 36.13
2017-09-02 17:15:22; 327.00; 3.03; 36.19
2017-09-02 17:15:34; 327.00; 3.03; 36.25
2017-09-02 17:15:47; 328.00; 3.02; 36.25
2017-09-02 17:15:59; 327.00; 3.03; 36.25
2017-09-02 17:30:01; 326.00; 3.04; 34.25
2017-09-02 17:30:14; 326.00; 3.04; 34.31
2017-09-02 17:30:26; 326.00; 3.04; 34.31
2017-09-02 17:30:38; 326.00; 3.04; 34.31
2017-09-02 17:30:51; 326.00; 3.05; 34.44
2017-09-02 17:45:04; 326.00; 3.04; 32.81
2017-09-02 17:45:17; 327.00; 3.03; 32.81
2017-09-02 17:45:29; 326.00; 3.04; 32.75
2017-09-02 17:45:42; 325.00; 3.04; 32.69
2017-09-02 17:45:54; 326.00; 3.04; 32.50
2017-09-02 18:00:08; 327.00; 3.03; 31.31
2017-09-02 18:00:20; 326.00; 3.04; 31.31
2017-09-02 18:00:33; 326.00; 3.04; 31.31
2017-09-02 18:00:45; 327.00; 3.03; 31.31
2017-09-02 18:00:57; 326.00; 3.04; 31.31
2017-09-02 18:15:11; 327.00; 3.03; 29.19
2017-09-02 18:15:24; 327.00; 3.03; 29.13
2017-09-02 18:15:36; 327.00; 3.03; 29.13
2017-09-02 18:15:48; 327.00; 3.03; 29.19
2017-09-02 18:30:03; 327.00; 3.03; 27.81
2017-09-02 18:30:15; 327.00; 3.03; 27.81
2017-09-02 18:30:27; 327.00; 3.03; 27.81
2017-09-02 18:30:40; 327.00; 3.03; 27.81
2017-09-02 18:30:52; 327.00; 3.03; 27.75
2017-09-02 18:45:06; 328.00; 3.02; 26.63
2017-09-02 18:45:19; 327.00; 3.04; 26.63
2017-09-02 18:45:31; 327.00; 3.03; 26.56
2017-09-02 18:45:43; 326.00; 3.04; 26.56
2017-09-02 18:45:56; 325.00; 3.05; 26.56
2017-09-02 19:00:10; 328.00; 3.01; 25.56
2017-09-02 19:00:22; 327.00; 3.03; 25.50
2017-09-02 19:00:35; 327.00; 3.03; 25.50
2017-09-02 19:00:47; 329.00; 3.02; 25.50
2017-09-02 19:00:59; 329.00; 3.01; 25.50
2017-09-02 19:15:02; 327.00; 3.03; 24.69
2017-09-02 19:15:15; 328.00; 3.02; 24.69
2017-09-02 19:15:27; 329.00; 3.01; 24.69
2017-09-02 19:15:40; 327.00; 3.03; 24.63
2017-09-02 19:15:52; 328.00; 3.02; 24.63
2017-09-02 19:30:07; 329.00; 3.01; 24.63
2017-09-02 19:30:19; 328.00; 3.02; 24.63
2017-09-02 19:30:31; 328.00; 3.02; 24.63
2017-09-02 19:30:44; 328.00; 3.02; 24.63
2017-09-02 19:30:56; 327.00; 3.02; 24.63
2017-09-02 19:45:11; 329.00; 3.01; 24.31
2017-09-02 19:45:23; 328.00; 3.01; 24.31
2017-09-02 19:45:35; 329.00; 3.01; 24.25
2017-09-02 19:45:48; 329.00; 3.01; 24.25
2017-09-02 19:46:00; 329.00; 3.01; 24.25
2017-09-02 20:00:03; 329.00; 3.01; 22.81
2017-09-02 20:00:15; 329.00; 3.01; 22.81
2017-09-02 20:00:28; 329.00; 3.01; 22.75
2017-09-02 20:00:40; 329.00; 3.01; 22.75
2017-09-02 20:00:52; 329.00; 3.01; 22.75
2017-09-02 20:15:06; 329.00; 3.01; 22.13
2017-09-02 20:15:19; 329.00; 3.01; 22.06
2017-09-02 20:15:31; 329.00; 3.01; 22.13
2017-09-02 20:15:43; 329.00; 3.01; 22.06
2017-09-02 20:15:56; 329.00; 3.01; 22.06
2017-09-02 20:30:10; 329.00; 3.01; 21.69
2017-09-02 20:30:23; 329.00; 3.01; 21.69
2017-09-02 20:30:35; 329.00; 3.01; 21.69
2017-09-02 20:30:47; 329.00; 3.01; 21.69
2017-09-02 20:31:00; 330.00; 3.00; 21.69
2017-09-02 20:45:02; 328.00; 3.02; 21.69
2017-09-02 20:45:15; 328.00; 3.02; 21.69
2017-09-02 20:45:27; 328.00; 3.02; 21.69
2017-09-02 20:45:40; 329.00; 3.01; 21.69
2017-09-02 20:45:52; 330.00; 3.00; 21.69
2017-09-02 21:00:06; 329.00; 3.01; 22.00
2017-09-02 21:00:19; 329.00; 3.01; 22.06
2017-09-02 21:00:31; 329.00; 3.01; 22.06
2017-09-02 21:00:43; 329.00; 3.01; 22.00
2017-09-02 21:00:56; 328.00; 3.02; 22.06
2017-09-02 21:15:10; 328.00; 3.02; 22.13
2017-09-02 21:15:22; 328.00; 3.02; 22.13
2017-09-02 21:15:35; 329.00; 3.01; 22.13
2017-09-02 21:15:47; 329.00; 3.01; 22.13
2017-09-02 21:16:00; 330.00; 3.00; 22.13
2017-09-02 21:30:02; 330.00; 3.00; 21.75
2017-09-02 21:30:15; 330.00; 3.00; 21.75
2017-09-02 21:30:27; 329.00; 3.01; 21.75
2017-09-02 21:30:40; 328.00; 3.02; 21.75
2017-09-02 21:30:52; 328.00; 3.02; 21.69
2017-09-02 21:45:06; 327.00; 3.03; 22.44
2017-09-02 21:45:19; 327.00; 3.03; 22.44
2017-09-02 21:45:31; 328.00; 3.02; 22.44
2017-09-02 21:45:43; 329.00; 3.01; 22.44
2017-09-02 21:45:56; 329.00; 3.01; 22.50
2017-09-02 22:00:10; 327.00; 3.03; 23.50
2017-09-02 22:00:22; 328.00; 3.02; 23.56
2017-09-02 22:00:35; 327.00; 3.03; 23.56
2017-09-02 22:00:47; 327.00; 3.03; 23.56
2017-09-02 22:01:00; 327.00; 3.03; 23.56
2017-09-02 22:15:02; 328.00; 3.02; 23.69
2017-09-02 22:15:15; 328.00; 3.02; 23.69
2017-09-02 22:15:27; 328.00; 3.02; 23.69
2017-09-02 22:15:40; 328.00; 3.02; 23.69
2017-09-02 22:15:52; 328.00; 3.02; 23.69
2017-09-02 22:30:06; 328.00; 3.02; 23.19
2017-09-02 22:30:19; 328.00; 3.02; 23.19
2017-09-02 22:30:31; 328.00; 3.02; 23.19
2017-09-02 22:30:43; 328.00; 3.02; 23.19
2017-09-02 22:30:56; 328.00; 3.02; 23.19
2017-09-02 22:45:10; 328.00; 3.02; 23.31
2017-09-02 22:45:22; 328.00; 3.02; 23.31
2017-09-02 22:45:35; 328.00; 3.02; 23.25
2017-09-02 22:45:47; 328.00; 3.02; 23.25
2017-09-02 22:45:59; 328.00; 3.02; 23.25
2017-09-02 23:00:02; 327.00; 3.03; 23.56
2017-09-02 23:00:15; 327.00; 3.03; 23.56
2017-09-02 23:00:27; 327.00; 3.03; 23.56
2017-09-02 23:00:40; 328.00; 3.02; 23.56
2017-09-02 23:00:52; 327.00; 3.03; 23.56
2017-09-02 23:15:06; 328.00; 3.02; 23.25
2017-09-02 23:15:19; 328.00; 3.02; 23.25
2017-09-02 23:15:31; 328.00; 3.02; 23.25
2017-09-02 23:15:43; 328.00; 3.02; 23.25
2017-09-02 23:15:56; 328.00; 3.02; 23.25
2017-09-02 23:30:10; 328.00; 3.02; 22.50
2017-09-02 23:30:22; 328.00; 3.02; 22.50
2017-09-02 23:30:35; 328.00; 3.02; 22.50
2017-09-02 23:30:47; 328.00; 3.02; 22.50
2017-09-02 23:31:00; 329.00; 3.01; 22.50
2017-09-02 23:45:03; 328.00; 3.02; 22.38
2017-09-02 23:45:15; 328.00; 3.02; 22.38
2017-09-02 23:45:28; 328.00; 3.02; 22.38
2017-09-02 23:45:40; 328.00; 3.02; 22.38
2017-09-02 23:45:52; 328.00; 3.02; 22.38
2017-09-03 00:00:07; 330.00; 3.00; 21.56
2017-09-03 00:00:19; 330.00; 3.00; 21.56
2017-09-03 00:00:31; 330.00; 3.00; 21.50
2017-09-03 00:00:44; 329.00; 3.01; 21.50
2017-09-03 00:00:56; 329.00; 3.01; 21.50
2017-09-03 00:15:11; 330.00; 3.00; 20.50
2017-09-03 00:15:23; 330.00; 3.00; 20.50
2017-09-03 00:15:35; 330.00; 3.00; 20.44
2017-09-03 00:15:48; 330.00; 3.00; 20.44
2017-09-03 00:16:00; 330.00; 3.00; 20.44
2017-09-03 00:30:03; 330.00; 3.00; 20.00
2017-09-03 00:30:16; 330.00; 3.00; 19.94
2017-09-03 00:30:28; 330.00; 3.00; 20.00
2017-09-03 00:30:40; 330.00; 3.00; 20.00
2017-09-03 00:30:53; 330.00; 3.00; 19.94
2017-09-03 00:45:07; 330.00; 3.00; 19.88
2017-09-03 00:45:20; 330.00; 3.00; 19.88
2017-09-03 00:45:32; 330.00; 3.00; 19.88
2017-09-03 00:45:45; 330.00; 3.00; 19.88
2017-09-03 00:45:57; 330.00; 3.00; 19.88
2017-09-03 01:00:11; 330.00; 3.00; 19.81
2017-09-03 01:00:24; 330.00; 3.00; 19.81
2017-09-03 01:00:36; 330.00; 3.00; 19.81
2017-09-03 01:00:48; 330.00; 3.00; 19.81
2017-09-03 01:15:03; 331.00; 2.99; 19.44
2017-09-03 01:15:16; 331.00; 2.99; 19.44
2017-09-03 01:15:28; 331.00; 2.99; 19.44
2017-09-03 01:15:40; 331.00; 2.99; 19.44
2017-09-03 01:15:53; 331.00; 2.99; 19.44
2017-09-03 01:30:07; 330.00; 3.00; 19.19
2017-09-03 01:30:20; 330.00; 3.00; 19.25
2017-09-03 01:30:32; 330.00; 3.00; 19.25
2017-09-03 01:30:45; 330.00; 3.00; 19.19
2017-09-03 01:30:57; 330.00; 3.00; 19.19
2017-09-03 01:45:11; 331.00; 2.99; 19.25
2017-09-03 01:45:24; 331.00; 2.99; 19.25
2017-09-03 01:45:36; 331.00; 2.99; 19.25
2017-09-03 01:45:49; 331.00; 2.99; 19.25
2017-09-03 02:00:03; 331.00; 2.99; 19.25
2017-09-03 02:00:15; 331.00; 2.99; 19.25
2017-09-03 02:00:28; 331.00; 2.99; 19.25
2017-09-03 02:00:40; 331.00; 2.99; 19.25
2017-09-03 02:00:53; 330.00; 2.99; 19.25
2017-09-03 02:15:07; 331.00; 2.99; 19.25
2017-09-03 02:15:19; 331.00; 2.99; 19.25
2017-09-03 02:15:32; 331.00; 2.99; 19.25
2017-09-03 02:15:44; 331.00; 2.99; 19.25
2017-09-03 02:15:56; 331.00; 2.99; 19.25
2017-09-03 02:30:11; 330.00; 3.00; 19.13
2017-09-03 02:30:23; 330.00; 3.00; 19.13
2017-09-03 02:30:36; 330.00; 3.00; 19.13
2017-09-03 02:30:48; 330.00; 3.00; 19.13
2017-09-03 02:45:03; 330.00; 3.00; 18.88
2017-09-03 02:45:15; 330.00; 3.00; 18.94
2017-09-03 02:45:27; 330.00; 3.00; 18.94
2017-09-03 02:45:40; 330.00; 3.00; 18.94
2017-09-03 02:45:52; 330.00; 3.00; 18.94
2017-09-03 03:00:07; 330.00; 3.00; 19.00
2017-09-03 03:00:19; 330.00; 3.00; 19.00
2017-09-03 03:00:32; 330.00; 3.00; 19.00
2017-09-03 03:00:44; 330.00; 3.00; 19.00
2017-09-03 03:00:56; 330.00; 3.00; 19.00
2017-09-03 03:15:11; 330.00; 3.00; 19.00
2017-09-03 03:15:23; 331.00; 2.99; 19.00
2017-09-03 03:15:36; 331.00; 2.99; 19.00
2017-09-03 03:15:48; 331.00; 2.99; 19.00
2017-09-03 03:16:00; 331.00; 2.99; 19.06
2017-09-03 03:30:04; 330.00; 3.00; 19.00
2017-09-03 03:30:16; 330.00; 3.00; 19.00
2017-09-03 03:30:28; 330.00; 3.00; 18.94
2017-09-03 03:30:41; 331.00; 2.99; 18.94
2017-09-03 03:30:53; 331.00; 2.99; 19.00
2017-09-03 03:45:08; 331.00; 2.99; 18.81
2017-09-03 03:45:20; 331.00; 2.99; 18.81
2017-09-03 03:45:33; 331.00; 2.99; 18.81
2017-09-03 03:45:45; 331.00; 2.99; 18.81
2017-09-03 03:45:57; 330.00; 3.00; 18.81
2017-09-03 04:00:12; 330.00; 3.00; 18.75
2017-09-03 04:00:24; 330.00; 3.00; 18.81
2017-09-03 04:00:37; 330.00; 3.00; 18.75
2017-09-03 04:00:49; 330.00; 3.00; 18.75
2017-09-03 04:15:04; 332.00; 2.98; 18.63
2017-09-03 04:15:16; 331.00; 2.99; 18.63
2017-09-03 04:15:28; 332.00; 2.98; 18.63
2017-09-03 04:15:41; 331.00; 2.99; 18.63
2017-09-03 04:15:53; 330.00; 3.00; 18.63
2017-09-03 04:30:08; 331.00; 2.99; 18.50
2017-09-03 04:30:20; 331.00; 2.99; 18.50
2017-09-03 04:30:33; 330.00; 3.00; 18.50
2017-09-03 04:30:45; 331.00; 2.99; 18.50
2017-09-03 04:30:57; 331.00; 3.00; 18.50
2017-09-03 04:45:12; 331.00; 2.99; 18.38
2017-09-03 04:45:24; 331.00; 2.99; 18.44
2017-09-03 04:45:37; 331.00; 2.99; 18.44
2017-09-03 04:45:49; 331.00; 2.99; 18.38
2017-09-03 05:00:04; 331.00; 2.99; 18.31
2017-09-03 05:00:16; 331.00; 2.99; 18.31
2017-09-03 05:00:28; 331.00; 2.99; 18.31
2017-09-03 05:00:41; 332.00; 2.99; 18.31
2017-09-03 05:00:53; 331.00; 2.99; 18.31
2017-09-03 05:15:08; 331.00; 2.99; 18.25
2017-09-03 05:15:20; 331.00; 2.99; 18.25
2017-09-03 05:15:32; 331.00; 2.99; 18.25
2017-09-03 05:15:45; 331.00; 2.99; 18.25
2017-09-03 05:15:57; 331.00; 2.99; 18.25
2017-09-03 05:30:11; 331.00; 2.99; 18.19
2017-09-03 05:30:24; 331.00; 2.99; 18.19
2017-09-03 05:30:36; 331.00; 2.99; 18.19
2017-09-03 05:30:49; 331.00; 2.99; 18.19
2017-09-03 05:45:03; 331.00; 2.99; 18.00
2017-09-03 05:45:15; 331.00; 2.99; 18.00
2017-09-03 05:45:28; 331.00; 2.99; 18.00
2017-09-03 05:45:40; 331.00; 2.99; 18.00
2017-09-03 05:45:52; 331.00; 2.99; 18.00
2017-09-03 06:00:07; 331.00; 2.99; 17.75
2017-09-03 06:00:19; 331.00; 2.99; 17.75
2017-09-03 06:00:32; 331.00; 2.99; 17.75
2017-09-03 06:00:44; 331.00; 2.99; 17.75
2017-09-03 06:00:56; 331.00; 2.99; 17.75
2017-09-03 06:15:11; 332.00; 2.98; 17.25
2017-09-03 06:15:24; 332.00; 2.98; 17.25
2017-09-03 06:15:36; 332.00; 2.98; 17.25
2017-09-03 06:15:48; 332.00; 2.98; 17.25
2017-09-03 06:30:03; 332.00; 2.98; 16.94
2017-09-03 06:30:15; 331.00; 2.98; 16.94
2017-09-03 06:30:28; 332.00; 2.98; 16.94
2017-09-03 06:30:40; 332.00; 2.98; 16.94
2017-09-03 06:30:53; 332.00; 2.98; 16.94
2017-09-03 06:45:08; 331.00; 2.99; 16.94
2017-09-03 06:45:20; 332.00; 2.99; 16.94
2017-09-03 06:45:32; 332.00; 2.98; 16.94
2017-09-03 06:45:45; 332.00; 2.98; 16.94
2017-09-03 06:45:57; 332.00; 2.98; 16.94
2017-09-03 07:00:01; 333.00; 2.97; 16.81
2017-09-03 07:00:13; 332.00; 2.98; 16.81
2017-09-03 07:00:25; 332.00; 2.98; 16.81
2017-09-03 07:00:38; 332.00; 2.98; 16.81
2017-09-03 07:00:50; 332.00; 2.98; 16.81
2017-09-03 07:15:05; 332.00; 2.98; 16.69
2017-09-03 07:15:18; 332.00; 2.98; 16.69
2017-09-03 07:15:30; 332.00; 2.98; 16.69
2017-09-03 07:15:42; 333.00; 2.98; 16.69
2017-09-03 07:15:55; 332.00; 2.98; 16.63
2017-09-03 07:30:10; 332.00; 2.98; 16.63
2017-09-03 07:30:22; 332.00; 2.98; 16.63
2017-09-03 07:30:35; 333.00; 2.97; 16.63
2017-09-03 07:30:47; 332.00; 2.98; 16.63
2017-09-03 07:30:59; 332.00; 2.98; 16.63
2017-09-03 07:45:03; 332.00; 2.98; 16.75
2017-09-03 07:45:16; 332.00; 2.98; 16.75
2017-09-03 07:45:28; 333.00; 2.98; 16.75
2017-09-03 07:45:40; 332.00; 2.98; 16.75
2017-09-03 07:45:53; 332.00; 2.98; 16.75
2017-09-03 08:00:08; 332.00; 2.98; 16.81
2017-09-03 08:00:20; 332.00; 2.98; 16.81
2017-09-03 08:00:33; 332.00; 2.98; 16.75
2017-09-03 08:00:45; 332.00; 2.98; 16.75
2017-09-03 08:00:57; 331.00; 2.99; 16.81
2017-09-03 08:15:01; 332.00; 2.98; 16.75
2017-09-03 08:15:13; 332.00; 2.98; 16.75
2017-09-03 08:15:26; 332.00; 2.98; 16.75
2017-09-03 08:15:38; 332.00; 2.98; 16.75
2017-09-03 08:15:50; 332.00; 2.98; 16.75
2017-09-03 08:30:05; 332.00; 2.98; 16.88
2017-09-03 08:30:18; 332.00; 2.98; 16.88
2017-09-03 08:30:30; 332.00; 2.98; 16.88
2017-09-03 08:30:42; 332.00; 2.98; 16.88
2017-09-03 08:30:55; 332.00; 2.98; 16.88
2017-09-03 08:45:10; 332.00; 2.98; 17.56
2017-09-03 08:45:22; 333.00; 2.97; 17.63
2017-09-03 08:45:35; 332.00; 2.97; 17.63
2017-09-03 08:45:47; 332.00; 2.98; 17.63
2017-09-03 08:45:59; 332.00; 2.98; 17.63
2017-09-03 09:00:03; 332.00; 2.98; 17.81
2017-09-03 09:00:15; 332.00; 2.98; 17.81
2017-09-03 09:00:28; 332.00; 2.98; 17.75
2017-09-03 09:00:40; 332.00; 2.98; 17.75
2017-09-03 09:00:52; 332.00; 2.98; 17.75
2017-09-03 09:15:07; 331.00; 2.98; 18.69
2017-09-03 09:15:19; 332.00; 2.98; 18.69
2017-09-03 09:15:32; 332.00; 2.98; 18.69
2017-09-03 09:15:44; 332.00; 2.98; 18.75
2017-09-03 09:15:57; 332.00; 2.99; 18.75
2017-09-03 09:30:11; 331.00; 2.98; 18.38
2017-09-03 09:30:24; 332.00; 2.98; 18.38
2017-09-03 09:30:36; 331.00; 2.99; 18.38
2017-09-03 09:30:48; 332.00; 2.98; 18.38
2017-09-03 09:45:03; 331.00; 2.99; 18.56
2017-09-03 09:45:16; 332.00; 2.99; 18.63
2017-09-03 09:45:28; 331.00; 2.99; 18.56
2017-09-03 09:45:40; 332.00; 2.98; 18.63
2017-09-03 09:45:53; 332.00; 2.98; 18.63
2017-09-03 10:00:07; 332.00; 2.98; 18.56
2017-09-03 10:00:20; 331.00; 2.99; 18.56
2017-09-03 10:00:32; 332.00; 2.98; 18.56
2017-09-03 10:00:45; 332.00; 2.98; 18.56
2017-09-03 10:00:57; 332.00; 2.98; 18.56
2017-09-03 10:15:12; 331.00; 2.99; 18.19
2017-09-03 10:15:24; 332.00; 2.98; 18.19
2017-09-03 10:15:36; 332.00; 2.98; 18.19
2017-09-03 10:15:49; 331.00; 2.99; 18.13
2017-09-03 10:30:03; 331.00; 2.99; 18.31
2017-09-03 10:30:16; 331.00; 2.99; 18.38
2017-09-03 10:30:28; 332.00; 2.98; 18.31
2017-09-03 10:30:40; 332.00; 2.98; 18.31
2017-09-03 10:30:53; 332.00; 2.98; 18.31
2017-09-03 10:45:08; 332.00; 2.97; 18.56
2017-09-03 10:45:20; 332.00; 2.98; 18.56
2017-09-03 10:45:32; 332.00; 2.97; 18.50
2017-09-03 10:45:45; 332.00; 2.98; 18.56
2017-09-03 10:45:57; 331.00; 2.99; 18.56
2017-09-03 11:00:01; 331.00; 2.99; 18.44
2017-09-03 11:00:13; 332.00; 2.98; 18.50
2017-09-03 11:00:25; 331.00; 2.99; 18.50
2017-09-03 11:00:38; 331.00; 2.99; 18.50
2017-09-03 11:00:50; 332.00; 2.98; 18.50
2017-09-03 11:15:05; 332.00; 2.99; 18.19
2017-09-03 11:15:17; 331.00; 2.99; 18.31
2017-09-03 11:15:30; 332.00; 2.98; 18.38
2017-09-03 11:15:42; 331.00; 2.99; 18.38
2017-09-03 11:15:54; 332.00; 2.98; 18.31
2017-09-03 11:30:09; 332.00; 2.98; 18.00
2017-09-03 11:30:22; 332.00; 2.99; 18.00
2017-09-03 11:30:34; 331.00; 2.99; 18.06
2017-09-03 11:30:46; 333.00; 2.97; 18.06
2017-09-03 11:30:59; 331.00; 2.99; 18.06
2017-09-03 11:45:02; 332.00; 2.98; 19.19
2017-09-03 11:45:15; 331.00; 2.98; 19.25
2017-09-03 11:45:27; 333.00; 2.98; 19.38
2017-09-03 11:45:39; 331.00; 2.99; 19.44
2017-09-03 11:45:52; 332.00; 2.98; 19.50
2017-09-03 12:00:07; 332.00; 2.98; 20.75
2017-09-03 12:00:19; 332.00; 2.98; 20.69
2017-09-03 12:00:31; 332.00; 2.98; 20.63
2017-09-03 12:00:44; 330.00; 3.00; 20.56
2017-09-03 12:00:56; 332.00; 2.99; 20.56
2017-09-03 12:15:11; 332.00; 2.98; 21.75
2017-09-03 12:15:23; 332.00; 2.97; 21.63
2017-09-03 12:15:35; 332.00; 2.99; 21.56
2017-09-03 12:15:48; 331.00; 2.99; 21.50
2017-09-03 12:16:00; 331.00; 2.99; 21.44
2017-09-03 12:30:03; 332.00; 2.99; 20.63
2017-09-03 12:30:16; 332.00; 2.98; 20.63
2017-09-03 12:30:28; 331.00; 2.99; 20.56
2017-09-03 12:30:40; 332.00; 2.99; 20.56
2017-09-03 12:30:53; 332.00; 2.98; 20.63
2017-09-03 12:45:07; 331.00; 2.99; 20.38
2017-09-03 12:45:20; 331.00; 2.98; 20.31
2017-09-03 12:45:32; 330.00; 3.00; 20.31
2017-09-03 12:45:45; 332.00; 2.98; 20.31
2017-09-03 12:45:57; 332.00; 2.98; 20.31
2017-09-03 13:00:01; 332.00; 2.98; 19.88
2017-09-03 13:00:13; 334.00; 2.96; 19.88
2017-09-03 13:00:25; 332.00; 2.99; 19.94
2017-09-03 13:00:38; 332.00; 2.98; 19.94
2017-09-03 13:00:50; 332.00; 2.98; 19.94
2017-09-03 13:15:05; 333.00; 2.97; 18.06
2017-09-03 13:15:18; 334.00; 2.97; 18.00
2017-09-03 13:15:30; 331.00; 2.99; 17.94
2017-09-03 13:15:43; 332.00; 2.97; 18.00
2017-09-03 13:15:55; 332.00; 2.98; 18.00
2017-09-03 13:30:10; 332.00; 2.98; 18.31
2017-09-03 13:30:22; 332.00; 2.97; 18.31
2017-09-03 13:30:35; 333.00; 2.97; 18.38
2017-09-03 13:30:47; 331.00; 2.99; 18.38
2017-09-03 13:30:59; 331.00; 2.99; 18.50
2017-09-03 13:45:03; 329.00; 3.01; 17.75
2017-09-03 13:45:15; 332.00; 2.98; 17.75
2017-09-03 13:45:28; 330.00; 3.00; 17.75
2017-09-03 13:45:40; 332.00; 2.98; 17.69
2017-09-03 13:45:52; 331.00; 2.98; 17.69
2017-09-03 14:00:08; 331.00; 3.00; 17.75
2017-09-03 14:00:20; 332.00; 2.98; 17.81
2017-09-03 14:00:32; 332.00; 2.98; 17.81
2017-09-03 14:00:45; 331.00; 3.00; 17.81
2017-09-03 14:00:57; 334.00; 2.96; 17.88
2017-09-03 14:15:01; 332.00; 2.98; 18.19
2017-09-03 14:15:13; 334.00; 2.96; 18.19
2017-09-03 14:15:25; 332.00; 2.98; 18.19
2017-09-03 14:15:38; 334.00; 2.97; 18.19
2017-09-03 14:15:50; 332.00; 2.98; 18.19
2017-09-03 14:30:05; 334.00; 2.97; 18.13
2017-09-03 14:30:18; 334.00; 2.97; 18.06
2017-09-03 14:30:30; 333.00; 2.97; 18.06
2017-09-03 14:30:42; 333.00; 2.97; 18.06
2017-09-03 14:30:55; 331.00; 2.99; 18.06
2017-09-03 14:45:10; 331.00; 3.00; 19.50
2017-09-03 14:45:22; 331.00; 2.99; 19.50
2017-09-03 14:45:34; 332.00; 2.98; 19.56
2017-09-03 14:45:47; 331.00; 2.99; 19.56
2017-09-03 14:45:59; 332.00; 2.98; 19.50
2017-09-03 15:00:03; 331.00; 3.00; 20.19
2017-09-03 15:00:15; 331.00; 2.99; 20.25
2017-09-03 15:00:27; 332.00; 2.99; 20.25
2017-09-03 15:00:40; 330.00; 2.99; 20.31
2017-09-03 15:00:52; 330.00; 3.00; 20.38
2017-09-03 15:15:07; 332.00; 2.98; 20.31
2017-09-03 15:15:19; 331.00; 2.99; 20.38
2017-09-03 15:15:32; 330.00; 3.00; 20.38
2017-09-03 15:15:44; 333.00; 2.97; 20.38
2017-09-03 15:15:56; 331.00; 2.99; 20.31
2017-09-03 15:30:11; 332.00; 2.98; 21.00
2017-09-03 15:30:24; 331.00; 2.99; 20.94
2017-09-03 15:30:36; 331.00; 2.98; 20.94
2017-09-03 15:30:48; 330.00; 3.00; 21.00
2017-09-03 15:45:03; 332.00; 2.98; 20.06
2017-09-03 15:45:16; 333.00; 2.97; 20.00
2017-09-03 15:45:28; 332.00; 2.98; 20.00
2017-09-03 15:45:40; 333.00; 2.97; 19.94
2017-09-03 15:45:53; 331.00; 3.00; 19.94
2017-09-03 16:00:08; 329.00; 3.01; 18.75
2017-09-03 16:00:20; 332.00; 2.98; 18.75
2017-09-03 16:00:33; 332.00; 2.98; 18.75
2017-09-03 16:00:45; 329.00; 3.00; 18.75
2017-09-03 16:00:57; 332.00; 2.97; 18.69
2017-09-03 16:15:01; 333.00; 2.97; 18.06
2017-09-03 16:15:13; 332.00; 2.98; 18.06
2017-09-03 16:15:26; 331.00; 2.98; 18.06
2017-09-03 16:15:38; 331.00; 2.99; 18.06
2017-09-03 16:15:50; 331.00; 2.99; 18.00
2017-09-03 16:30:05; 332.00; 2.99; 17.50
2017-09-03 16:30:18; 332.00; 2.98; 17.50
2017-09-03 16:30:30; 332.00; 2.99; 17.50
2017-09-03 16:30:42; 332.00; 2.99; 17.50
2017-09-03 16:30:55; 332.00; 2.98; 17.56
2017-09-03 16:45:10; 332.00; 2.98; 17.00
2017-09-03 16:45:23; 333.00; 2.97; 17.00
2017-09-03 16:45:35; 332.00; 2.98; 16.94
2017-09-03 16:45:47; 333.00; 2.97; 16.94
2017-09-03 16:46:00; 332.00; 2.97; 16.94
2017-09-03 17:00:04; 333.00; 2.97; 16.63
2017-09-03 17:00:16; 333.00; 2.97; 16.63
2017-09-03 17:00:28; 333.00; 2.97; 16.63
2017-09-03 17:00:41; 334.00; 2.97; 16.56
2017-09-03 17:00:53; 333.00; 2.98; 16.56
2017-09-03 17:15:08; 334.00; 2.96; 16.50
2017-09-03 17:15:21; 333.00; 2.98; 16.50
2017-09-03 17:15:33; 333.00; 2.98; 16.50
2017-09-03 17:15:45; 334.00; 2.96; 16.44
2017-09-03 17:15:58; 333.00; 2.97; 16.50
2017-09-03 17:30:02; 333.00; 2.97; 16.25
2017-09-03 17:30:14; 331.00; 2.99; 16.31
2017-09-03 17:30:26; 332.00; 2.98; 16.25
2017-09-03 17:30:39; 335.00; 2.95; 16.25
2017-09-03 17:30:51; 334.00; 2.96; 16.25
2017-09-03 17:45:06; 334.00; 2.95; 16.00
2017-09-03 17:45:19; 332.00; 2.97; 15.94
2017-09-03 17:45:31; 334.00; 2.96; 15.94
2017-09-03 17:45:44; 333.00; 2.97; 16.00
2017-09-03 17:45:56; 334.00; 2.96; 16.00
2017-09-03 18:00:11; 335.00; 2.95; 15.75
2017-09-03 18:00:24; 331.00; 2.99; 15.75
2017-09-03 18:00:36; 335.00; 2.95; 15.75
2017-09-03 18:00:48; 333.00; 2.97; 15.75
2017-09-03 18:15:04; 332.00; 2.98; 15.50
2017-09-03 18:15:16; 335.00; 2.95; 15.50
2017-09-03 18:15:28; 333.00; 2.97; 15.50
2017-09-03 18:15:41; 332.00; 2.98; 15.50
2017-09-03 18:15:53; 331.00; 2.99; 15.50
2017-09-03 18:30:08; 333.00; 2.98; 15.31
2017-09-03 18:30:20; 333.00; 2.97; 15.31
2017-09-03 18:30:32; 332.00; 2.98; 15.31
2017-09-03 18:30:45; 332.00; 2.98; 15.31
2017-09-03 18:30:57; 334.00; 2.97; 15.31
2017-09-03 18:45:11; 334.00; 2.96; 15.00
2017-09-03 18:45:24; 334.00; 2.96; 15.00
2017-09-03 18:45:36; 333.00; 2.98; 14.94
2017-09-03 18:45:48; 332.00; 2.98; 14.94
2017-09-03 19:00:03; 335.00; 2.94; 14.63
2017-09-03 19:00:16; 333.00; 2.96; 14.63
2017-09-03 19:00:28; 331.00; 2.99; 14.63
2017-09-03 19:00:41; 333.00; 2.97; 14.63
2017-09-03 19:00:53; 333.00; 2.97; 14.63
2017-09-03 19:15:08; 336.00; 2.94; 14.56
2017-09-03 19:15:21; 334.00; 2.96; 14.56
2017-09-03 19:15:33; 333.00; 2.97; 14.56
2017-09-03 19:15:45; 334.00; 2.97; 14.56
2017-09-03 19:15:58; 334.00; 2.96; 14.56
2017-09-03 19:30:02; 333.00; 2.97; 14.44
2017-09-03 19:30:14; 336.00; 2.94; 14.44
2017-09-03 19:30:26; 338.00; 2.92; 14.44
2017-09-03 19:30:39; 335.00; 2.94; 14.44
2017-09-03 19:30:51; 337.00; 2.93; 14.44
2017-09-03 19:45:07; 335.00; 2.95; 14.19
2017-09-03 19:45:19; 333.00; 2.96; 14.25
2017-09-03 19:45:31; 334.00; 2.96; 14.25
2017-09-03 19:45:44; 334.00; 2.96; 14.19
2017-09-03 19:45:56; 335.00; 2.95; 14.19
2017-09-03 20:00:12; 334.00; 2.96; 13.94
2017-09-03 20:00:24; 337.00; 2.93; 13.94
2017-09-03 20:00:37; 333.00; 2.97; 13.94
2017-09-03 20:00:49; 332.00; 2.98; 13.94
2017-09-03 20:15:05; 336.00; 2.93; 13.75
2017-09-03 20:15:17; 338.00; 2.93; 13.75
2017-09-03 20:15:30; 337.00; 2.93; 13.75
2017-09-03 20:15:42; 335.00; 2.96; 13.75
2017-09-03 20:15:55; 335.00; 2.94; 13.75
2017-09-03 20:30:10; 337.00; 2.93; 13.56
2017-09-03 20:30:23; 338.00; 2.93; 13.56
2017-09-03 20:30:35; 336.00; 2.94; 13.63
2017-09-03 20:30:48; 336.00; 2.94; 13.56
2017-09-03 20:31:00; 336.00; 2.93; 13.63
2017-09-03 20:45:04; 338.00; 2.92; 13.31
2017-09-03 20:45:17; 336.00; 2.94; 13.31
2017-09-03 20:45:29; 335.00; 2.95; 13.31
2017-09-03 20:45:41; 337.00; 2.93; 13.31
2017-09-03 20:45:54; 338.00; 2.92; 13.31
2017-09-03 21:00:09; 335.00; 2.96; 13.06
2017-09-03 21:00:22; 337.00; 2.93; 13.06
2017-09-03 21:00:34; 337.00; 2.93; 13.06
2017-09-03 21:00:47; 338.00; 2.93; 13.06
2017-09-03 21:00:59; 333.00; 2.96; 13.06
2017-09-03 21:15:03; 337.00; 2.93; 12.63
2017-09-03 21:15:16; 335.00; 2.95; 12.63
2017-09-03 21:15:28; 337.00; 2.92; 12.63
2017-09-03 21:15:40; 339.00; 2.90; 12.63
2017-09-03 21:15:53; 338.00; 2.92; 12.56
2017-09-03 21:30:08; 337.00; 2.93; 12.25
2017-09-03 21:30:21; 335.00; 2.95; 12.25
2017-09-03 21:30:33; 333.00; 2.96; 12.25
2017-09-03 21:30:46; 337.00; 2.94; 12.25
2017-09-03 21:30:58; 335.00; 2.94; 12.25
2017-09-03 21:45:02; 336.00; 2.94; 12.13
2017-09-03 21:45:15; 334.00; 2.96; 12.13
2017-09-03 21:45:27; 336.00; 2.94; 12.13
2017-09-03 21:45:39; 335.00; 2.95; 12.13
2017-09-03 21:45:52; 338.00; 2.92; 12.13
2017-09-03 22:00:07; 335.00; 2.95; 12.19
2017-09-03 22:00:20; 338.00; 2.91; 12.19
2017-09-03 22:00:32; 336.00; 2.95; 12.19
2017-09-03 22:00:45; 334.00; 2.95; 12.25
2017-09-03 22:00:57; 337.00; 2.92; 12.25
2017-09-03 22:15:01; 333.00; 2.97; 12.44
2017-09-03 22:15:14; 335.00; 2.95; 12.44
2017-09-03 22:15:26; 335.00; 2.96; 12.44
2017-09-03 22:15:38; 336.00; 2.95; 12.44
2017-09-03 22:15:51; 337.00; 2.93; 12.44
2017-09-03 22:30:06; 336.00; 2.94; 12.56
2017-09-03 22:30:19; 337.00; 2.92; 12.56
2017-09-03 22:30:31; 336.00; 2.94; 12.56
2017-09-03 22:30:44; 336.00; 2.94; 12.56
2017-09-03 22:30:56; 334.00; 2.96; 12.56
2017-09-03 22:45:12; 336.00; 2.94; 12.94
2017-09-03 22:45:24; 338.00; 2.91; 12.94
2017-09-03 22:45:36; 335.00; 2.94; 12.94
2017-09-03 22:45:49; 338.00; 2.92; 13.00
2017-09-03 23:00:04; 337.00; 2.94; 12.75
2017-09-03 23:00:17; 337.00; 2.94; 12.75
2017-09-03 23:00:29; 336.00; 2.93; 12.75
2017-09-03 23:00:41; 336.00; 2.94; 12.75
2017-09-03 23:00:54; 335.00; 2.95; 12.75
2017-09-03 23:15:09; 337.00; 2.93; 12.75
2017-09-03 23:15:22; 337.00; 2.93; 12.75
2017-09-03 23:15:34; 337.00; 2.93; 12.81
2017-09-03 23:15:47; 335.00; 2.95; 12.75
2017-09-03 23:15:59; 334.00; 2.95; 12.75
2017-09-03 23:30:03; 338.00; 2.93; 12.75
2017-09-03 23:30:15; 336.00; 2.93; 12.75
2017-09-03 23:30:28; 338.00; 2.93; 12.75
2017-09-03 23:30:40; 335.00; 2.95; 12.75
2017-09-03 23:30:53; 337.00; 2.94; 12.75
2017-09-03 23:45:08; 335.00; 2.94; 13.00
2017-09-03 23:45:20; 335.00; 2.95; 13.00
2017-09-03 23:45:33; 336.00; 2.94; 13.00
2017-09-03 23:45:45; 336.00; 2.94; 13.00
2017-09-03 23:45:58; 335.00; 2.95; 13.00
2017-09-04 00:00:02; 335.00; 2.95; 12.88
2017-09-04 00:00:14; 337.00; 2.93; 12.88
2017-09-04 00:00:26; 336.00; 2.93; 12.88
2017-09-04 00:00:39; 335.00; 2.95; 12.88
2017-09-04 00:00:51; 336.00; 2.94; 12.88
2017-09-04 00:15:07; 334.00; 2.96; 12.63
2017-09-04 00:15:19; 338.00; 2.92; 12.69
2017-09-04 00:15:31; 338.00; 2.93; 12.63
2017-09-04 00:15:44; 335.00; 2.95; 12.63
2017-09-04 00:15:56; 336.00; 2.94; 12.63
2017-09-04 00:30:12; 339.00; 2.91; 12.50
2017-09-04 00:30:24; 336.00; 2.94; 12.50
2017-09-04 00:30:37; 337.00; 2.92; 12.56
2017-09-04 00:30:49; 334.00; 2.96; 12.56
2017-09-04 00:45:04; 335.00; 2.95; 12.38
2017-09-04 00:45:17; 338.00; 2.93; 12.31
2017-09-04 00:45:29; 334.00; 2.96; 12.38
2017-09-04 00:45:42; 334.00; 2.96; 12.38
2017-09-04 00:45:54; 336.00; 2.93; 12.38
2017-09-04 01:00:10; 336.00; 2.94; 12.75
2017-09-04 01:00:22; 335.00; 2.94; 12.75
2017-09-04 01:00:34; 336.00; 2.94; 12.75
2017-09-04 01:00:47; 337.00; 2.93; 12.75
2017-09-04 01:00:59; 337.00; 2.94; 12.75
2017-09-04 01:15:03; 336.00; 2.95; 12.75
2017-09-04 01:15:16; 336.00; 2.94; 12.75
2017-09-04 01:15:28; 334.00; 2.96; 12.75
2017-09-04 01:15:40; 336.00; 2.94; 12.75
2017-09-04 01:15:53; 336.00; 2.95; 12.75
2017-09-04 01:30:08; 337.00; 2.93; 12.75
2017-09-04 01:30:21; 336.00; 2.94; 12.75
2017-09-04 01:30:33; 335.00; 2.95; 12.75
2017-09-04 01:30:45; 333.00; 2.96; 12.75
2017-09-04 01:30:58; 333.00; 2.96; 12.75
2017-09-04 01:45:02; 333.00; 2.97; 12.81
2017-09-04 01:45:14; 334.00; 2.96; 12.81
2017-09-04 01:45:27; 336.00; 2.95; 12.81
2017-09-04 01:45:39; 334.00; 2.96; 12.81
2017-09-04 01:45:51; 334.00; 2.96; 12.81
2017-09-04 02:00:07; 335.00; 2.95; 12.88
2017-09-04 02:00:19; 333.00; 2.97; 12.88
2017-09-04 02:00:32; 331.00; 2.99; 12.81
2017-09-04 02:00:44; 334.00; 2.96; 12.81
2017-09-04 02:00:56; 331.00; 2.98; 12.88
2017-09-04 02:15:01; 333.00; 2.96; 12.94
2017-09-04 02:15:13; 330.00; 3.00; 12.94
2017-09-04 02:15:25; 331.00; 2.99; 12.88
2017-09-04 02:15:38; 332.00; 2.98; 12.88
2017-09-04 02:15:50; 332.00; 2.98; 12.88
2017-09-04 02:30:06; 332.00; 2.98; 12.81
2017-09-04 02:30:18; 332.00; 2.98; 12.81
2017-09-04 02:30:30; 331.00; 2.99; 12.75
2017-09-04 02:30:43; 331.00; 2.99; 12.75
2017-09-04 02:30:55; 331.00; 2.98; 12.75
2017-09-04 02:45:11; 332.00; 2.98; 12.44
2017-09-04 02:45:23; 332.00; 2.98; 12.44
2017-09-04 02:45:35; 330.00; 3.00; 12.44
2017-09-04 02:45:48; 332.00; 2.98; 12.50
2017-09-04 02:46:00; 333.00; 2.98; 12.50
2017-09-04 03:00:04; 330.00; 3.00; 12.44
2017-09-04 03:00:16; 332.00; 2.98; 12.44
2017-09-04 03:00:29; 332.00; 2.98; 12.44
2017-09-04 03:00:41; 332.00; 2.98; 12.44
2017-09-04 03:00:54; 332.00; 2.98; 12.44
2017-09-04 03:15:09; 332.00; 2.98; 12.56
2017-09-04 03:15:21; 331.00; 2.98; 12.56
2017-09-04 03:15:34; 332.00; 2.98; 12.56
2017-09-04 03:15:46; 331.00; 2.98; 12.63
2017-09-04 03:15:59; 333.00; 2.97; 12.63
2017-09-04 03:30:03; 332.00; 2.98; 12.69
2017-09-04 03:30:15; 333.00; 2.97; 12.69
2017-09-04 03:30:27; 332.00; 2.98; 12.69
2017-09-04 03:30:40; 332.00; 2.98; 12.69
2017-09-04 03:30:52; 332.00; 2.97; 12.69
2017-09-04 03:45:07; 332.00; 2.98; 12.75
2017-09-04 03:45:20; 333.00; 2.98; 12.75
2017-09-04 03:45:32; 331.00; 2.99; 12.75
2017-09-04 03:45:45; 331.00; 2.99; 12.75
2017-09-04 03:45:57; 333.00; 2.97; 12.75
2017-09-04 04:00:01; 332.00; 2.97; 12.81
2017-09-04 04:00:13; 332.00; 2.98; 12.81
2017-09-04 04:00:26; 332.00; 2.98; 12.81
2017-09-04 04:00:38; 332.00; 2.97; 12.81
2017-09-04 04:00:50; 332.00; 2.98; 12.81
2017-09-04 04:15:06; 332.00; 2.98; 12.63
2017-09-04 04:15:18; 331.00; 2.99; 12.63
2017-09-04 04:15:31; 331.00; 2.99; 12.63
2017-09-04 04:15:43; 332.00; 2.98; 12.63
2017-09-04 04:15:55; 332.00; 2.98; 12.63
2017-09-04 04:30:11; 332.00; 2.97; 12.19
2017-09-04 04:30:23; 332.00; 2.97; 12.25
2017-09-04 04:30:36; 332.00; 2.97; 12.25
2017-09-04 04:30:48; 330.00; 3.00; 12.25
2017-09-04 04:45:04; 333.00; 2.97; 12.06
2017-09-04 04:45:16; 332.00; 2.98; 12.06
2017-09-04 04:45:29; 334.00; 2.96; 12.06
2017-09-04 04:45:41; 332.00; 2.98; 12.13
2017-09-04 04:45:53; 330.00; 3.00; 12.13
2017-09-04 05:00:09; 334.00; 2.96; 12.19
2017-09-04 05:00:21; 333.00; 2.97; 12.13
2017-09-04 05:00:34; 334.00; 2.96; 12.13
2017-09-04 05:00:46; 333.00; 2.97; 12.13
2017-09-04 05:00:58; 331.00; 2.98; 12.13
2017-09-04 05:15:02; 332.00; 2.99; 12.19
2017-09-04 05:15:15; 332.00; 2.98; 12.19
2017-09-04 05:15:27; 333.00; 2.97; 12.19
2017-09-04 05:15:40; 330.00; 3.00; 12.19
2017-09-04 05:15:52; 333.00; 2.97; 12.19
2017-09-04 05:30:07; 333.00; 2.97; 12.06
2017-09-04 05:30:20; 332.00; 2.97; 12.06
2017-09-04 05:30:32; 333.00; 2.97; 12.06
2017-09-04 05:30:45; 333.00; 2.97; 12.06
2017-09-04 05:30:57; 332.00; 2.98; 12.06
2017-09-04 05:45:01; 333.00; 2.98; 11.75
2017-09-04 05:45:14; 335.00; 2.95; 11.75
2017-09-04 05:45:26; 334.00; 2.96; 11.75
2017-09-04 05:45:38; 334.00; 2.95; 11.69
2017-09-04 05:45:51; 334.00; 2.96; 11.75
2017-09-04 06:00:06; 334.00; 2.97; 11.50
2017-09-04 06:00:19; 333.00; 2.97; 11.50
2017-09-04 06:00:31; 333.00; 2.97; 11.56
2017-09-04 06:00:43; 331.00; 2.99; 11.50
2017-09-04 06:00:56; 336.00; 2.93; 11.50
2017-09-04 06:15:12; 335.00; 2.95; 11.44
2017-09-04 06:15:24; 339.00; 2.92; 11.44
2017-09-04 06:15:36; 333.00; 2.97; 11.44
2017-09-04 06:15:49; 333.00; 2.97; 11.44
2017-09-04 06:30:04; 333.00; 2.97; 11.56
2017-09-04 06:30:17; 336.00; 2.94; 11.56
2017-09-04 06:30:29; 336.00; 2.95; 11.56
2017-09-04 06:30:41; 335.00; 2.95; 11.56
2017-09-04 06:30:54; 333.00; 2.97; 11.56
2017-09-04 06:45:09; 335.00; 2.95; 11.50
2017-09-04 06:45:22; 334.00; 2.96; 11.50
2017-09-04 06:45:34; 337.00; 2.94; 11.50
2017-09-04 06:45:47; 334.00; 2.96; 11.50
2017-09-04 06:45:59; 338.00; 2.93; 11.50
2017-09-04 07:00:03; 335.00; 2.95; 11.44
2017-09-04 07:00:16; 335.00; 2.95; 11.44
2017-09-04 07:00:28; 335.00; 2.95; 11.44
2017-09-04 07:00:41; 333.00; 2.97; 11.44
2017-09-04 07:00:53; 335.00; 2.95; 11.44
2017-09-04 07:15:09; 335.00; 2.95; 11.13
2017-09-04 07:15:21; 332.00; 2.98; 11.13
2017-09-04 07:15:33; 336.00; 2.94; 11.13
2017-09-04 07:15:46; 335.00; 2.95; 11.06
2017-09-04 07:15:58; 334.00; 2.96; 11.06
2017-09-04 07:30:02; 335.00; 2.95; 10.81
2017-09-04 07:30:15; 336.00; 2.94; 10.88
2017-09-04 07:30:27; 335.00; 2.95; 10.81
2017-09-04 07:30:40; 335.00; 2.95; 10.81
2017-09-04 07:30:52; 332.00; 2.98; 10.81
2017-09-04 07:45:08; 334.00; 2.96; 10.81
2017-09-04 07:45:20; 333.00; 2.97; 10.81
2017-09-04 07:45:32; 336.00; 2.94; 10.88
2017-09-04 07:45:45; 335.00; 2.94; 10.88
2017-09-04 07:45:57; 334.00; 2.95; 10.81
2017-09-04 08:00:02; 334.00; 2.96; 10.81
2017-09-04 08:00:14; 336.00; 2.93; 10.81
2017-09-04 08:00:26; 334.00; 2.96; 10.88
2017-09-04 08:00:39; 336.00; 2.94; 10.88
2017-09-04 08:00:51; 334.00; 2.96; 10.88
2017-09-04 08:15:07; 334.00; 2.95; 10.81
2017-09-04 08:15:19; 333.00; 2.97; 10.88
2017-09-04 08:15:32; 337.00; 2.93; 10.88
2017-09-04 08:15:44; 335.00; 2.95; 10.88
2017-09-04 08:15:56; 334.00; 2.96; 10.88
2017-09-04 08:30:01; 334.00; 2.95; 10.81
2017-09-04 08:30:13; 335.00; 2.95; 10.81
2017-09-04 08:30:25; 334.00; 2.95; 10.81
2017-09-04 08:30:38; 332.00; 2.98; 10.81
2017-09-04 08:30:50; 335.00; 2.95; 10.81
2017-09-04 08:45:06; 331.00; 3.00; 10.69
2017-09-04 08:45:18; 335.00; 2.96; 10.69
2017-09-04 08:45:31; 334.00; 2.97; 10.69
2017-09-04 08:45:43; 334.00; 2.97; 10.63
2017-09-04 08:45:55; 334.00; 2.96; 10.63
2017-09-04 09:00:11; 336.00; 2.93; 10.06
2017-09-04 09:00:24; 335.00; 2.95; 10.06
2017-09-04 09:00:36; 332.00; 2.97; 10.06
2017-09-04 09:00:49; 332.00; 2.98; 10.06
2017-09-04 09:15:05; 333.00; 2.96; 10.31
2017-09-04 09:15:18; 335.00; 2.95; 10.31
2017-09-04 09:15:30; 334.00; 2.97; 10.31
2017-09-04 09:15:42; 336.00; 2.95; 10.31
2017-09-04 09:15:55; 335.00; 2.95; 10.31
2017-09-04 09:30:11; 333.00; 2.97; 10.50
2017-09-04 09:30:23; 334.00; 2.95; 10.56
2017-09-04 09:30:35; 333.00; 2.97; 10.56
2017-09-04 09:30:48; 332.00; 2.99; 10.56
2017-09-04 09:31:00; 331.00; 2.99; 10.56
2017-09-04 09:45:04; 333.00; 2.96; 10.88
2017-09-04 09:45:17; 333.00; 2.96; 10.94
2017-09-04 09:45:29; 334.00; 2.96; 10.88
2017-09-04 09:45:42; 334.00; 2.95; 10.94
2017-09-04 09:45:54; 334.00; 2.96; 10.94
2017-09-04 10:00:09; 331.00; 2.99; 11.19
2017-09-04 10:00:22; 332.00; 2.98; 11.25
2017-09-04 10:00:34; 333.00; 2.98; 11.25
2017-09-04 10:00:47; 331.00; 2.99; 11.25
2017-09-04 10:00:59; 331.00; 2.99; 11.25
2017-09-04 10:15:03; 333.00; 2.97; 11.25
2017-09-04 10:15:15; 333.00; 2.98; 11.19
2017-09-04 10:15:28; 332.00; 2.98; 11.25
2017-09-04 10:15:40; 334.00; 2.96; 11.19
2017-09-04 10:15:53; 332.00; 2.98; 11.19
2017-09-04 10:30:08; 333.00; 2.97; 11.44
2017-09-04 10:30:20; 332.00; 2.98; 11.44
2017-09-04 10:30:33; 332.00; 2.98; 11.38
2017-09-04 10:30:45; 333.00; 2.97; 11.38
2017-09-04 10:30:58; 332.00; 2.99; 11.38
2017-09-04 10:45:02; 332.00; 2.98; 11.75
2017-09-04 10:45:14; 333.00; 2.97; 11.75
2017-09-04 10:45:26; 333.00; 2.97; 11.75
2017-09-04 10:45:39; 331.00; 2.99; 11.75
2017-09-04 10:45:51; 332.00; 2.98; 11.75
2017-09-04 11:00:07; 332.00; 2.98; 11.88
2017-09-04 11:00:19; 332.00; 2.99; 11.88
2017-09-04 11:00:31; 333.00; 2.97; 11.94
2017-09-04 11:00:44; 330.00; 3.00; 11.94
2017-09-04 11:00:56; 331.00; 2.99; 11.94
2017-09-04 11:15:12; 331.00; 2.99; 12.06
2017-09-04 11:15:24; 331.00; 2.99; 12.00
2017-09-04 11:15:36; 332.00; 2.98; 12.00
2017-09-04 11:15:49; 332.00; 2.98; 12.00
2017-09-04 11:30:04; 331.00; 2.98; 11.75
2017-09-04 11:30:17; 334.00; 2.97; 11.75
2017-09-04 11:30:29; 330.00; 3.00; 11.69
2017-09-04 11:30:41; 332.00; 2.98; 11.69
2017-09-04 11:30:54; 332.00; 2.98; 11.75
2017-09-04 11:45:09; 333.00; 2.98; 11.94
2017-09-04 11:45:21; 332.00; 2.98; 11.94
2017-09-04 11:45:34; 331.00; 2.99; 12.00
2017-09-04 11:45:46; 331.00; 2.99; 12.00
2017-09-04 11:45:59; 331.00; 2.99; 12.00
2017-09-04 12:00:03; 330.00; 2.99; 12.50
2017-09-04 12:00:15; 331.00; 2.99; 12.50
2017-09-04 12:00:27; 331.00; 2.99; 12.44
2017-09-04 12:00:40; 330.00; 2.99; 12.44
2017-09-04 12:00:52; 330.00; 3.00; 12.44
2017-09-04 12:15:08; 329.00; 3.01; 12.88
2017-09-04 12:15:20; 332.00; 2.97; 12.81
2017-09-04 12:15:32; 331.00; 2.99; 12.88
2017-09-04 12:15:45; 330.00; 3.00; 12.88
2017-09-04 12:15:57; 331.00; 2.99; 12.88
2017-09-04 12:30:01; 329.00; 3.01; 12.94
2017-09-04 12:30:13; 329.00; 3.01; 12.94
2017-09-04 12:30:26; 330.00; 3.00; 12.94
2017-09-04 12:30:38; 331.00; 2.99; 12.94
2017-09-04 12:30:51; 329.00; 3.01; 12.94
2017-09-04 12:45:06; 329.00; 3.00; 13.50
2017-09-04 12:45:18; 331.00; 2.99; 13.44
2017-09-04 12:45:31; 329.00; 3.02; 13.50
2017-09-04 12:45:43; 331.00; 2.99; 13.50
2017-09-04 12:45:55; 329.00; 3.01; 13.50
2017-09-04 13:00:11; 332.00; 2.98; 13.50
2017-09-04 13:00:24; 330.00; 3.00; 13.50
2017-09-04 13:00:36; 329.00; 3.01; 13.50
2017-09-04 13:00:48; 329.00; 3.01; 13.50
2017-09-04 13:15:04; 330.00; 3.01; 14.38
2017-09-04 13:15:16; 328.00; 3.02; 14.38
2017-09-04 13:15:29; 329.00; 3.02; 14.31
2017-09-04 13:15:41; 328.00; 3.02; 14.31
2017-09-04 13:15:54; 328.00; 3.02; 14.25
2017-09-04 13:30:09; 329.00; 3.01; 14.31
2017-09-04 13:30:21; 328.00; 3.02; 14.31
2017-09-04 13:30:34; 327.00; 3.02; 14.31
2017-09-04 13:30:46; 327.00; 3.03; 14.38
2017-09-04 13:30:58; 328.00; 3.02; 14.31
2017-09-04 13:45:02; 329.00; 3.01; 14.94
2017-09-04 13:45:15; 329.00; 3.01; 14.94
2017-09-04 13:45:27; 328.00; 3.02; 15.00
2017-09-04 13:45:39; 327.00; 3.03; 15.06
2017-09-04 13:45:52; 329.00; 3.01; 15.06
2017-09-04 14:00:07; 327.00; 3.02; 15.44
2017-09-04 14:00:19; 328.00; 3.02; 15.44
2017-09-04 14:00:32; 326.00; 3.03; 15.50
2017-09-04 14:00:44; 327.00; 3.03; 15.56
2017-09-04 14:00:56; 327.00; 3.02; 15.56
2017-09-04 14:15:11; 328.00; 3.02; 15.38
2017-09-04 14:15:24; 326.00; 3.04; 15.38
2017-09-04 14:15:36; 327.00; 3.03; 15.38
2017-09-04 14:15:49; 327.00; 3.03; 15.38
2017-09-04 14:30:04; 327.00; 3.03; 15.81
2017-09-04 14:30:16; 328.00; 3.03; 15.81
2017-09-04 14:30:28; 329.00; 3.02; 15.81
2017-09-04 14:30:41; 327.00; 3.03; 15.75
2017-09-04 14:30:53; 328.00; 3.03; 15.81
2017-09-04 14:45:08; 328.00; 3.02; 15.81
2017-09-04 14:45:21; 327.00; 3.03; 15.81
2017-09-04 14:45:33; 327.00; 3.03; 15.81
2017-09-04 14:45:45; 328.00; 3.02; 15.81
2017-09-04 14:45:58; 326.00; 3.04; 15.81
2017-09-04 15:00:01; 327.00; 3.02; 15.81
2017-09-04 15:00:14; 327.00; 3.03; 15.81
2017-09-04 15:00:26; 326.00; 3.03; 15.88
2017-09-04 15:00:39; 327.00; 3.04; 15.88
2017-09-04 15:00:51; 327.00; 3.03; 15.88
2017-09-04 15:15:06; 327.00; 3.03; 16.50
2017-09-04 15:15:18; 327.00; 3.03; 16.50
2017-09-04 15:15:31; 326.00; 3.04; 16.50
2017-09-04 15:15:43; 327.00; 3.03; 16.56
2017-09-04 15:15:55; 327.00; 3.03; 16.63
2017-09-04 15:30:11; 328.00; 3.02; 16.94
2017-09-04 15:30:23; 327.00; 3.03; 17.00
2017-09-04 15:30:35; 329.00; 3.02; 16.94
2017-09-04 15:30:48; 328.00; 3.02; 16.94
2017-09-04 15:31:00; 328.00; 3.02; 17.00
2017-09-04 15:45:03; 326.00; 3.04; 19.19
2017-09-04 15:45:16; 327.00; 3.03; 19.13
2017-09-04 15:45:28; 327.00; 3.03; 19.13
2017-09-04 15:45:41; 327.00; 3.03; 19.19
2017-09-04 15:45:53; 326.00; 3.03; 19.25
2017-09-04 16:00:08; 325.00; 3.05; 20.75
2017-09-04 16:00:20; 325.00; 3.05; 20.75
2017-09-04 16:00:32; 325.00; 3.05; 20.88
2017-09-04 16:00:45; 326.00; 3.04; 20.94
2017-09-04 16:00:57; 325.00; 3.05; 20.94
2017-09-04 16:15:12; 326.00; 3.05; 20.44
2017-09-04 16:15:24; 325.00; 3.05; 20.56
2017-09-04 16:15:36; 326.00; 3.04; 20.63
2017-09-04 16:15:49; 326.00; 3.04; 20.69
2017-09-04 16:30:03; 325.00; 3.05; 21.69
2017-09-04 16:30:16; 326.00; 3.04; 21.69
2017-09-04 16:30:28; 325.00; 3.05; 21.69
2017-09-04 16:30:40; 326.00; 3.04; 21.75
2017-09-04 16:30:53; 326.00; 3.04; 21.69
2017-09-04 16:45:07; 326.00; 3.04; 19.88
2017-09-04 16:45:19; 325.00; 3.05; 19.88
2017-09-04 16:45:32; 325.00; 3.05; 19.81
2017-09-04 16:45:44; 326.00; 3.04; 19.75
2017-09-04 16:45:56; 326.00; 3.04; 19.75
2017-09-04 17:00:11; 326.00; 3.04; 19.69
2017-09-04 17:00:23; 326.00; 3.04; 19.75
2017-09-04 17:00:36; 326.00; 3.04; 19.69
2017-09-04 17:00:48; 327.00; 3.03; 19.69
2017-09-04 17:01:00; 326.00; 3.04; 19.75
2017-09-04 17:15:04; 326.00; 3.04; 19.75
2017-09-04 17:15:16; 327.00; 3.03; 19.75
2017-09-04 17:15:29; 326.00; 3.04; 19.69
2017-09-04 17:15:41; 326.00; 3.04; 19.63
2017-09-04 17:15:53; 327.00; 3.03; 19.63
2017-09-04 17:30:08; 327.00; 3.03; 19.31
2017-09-04 17:30:20; 326.00; 3.04; 19.31
2017-09-04 17:30:33; 327.00; 3.03; 19.31
2017-09-04 17:30:45; 327.00; 3.03; 19.31
2017-09-04 17:30:58; 327.00; 3.02; 19.31
2017-09-04 17:45:01; 326.00; 3.04; 18.81
2017-09-04 17:45:13; 327.00; 3.02; 18.75
2017-09-04 17:45:26; 326.00; 3.03; 18.81
2017-09-04 17:45:38; 326.00; 3.04; 18.81
2017-09-04 17:45:50; 326.00; 3.04; 18.81
2017-09-04 18:00:05; 327.00; 3.03; 18.38
2017-09-04 18:00:17; 326.00; 3.04; 18.38
2017-09-04 18:00:30; 327.00; 3.03; 18.38
2017-09-04 18:00:42; 327.00; 3.03; 18.38
2017-09-04 18:00:55; 327.00; 3.03; 18.31
2017-09-04 18:15:09; 327.00; 3.03; 17.56
2017-09-04 18:15:22; 328.00; 3.03; 17.56
2017-09-04 18:15:34; 328.00; 3.03; 17.56
2017-09-04 18:15:46; 327.00; 3.03; 17.56
2017-09-04 18:15:59; 327.00; 3.03; 17.56
2017-09-04 18:30:02; 327.00; 3.03; 16.94
2017-09-04 18:30:15; 328.00; 3.02; 16.94
2017-09-04 18:30:27; 328.00; 3.02; 16.88
2017-09-04 18:30:39; 328.00; 3.02; 16.88
2017-09-04 18:30:52; 328.00; 3.02; 16.94
2017-09-04 18:45:07; 328.00; 3.02; 15.69
2017-09-04 18:45:19; 328.00; 3.02; 15.69
2017-09-04 18:45:31; 328.00; 3.02; 15.63
2017-09-04 18:45:44; 328.00; 3.02; 15.56
2017-09-04 18:45:56; 327.00; 3.03; 15.56
2017-09-04 19:00:11; 328.00; 3.02; 14.44
2017-09-04 19:00:23; 328.00; 3.02; 14.44
2017-09-04 19:00:35; 328.00; 3.02; 14.44
2017-09-04 19:00:48; 327.00; 3.03; 14.44
2017-09-04 19:01:00; 327.00; 3.03; 14.44
2017-09-04 19:15:04; 328.00; 3.02; 14.00
2017-09-04 19:15:17; 328.00; 3.02; 14.00
2017-09-04 19:15:29; 328.00; 3.02; 14.00
2017-09-04 19:15:41; 328.00; 3.02; 13.94
2017-09-04 19:15:54; 328.00; 3.02; 14.00
2017-09-04 19:30:09; 328.00; 3.02; 14.00
2017-09-04 19:30:21; 328.00; 3.02; 14.00
2017-09-04 19:30:34; 327.00; 3.03; 14.00
2017-09-04 19:30:46; 327.00; 3.03; 14.00
2017-09-04 19:30:58; 327.00; 3.02; 14.00
2017-09-04 19:45:02; 327.00; 3.03; 14.13
2017-09-04 19:45:14; 328.00; 3.02; 14.13
2017-09-04 19:45:27; 328.00; 3.02; 14.13
2017-09-04 19:45:39; 328.00; 3.02; 14.13
2017-09-04 19:45:51; 328.00; 3.02; 14.13
2017-09-04 20:00:06; 328.00; 3.02; 14.13
2017-09-04 20:00:19; 328.00; 3.02; 14.13
2017-09-04 20:00:31; 328.00; 3.02; 14.13
2017-09-04 20:00:44; 328.00; 3.02; 14.13
2017-09-04 20:00:56; 328.00; 3.02; 14.13
2017-09-04 20:15:11; 328.00; 3.02; 13.81
2017-09-04 20:15:23; 328.00; 3.02; 13.81
2017-09-04 20:15:36; 327.00; 3.02; 13.81
2017-09-04 20:15:48; 328.00; 3.02; 13.81
2017-09-04 20:30:03; 327.00; 3.02; 13.81
2017-09-04 20:30:16; 327.00; 3.03; 13.81
2017-09-04 20:30:28; 328.00; 3.02; 13.81
2017-09-04 20:30:40; 328.00; 3.02; 13.81
2017-09-04 20:30:53; 328.00; 3.02; 13.75
2017-09-04 20:45:08; 328.00; 3.02; 13.25
2017-09-04 20:45:20; 328.00; 3.02; 13.25
2017-09-04 20:45:33; 328.00; 3.02; 13.19
2017-09-04 20:45:45; 328.00; 3.02; 13.19
2017-09-04 20:45:57; 328.00; 3.02; 13.19
2017-09-04 21:00:01; 328.00; 3.02; 12.50
2017-09-04 21:00:13; 328.00; 3.02; 12.44
2017-09-04 21:00:26; 328.00; 3.02; 12.50
2017-09-04 21:00:38; 328.00; 3.02; 12.50
2017-09-04 21:00:51; 328.00; 3.02; 12.44
2017-09-04 21:15:06; 328.00; 3.02; 12.56
2017-09-04 21:15:18; 328.00; 3.02; 12.63
2017-09-04 21:15:31; 328.00; 3.02; 12.63
2017-09-04 21:15:43; 328.00; 3.02; 12.63
2017-09-04 21:15:55; 328.00; 3.02; 12.63
2017-09-04 21:30:10; 328.00; 3.02; 12.13
2017-09-04 21:30:23; 328.00; 3.02; 12.13
2017-09-04 21:30:35; 328.00; 3.02; 12.13
2017-09-04 21:30:48; 328.00; 3.02; 12.13
2017-09-04 21:31:00; 328.00; 3.02; 12.13
2017-09-04 21:45:04; 328.00; 3.02; 12.06
2017-09-04 21:45:16; 328.00; 3.02; 12.06
2017-09-04 21:45:29; 328.00; 3.02; 12.00
2017-09-04 21:45:41; 328.00; 3.02; 12.00
2017-09-04 21:45:53; 328.00; 3.02; 12.00
2017-09-04 22:00:09; 328.00; 3.02; 12.38
2017-09-04 22:00:21; 329.00; 3.01; 12.38
2017-09-04 22:00:34; 328.00; 3.02; 12.38
2017-09-04 22:00:46; 328.00; 3.02; 12.38
2017-09-04 22:00:58; 328.00; 3.01; 12.38
2017-09-04 22:15:02; 329.00; 3.02; 12.19
2017-09-04 22:15:15; 329.00; 3.01; 12.19
2017-09-04 22:15:27; 329.00; 3.01; 12.19
2017-09-04 22:15:39; 328.00; 3.02; 12.19
2017-09-04 22:15:52; 328.00; 3.01; 12.19
2017-09-04 22:30:07; 328.00; 3.02; 12.69
2017-09-04 22:30:19; 329.00; 3.01; 12.69
2017-09-04 22:30:32; 328.00; 3.02; 12.69
2017-09-04 22:30:44; 328.00; 3.02; 12.69
2017-09-04 22:30:57; 328.00; 3.02; 12.69
2017-09-04 22:45:01; 328.00; 3.02; 12.69
2017-09-04 22:45:13; 329.00; 3.01; 12.69
2017-09-04 22:45:25; 328.00; 3.02; 12.69
2017-09-04 22:45:38; 328.00; 3.02; 12.69
2017-09-04 22:45:50; 328.00; 3.02; 12.69
2017-09-04 23:00:05; 328.00; 3.02; 13.00
2017-09-04 23:00:18; 328.00; 3.01; 13.00
2017-09-04 23:00:30; 329.00; 3.01; 13.00
2017-09-04 23:00:43; 329.00; 3.01; 13.00
2017-09-04 23:00:55; 328.00; 3.02; 12.94
2017-09-04 23:15:10; 329.00; 3.01; 12.81
2017-09-04 23:15:23; 329.00; 3.01; 12.81
2017-09-04 23:15:35; 328.00; 3.02; 12.81
2017-09-04 23:15:47; 329.00; 3.02; 12.81
2017-09-04 23:16:00; 329.00; 3.01; 12.81
2017-09-04 23:30:03; 329.00; 3.01; 12.94
2017-09-04 23:30:16; 329.00; 3.01; 12.94
2017-09-04 23:30:28; 329.00; 3.01; 12.94
2017-09-04 23:30:41; 329.00; 3.01; 12.94
2017-09-04 23:30:53; 329.00; 3.01; 12.88
2017-09-04 23:45:08; 329.00; 3.01; 12.69
2017-09-04 23:45:21; 328.00; 3.02; 12.69
2017-09-04 23:45:33; 328.00; 3.02; 12.69
2017-09-04 23:45:45; 329.00; 3.01; 12.69
2017-09-04 23:45:58; 328.00; 3.01; 12.69
