datetime,,value
2016-09-19 18:28:37,1,958.00
2016-09-19 18:28:38,1,813.00
2016-09-19 18:28:38,1,810.00
2016-09-19 18:28:39,1,810.00
2016-09-19 18:28:39,1,810.00
2016-09-19 18:28:40,1,812.00
2016-09-19 18:28:40,1,813.00
2016-09-19 18:28:41,1,813.00
2016-09-19 18:28:41,1,813.00
2016-09-19 18:28:42,1,813.00
2016-09-19 18:28:42,1,813.00
2016-09-19 18:28:43,1,813.00
2016-09-19 18:28:43,1,805.00
2016-09-19 18:28:44,1,812.00
2016-09-19 18:28:44,1,812.00
2016-09-19 18:28:45,1,814.00
2016-09-19 18:28:45,1,814.00
2016-09-19 18:28:46,1,814.00
2016-09-19 18:28:46,1,814.00
2016-09-19 18:28:47,1,814.00
2016-09-19 18:28:47,1,814.00
2016-09-19 18:28:48,1,814.00
2016-09-19 18:28:48,1,814.00
2016-09-19 18:28:49,1,814.00
2016-09-19 18:28:49,1,814.00
2016-09-19 18:28:50,1,815.00
2016-09-19 18:28:50,1,814.00
2016-09-19 18:28:51,1,814.00
2016-09-19 18:28:51,1,815.00
2016-09-19 18:28:52,1,814.00
2016-09-19 18:28:52,1,815.00
2016-09-19 18:28:53,1,815.00
2016-09-19 18:28:53,1,813.00
2016-09-19 18:28:54,1,815.00
2016-09-19 18:28:54,1,815.00
2016-09-19 18:28:55,1,814.00
2016-09-19 18:28:55,1,815.00
2016-09-19 18:28:56,1,816.00
2016-09-19 18:28:56,1,814.00
2016-09-19 18:28:57,1,815.00
2016-09-19 18:28:57,1,815.00
2016-09-19 18:28:58,1,815.00
2016-09-19 18:28:58,1,813.00
2016-09-19 18:28:59,1,815.00
2016-09-19 18:28:59,1,815.00
2016-09-19 18:29:00,1,816.00
2016-09-19 18:29:00,1,816.00
2016-09-19 18:29:01,1,814.00
2016-09-19 18:29:01,1,816.00
2016-09-19 18:29:02,1,815.00
2016-09-19 18:29:02,1,815.00
2016-09-19 18:29:03,1,814.00
2016-09-19 18:29:03,1,815.00
2016-09-19 18:29:04,1,815.00
2016-09-19 18:29:04,1,814.00
2016-09-19 18:29:05,1,815.00
2016-09-19 18:29:05,1,815.00
2016-09-19 18:29:06,1,814.00
2016-09-19 18:29:06,1,815.00
2016-09-19 18:29:07,1,815.00
2016-09-19 18:29:07,1,814.00
2016-09-19 18:29:08,1,815.00
2016-09-19 18:29:08,1,815.00
2016-09-19 18:29:09,1,815.00
2016-09-19 18:29:09,1,815.00
2016-09-19 18:29:10,1,815.00
2016-09-19 18:29:10,1,814.00
2016-09-19 18:29:11,1,814.00
2016-09-19 18:29:11,1,815.00
2016-09-19 18:29:12,1,815.00
2016-09-19 18:29:12,1,814.00
2016-09-19 18:29:13,1,815.00
2016-09-19 18:29:13,1,815.00
2016-09-19 18:29:14,1,815.00
2016-09-19 18:29:14,1,815.00
2016-09-19 18:29:15,1,815.00
2016-09-19 18:29:15,1,815.00
2016-09-19 18:29:16,1,815.00
2016-09-19 18:29:16,1,815.00
2016-09-19 18:29:17,1,815.00
2016-09-19 18:29:17,1,815.00
2016-09-19 18:29:18,1,815.00
2016-09-19 18:29:18,1,815.00
2016-09-19 18:29:19,1,815.00
2016-09-19 18:29:19,1,815.00
2016-09-19 18:29:20,1,815.00
2016-09-19 18:29:20,1,815.00
2016-09-19 18:29:21,1,815.00
2016-09-19 18:29:21,1,815.00
2016-09-19 18:29:22,1,815.00
2016-09-19 18:29:22,1,815.00
2016-09-19 18:29:23,1,815.00
2016-09-19 18:29:23,1,815.00
2016-09-19 18:29:24,1,815.00
2016-09-19 18:29:24,1,815.00
2016-09-19 18:29:25,1,815.00
2016-09-19 18:29:25,1,815.00
2016-09-19 18:29:26,1,815.00
2016-09-19 18:29:26,1,815.00
2016-09-19 18:29:27,1,815.00
2016-09-19 18:29:32,2,815.00
2016-09-19 18:29:32,2,816.00
2016-09-19 18:29:33,2,815.00
2016-09-19 18:29:33,2,815.00
2016-09-19 18:29:34,2,815.00
2016-09-19 18:29:34,2,815.00
2016-09-19 18:29:35,2,815.00
2016-09-19 18:29:35,2,816.00
2016-09-19 18:29:36,2,815.00
2016-09-19 18:29:36,2,815.00
2016-09-19 18:29:37,2,815.00
2016-09-19 18:29:37,2,816.00
2016-09-19 18:29:38,2,815.00
2016-09-19 18:29:38,2,816.00
2016-09-19 18:29:39,2,817.00
2016-09-19 18:29:39,2,815.00
2016-09-19 18:29:40,2,816.00
2016-09-19 18:29:40,2,816.00
2016-09-19 18:29:41,2,816.00
2016-09-19 18:29:41,2,816.00
2016-09-19 18:29:42,2,816.00
2016-09-19 18:29:42,2,816.00
2016-09-19 18:29:43,2,815.00
2016-09-19 18:29:43,2,816.00
2016-09-19 18:29:44,2,816.00
2016-09-19 18:29:44,2,815.00
2016-09-19 18:29:45,2,816.00
2016-09-19 18:29:45,2,816.00
2016-09-19 18:29:46,2,816.00
2016-09-19 18:29:46,2,816.00
2016-09-19 18:29:47,2,816.00
2016-09-19 18:29:47,2,816.00
2016-09-19 18:29:48,2,816.00
2016-09-19 18:29:48,2,816.00
2016-09-19 18:29:49,2,816.00
2016-09-19 18:29:49,2,816.00
2016-09-19 18:29:50,2,816.00
2016-09-19 18:29:50,2,816.00
2016-09-19 18:29:51,2,816.00
2016-09-19 18:29:51,2,816.00
2016-09-19 18:29:52,2,816.00
2016-09-19 18:29:52,2,816.00
2016-09-19 18:29:53,2,816.00
2016-09-19 18:29:53,2,816.00
2016-09-19 18:29:54,2,816.00
2016-09-19 18:29:54,2,817.00
2016-09-19 18:29:55,2,816.00
2016-09-19 18:29:55,2,816.00
2016-09-19 18:29:56,2,817.00
2016-09-19 18:29:56,2,816.00
2016-09-19 18:29:57,2,816.00
2016-09-19 18:29:57,2,816.00
2016-09-19 18:29:58,2,816.00
2016-09-19 18:29:58,2,816.00
2016-09-19 18:29:59,2,816.00
2016-09-19 18:29:59,2,816.00
2016-09-19 18:30:00,2,816.00
2016-09-19 18:30:00,2,816.00
2016-09-19 18:30:01,2,817.00
2016-09-19 18:30:01,2,816.00
2016-09-19 18:30:02,2,817.00
2016-09-19 18:30:02,2,817.00
2016-09-19 18:30:03,2,816.00
2016-09-19 18:30:03,2,815.00
2016-09-19 18:30:04,2,818.00
2016-09-19 18:30:04,2,817.00
2016-09-19 18:30:05,2,814.00
2016-09-19 18:30:05,2,813.00
2016-09-19 18:30:06,2,806.00
2016-09-19 18:30:06,2,809.00
2016-09-19 18:30:07,2,816.00
2016-09-19 18:30:07,2,817.00
2016-09-19 18:30:08,2,816.00
2016-09-19 18:30:08,2,816.00
2016-09-19 18:30:09,2,820.00
2016-09-19 18:30:09,2,823.00
2016-09-19 18:30:10,2,815.00
2016-09-19 18:30:10,2,816.00
2016-09-19 18:30:11,2,816.00
2016-09-19 18:30:11,2,816.00
2016-09-19 18:30:12,2,816.00
2016-09-19 18:30:12,2,815.00
2016-09-19 18:30:13,2,816.00
2016-09-19 18:30:13,2,816.00
2016-09-19 18:30:14,2,816.00
2016-09-19 18:30:14,2,816.00
2016-09-19 18:30:15,2,813.00
2016-09-19 18:30:15,2,814.00
2016-09-19 18:30:16,2,815.00
2016-09-19 18:30:16,2,819.00
2016-09-19 18:30:17,2,815.00
2016-09-19 18:30:17,2,816.00
2016-09-19 18:30:18,2,816.00
2016-09-19 18:30:18,2,816.00
2016-09-19 18:30:19,2,816.00
2016-09-19 18:30:19,2,815.00
2016-09-19 18:30:20,2,816.00
2016-09-19 18:30:20,2,816.00
2016-09-19 18:30:21,2,815.00
2016-09-19 18:30:21,2,816.00
2016-09-19 18:30:26,3,816.00
2016-09-19 18:30:27,3,817.00
2016-09-19 18:30:27,3,815.00
2016-09-19 18:30:28,3,817.00
2016-09-19 18:30:28,3,816.00
2016-09-19 18:30:29,3,817.00
2016-09-19 18:30:29,3,816.00
2016-09-19 18:30:30,3,816.00
2016-09-19 18:30:30,3,817.00
2016-09-19 18:30:31,3,817.00
2016-09-19 18:30:31,3,816.00
2016-09-19 18:30:32,3,817.00
2016-09-19 18:30:32,3,817.00
2016-09-19 18:30:33,3,817.00
2016-09-19 18:30:33,3,817.00
2016-09-19 18:30:34,3,817.00
2016-09-19 18:30:34,3,817.00
2016-09-19 18:30:35,3,818.00
2016-09-19 18:30:35,3,817.00
2016-09-19 18:30:36,3,817.00
2016-09-19 18:30:36,3,817.00
2016-09-19 18:30:37,3,817.00
2016-09-19 18:30:37,3,816.00
2016-09-19 18:30:38,3,817.00
2016-09-19 18:30:38,3,817.00
2016-09-19 18:30:39,3,817.00
2016-09-19 18:30:39,3,817.00
2016-09-19 18:30:40,3,817.00
2016-09-19 18:30:40,3,817.00
2016-09-19 18:30:41,3,816.00
2016-09-19 18:30:41,3,817.00
2016-09-19 18:30:42,3,817.00
2016-09-19 18:30:42,3,816.00
2016-09-19 18:30:43,3,817.00
2016-09-19 18:30:43,3,817.00
2016-09-19 18:30:44,3,817.00
2016-09-19 18:30:44,3,817.00
2016-09-19 18:30:45,3,817.00
2016-09-19 18:30:45,3,817.00
2016-09-19 18:30:46,3,817.00
2016-09-19 18:30:46,3,817.00
2016-09-19 18:30:47,3,817.00
2016-09-19 18:30:47,3,817.00
2016-09-19 18:30:48,3,817.00
2016-09-19 18:30:48,3,817.00
2016-09-19 18:30:49,3,817.00
2016-09-19 18:30:49,3,817.00
2016-09-19 18:30:50,3,817.00
2016-09-19 18:30:50,3,817.00
2016-09-19 18:30:51,3,817.00
2016-09-19 18:30:51,3,817.00
2016-09-19 18:30:52,3,817.00
2016-09-19 18:30:52,3,818.00
2016-09-19 18:30:53,3,816.00
2016-09-19 18:30:53,3,817.00
2016-09-19 18:30:54,3,817.00
2016-09-19 18:30:54,3,816.00
2016-09-19 18:30:55,3,817.00
2016-09-19 18:30:55,3,817.00
2016-09-19 18:30:56,3,817.00
2016-09-19 18:30:56,3,817.00
2016-09-19 18:30:57,3,817.00
2016-09-19 18:30:57,3,817.00
2016-09-19 18:30:58,3,817.00
2016-09-19 18:30:58,3,817.00
2016-09-19 18:30:59,3,817.00
2016-09-19 18:30:59,3,817.00
2016-09-19 18:31:00,3,817.00
2016-09-19 18:31:00,3,817.00
2016-09-19 18:31:01,3,817.00
2016-09-19 18:31:01,3,817.00
2016-09-19 18:31:02,3,817.00
2016-09-19 18:31:02,3,817.00
2016-09-19 18:31:03,3,817.00
2016-09-19 18:31:03,3,817.00
2016-09-19 18:31:04,3,817.00
2016-09-19 18:31:04,3,817.00
2016-09-19 18:31:05,3,817.00
2016-09-19 18:31:05,3,817.00
2016-09-19 18:31:06,3,817.00
2016-09-19 18:31:06,3,816.00
2016-09-19 18:31:07,3,817.00
2016-09-19 18:31:07,3,817.00
2016-09-19 18:31:08,3,816.00
2016-09-19 18:31:08,3,817.00
2016-09-19 18:31:09,3,817.00
2016-09-19 18:31:09,3,816.00
2016-09-19 18:31:10,3,816.00
2016-09-19 18:31:10,3,817.00
2016-09-19 18:31:11,3,816.00
2016-09-19 18:31:11,3,816.00
2016-09-19 18:31:12,3,817.00
2016-09-19 18:31:12,3,816.00
2016-09-19 18:31:13,3,816.00
2016-09-19 18:31:13,3,817.00
2016-09-19 18:31:14,3,817.00
2016-09-19 18:31:14,3,816.00
2016-09-19 18:31:15,3,817.00
2016-09-19 18:31:15,3,816.00
2016-09-19 18:31:16,3,816.00
2016-09-19 18:31:21,4,817.00
2016-09-19 18:31:21,4,817.00
2016-09-19 18:31:22,4,816.00
2016-09-19 18:31:22,4,817.00
2016-09-19 18:31:23,4,816.00
2016-09-19 18:31:23,4,816.00
2016-09-19 18:31:24,4,816.00
2016-09-19 18:31:24,4,816.00
2016-09-19 18:31:25,4,815.00
2016-09-19 18:31:25,4,820.00
2016-09-19 18:31:26,4,818.00
2016-09-19 18:31:26,4,817.00
2016-09-19 18:31:27,4,817.00
2016-09-19 18:31:27,4,817.00
2016-09-19 18:31:28,4,820.00
2016-09-19 18:31:28,4,814.00
2016-09-19 18:31:29,4,813.00
2016-09-19 18:31:29,4,818.00
2016-09-19 18:31:30,4,816.00
2016-09-19 18:31:30,4,817.00
2016-09-19 18:31:31,4,816.00
2016-09-19 18:31:31,4,816.00
2016-09-19 18:31:32,4,816.00
2016-09-19 18:31:32,4,816.00
2016-09-19 18:31:33,4,816.00
2016-09-19 18:31:33,4,816.00
2016-09-19 18:31:34,4,816.00
2016-09-19 18:31:34,4,816.00
2016-09-19 18:31:35,4,816.00
2016-09-19 18:31:35,4,816.00
2016-09-19 18:31:36,4,816.00
2016-09-19 18:31:36,4,816.00
2016-09-19 18:31:37,4,816.00
2016-09-19 18:31:37,4,816.00
2016-09-19 18:31:38,4,816.00
2016-09-19 18:31:38,4,817.00
2016-09-19 18:31:39,4,817.00
2016-09-19 18:31:39,4,817.00
2016-09-19 18:31:40,4,817.00
2016-09-19 18:31:40,4,817.00
2016-09-19 18:31:41,4,817.00
2016-09-19 18:31:41,4,817.00
2016-09-19 18:31:42,4,817.00
2016-09-19 18:31:42,4,817.00
2016-09-19 18:31:43,4,817.00
2016-09-19 18:31:43,4,818.00
2016-09-19 18:31:44,4,817.00
2016-09-19 18:31:44,4,817.00
2016-09-19 18:31:45,4,818.00
2016-09-19 18:31:45,4,817.00
2016-09-19 18:31:46,4,817.00
2016-09-19 18:31:46,4,818.00
2016-09-19 18:31:47,4,818.00
2016-09-19 18:31:47,4,817.00
2016-09-19 18:31:48,4,818.00
2016-09-19 18:31:48,4,818.00
2016-09-19 18:31:49,4,817.00
2016-09-19 18:31:49,4,820.00
2016-09-19 18:31:50,4,817.00
2016-09-19 18:31:50,4,816.00
2016-09-19 18:31:51,4,813.00
2016-09-19 18:31:51,4,814.00
2016-09-19 18:31:52,4,817.00
2016-09-19 18:31:52,4,816.00
2016-09-19 18:31:53,4,817.00
2016-09-19 18:31:53,4,817.00
2016-09-19 18:31:54,4,817.00
2016-09-19 18:31:54,4,817.00
2016-09-19 18:31:55,4,817.00
2016-09-19 18:31:55,4,817.00
2016-09-19 18:31:56,4,817.00
2016-09-19 18:31:56,4,817.00
2016-09-19 18:31:57,4,817.00
2016-09-19 18:31:57,4,817.00
2016-09-19 18:31:58,4,817.00
2016-09-19 18:31:58,4,817.00
2016-09-19 18:31:59,4,816.00
2016-09-19 18:31:59,4,817.00
2016-09-19 18:32:00,4,817.00
2016-09-19 18:32:00,4,817.00
2016-09-19 18:32:01,4,817.00
2016-09-19 18:32:01,4,817.00
2016-09-19 18:32:02,4,817.00
2016-09-19 18:32:02,4,817.00
2016-09-19 18:32:03,4,817.00
2016-09-19 18:32:03,4,816.00
2016-09-19 18:32:04,4,816.00
2016-09-19 18:32:04,4,817.00
2016-09-19 18:32:05,4,817.00
2016-09-19 18:32:05,4,816.00
2016-09-19 18:32:06,4,817.00
2016-09-19 18:32:06,4,817.00
2016-09-19 18:32:07,4,816.00
2016-09-19 18:32:07,4,817.00
2016-09-19 18:32:08,4,817.00
2016-09-19 18:32:08,4,817.00
2016-09-19 18:32:09,4,815.00
2016-09-19 18:32:09,4,817.00
2016-09-19 18:32:10,4,817.00
2016-09-19 18:32:10,4,818.00
2016-09-19 18:32:16,5,817.00
2016-09-19 18:32:16,5,817.00
2016-09-19 18:32:17,5,817.00
2016-09-19 18:32:17,5,818.00
2016-09-19 18:32:18,5,817.00
2016-09-19 18:32:18,5,818.00
2016-09-19 18:32:19,5,817.00
2016-09-19 18:32:19,5,817.00
2016-09-19 18:32:20,5,817.00
2016-09-19 18:32:20,5,818.00
2016-09-19 18:32:21,5,817.00
2016-09-19 18:32:21,5,817.00
2016-09-19 18:32:22,5,818.00
2016-09-19 18:32:22,5,817.00
2016-09-19 18:32:23,5,817.00
2016-09-19 18:32:23,5,818.00
2016-09-19 18:32:24,5,818.00
2016-09-19 18:32:24,5,817.00
2016-09-19 18:32:25,5,817.00
2016-09-19 18:32:25,5,816.00
2016-09-19 18:32:26,5,818.00
2016-09-19 18:32:26,5,817.00
2016-09-19 18:32:27,5,817.00
2016-09-19 18:32:27,5,817.00
2016-09-19 18:32:28,5,817.00
2016-09-19 18:32:28,5,818.00
2016-09-19 18:32:29,5,817.00
2016-09-19 18:32:29,5,817.00
2016-09-19 18:32:30,5,818.00
2016-09-19 18:32:30,5,817.00
2016-09-19 18:32:31,5,817.00
2016-09-19 18:32:31,5,817.00
2016-09-19 18:32:32,5,817.00
2016-09-19 18:32:32,5,817.00
2016-09-19 18:32:33,5,817.00
2016-09-19 18:32:33,5,818.00
2016-09-19 18:32:34,5,817.00
2016-09-19 18:32:34,5,817.00
2016-09-19 18:32:35,5,817.00
2016-09-19 18:32:35,5,817.00
2016-09-19 18:32:36,5,817.00
2016-09-19 18:32:36,5,817.00
2016-09-19 18:32:37,5,817.00
2016-09-19 18:32:37,5,817.00
2016-09-19 18:32:38,5,817.00
2016-09-19 18:32:38,5,817.00
2016-09-19 18:32:39,5,817.00
2016-09-19 18:32:39,5,817.00
2016-09-19 18:32:40,5,817.00
2016-09-19 18:32:40,5,817.00
2016-09-19 18:32:41,5,817.00
2016-09-19 18:32:41,5,817.00
2016-09-19 18:32:42,5,821.00
2016-09-19 18:32:42,5,816.00
2016-09-19 18:32:43,5,820.00
2016-09-19 18:32:43,5,817.00
2016-09-19 18:32:44,5,816.00
2016-09-19 18:32:44,5,817.00
2016-09-19 18:32:45,5,817.00
2016-09-19 18:32:45,5,816.00
2016-09-19 18:32:46,5,816.00
2016-09-19 18:32:46,5,817.00
2016-09-19 18:32:47,5,817.00
2016-09-19 18:32:47,5,817.00
2016-09-19 18:32:48,5,817.00
2016-09-19 18:32:48,5,817.00
2016-09-19 18:32:49,5,816.00
2016-09-19 18:32:49,5,817.00
2016-09-19 18:32:50,5,817.00
2016-09-19 18:32:50,5,816.00
2016-09-19 18:32:51,5,817.00
2016-09-19 18:32:51,5,817.00
2016-09-19 18:32:52,5,817.00
2016-09-19 18:32:52,5,817.00
2016-09-19 18:32:53,5,816.00
2016-09-19 18:32:53,5,817.00
2016-09-19 18:32:54,5,817.00
2016-09-19 18:32:54,5,817.00
2016-09-19 18:32:55,5,816.00
2016-09-19 18:32:55,5,816.00
2016-09-19 18:32:56,5,817.00
2016-09-19 18:32:56,5,816.00
2016-09-19 18:32:57,5,817.00
2016-09-19 18:32:57,5,818.00
2016-09-19 18:32:58,5,825.00
2016-09-19 18:32:58,5,817.00
2016-09-19 18:32:59,5,816.00
2016-09-19 18:32:59,5,816.00
2016-09-19 18:33:00,5,816.00
2016-09-19 18:33:00,5,816.00
2016-09-19 18:33:01,5,817.00
2016-09-19 18:33:01,5,816.00
2016-09-19 18:33:02,5,816.00
2016-09-19 18:33:02,5,817.00
2016-09-19 18:33:03,5,816.00
2016-09-19 18:33:03,5,816.00
2016-09-19 18:33:04,5,817.00
2016-09-19 18:33:04,5,817.00
2016-09-19 18:33:05,5,816.00
2016-09-19 18:33:05,5,817.00
2016-09-19 18:33:10,6,817.00
2016-09-19 18:33:11,6,817.00
2016-09-19 18:33:11,6,818.00
2016-09-19 18:33:12,6,817.00
2016-09-19 18:33:12,6,817.00
2016-09-19 18:33:13,6,818.00
2016-09-19 18:33:13,6,818.00
2016-09-19 18:33:14,6,817.00
2016-09-19 18:33:14,6,818.00
2016-09-19 18:33:15,6,818.00
2016-09-19 18:33:15,6,817.00
2016-09-19 18:33:16,6,818.00
2016-09-19 18:33:16,6,818.00
2016-09-19 18:33:17,6,817.00
2016-09-19 18:33:17,6,817.00
2016-09-19 18:33:18,6,818.00
2016-09-19 18:33:18,6,818.00
2016-09-19 18:33:19,6,817.00
2016-09-19 18:33:19,6,818.00
2016-09-19 18:33:20,6,818.00
2016-09-19 18:33:20,6,817.00
2016-09-19 18:33:21,6,818.00
2016-09-19 18:33:21,6,818.00
2016-09-19 18:33:22,6,817.00
2016-09-19 18:33:22,6,817.00
2016-09-19 18:33:23,6,818.00
2016-09-19 18:33:23,6,818.00
2016-09-19 18:33:24,6,817.00
2016-09-19 18:33:24,6,818.00
2016-09-19 18:33:25,6,818.00
2016-09-19 18:33:25,6,817.00
2016-09-19 18:33:26,6,818.00
2016-09-19 18:33:26,6,818.00
2016-09-19 18:33:27,6,817.00
2016-09-19 18:33:27,6,818.00
2016-09-19 18:33:28,6,818.00
2016-09-19 18:33:28,6,817.00
2016-09-19 18:33:29,6,818.00
2016-09-19 18:33:29,6,818.00
2016-09-19 18:33:30,6,818.00
2016-09-19 18:33:30,6,818.00
2016-09-19 18:33:31,6,818.00
2016-09-19 18:33:31,6,818.00
2016-09-19 18:33:32,6,818.00
2016-09-19 18:33:32,6,818.00
2016-09-19 18:33:33,6,818.00
2016-09-19 18:33:33,6,818.00
2016-09-19 18:33:34,6,818.00
2016-09-19 18:33:34,6,818.00
2016-09-19 18:33:35,6,817.00
2016-09-19 18:33:35,6,818.00
2016-09-19 18:33:36,6,818.00
2016-09-19 18:33:36,6,818.00
2016-09-19 18:33:37,6,818.00
2016-09-19 18:33:37,6,818.00
2016-09-19 18:33:38,6,818.00
2016-09-19 18:33:38,6,818.00
2016-09-19 18:33:39,6,818.00
2016-09-19 18:33:39,6,818.00
2016-09-19 18:33:40,6,817.00
2016-09-19 18:33:40,6,818.00
2016-09-19 18:33:41,6,818.00
2016-09-19 18:33:41,6,817.00
2016-09-19 18:33:42,6,818.00
2016-09-19 18:33:42,6,818.00
2016-09-19 18:33:43,6,817.00
2016-09-19 18:33:43,6,818.00
2016-09-19 18:33:44,6,818.00
2016-09-19 18:33:44,6,818.00
2016-09-19 18:33:45,6,817.00
2016-09-19 18:33:45,6,818.00
2016-09-19 18:33:46,6,818.00
2016-09-19 18:33:46,6,817.00
2016-09-19 18:33:47,6,818.00
2016-09-19 18:33:47,6,818.00
2016-09-19 18:33:48,6,817.00
2016-09-19 18:33:48,6,817.00
2016-09-19 18:33:49,6,818.00
2016-09-19 18:33:49,6,817.00
2016-09-19 18:33:50,6,817.00
2016-09-19 18:33:50,6,818.00
2016-09-19 18:33:51,6,817.00
2016-09-19 18:33:51,6,817.00
2016-09-19 18:33:52,6,818.00
2016-09-19 18:33:52,6,818.00
2016-09-19 18:33:53,6,817.00
2016-09-19 18:33:53,6,818.00
2016-09-19 18:33:54,6,817.00
2016-09-19 18:33:54,6,817.00
2016-09-19 18:33:55,6,817.00
2016-09-19 18:33:55,6,817.00
2016-09-19 18:33:56,6,818.00
2016-09-19 18:33:56,6,817.00
2016-09-19 18:33:57,6,817.00
2016-09-19 18:33:57,6,817.00
2016-09-19 18:33:58,6,817.00
2016-09-19 18:33:58,6,817.00
2016-09-19 18:33:59,6,817.00
2016-09-19 18:33:59,6,817.00
2016-09-19 18:34:00,6,817.00
2016-09-19 18:34:05,7,817.00
2016-09-19 18:34:05,7,817.00
2016-09-19 18:34:06,7,818.00
2016-09-19 18:34:06,7,818.00
2016-09-19 18:34:07,7,815.00
2016-09-19 18:34:07,7,819.00
2016-09-19 18:34:08,7,818.00
2016-09-19 18:34:08,7,818.00
2016-09-19 18:34:09,7,818.00
2016-09-19 18:34:09,7,818.00
2016-09-19 18:34:10,7,817.00
2016-09-19 18:34:10,7,818.00
2016-09-19 18:34:11,7,818.00
2016-09-19 18:34:11,7,818.00
2016-09-19 18:34:12,7,818.00
2016-09-19 18:34:12,7,818.00
2016-09-19 18:34:13,7,818.00
2016-09-19 18:34:13,7,818.00
2016-09-19 18:34:14,7,818.00
2016-09-19 18:34:14,7,818.00
2016-09-19 18:34:15,7,818.00
2016-09-19 18:34:15,7,818.00
2016-09-19 18:34:16,7,818.00
2016-09-19 18:34:16,7,817.00
2016-09-19 18:34:17,7,818.00
2016-09-19 18:34:17,7,818.00
2016-09-19 18:34:18,7,817.00
2016-09-19 18:34:18,7,818.00
2016-09-19 18:34:19,7,818.00
2016-09-19 18:34:19,7,818.00
2016-09-19 18:34:20,7,818.00
2016-09-19 18:34:20,7,818.00
2016-09-19 18:34:21,7,818.00
2016-09-19 18:34:21,7,817.00
2016-09-19 18:34:22,7,818.00
2016-09-19 18:34:22,7,818.00
2016-09-19 18:34:23,7,817.00
2016-09-19 18:34:23,7,818.00
2016-09-19 18:34:24,7,818.00
2016-09-19 18:34:24,7,817.00
2016-09-19 18:34:25,7,817.00
2016-09-19 18:34:25,7,818.00
2016-09-19 18:34:26,7,817.00
2016-09-19 18:34:26,7,817.00
2016-09-19 18:34:27,7,818.00
2016-09-19 18:34:27,7,817.00
2016-09-19 18:34:28,7,817.00
2016-09-19 18:34:28,7,818.00
2016-09-19 18:34:29,7,818.00
2016-09-19 18:34:29,7,817.00
2016-09-19 18:34:30,7,817.00
2016-09-19 18:34:30,7,818.00
2016-09-19 18:34:31,7,817.00
2016-09-19 18:34:31,7,817.00
2016-09-19 18:34:32,7,817.00
2016-09-19 18:34:32,7,817.00
2016-09-19 18:34:33,7,817.00
2016-09-19 18:34:33,7,818.00
2016-09-19 18:34:34,7,818.00
2016-09-19 18:34:34,7,817.00
2016-09-19 18:34:35,7,818.00
2016-09-19 18:34:35,7,818.00
2016-09-19 18:34:36,7,817.00
2016-09-19 18:34:36,7,817.00
2016-09-19 18:34:37,7,818.00
2016-09-19 18:34:37,7,817.00
2016-09-19 18:34:38,7,817.00
2016-09-19 18:34:38,7,818.00
2016-09-19 18:34:39,7,818.00
2016-09-19 18:34:39,7,817.00
2016-09-19 18:34:40,7,818.00
2016-09-19 18:34:40,7,818.00
2016-09-19 18:34:41,7,817.00
2016-09-19 18:34:41,7,818.00
2016-09-19 18:34:42,7,818.00
2016-09-19 18:34:42,7,817.00
2016-09-19 18:34:43,7,818.00
2016-09-19 18:34:43,7,818.00
2016-09-19 18:34:44,7,817.00
2016-09-19 18:34:44,7,817.00
2016-09-19 18:34:45,7,818.00
2016-09-19 18:34:45,7,818.00
2016-09-19 18:34:46,7,817.00
2016-09-19 18:34:46,7,818.00
2016-09-19 18:34:47,7,818.00
2016-09-19 18:34:47,7,817.00
2016-09-19 18:34:48,7,818.00
2016-09-19 18:34:48,7,818.00
2016-09-19 18:34:49,7,817.00
2016-09-19 18:34:49,7,817.00
2016-09-19 18:34:50,7,818.00
2016-09-19 18:34:50,7,817.00
2016-09-19 18:34:51,7,817.00
2016-09-19 18:34:51,7,818.00
2016-09-19 18:34:52,7,818.00
2016-09-19 18:34:52,7,817.00
2016-09-19 18:34:53,7,818.00
2016-09-19 18:34:53,7,818.00
2016-09-19 18:34:54,7,817.00
2016-09-19 18:34:54,7,818.00
2016-09-19 18:34:59,8,815.00
2016-09-19 18:35:00,8,817.00
2016-09-19 18:35:00,8,817.00
2016-09-19 18:35:01,8,817.00
2016-09-19 18:35:01,8,816.00
2016-09-19 18:35:02,8,816.00
2016-09-19 18:35:02,8,817.00
2016-09-19 18:35:03,8,817.00
2016-09-19 18:35:03,8,817.00
2016-09-19 18:35:04,8,817.00
2016-09-19 18:35:04,8,817.00
2016-09-19 18:35:05,8,817.00
2016-09-19 18:35:05,8,817.00
2016-09-19 18:35:06,8,816.00
2016-09-19 18:35:06,8,817.00
2016-09-19 18:35:07,8,817.00
2016-09-19 18:35:07,8,817.00
2016-09-19 18:35:08,8,817.00
2016-09-19 18:35:08,8,817.00
2016-09-19 18:35:09,8,817.00
2016-09-19 18:35:09,8,816.00
2016-09-19 18:35:10,8,817.00
2016-09-19 18:35:10,8,817.00
2016-09-19 18:35:11,8,816.00
2016-09-19 18:35:11,8,816.00
2016-09-19 18:35:12,8,816.00
2016-09-19 18:35:12,8,816.00
2016-09-19 18:35:13,8,816.00
2016-09-19 18:35:13,8,817.00
2016-09-19 18:35:14,8,817.00
2016-09-19 18:35:14,8,816.00
2016-09-19 18:35:15,8,817.00
2016-09-19 18:35:15,8,817.00
2016-09-19 18:35:16,8,816.00
2016-09-19 18:35:16,8,816.00
2016-09-19 18:35:17,8,816.00
2016-09-19 18:35:17,8,816.00
2016-09-19 18:35:18,8,816.00
2016-09-19 18:35:18,8,817.00
2016-09-19 18:35:19,8,816.00
2016-09-19 18:35:19,8,816.00
2016-09-19 18:35:20,8,817.00
2016-09-19 18:35:20,8,817.00
2016-09-19 18:35:21,8,817.00
2016-09-19 18:35:21,8,817.00
2016-09-19 18:35:22,8,816.00
2016-09-19 18:35:22,8,817.00
2016-09-19 18:35:23,8,816.00
2016-09-19 18:35:23,8,817.00
2016-09-19 18:35:24,8,817.00
2016-09-19 18:35:24,8,817.00
2016-09-19 18:35:25,8,817.00
2016-09-19 18:35:25,8,817.00
2016-09-19 18:35:26,8,817.00
2016-09-19 18:35:26,8,817.00
2016-09-19 18:35:27,8,817.00
2016-09-19 18:35:27,8,817.00
2016-09-19 18:35:28,8,817.00
2016-09-19 18:35:28,8,817.00
2016-09-19 18:35:29,8,817.00
2016-09-19 18:35:29,8,817.00
2016-09-19 18:35:30,8,817.00
2016-09-19 18:35:30,8,816.00
2016-09-19 18:35:31,8,817.00
2016-09-19 18:35:31,8,817.00
2016-09-19 18:35:32,8,817.00
2016-09-19 18:35:32,8,816.00
2016-09-19 18:35:33,8,817.00
2016-09-19 18:35:33,8,817.00
2016-09-19 18:35:34,8,816.00
2016-09-19 18:35:34,8,816.00
2016-09-19 18:35:35,8,817.00
2016-09-19 18:35:35,8,816.00
2016-09-19 18:35:36,8,816.00
2016-09-19 18:35:36,8,817.00
2016-09-19 18:35:37,8,817.00
2016-09-19 18:35:37,8,816.00
2016-09-19 18:35:38,8,816.00
2016-09-19 18:35:38,8,817.00
2016-09-19 18:35:39,8,816.00
2016-09-19 18:35:39,8,816.00
2016-09-19 18:35:40,8,816.00
2016-09-19 18:35:40,8,816.00
2016-09-19 18:35:41,8,816.00
2016-09-19 18:35:41,8,817.00
2016-09-19 18:35:42,8,816.00
2016-09-19 18:35:42,8,816.00
2016-09-19 18:35:43,8,816.00
2016-09-19 18:35:43,8,817.00
2016-09-19 18:35:44,8,816.00
2016-09-19 18:35:44,8,816.00
2016-09-19 18:35:45,8,817.00
2016-09-19 18:35:45,8,816.00
2016-09-19 18:35:46,8,816.00
2016-09-19 18:35:46,8,817.00
2016-09-19 18:35:47,8,817.00
2016-09-19 18:35:47,8,816.00
2016-09-19 18:35:48,8,817.00
2016-09-19 18:35:48,8,817.00
2016-09-19 18:35:49,8,817.00
2016-09-19 18:35:54,9,818.00
2016-09-19 18:35:55,9,817.00
2016-09-19 18:35:55,9,818.00
2016-09-19 18:35:56,9,818.00
2016-09-19 18:35:56,9,817.00
2016-09-19 18:35:57,9,818.00
2016-09-19 18:35:57,9,818.00
2016-09-19 18:35:58,9,818.00
2016-09-19 18:35:58,9,817.00
2016-09-19 18:35:59,9,818.00
2016-09-19 18:35:59,9,818.00
2016-09-19 18:36:00,9,818.00
2016-09-19 18:36:00,9,818.00
2016-09-19 18:36:01,9,818.00
2016-09-19 18:36:01,9,817.00
2016-09-19 18:36:02,9,818.00
2016-09-19 18:36:02,9,818.00
2016-09-19 18:36:03,9,817.00
2016-09-19 18:36:03,9,818.00
2016-09-19 18:36:04,9,818.00
2016-09-19 18:36:04,9,817.00
2016-09-19 18:36:05,9,817.00
2016-09-19 18:36:05,9,818.00
2016-09-19 18:36:06,9,818.00
2016-09-19 18:36:06,9,817.00
2016-09-19 18:36:07,9,818.00
2016-09-19 18:36:07,9,818.00
2016-09-19 18:36:08,9,817.00
2016-09-19 18:36:08,9,818.00
2016-09-19 18:36:09,9,818.00
2016-09-19 18:36:09,9,817.00
2016-09-19 18:36:10,9,818.00
2016-09-19 18:36:10,9,818.00
2016-09-19 18:36:11,9,817.00
2016-09-19 18:36:11,9,817.00
2016-09-19 18:36:12,9,818.00
2016-09-19 18:36:12,9,818.00
2016-09-19 18:36:13,9,817.00
2016-09-19 18:36:13,9,818.00
2016-09-19 18:36:14,9,818.00
2016-09-19 18:36:14,9,817.00
2016-09-19 18:36:15,9,818.00
2016-09-19 18:36:15,9,818.00
2016-09-19 18:36:16,9,817.00
2016-09-19 18:36:16,9,818.00
2016-09-19 18:36:17,9,818.00
2016-09-19 18:36:17,9,818.00
2016-09-19 18:36:18,9,817.00
2016-09-19 18:36:18,9,818.00
2016-09-19 18:36:19,9,817.00
2016-09-19 18:36:19,9,817.00
2016-09-19 18:36:20,9,818.00
2016-09-19 18:36:20,9,817.00
2016-09-19 18:36:21,9,817.00
2016-09-19 18:36:21,9,818.00
2016-09-19 18:36:22,9,818.00
2016-09-19 18:36:22,9,817.00
2016-09-19 18:36:23,9,817.00
2016-09-19 18:36:23,9,817.00
2016-09-19 18:36:24,9,817.00
2016-09-19 18:36:24,9,817.00
2016-09-19 18:36:25,9,817.00
2016-09-19 18:36:25,9,817.00
2016-09-19 18:36:26,9,817.00
2016-09-19 18:36:26,9,817.00
2016-09-19 18:36:27,9,817.00
2016-09-19 18:36:27,9,817.00
2016-09-19 18:36:28,9,817.00
2016-09-19 18:36:28,9,817.00
2016-09-19 18:36:29,9,817.00
2016-09-19 18:36:29,9,817.00
2016-09-19 18:36:30,9,817.00
2016-09-19 18:36:30,9,817.00
2016-09-19 18:36:31,9,816.00
2016-09-19 18:36:31,9,817.00
2016-09-19 18:36:32,9,817.00
2016-09-19 18:36:32,9,816.00
2016-09-19 18:36:33,9,816.00
2016-09-19 18:36:33,9,817.00
2016-09-19 18:36:34,9,816.00
2016-09-19 18:36:34,9,816.00
2016-09-19 18:36:35,9,817.00
2016-09-19 18:36:35,9,816.00
2016-09-19 18:36:36,9,816.00
2016-09-19 18:36:36,9,816.00
2016-09-19 18:36:37,9,817.00
2016-09-19 18:36:37,9,816.00
2016-09-19 18:36:38,9,817.00
2016-09-19 18:36:38,9,817.00
2016-09-19 18:36:39,9,816.00
2016-09-19 18:36:39,9,816.00
2016-09-19 18:36:40,9,817.00
2016-09-19 18:36:40,9,816.00
2016-09-19 18:36:41,9,816.00
2016-09-19 18:36:41,9,816.00
2016-09-19 18:36:42,9,816.00
2016-09-19 18:36:42,9,816.00
2016-09-19 18:36:43,9,816.00
2016-09-19 18:36:43,9,817.00
2016-09-19 18:36:44,9,816.00
2016-09-19 18:36:49,10,818.00
2016-09-19 18:36:49,10,821.00
2016-09-19 18:36:50,10,821.00
2016-09-19 18:36:50,10,820.00
2016-09-19 18:36:51,10,818.00
2016-09-19 18:36:51,10,818.00
2016-09-19 18:36:52,10,818.00
2016-09-19 18:36:52,10,818.00
2016-09-19 18:36:53,10,818.00
2016-09-19 18:36:53,10,818.00
2016-09-19 18:36:54,10,818.00
2016-09-19 18:36:54,10,818.00
2016-09-19 18:36:55,10,817.00
2016-09-19 18:36:55,10,819.00
2016-09-19 18:36:56,10,818.00
2016-09-19 18:36:56,10,818.00
2016-09-19 18:36:57,10,821.00
2016-09-19 18:36:57,10,818.00
2016-09-19 18:36:58,10,818.00
2016-09-19 18:36:58,10,818.00
2016-09-19 18:36:59,10,819.00
2016-09-19 18:36:59,10,818.00
2016-09-19 18:37:00,10,817.00
2016-09-19 18:37:00,10,818.00
2016-09-19 18:37:01,10,817.00
2016-09-19 18:37:01,10,818.00
2016-09-19 18:37:02,10,818.00
2016-09-19 18:37:02,10,818.00
2016-09-19 18:37:03,10,818.00
2016-09-19 18:37:03,10,818.00
2016-09-19 18:37:04,10,818.00
2016-09-19 18:37:04,10,818.00
2016-09-19 18:37:05,10,818.00
2016-09-19 18:37:05,10,820.00
2016-09-19 18:37:06,10,818.00
2016-09-19 18:37:06,10,818.00
2016-09-19 18:37:07,10,819.00
2016-09-19 18:37:07,10,818.00
2016-09-19 18:37:08,10,818.00
2016-09-19 18:37:08,10,819.00
2016-09-19 18:37:09,10,819.00
2016-09-19 18:37:09,10,818.00
2016-09-19 18:37:10,10,818.00
2016-09-19 18:37:10,10,819.00
2016-09-19 18:37:11,10,818.00
2016-09-19 18:37:11,10,819.00
2016-09-19 18:37:12,10,819.00
2016-09-19 18:37:12,10,819.00
2016-09-19 18:37:13,10,819.00
2016-09-19 18:37:13,10,819.00
2016-09-19 18:37:14,10,819.00
2016-09-19 18:37:14,10,818.00
2016-09-19 18:37:15,10,819.00
2016-09-19 18:37:15,10,819.00
2016-09-19 18:37:16,10,818.00
2016-09-19 18:37:16,10,819.00
2016-09-19 18:37:17,10,819.00
2016-09-19 18:37:17,10,818.00
2016-09-19 18:37:18,10,818.00
2016-09-19 18:37:18,10,819.00
2016-09-19 18:37:19,10,818.00
2016-09-19 18:37:19,10,817.00
2016-09-19 18:37:20,10,817.00
2016-09-19 18:37:20,10,818.00
2016-09-19 18:37:21,10,817.00
2016-09-19 18:37:21,10,816.00
2016-09-19 18:37:22,10,817.00
2016-09-19 18:37:22,10,816.00
2016-09-19 18:37:23,10,816.00
2016-09-19 18:37:23,10,817.00
2016-09-19 18:37:24,10,818.00
2016-09-19 18:37:24,10,817.00
2016-09-19 18:37:25,10,818.00
2016-09-19 18:37:25,10,836.00
2016-09-19 18:37:26,10,815.00
2016-09-19 18:37:26,10,815.00
2016-09-19 18:37:27,10,815.00
2016-09-19 18:37:27,10,816.00
2016-09-19 18:37:28,10,816.00
2016-09-19 18:37:28,10,816.00
